{
  "version": "1.1.1",
  "windows": {
    "main": {
      "main": true,
      "url": "app://editor/index.html",
      "windowType": "dockable",
      "x": 1912,
      "y": -8,
      "width": 1936,
      "height": 1056,
      "layout": {
        "children": [
          {
            "children": [
              {
                "active": 0,
                "children": [
                  "hierarchy"
                ],
                "height": 492,
                "type": "panel",
                "width": 422
              },
              {
                "active": 0,
                "children": [
                  "assets"
                ],
                "height": 443,
                "type": "panel",
                "width": 422
              }
            ],
            "height": 938,
            "type": "dock-v",
            "width": 422
          },
          {
            "children": [
              {
                "children": [
                  {
                    "active": 0,
                    "children": [
                      "scene"
                    ],
                    "height": 582,
                    "type": "panel",
                    "width": 650
                  },
                  {
                    "active": 0,
                    "children": [
                      "node-library"
                    ],
                    "height": 582,
                    "type": "panel",
                    "width": 266
                  }
                ],
                "height": 582,
                "type": "dock-h",
                "width": 919
              },
              {
                "active": 2,
                "children": [
                  "console",
                  "timeline",
                  "game-window"
                ],
                "height": 353,
                "type": "panel",
                "width": 919
              }
            ],
            "height": 938,
            "type": "dock-v",
            "width": 919
          },
          {
            "active": 0,
            "children": [
              "inspector",
              "cocos-services"
            ],
            "height": 938,
            "type": "panel",
            "width": 573
          }
        ],
        "type": "dock-h"
      },
      "panels": [
        "hierarchy",
        "assets",
        "scene",
        "node-library",
        "console",
        "timeline",
        "game-window",
        "inspector",
        "cocos-services"
      ]
    }
  },
  "panels": {
    "project-settings": {
      "x": 2223,
      "y": 134,
      "width": 612,
      "height": 728
    },
    "builder": {
      "x": 2528,
      "y": 117,
      "width": 560,
      "height": 744
    },
    "sprite-editor": {
      "x": 702,
      "y": 240,
      "width": 516,
      "height": 539
    }
  },
  "panelLabelWidth": {
    "inspector": null,
    "builder": null
  },
  "panelLabelWidth.inspector": null,
  "panelLabelWidth.builder": null
}
