{
    "asset": {
        "generator": "FBX2glTF v0.9.7",
        "version": "2.0"
    },
    "scene": 0,
    "buffers": [
        {
            "byteLength": 134296,
            "uri": "buffer.bin"
        }
    ],
    "bufferViews": [
        {
            "buffer": 0,
            "byteLength": 120,
            "byteOffset": 0
        },
        {
            "buffer": 0,
            "byteLength": 360,
            "byteOffset": 120
        },
        {
            "buffer": 0,
            "byteLength": 480,
            "byteOffset": 480
        },
        {
            "buffer": 0,
            "byteLength": 480,
            "byteOffset": 960
        },
        {
            "buffer": 0,
            "byteLength": 480,
            "byteOffset": 1440
        },
        {
            "buffer": 0,
            "byteLength": 480,
            "byteOffset": 1920
        },
        {
            "buffer": 0,
            "byteLength": 480,
            "byteOffset": 2400
        },
        {
            "buffer": 0,
            "byteLength": 480,
            "byteOffset": 2880
        },
        {
            "buffer": 0,
            "byteLength": 480,
            "byteOffset": 3360
        },
        {
            "buffer": 0,
            "byteLength": 480,
            "byteOffset": 3840
        },
        {
            "buffer": 0,
            "byteLength": 480,
            "byteOffset": 4320
        },
        {
            "buffer": 0,
            "byteLength": 11928,
            "byteOffset": 4800,
            "target": 34963
        },
        {
            "buffer": 0,
            "byteLength": 21816,
            "byteOffset": 16728,
            "target": 34962
        },
        {
            "buffer": 0,
            "byteLength": 21816,
            "byteOffset": 38544,
            "target": 34962
        },
        {
            "buffer": 0,
            "byteLength": 14544,
            "byteOffset": 60360,
            "target": 34962
        },
        {
            "buffer": 0,
            "byteLength": 14544,
            "byteOffset": 74904,
            "target": 34962
        },
        {
            "buffer": 0,
            "byteLength": 14544,
            "byteOffset": 89448,
            "target": 34962
        },
        {
            "buffer": 0,
            "byteLength": 29088,
            "byteOffset": 103992,
            "target": 34962
        },
        {
            "buffer": 0,
            "byteLength": 1216,
            "byteOffset": 133080
        }
    ],
    "scenes": [
        {
            "name": "Root Scene",
            "nodes": [
                0
            ]
        }
    ],
    "accessors": [
        {
            "componentType": 5126,
            "type": "SCALAR",
            "count": 30,
            "bufferView": 0,
            "byteOffset": 0,
            "min": [
                0.0
            ],
            "max": [
                1.20833337306976
            ]
        },
        {
            "componentType": 5126,
            "type": "VEC3",
            "count": 30,
            "bufferView": 1,
            "byteOffset": 0
        },
        {
            "componentType": 5126,
            "type": "VEC4",
            "count": 30,
            "bufferView": 2,
            "byteOffset": 0
        },
        {
            "componentType": 5126,
            "type": "VEC4",
            "count": 30,
            "bufferView": 3,
            "byteOffset": 0
        },
        {
            "componentType": 5126,
            "type": "VEC4",
            "count": 30,
            "bufferView": 4,
            "byteOffset": 0
        },
        {
            "componentType": 5126,
            "type": "VEC4",
            "count": 30,
            "bufferView": 5,
            "byteOffset": 0
        },
        {
            "componentType": 5126,
            "type": "VEC4",
            "count": 30,
            "bufferView": 6,
            "byteOffset": 0
        },
        {
            "componentType": 5126,
            "type": "VEC4",
            "count": 30,
            "bufferView": 7,
            "byteOffset": 0
        },
        {
            "componentType": 5126,
            "type": "VEC4",
            "count": 30,
            "bufferView": 8,
            "byteOffset": 0
        },
        {
            "componentType": 5126,
            "type": "VEC4",
            "count": 30,
            "bufferView": 9,
            "byteOffset": 0
        },
        {
            "componentType": 5126,
            "type": "VEC4",
            "count": 30,
            "bufferView": 10,
            "byteOffset": 0
        },
        {
            "componentType": 5123,
            "type": "SCALAR",
            "count": 5964,
            "bufferView": 11,
            "byteOffset": 0
        },
        {
            "componentType": 5126,
            "type": "VEC3",
            "count": 1818,
            "bufferView": 12,
            "byteOffset": 0,
            "min": [
                -0.0408465415239334,
                9.62369085755199e-06,
                -0.0144365709275007
            ],
            "max": [
                0.0408465415239334,
                0.0793404877185822,
                0.00794503092765808
            ]
        },
        {
            "componentType": 5126,
            "type": "VEC3",
            "count": 1818,
            "bufferView": 13,
            "byteOffset": 0
        },
        {
            "componentType": 5126,
            "type": "VEC2",
            "count": 1818,
            "bufferView": 14,
            "byteOffset": 0
        },
        {
            "componentType": 5126,
            "type": "VEC2",
            "count": 1818,
            "bufferView": 15,
            "byteOffset": 0
        },
        {
            "componentType": 5123,
            "type": "VEC4",
            "count": 1818,
            "bufferView": 16,
            "byteOffset": 0
        },
        {
            "componentType": 5126,
            "type": "VEC4",
            "count": 1818,
            "bufferView": 17,
            "byteOffset": 0
        },
        {
            "componentType": 5126,
            "type": "MAT4",
            "count": 19,
            "bufferView": 18,
            "byteOffset": 0
        }
    ],
    "samplers": [
        {}
    ],
    "materials": [
        {
            "name": "lambert29",
            "alphaMode": "OPAQUE",
            "extras": {
                "fromFBX": {
                    "shadingModel": "Phong",
                    "isTruePBR": false
                }
            },
            "pbrMetallicRoughness": {
                "baseColorFactor": [
                    0.0,
                    0.276919931173325,
                    0.800000011920929,
                    1.0
                ],
                "metallicFactor": 0.400000005960464,
                "roughnessFactor": 0.70710676908493
            }
        }
    ],
    "meshes": [
        {
            "name": "stickman_new",
            "primitives": [
                {
                    "material": 0,
                    "mode": 4,
                    "attributes": {
                        "JOINTS_0": 16,
                        "NORMAL": 13,
                        "POSITION": 12,
                        "TEXCOORD_0": 14,
                        "TEXCOORD_1": 15,
                        "WEIGHTS_0": 17
                    },
                    "indices": 11
                }
            ]
        }
    ],
    "skins": [
        {
            "joints": [
                10,
                11,
                12,
                13,
                20,
                2,
                3,
                9,
                4,
                5,
                6,
                7,
                16,
                14,
                15,
                17,
                8,
                18,
                19
            ],
            "inverseBindMatrices": 18,
            "skeleton": 2
        }
    ],
    "animations": [
        {
            "name": "Idle",
            "channels": [
                {
                    "sampler": 0,
                    "target": {
                        "node": 1,
                        "path": "translation"
                    }
                },
                {
                    "sampler": 1,
                    "target": {
                        "node": 1,
                        "path": "rotation"
                    }
                },
                {
                    "sampler": 2,
                    "target": {
                        "node": 3,
                        "path": "rotation"
                    }
                },
                {
                    "sampler": 3,
                    "target": {
                        "node": 4,
                        "path": "rotation"
                    }
                },
                {
                    "sampler": 4,
                    "target": {
                        "node": 6,
                        "path": "rotation"
                    }
                },
                {
                    "sampler": 5,
                    "target": {
                        "node": 7,
                        "path": "rotation"
                    }
                },
                {
                    "sampler": 6,
                    "target": {
                        "node": 9,
                        "path": "rotation"
                    }
                },
                {
                    "sampler": 7,
                    "target": {
                        "node": 10,
                        "path": "rotation"
                    }
                },
                {
                    "sampler": 8,
                    "target": {
                        "node": 11,
                        "path": "rotation"
                    }
                },
                {
                    "sampler": 9,
                    "target": {
                        "node": 20,
                        "path": "rotation"
                    }
                }
            ],
            "samplers": [
                {
                    "input": 0,
                    "interpolation": "LINEAR",
                    "output": 1
                },
                {
                    "input": 0,
                    "interpolation": "LINEAR",
                    "output": 2
                },
                {
                    "input": 0,
                    "interpolation": "LINEAR",
                    "output": 3
                },
                {
                    "input": 0,
                    "interpolation": "LINEAR",
                    "output": 4
                },
                {
                    "input": 0,
                    "interpolation": "LINEAR",
                    "output": 5
                },
                {
                    "input": 0,
                    "interpolation": "LINEAR",
                    "output": 6
                },
                {
                    "input": 0,
                    "interpolation": "LINEAR",
                    "output": 7
                },
                {
                    "input": 0,
                    "interpolation": "LINEAR",
                    "output": 8
                },
                {
                    "input": 0,
                    "interpolation": "LINEAR",
                    "output": 9
                },
                {
                    "input": 0,
                    "interpolation": "LINEAR",
                    "output": 10
                }
            ]
        }
    ],
    "nodes": [
        {
            "name": "RootNode",
            "translation": [
                0.0,
                0.0,
                0.0
            ],
            "rotation": [
                0.0,
                0.0,
                0.0,
                1.0
            ],
            "scale": [
                1.0,
                1.0,
                1.0
            ],
            "children": [
                1,
                22
            ]
        },
        {
            "name": "Character1_Reference",
            "translation": [
                9.3603077402804e-05,
                0.0,
                0.0
            ],
            "rotation": [
                0.0439902283251286,
                -0.132519111037254,
                -0.00817817635834217,
                0.990170001983643
            ],
            "scale": [
                1.00000059604645,
                1.00000059604645,
                1.00000059604645
            ],
            "children": [
                2
            ]
        },
        {
            "name": "Character1_Hips",
            "translation": [
                6.93889374881086e-20,
                0.026893237605691,
                4.47034825823422e-10
            ],
            "rotation": [
                0.0,
                -0.0,
                -5.20417042793042e-18,
                1.0
            ],
            "scale": [
                1.0,
                1.0,
                1.0
            ],
            "children": [
                3,
                6,
                9
            ]
        },
        {
            "name": "Character1_LeftUpLeg",
            "translation": [
                0.00673886528238654,
                -0.00273666135035455,
                2.98023217215615e-10
            ],
            "rotation": [
                -0.267058700323105,
                0.00449999701231718,
                -0.104036338627338,
                0.958037495613098
            ],
            "scale": [
                1.0,
                1.0,
                1.0
            ],
            "children": [
                4
            ]
        },
        {
            "name": "Character1_LeftLeg",
            "translation": [
                0.00371353258378804,
                -0.0108860731124878,
                2.38418573772492e-09
            ],
            "rotation": [
                0.238018125295639,
                0.123580560088158,
                0.0239331424236298,
                0.963069260120392
            ],
            "scale": [
                1.0,
                1.0,
                1.0
            ],
            "children": [
                5
            ]
        },
        {
            "name": "Character1_LeftFoot",
            "translation": [
                0.00239629531279206,
                -0.00896722637116909,
                -5.9604643443123e-10
            ],
            "rotation": [
                6.93889390390723e-18,
                -1.50463276905253e-36,
                -2.16840434497101e-19,
                1.0
            ],
            "scale": [
                1.0,
                1.0,
                1.0
            ]
        },
        {
            "name": "Character1_RightUpLeg",
            "translation": [
                -0.00673886481672525,
                -0.00273666135035455,
                -1.49011608607807e-10
            ],
            "rotation": [
                -0.149400681257248,
                -0.0835222899913788,
                0.0951797515153885,
                0.98063462972641
            ],
            "scale": [
                1.0,
                1.0,
                1.0
            ],
            "children": [
                7
            ]
        },
        {
            "name": "Character1_RightLeg",
            "translation": [
                -0.00371353141963482,
                -0.0108860703185201,
                -5.9604643443123e-10
            ],
            "rotation": [
                0.252247750759125,
                -0.156264647841454,
                -0.00343299773521721,
                0.954955816268921
            ],
            "scale": [
                1.0,
                1.0,
                1.0
            ],
            "children": [
                8
            ]
        },
        {
            "name": "Character1_RightFoot",
            "translation": [
                -0.00239629554562271,
                -0.00896722637116909,
                5.9604643443123e-10
            ],
            "rotation": [
                -2.77555756156289e-17,
                -2.77555756156289e-17,
                2.77555756156289e-17,
                1.0
            ],
            "scale": [
                1.0,
                1.0,
                1.0
            ]
        },
        {
            "name": "Character1_Spine",
            "translation": [
                7.45058043039037e-11,
                0.0107677699998021,
                -1.49011608607807e-10
            ],
            "rotation": [
                0.200543120503426,
                0.0355216935276985,
                0.00945163983851671,
                0.978995084762573
            ],
            "scale": [
                1.0,
                1.0,
                1.0
            ],
            "children": [
                10
            ]
        },
        {
            "name": "Character1_Spine1",
            "translation": [
                -2.77555749952435e-19,
                0.00623114826157689,
                -1.19209286886246e-09
            ],
            "rotation": [
                0.0322119295597076,
                0.0104866698384285,
                -0.00697269570082426,
                0.999401748180389
            ],
            "scale": [
                1.0,
                1.0,
                1.0
            ],
            "children": [
                11
            ]
        },
        {
            "name": "Character1_Spine2",
            "translation": [
                1.49011608607807e-10,
                0.00623113382607698,
                -2.38418573772492e-09
            ],
            "rotation": [
                0.032146904617548,
                0.0111430510878563,
                -0.00696467002853751,
                0.999396741390228
            ],
            "scale": [
                1.0,
                1.0,
                1.0
            ],
            "children": [
                12,
                16,
                20
            ]
        },
        {
            "name": "Character1_LeftShoulder",
            "translation": [
                0.00468312716111541,
                0.00250114919617772,
                -2.38418573772492e-09
            ],
            "rotation": [
                0.0493349134922028,
                -0.186922550201416,
                0.0812109559774399,
                0.977768301963806
            ],
            "scale": [
                1.0,
                1.0,
                1.0
            ],
            "children": [
                13
            ]
        },
        {
            "name": "Character1_LeftArm",
            "translation": [
                0.00425448874011636,
                -0.00114993087481707,
                2.38418573772492e-09
            ],
            "rotation": [
                0.0425206497311592,
                0.334214597940445,
                -0.639302134513855,
                0.691220164299011
            ],
            "scale": [
                1.0,
                1.0,
                1.0
            ],
            "children": [
                14
            ]
        },
        {
            "name": "Character1_LeftForeArm",
            "translation": [
                0.0114695141091943,
                3.0579565645894e-05,
                2.38418573772492e-09
            ],
            "rotation": [
                0.0452388860285282,
                -0.613143384456635,
                -0.204692915081978,
                0.761649191379547
            ],
            "scale": [
                1.0,
                1.0,
                1.0
            ],
            "children": [
                15
            ]
        },
        {
            "name": "Character1_LeftHand",
            "translation": [
                0.0127815268933773,
                -1.32638215291081e-05,
                -5.9604643443123e-10
            ],
            "rotation": [
                1.38777406585195e-17,
                -3.615323083486e-20,
                -0.00260511483065784,
                0.999996602535248
            ],
            "scale": [
                1.0,
                1.0,
                1.0
            ]
        },
        {
            "name": "Character1_RightShoulder",
            "translation": [
                -0.00468312669545412,
                0.00250115385279059,
                -2.38418573772492e-09
            ],
            "rotation": [
                0.300842881202698,
                0.327061057090759,
                -0.344913870096207,
                0.826776266098022
            ],
            "scale": [
                1.0,
                1.0,
                1.0
            ],
            "children": [
                17
            ]
        },
        {
            "name": "Character1_RightArm",
            "translation": [
                -0.00425448641180992,
                -0.00114993087481707,
                -9.53674295089968e-09
            ],
            "rotation": [
                0.383528769016266,
                0.581127107143402,
                -0.447631418704987,
                0.56109094619751
            ],
            "scale": [
                1.0,
                1.0,
                1.0
            ],
            "children": [
                18
            ]
        },
        {
            "name": "Character1_RightForeArm",
            "translation": [
                -0.0114695113152266,
                3.08990456687752e-05,
                2.38418573772492e-09
            ],
            "rotation": [
                0.451194912195206,
                -0.219412490725517,
                -0.236779227852821,
                0.831995725631714
            ],
            "scale": [
                1.0,
                1.0,
                1.0
            ],
            "children": [
                19
            ]
        },
        {
            "name": "Character1_RightHand",
            "translation": [
                -0.0127815026789904,
                -2.31540198001312e-05,
                2.38418573772492e-09
            ],
            "rotation": [
                0.220010176301003,
                -0.151450753211975,
                0.188183590769768,
                0.945116460323334
            ],
            "scale": [
                1.0,
                1.0,
                1.0
            ]
        },
        {
            "name": "Character1_Neck",
            "translation": [
                -2.23517412911711e-10,
                0.00523114204406738,
                -4.76837147544984e-09
            ],
            "rotation": [
                -0.111184671521187,
                0.0119510050863028,
                0.0185622293502092,
                0.993554532527924
            ],
            "scale": [
                1.0,
                1.0,
                1.0
            ],
            "children": [
                21
            ]
        },
        {
            "name": "Character1_Head",
            "translation": [
                -2.98023217215615e-10,
                0.0235770884901285,
                3.57627860658738e-09
            ],
            "rotation": [
                2.77555756156289e-17,
                -1.38777878078145e-17,
                -6.93889390390723e-18,
                1.0
            ],
            "scale": [
                1.0,
                1.0,
                1.0
            ]
        },
        {
            "name": "stickman_new",
            "translation": [
                0.0,
                1.6543611881282e-26,
                0.00296637881547213
            ],
            "rotation": [
                0.0,
                0.0,
                0.0,
                1.0
            ],
            "scale": [
                1.00000059604645,
                1.00000059604645,
                1.00000059604645
            ],
            "mesh": 0,
            "skin": 0
        }
    ]
}