{
    "asset": {
        "generator": "FBX2glTF v0.9.7",
        "version": "2.0"
    },
    "scene": 0,
    "buffers": [
        {
            "byteLength": 131576,
            "uri": "buffer.bin"
        }
    ],
    "bufferViews": [
        {
            "buffer": 0,
            "byteLength": 52,
            "byteOffset": 0
        },
        {
            "buffer": 0,
            "byteLength": 156,
            "byteOffset": 52
        },
        {
            "buffer": 0,
            "byteLength": 208,
            "byteOffset": 208
        },
        {
            "buffer": 0,
            "byteLength": 208,
            "byteOffset": 416
        },
        {
            "buffer": 0,
            "byteLength": 208,
            "byteOffset": 624
        },
        {
            "buffer": 0,
            "byteLength": 208,
            "byteOffset": 832
        },
        {
            "buffer": 0,
            "byteLength": 208,
            "byteOffset": 1040
        },
        {
            "buffer": 0,
            "byteLength": 208,
            "byteOffset": 1248
        },
        {
            "buffer": 0,
            "byteLength": 208,
            "byteOffset": 1456
        },
        {
            "buffer": 0,
            "byteLength": 208,
            "byteOffset": 1664
        },
        {
            "buffer": 0,
            "byteLength": 208,
            "byteOffset": 1872
        },
        {
            "buffer": 0,
            "byteLength": 11928,
            "byteOffset": 2080,
            "target": 34963
        },
        {
            "buffer": 0,
            "byteLength": 21816,
            "byteOffset": 14008,
            "target": 34962
        },
        {
            "buffer": 0,
            "byteLength": 21816,
            "byteOffset": 35824,
            "target": 34962
        },
        {
            "buffer": 0,
            "byteLength": 14544,
            "byteOffset": 57640,
            "target": 34962
        },
        {
            "buffer": 0,
            "byteLength": 14544,
            "byteOffset": 72184,
            "target": 34962
        },
        {
            "buffer": 0,
            "byteLength": 14544,
            "byteOffset": 86728,
            "target": 34962
        },
        {
            "buffer": 0,
            "byteLength": 29088,
            "byteOffset": 101272,
            "target": 34962
        },
        {
            "buffer": 0,
            "byteLength": 1216,
            "byteOffset": 130360
        }
    ],
    "scenes": [
        {
            "name": "Root Scene",
            "nodes": [
                0
            ]
        }
    ],
    "accessors": [
        {
            "componentType": 5126,
            "type": "SCALAR",
            "count": 13,
            "bufferView": 0,
            "byteOffset": 0,
            "min": [
                0.0
            ],
            "max": [
                0.5
            ]
        },
        {
            "componentType": 5126,
            "type": "VEC3",
            "count": 13,
            "bufferView": 1,
            "byteOffset": 0
        },
        {
            "componentType": 5126,
            "type": "VEC4",
            "count": 13,
            "bufferView": 2,
            "byteOffset": 0
        },
        {
            "componentType": 5126,
            "type": "VEC4",
            "count": 13,
            "bufferView": 3,
            "byteOffset": 0
        },
        {
            "componentType": 5126,
            "type": "VEC4",
            "count": 13,
            "bufferView": 4,
            "byteOffset": 0
        },
        {
            "componentType": 5126,
            "type": "VEC4",
            "count": 13,
            "bufferView": 5,
            "byteOffset": 0
        },
        {
            "componentType": 5126,
            "type": "VEC4",
            "count": 13,
            "bufferView": 6,
            "byteOffset": 0
        },
        {
            "componentType": 5126,
            "type": "VEC4",
            "count": 13,
            "bufferView": 7,
            "byteOffset": 0
        },
        {
            "componentType": 5126,
            "type": "VEC4",
            "count": 13,
            "bufferView": 8,
            "byteOffset": 0
        },
        {
            "componentType": 5126,
            "type": "VEC4",
            "count": 13,
            "bufferView": 9,
            "byteOffset": 0
        },
        {
            "componentType": 5126,
            "type": "VEC4",
            "count": 13,
            "bufferView": 10,
            "byteOffset": 0
        },
        {
            "componentType": 5123,
            "type": "SCALAR",
            "count": 5964,
            "bufferView": 11,
            "byteOffset": 0
        },
        {
            "componentType": 5126,
            "type": "VEC3",
            "count": 1818,
            "bufferView": 12,
            "byteOffset": 0,
            "min": [
                -0.0408465415239334,
                9.62369085755199e-06,
                -0.0144365709275007
            ],
            "max": [
                0.0408465415239334,
                0.0793404877185822,
                0.00794503092765808
            ]
        },
        {
            "componentType": 5126,
            "type": "VEC3",
            "count": 1818,
            "bufferView": 13,
            "byteOffset": 0
        },
        {
            "componentType": 5126,
            "type": "VEC2",
            "count": 1818,
            "bufferView": 14,
            "byteOffset": 0
        },
        {
            "componentType": 5126,
            "type": "VEC2",
            "count": 1818,
            "bufferView": 15,
            "byteOffset": 0
        },
        {
            "componentType": 5123,
            "type": "VEC4",
            "count": 1818,
            "bufferView": 16,
            "byteOffset": 0
        },
        {
            "componentType": 5126,
            "type": "VEC4",
            "count": 1818,
            "bufferView": 17,
            "byteOffset": 0
        },
        {
            "componentType": 5126,
            "type": "MAT4",
            "count": 19,
            "bufferView": 18,
            "byteOffset": 0
        }
    ],
    "samplers": [
        {}
    ],
    "materials": [
        {
            "name": "lambert41",
            "alphaMode": "OPAQUE",
            "extras": {
                "fromFBX": {
                    "shadingModel": "Phong",
                    "isTruePBR": false
                }
            },
            "pbrMetallicRoughness": {
                "baseColorFactor": [
                    0.0,
                    0.276919931173325,
                    0.800000011920929,
                    1.0
                ],
                "metallicFactor": 0.400000005960464,
                "roughnessFactor": 0.70710676908493
            }
        }
    ],
    "meshes": [
        {
            "name": "stickman_new",
            "primitives": [
                {
                    "material": 0,
                    "mode": 4,
                    "attributes": {
                        "JOINTS_0": 16,
                        "NORMAL": 13,
                        "POSITION": 12,
                        "TEXCOORD_0": 14,
                        "TEXCOORD_1": 15,
                        "WEIGHTS_0": 17
                    },
                    "indices": 11
                }
            ]
        }
    ],
    "skins": [
        {
            "joints": [
                10,
                11,
                12,
                13,
                20,
                2,
                3,
                9,
                4,
                5,
                6,
                7,
                16,
                14,
                15,
                17,
                8,
                18,
                19
            ],
            "inverseBindMatrices": 18,
            "skeleton": 2
        }
    ],
    "animations": [
        {
            "name": "Walk",
            "channels": [
                {
                    "sampler": 0,
                    "target": {
                        "node": 1,
                        "path": "translation"
                    }
                },
                {
                    "sampler": 1,
                    "target": {
                        "node": 1,
                        "path": "rotation"
                    }
                },
                {
                    "sampler": 2,
                    "target": {
                        "node": 3,
                        "path": "rotation"
                    }
                },
                {
                    "sampler": 3,
                    "target": {
                        "node": 4,
                        "path": "rotation"
                    }
                },
                {
                    "sampler": 4,
                    "target": {
                        "node": 6,
                        "path": "rotation"
                    }
                },
                {
                    "sampler": 5,
                    "target": {
                        "node": 7,
                        "path": "rotation"
                    }
                },
                {
                    "sampler": 6,
                    "target": {
                        "node": 9,
                        "path": "rotation"
                    }
                },
                {
                    "sampler": 7,
                    "target": {
                        "node": 10,
                        "path": "rotation"
                    }
                },
                {
                    "sampler": 8,
                    "target": {
                        "node": 11,
                        "path": "rotation"
                    }
                },
                {
                    "sampler": 9,
                    "target": {
                        "node": 20,
                        "path": "rotation"
                    }
                }
            ],
            "samplers": [
                {
                    "input": 0,
                    "interpolation": "LINEAR",
                    "output": 1
                },
                {
                    "input": 0,
                    "interpolation": "LINEAR",
                    "output": 2
                },
                {
                    "input": 0,
                    "interpolation": "LINEAR",
                    "output": 3
                },
                {
                    "input": 0,
                    "interpolation": "LINEAR",
                    "output": 4
                },
                {
                    "input": 0,
                    "interpolation": "LINEAR",
                    "output": 5
                },
                {
                    "input": 0,
                    "interpolation": "LINEAR",
                    "output": 6
                },
                {
                    "input": 0,
                    "interpolation": "LINEAR",
                    "output": 7
                },
                {
                    "input": 0,
                    "interpolation": "LINEAR",
                    "output": 8
                },
                {
                    "input": 0,
                    "interpolation": "LINEAR",
                    "output": 9
                },
                {
                    "input": 0,
                    "interpolation": "LINEAR",
                    "output": 10
                }
            ]
        }
    ],
    "nodes": [
        {
            "name": "RootNode",
            "translation": [
                0.0,
                0.0,
                0.0
            ],
            "rotation": [
                0.0,
                0.0,
                0.0,
                1.0
            ],
            "scale": [
                1.0,
                1.0,
                1.0
            ],
            "children": [
                1,
                22
            ]
        },
        {
            "name": "Character1_Reference",
            "translation": [
                -0.000281650689430535,
                -0.000332162366248667,
                2.83867107597757e-09
            ],
            "rotation": [
                0.0264218933880329,
                -0.22748701274395,
                0.013194746337831,
                0.973333179950714
            ],
            "scale": [
                1.00000059604645,
                1.00000059604645,
                1.00000059604645
            ],
            "children": [
                2
            ]
        },
        {
            "name": "Character1_Hips",
            "translation": [
                -2.60770322002557e-10,
                0.0268932338804007,
                -1.49011608607807e-10
            ],
            "rotation": [
                3.46944695195361e-18,
                -2.77555756156289e-17,
                9.62964972193618e-35,
                1.0
            ],
            "scale": [
                1.0,
                1.0,
                1.0
            ],
            "children": [
                3,
                6,
                9
            ]
        },
        {
            "name": "Character1_LeftUpLeg",
            "translation": [
                0.00673886621370912,
                -0.00273666135035455,
                -4.47034825823422e-10
            ],
            "rotation": [
                -0.334164261817932,
                0.0149517403915524,
                -0.0978924036026001,
                0.937298119068146
            ],
            "scale": [
                1.0,
                1.0,
                1.0
            ],
            "children": [
                4
            ]
        },
        {
            "name": "Character1_LeftLeg",
            "translation": [
                0.00371353281661868,
                -0.0108860684558749,
                1.19209286886246e-09
            ],
            "rotation": [
                0.606006324291229,
                0.270641356706619,
                0.0173776503652334,
                0.747801840305328
            ],
            "scale": [
                1.0,
                1.0,
                1.0
            ],
            "children": [
                5
            ]
        },
        {
            "name": "Character1_LeftFoot",
            "translation": [
                0.00239629484713078,
                -0.00896722543984652,
                -8.94069651646845e-10
            ],
            "rotation": [
                -1.20370621524202e-35,
                -3.46944695195361e-18,
                -3.46944695195361e-18,
                1.0
            ],
            "scale": [
                1.0,
                1.0,
                1.0
            ]
        },
        {
            "name": "Character1_RightUpLeg",
            "translation": [
                -0.00673886528238654,
                -0.00273666856810451,
                5.9604643443123e-10
            ],
            "rotation": [
                -0.282570004463196,
                0.00386167014949024,
                0.189268618822098,
                0.940381109714508
            ],
            "scale": [
                1.0,
                1.0,
                1.0
            ],
            "children": [
                7
            ]
        },
        {
            "name": "Character1_RightLeg",
            "translation": [
                -0.00371353211812675,
                -0.0108860731124878,
                -2.22044599961948e-18
            ],
            "rotation": [
                0.408042639493942,
                -0.202044233679771,
                0.00862331967800856,
                0.890283644199371
            ],
            "scale": [
                1.0,
                1.0,
                1.0
            ],
            "children": [
                8
            ]
        },
        {
            "name": "Character1_RightFoot",
            "translation": [
                -0.00239629461430013,
                -0.00896722450852394,
                1.49011608607807e-10
            ],
            "rotation": [
                7.97972798949331e-17,
                -8.32667268468867e-17,
                3.46944695195361e-17,
                1.0
            ],
            "scale": [
                1.0,
                1.0,
                1.0
            ]
        },
        {
            "name": "Character1_Spine",
            "translation": [
                1.11758706455856e-10,
                0.0107677718624473,
                -2.98023217215615e-10
            ],
            "rotation": [
                0.174155741930008,
                -0.0345494113862514,
                0.0341901034116745,
                0.98351776599884
            ],
            "scale": [
                1.0,
                1.0,
                1.0
            ],
            "children": [
                10
            ]
        },
        {
            "name": "Character1_Spine1",
            "translation": [
                -1.49011608607807e-10,
                0.00623113848268986,
                -2.22044599961948e-18
            ],
            "rotation": [
                0.0479957200586796,
                -0.0101419407874346,
                0.00041773691191338,
                0.998795986175537
            ],
            "scale": [
                1.0,
                1.0,
                1.0
            ],
            "children": [
                11
            ]
        },
        {
            "name": "Character1_Spine2",
            "translation": [
                -1.49011608607807e-10,
                0.00623113149777055,
                -2.22044599961948e-18
            ],
            "rotation": [
                0.00194798607844859,
                0.00503381201997399,
                0.0148842707276344,
                0.999874651432037
            ],
            "scale": [
                1.0,
                0.999998986721039,
                1.0
            ],
            "children": [
                12,
                16,
                20
            ]
        },
        {
            "name": "Character1_LeftShoulder",
            "translation": [
                0.00468312855809927,
                0.00250115874223411,
                -7.15255721317476e-09
            ],
            "rotation": [
                0.0494057014584541,
                -0.186940371990204,
                0.0811547115445137,
                0.97776597738266
            ],
            "scale": [
                0.999999940395355,
                0.999999940395355,
                0.999999940395355
            ],
            "children": [
                13
            ]
        },
        {
            "name": "Character1_LeftArm",
            "translation": [
                0.00425449013710022,
                -0.00114993087481707,
                0.0
            ],
            "rotation": [
                0.0425206497311592,
                0.334214597940445,
                -0.639302134513855,
                0.691220164299011
            ],
            "scale": [
                1.0,
                1.0,
                1.0
            ],
            "children": [
                14
            ]
        },
        {
            "name": "Character1_LeftForeArm",
            "translation": [
                0.0114695196971297,
                3.05771827697754e-05,
                1.19209282445354e-08
            ],
            "rotation": [
                0.0452388860285282,
                -0.613143384456635,
                -0.204692915081978,
                0.761649191379547
            ],
            "scale": [
                1.0,
                1.0,
                1.0
            ],
            "children": [
                15
            ]
        },
        {
            "name": "Character1_LeftHand",
            "translation": [
                0.0127815175801516,
                -1.32620334625244e-05,
                -1.19209286886246e-09
            ],
            "rotation": [
                5.55832681457827e-17,
                2.76108686392689e-17,
                -0.00260511483065784,
                0.999996602535248
            ],
            "scale": [
                1.0,
                1.0,
                1.0
            ]
        },
        {
            "name": "Character1_RightShoulder",
            "translation": [
                -0.0046831276267767,
                0.00250115385279059,
                -1.19209286886246e-09
            ],
            "rotation": [
                0.300842881202698,
                0.327061057090759,
                -0.344913870096207,
                0.826776266098022
            ],
            "scale": [
                0.999999940395355,
                0.999999940395355,
                0.999999940395355
            ],
            "children": [
                17
            ]
        },
        {
            "name": "Character1_RightArm",
            "translation": [
                -0.00425448641180992,
                -0.00114993331953883,
                -9.53674295089968e-09
            ],
            "rotation": [
                0.383528769016266,
                0.581127107143402,
                -0.447631418704987,
                0.56109094619751
            ],
            "scale": [
                1.0,
                1.0,
                1.0
            ],
            "children": [
                18
            ]
        },
        {
            "name": "Character1_RightForeArm",
            "translation": [
                -0.0114695066586137,
                3.09002389258239e-05,
                0.0
            ],
            "rotation": [
                0.451194912195206,
                -0.219412490725517,
                -0.236779227852821,
                0.831995725631714
            ],
            "scale": [
                1.0,
                1.0,
                1.0
            ],
            "children": [
                19
            ]
        },
        {
            "name": "Character1_RightHand",
            "translation": [
                -0.0127815026789904,
                -2.31528283620719e-05,
                -4.76837147544984e-09
            ],
            "rotation": [
                0.220010176301003,
                -0.151450753211975,
                0.188183590769768,
                0.945116460323334
            ],
            "scale": [
                1.0,
                1.0,
                1.0
            ]
        },
        {
            "name": "Character1_Neck",
            "translation": [
                1.19209286886246e-09,
                0.00523114670068026,
                -3.57627860658738e-09
            ],
            "rotation": [
                -0.160482659935951,
                0.0215782541781664,
                -0.0657854974269867,
                0.984607517719269
            ],
            "scale": [
                1.0,
                1.0,
                1.0
            ],
            "children": [
                21
            ]
        },
        {
            "name": "Character1_Head",
            "translation": [
                -2.08616257602046e-09,
                0.023577094078064,
                1.78813930329369e-09
            ],
            "rotation": [
                3.85185988877447e-34,
                -5.55111512312578e-17,
                6.93889390390723e-18,
                1.0
            ],
            "scale": [
                1.0,
                1.0,
                1.0
            ]
        },
        {
            "name": "stickman_new",
            "translation": [
                0.0,
                1.6543611881282e-26,
                0.00296637881547213
            ],
            "rotation": [
                0.0,
                0.0,
                0.0,
                1.0
            ],
            "scale": [
                1.00000059604645,
                1.00000059604645,
                1.00000059604645
            ],
            "mesh": 0,
            "skin": 0
        }
    ]
}