{
  "__type__": "cc.SpriteFrame",
  "content": {
    "name": "tam",
    "texture": "0ea4a82b-5d88-4374-992c-26c2f9cf76e6",
    "atlas": "",
    "rect": [
      0,
      0,
      372,
      1039
    ],
    "offset": [
      0,
      0
    ],
    "originalSize": [
      372,
      1039
    ],
    "capInsets": [
      0,
      0,
      0,
      0
    ]
  }
}