{
  "__type__": "cc.Model",
  "_name": "attack",
  "_objFlags": 0,
  "_native": "",
  "_nodes": [
    {
      "name": "RootNode",
      "scale": [
        1,
        1,
        1
      ],
      "children": [
        1,
        31
      ],
      "position": [
        0,
        0,
        0
      ],
      "quat": [
        0,
        0,
        0,
        1
      ],
      "path": ""
    },
    {
      "name": "Character1_Reference",
      "scale": [
        1.00000059604645,
        1.00000059604645,
        1.00000059604645
      ],
      "children": [
        2
      ],
      "parent": null,
      "position": [
        0,
        0,
        0
      ],
      "quat": [
        -0.0938798934221268,
        -0.453442752361298,
        -0.103457897901535,
        0.880268514156342
      ],
      "path": "Character1_Reference"
    },
    {
      "name": "Character1_Hips",
      "scale": [
        1,
        1,
        1
      ],
      "children": [
        3,
        7,
        11
      ],
      "parent": null,
      "position": [
        -2.98023217215615e-10,
        0.0268932320177555,
        1.19209286886246e-9
      ],
      "quat": [
        1.49011611938477e-8,
        2.79396794589104e-9,
        1.11758708953857e-8,
        1
      ],
      "path": "Character1_Reference/Character1_Hips",
      "uniqueBindPose": [
        1.0000001192092896,
        6.754037329415041e-9,
        -5.0107448856806514e-8,
        0,
        -6.754035997147412e-9,
        1.0000001192092896,
        -7.35039251686942e-10,
        0,
        5.01074346459518e-8,
        7.350395292426981e-10,
        1,
        0,
        -8.885971403138626e-10,
        -0.02689322456717491,
        2.6059032709468966e-10,
        1
      ]
    },
    {
      "name": "Character1_LeftUpLeg",
      "scale": [
        1,
        1,
        1
      ],
      "children": [
        4
      ],
      "parent": null,
      "position": [
        0.00673886528238654,
        -0.00273666367866099,
        5.9604643443123e-10
      ],
      "quat": [
        -0.123603358864784,
        0.116598360240459,
        0.00457043293863535,
        0.98544716835022
      ],
      "path": "Character1_Reference/Character1_Hips/Character1_LeftUpLeg",
      "uniqueBindPose": [
        1.0000001192092896,
        6.754037329415041e-9,
        -5.0107448856806514e-8,
        0,
        -6.754035997147412e-9,
        1.0000001192092896,
        -7.35039251686942e-10,
        0,
        5.01074346459518e-8,
        7.350395292426981e-10,
        1,
        0,
        -0.006738859694451094,
        -0.024156566709280014,
        3.142389681798363e-10,
        1
      ]
    },
    {
      "name": "Character1_LeftLeg",
      "scale": [
        1,
        1,
        1
      ],
      "children": [
        5
      ],
      "parent": null,
      "position": [
        0.00371353328227997,
        -0.0108860693871975,
        -5.9604643443123e-10
      ],
      "quat": [
        0.207190826535225,
        0.193221613764763,
        0.0309273097664118,
        0.958530604839325
      ],
      "path": "Character1_Reference/Character1_Hips/Character1_LeftUpLeg/Character1_LeftLeg",
      "uniqueBindPose": [
        1.0000001192092896,
        6.754037329415041e-9,
        -5.0107448856806514e-8,
        0,
        -6.754035997147412e-9,
        1.0000001192092896,
        -7.35039251686942e-10,
        0,
        5.01074346459518e-8,
        7.350395292426981e-10,
        1,
        0,
        -0.010452399961650372,
        -0.013270498253405094,
        -8.269913087666225e-10,
        1
      ]
    },
    {
      "name": "Character1_LeftFoot",
      "scale": [
        1,
        1,
        1
      ],
      "children": [
        6
      ],
      "parent": null,
      "position": [
        0.00239629507996142,
        -0.00896723009645939,
        5.9604643443123e-10
      ],
      "quat": [
        8.38190228336089e-9,
        6.75208866596222e-9,
        -1.49011611938477e-8,
        1
      ],
      "path": "Character1_Reference/Character1_Hips/Character1_LeftUpLeg/Character1_LeftLeg/Character1_LeftFoot",
      "uniqueBindPose": [
        1.0000001192092896,
        6.754037329415041e-9,
        -5.0107448856806514e-8,
        0,
        -6.754035997147412e-9,
        1.0000001192092896,
        -7.35039251686942e-10,
        0,
        5.01074346459518e-8,
        7.350395292426981e-10,
        1,
        0,
        -0.0128486892208457,
        -0.00430326908826828,
        -2.0053504690142887e-10,
        1
      ]
    },
    {
      "name": "Character1_LeftFoot_end",
      "scale": [
        1,
        1,
        1
      ],
      "parent": null,
      "position": [
        0,
        0.00928188394755125,
        5.9604643443123e-10
      ],
      "quat": [
        7.97972798949331e-17,
        -9.77888703346252e-9,
        7.45058059692383e-9,
        1
      ],
      "path": "Character1_Reference/Character1_Hips/Character1_LeftUpLeg/Character1_LeftLeg/Character1_LeftFoot/Character1_LeftFoot_end"
    },
    {
      "name": "Character1_RightUpLeg",
      "scale": [
        1,
        1,
        1
      ],
      "children": [
        8
      ],
      "parent": null,
      "position": [
        -0.00673886388540268,
        -0.00273666135035455,
        -5.9604643443123e-10
      ],
      "quat": [
        -0.0581536591053009,
        -0.214192122220993,
        0.0791251659393311,
        0.971843123435974
      ],
      "path": "Character1_Reference/Character1_Hips/Character1_RightUpLeg",
      "uniqueBindPose": [
        1.0000001192092896,
        6.754037329415041e-9,
        -5.0107448856806514e-8,
        0,
        -6.754035997147412e-9,
        1.0000001192092896,
        -7.35039251686942e-10,
        0,
        5.01074346459518e-8,
        7.350395292426981e-10,
        1,
        0,
        0.006738858297467232,
        -0.024156564846634865,
        2.193066041267233e-11,
        1
      ]
    },
    {
      "name": "Character1_RightLeg",
      "scale": [
        1,
        1,
        1
      ],
      "children": [
        9
      ],
      "parent": null,
      "position": [
        -0.00371353165246546,
        -0.0108860693871975,
        5.9604643443123e-10
      ],
      "quat": [
        0.270188271999359,
        -0.108946241438389,
        -0.0295292139053345,
        0.956167876720428
      ],
      "path": "Character1_Reference/Character1_Hips/Character1_RightUpLeg/Character1_RightLeg",
      "uniqueBindPose": [
        1.0000001192092896,
        6.754037329415041e-9,
        -5.0107448856806514e-8,
        0,
        -6.754035997147412e-9,
        1.0000001192092896,
        -7.35039251686942e-10,
        0,
        5.01074346459518e-8,
        7.350395292426981e-10,
        1,
        0,
        0.010452399961650372,
        -0.013270499184727669,
        -7.353400111043129e-10,
        1
      ]
    },
    {
      "name": "Character1_RightFoot",
      "scale": [
        1,
        1,
        1
      ],
      "children": [
        10
      ],
      "parent": null,
      "position": [
        -0.00239629624411464,
        -0.00896722730249166,
        2.77555749952435e-19
      ],
      "quat": [
        1.7130390354804e-16,
        -1.30385142682599e-8,
        1.49011594174908e-8,
        1
      ],
      "path": "Character1_Reference/Character1_Hips/Character1_RightUpLeg/Character1_RightLeg/Character1_RightFoot",
      "uniqueBindPose": [
        1.0000001192092896,
        6.754037329415041e-9,
        -5.0107448856806514e-8,
        0,
        -6.754035997147412e-9,
        1.0000001192092896,
        -7.35039251686942e-10,
        0,
        5.01074346459518e-8,
        7.350395292426981e-10,
        1,
        0,
        0.012848688289523125,
        -0.004303268622606993,
        1.0630406555023342e-9,
        1
      ]
    },
    {
      "name": "Character1_RightFoot_end",
      "scale": [
        1,
        1,
        1
      ],
      "parent": null,
      "position": [
        5.9604643443123e-10,
        0.00928188767284155,
        -2.98023217215615e-10
      ],
      "quat": [
        -7.45057882056699e-9,
        -1.86264514923096e-9,
        7.45058059692383e-9,
        1
      ],
      "path": "Character1_Reference/Character1_Hips/Character1_RightUpLeg/Character1_RightLeg/Character1_RightFoot/Character1_RightFoot_end"
    },
    {
      "name": "Character1_Spine",
      "scale": [
        1,
        1,
        1
      ],
      "children": [
        12
      ],
      "parent": null,
      "position": [
        5.9604643443123e-10,
        0.00876776874065399,
        6.93889349031692e-19
      ],
      "quat": [
        0.102905347943306,
        0.00217617000453174,
        0.0572952032089233,
        0.993037283420563
      ],
      "path": "Character1_Reference/Character1_Hips/Character1_Spine",
      "uniqueBindPose": [
        1.0000001192092896,
        6.754037329415041e-9,
        -5.0107448856806514e-8,
        0,
        -6.754035997147412e-9,
        1.0000001192092896,
        -7.35039251686942e-10,
        0,
        5.01074346459518e-8,
        7.350395292426981e-10,
        1,
        0,
        -1.6397214697150275e-9,
        -0.03766099363565445,
        1.438676816567508e-10,
        1
      ]
    },
    {
      "name": "Character1_Spine1",
      "scale": [
        1,
        1,
        1
      ],
      "children": [
        13
      ],
      "parent": null,
      "position": [
        -2.98023217215615e-10,
        0.00623113382607698,
        5.9604643443123e-10
      ],
      "quat": [
        0.0949084088206291,
        0.00976605247706175,
        0.0414734221994877,
        0.994573771953583
      ],
      "path": "Character1_Reference/Character1_Hips/Character1_Spine/Character1_Spine1",
      "uniqueBindPose": [
        1.0000001192092896,
        6.754037329415041e-9,
        -5.0107448856806514e-8,
        0,
        -6.754035997147412e-9,
        1.0000001192092896,
        -7.35039251686942e-10,
        0,
        5.01074346459518e-8,
        7.350395292426981e-10,
        1,
        0,
        -5.291272420215876e-10,
        -0.043892137706279755,
        -2.9304729753931724e-9,
        1
      ]
    },
    {
      "name": "Character1_Spine2",
      "scale": [
        1,
        1,
        1
      ],
      "children": [
        14,
        19,
        28
      ],
      "parent": null,
      "position": [
        -1.11022299980974e-18,
        0.00623113615438342,
        2.38418573772492e-9
      ],
      "quat": [
        0.125019684433937,
        0.0134093258529902,
        0.040010966360569,
        0.991256475448608
      ],
      "path": "Character1_Reference/Character1_Hips/Character1_Spine/Character1_Spine1/Character1_Spine2",
      "uniqueBindPose": [
        1.0000001192092896,
        6.754037329415041e-9,
        -5.0107448856806514e-8,
        0,
        -6.754035997147412e-9,
        1.0000001192092896,
        -7.35039251686942e-10,
        0,
        5.01074346459518e-8,
        7.350395292426981e-10,
        1,
        0,
        -1.4050018926070607e-9,
        -0.050123270601034164,
        -1.4319644359161998e-9,
        1
      ]
    },
    {
      "name": "Character1_LeftShoulder",
      "scale": [
        1,
        1,
        1
      ],
      "children": [
        15
      ],
      "parent": null,
      "position": [
        0.00468312483280897,
        0.00250115152448416,
        2.38418573772492e-9
      ],
      "quat": [
        0.077676996588707,
        -0.21237750351429,
        -0.0157939717173576,
        0.973967492580414
      ],
      "path": "Character1_Reference/Character1_Hips/Character1_Spine/Character1_Spine1/Character1_Spine2/Character1_LeftShoulder",
      "uniqueBindPose": [
        1.0000001192092896,
        8.39122460405406e-9,
        5.944212233544022e-8,
        0,
        -8.3912219395188e-9,
        1.000000238418579,
        6.594444101892805e-9,
        0,
        -5.944210457187182e-8,
        -6.5944445459820145e-9,
        1.0000001192092896,
        0,
        -0.004683130420744419,
        -0.052624449133872986,
        -1.8141815827377172e-9,
        1
      ]
    },
    {
      "name": "Character1_LeftArm",
      "scale": [
        1,
        1,
        1
      ],
      "children": [
        16
      ],
      "parent": null,
      "position": [
        0.00425448920577765,
        -0.00114993564784527,
        4.44089199923895e-18
      ],
      "quat": [
        -0.402727752923965,
        -0.16405513882637,
        -0.320421189069748,
        0.84156197309494
      ],
      "path": "Character1_Reference/Character1_Hips/Character1_Spine/Character1_Spine1/Character1_Spine2/Character1_LeftShoulder/Character1_LeftArm",
      "uniqueBindPose": [
        1.0000001192092896,
        0.000012857442015956622,
        -2.018165368156133e-8,
        0,
        -0.000012857437468483113,
        1.0000001192092896,
        7.032374238491457e-9,
        0,
        2.018173894668962e-8,
        -7.0321144463036944e-9,
        1.0000001192092896,
        0,
        -0.008936949074268341,
        -0.05147462338209152,
        -5.849529749468729e-10,
        1
      ]
    },
    {
      "name": "Character1_LeftForeArm",
      "scale": [
        1,
        1,
        1
      ],
      "children": [
        17
      ],
      "parent": null,
      "position": [
        0.011469516903162,
        0.000030579565645894,
        -5.9604643443123e-10
      ],
      "quat": [
        -0.0331271439790726,
        -0.425052881240845,
        -0.105010129511356,
        0.898446142673492
      ],
      "path": "Character1_Reference/Character1_Hips/Character1_Spine/Character1_Spine1/Character1_Spine2/Character1_LeftShoulder/Character1_LeftArm/Character1_LeftForeArm",
      "uniqueBindPose": [
        1.0000001192092896,
        -0.0003591755812522024,
        -8.661695716227769e-8,
        0,
        0.0003591755230445415,
        1,
        -1.2846045116532423e-8,
        0,
        8.662154016292334e-8,
        1.2814931338311908e-8,
        1.0000001192092896,
        0,
        -0.02042563073337078,
        -0.05149759352207184,
        8.563020847951464e-10,
        1
      ]
    },
    {
      "name": "Character1_LeftHand",
      "scale": [
        0.999998986721039,
        0.999998986721039,
        1
      ],
      "children": [
        18
      ],
      "parent": null,
      "position": [
        0.0127815157175064,
        -0.0000132632249005837,
        -2.38418573772492e-9
      ],
      "quat": [
        -2.9821649150108e-8,
        -7.37292582542182e-9,
        -0.00260498677380383,
        0.999996602535248
      ],
      "path": "Character1_Reference/Character1_Hips/Character1_Spine/Character1_Spine1/Character1_Spine2/Character1_LeftShoulder/Character1_LeftArm/Character1_LeftForeArm/Character1_LeftHand",
      "uniqueBindPose": [
        0.9999883770942688,
        0.0048507703468203545,
        2.3331164555884243e-8,
        0,
        -0.00485076941549778,
        0.9999882578849792,
        6.095016047424906e-9,
        0,
        -2.330131998462548e-8,
        -6.20811757556794e-9,
        1.0000001192092896,
        0,
        -0.03293847665190697,
        -0.051656659692525864,
        -3.3765726326073775e-10,
        1
      ]
    },
    {
      "name": "Character1_LeftHand_end",
      "scale": [
        1,
        1,
        1
      ],
      "parent": null,
      "position": [
        1.19209286886246e-9,
        0.0127815315499902,
        -2.38418573772492e-9
      ],
      "quat": [
        -2.22044657864591e-16,
        -1.49011629702045e-8,
        -1.49011629702045e-8,
        1
      ],
      "path": "Character1_Reference/Character1_Hips/Character1_Spine/Character1_Spine1/Character1_Spine2/Character1_LeftShoulder/Character1_LeftArm/Character1_LeftForeArm/Character1_LeftHand/Character1_LeftHand_end"
    },
    {
      "name": "Character1_RightShoulder",
      "scale": [
        1,
        1,
        1
      ],
      "children": [
        20
      ],
      "parent": null,
      "position": [
        -0.00468312716111541,
        0.00250115152448416,
        4.76837147544984e-9
      ],
      "quat": [
        0.0918371751904488,
        0.103346906602383,
        -0.0943402424454689,
        0.985893130302429
      ],
      "path": "Character1_Reference/Character1_Hips/Character1_Spine/Character1_Spine1/Character1_Spine2/Character1_RightShoulder",
      "uniqueBindPose": [
        1.0000001192092896,
        8.39122460405406e-9,
        5.944212233544022e-8,
        0,
        -8.3912219395188e-9,
        1.000000238418579,
        6.594444101892805e-9,
        0,
        -5.944210457187182e-8,
        -6.5944445459820145e-9,
        1.0000001192092896,
        0,
        0.0046831294894218445,
        -0.05262444540858269,
        -2.2730890503197543e-9,
        1
      ]
    },
    {
      "name": "Character1_RightArm",
      "scale": [
        1,
        1,
        1
      ],
      "children": [
        21
      ],
      "parent": null,
      "position": [
        -0.00425448874011636,
        -0.00114993087481707,
        0
      ],
      "quat": [
        -0.00762386806309223,
        0.375615954399109,
        0.183631151914597,
        0.908368945121765
      ],
      "path": "Character1_Reference/Character1_Hips/Character1_Spine/Character1_Spine1/Character1_Spine2/Character1_RightShoulder/Character1_RightArm",
      "uniqueBindPose": [
        1.0000001192092896,
        -0.00004045575769850984,
        -1.808345828635538e-8,
        0,
        0.00004045573950861581,
        1.000000238418579,
        2.567312407109057e-8,
        0,
        1.8082413788533813e-8,
        -2.567385948282208e-8,
        1.0000001192092896,
        0,
        0.008935529738664627,
        -0.051474880427122116,
        -2.686152411612852e-9,
        1
      ]
    },
    {
      "name": "Character1_RightForeArm",
      "scale": [
        1,
        1,
        1
      ],
      "children": [
        22
      ],
      "parent": null,
      "position": [
        -0.0114695113152266,
        0.0000308990456687752,
        -1.19209286886246e-9
      ],
      "quat": [
        -0.347174555063248,
        0.839989960193634,
        0.129522889852524,
        0.396371692419052
      ],
      "path": "Character1_Reference/Character1_Hips/Character1_Spine/Character1_Spine1/Character1_Spine2/Character1_RightShoulder/Character1_RightArm/Character1_RightForeArm",
      "uniqueBindPose": [
        0.9999995231628418,
        0.0011330216657370329,
        -6.702952504156201e-8,
        0,
        -0.0011330214329063892,
        0.999999463558197,
        -1.2090153767019274e-8,
        0,
        6.701576182877034e-8,
        1.2166089469189956e-8,
        1.0000001192092896,
        0,
        0.020465480163693428,
        -0.05148179456591606,
        -3.39741235144686e-9,
        1
      ]
    },
    {
      "name": "Character1_RightHand",
      "scale": [
        1,
        1,
        1
      ],
      "children": [
        23,
        24,
        25,
        26,
        27
      ],
      "parent": null,
      "position": [
        -0.0127815026789904,
        -0.0000231552112381905,
        2.38418573772492e-9
      ],
      "quat": [
        1.22397050827949e-10,
        -1.490065404397e-8,
        0.00821392983198166,
        0.999966263771057
      ],
      "path": "Character1_Reference/Character1_Hips/Character1_Spine/Character1_Spine1/Character1_Spine2/Character1_RightShoulder/Character1_RightArm/Character1_RightForeArm/Character1_RightHand",
      "uniqueBindPose": [
        0.9998831748962402,
        -0.015294449403882027,
        -6.938388974475629e-9,
        0,
        0.015294443815946579,
        0.999883234500885,
        -6.617628400817921e-8,
        0,
        7.94970489437219e-9,
        6.606242664020101e-8,
        1.0000001192092896,
        0,
        0.03239716589450836,
        -0.05199785158038139,
        -3.2340083944149e-9,
        1
      ]
    },
    {
      "name": "trumpet",
      "scale": [
        0.553911983966827,
        0.553911983966827,
        0.553911983966827
      ],
      "mesh": 0,
      "parent": null,
      "position": [
        -0.060639750212431,
        0.000948751519899815,
        -0.087760254740715
      ],
      "quat": [
        -0.250823646783829,
        0.669734239578247,
        0.546420991420746,
        0.435852825641632
      ],
      "path": "Character1_Reference/Character1_Hips/Character1_Spine/Character1_Spine1/Character1_Spine2/Character1_RightShoulder/Character1_RightArm/Character1_RightForeArm/Character1_RightHand/trumpet"
    },
    {
      "name": "sung2nong",
      "scale": [
        0.699999988079071,
        0.699999988079071,
        0.699999988079071
      ],
      "mesh": 1,
      "parent": null,
      "position": [
        -0.0330742634832859,
        0.00612469762563705,
        -0.0543441697955132
      ],
      "quat": [
        -0.226979970932007,
        0.692965805530548,
        0.544534027576447,
        0.414440780878067
      ],
      "path": "Character1_Reference/Character1_Hips/Character1_Spine/Character1_Spine1/Character1_Spine2/Character1_RightShoulder/Character1_RightArm/Character1_RightForeArm/Character1_RightHand/sung2nong"
    },
    {
      "name": "bazoka",
      "scale": [
        0.699999988079071,
        0.699999988079071,
        0.699999988079071
      ],
      "mesh": 2,
      "parent": null,
      "position": [
        0.0470638796687126,
        -0.0266450513154268,
        0.0425845235586166
      ],
      "quat": [
        -0.241208583116531,
        0.697110414505005,
        0.522736370563507,
        0.427319794893265
      ],
      "path": "Character1_Reference/Character1_Hips/Character1_Spine/Character1_Spine1/Character1_Spine2/Character1_RightShoulder/Character1_RightArm/Character1_RightForeArm/Character1_RightHand/bazoka"
    },
    {
      "name": "sungtenlua",
      "scale": [
        0.800000011920929,
        0.800000011920929,
        0.800000011920929
      ],
      "mesh": 3,
      "parent": null,
      "position": [
        0.0380408316850662,
        -0.0188702363520861,
        0.0688406676054001
      ],
      "quat": [
        -0.251018971204758,
        0.670402765274048,
        0.553011775016785,
        0.426295220851898
      ],
      "path": "Character1_Reference/Character1_Hips/Character1_Spine/Character1_Spine1/Character1_Spine2/Character1_RightShoulder/Character1_RightArm/Character1_RightForeArm/Character1_RightHand/sungtenlua"
    },
    {
      "name": "Character1_RightHand_end",
      "scale": [
        1,
        1,
        1
      ],
      "parent": null,
      "position": [
        -4.44089199923895e-18,
        0.0127815073356032,
        -2.38418573772492e-9
      ],
      "quat": [
        1.86264537127556e-9,
        1.49011611938477e-8,
        -9.31322574615479e-10,
        1
      ],
      "path": "Character1_Reference/Character1_Hips/Character1_Spine/Character1_Spine1/Character1_Spine2/Character1_RightShoulder/Character1_RightArm/Character1_RightForeArm/Character1_RightHand/Character1_RightHand_end"
    },
    {
      "name": "Character1_Neck",
      "scale": [
        1,
        1,
        1
      ],
      "children": [
        29
      ],
      "parent": null,
      "position": [
        -2.22044599961948e-18,
        0.00523113459348679,
        2.38418573772492e-9
      ],
      "quat": [
        0.0220171641558409,
        0.0486398860812187,
        -0.000567981274798512,
        0.998573541641235
      ],
      "path": "Character1_Reference/Character1_Hips/Character1_Spine/Character1_Spine1/Character1_Spine2/Character1_Neck",
      "uniqueBindPose": [
        1.0000001192092896,
        6.754037329415041e-9,
        -5.0107448856806514e-8,
        0,
        -6.754035997147412e-9,
        1.0000001192092896,
        -7.35039251686942e-10,
        0,
        5.01074346459518e-8,
        7.350395292426981e-10,
        1,
        0,
        -8.650743454907683e-10,
        -0.05535441264510155,
        -1.7613538405569784e-9,
        1
      ]
    },
    {
      "name": "Character1_Head",
      "scale": [
        1,
        1,
        1
      ],
      "children": [
        30
      ],
      "parent": null,
      "position": [
        -2.22044599961948e-18,
        0.023577094078064,
        -2.38418573772492e-9
      ],
      "quat": [
        -1.52655692355739e-16,
        2.23517435671283e-8,
        7.45058148510225e-9,
        1
      ],
      "path": "Character1_Reference/Character1_Hips/Character1_Spine/Character1_Spine1/Character1_Spine2/Character1_Neck/Character1_Head"
    },
    {
      "name": "Character1_Head_end",
      "scale": [
        1,
        1,
        1
      ],
      "parent": null,
      "position": [
        -1.19209286886246e-9,
        0.0235771033912897,
        0
      ],
      "quat": [
        -2.08166932922503e-17,
        -3.72528941028349e-9,
        7.45057882056699e-9,
        1
      ],
      "path": "Character1_Reference/Character1_Hips/Character1_Spine/Character1_Spine1/Character1_Spine2/Character1_Neck/Character1_Head/Character1_Head_end"
    },
    {
      "name": "stickman_new",
      "scale": [
        1.00000059604645,
        1.00000059604645,
        1.00000059604645
      ],
      "mesh": 4,
      "skin": 0,
      "parent": null,
      "position": [
        0,
        0,
        0
      ],
      "quat": [
        -0.0938799008727074,
        -0.453442722558975,
        -0.103457890450954,
        0.880268573760986
      ],
      "path": "stickman_new"
    }
  ],
  "_precomputeJointMatrix": false
}