{
    "asset": {
        "generator": "FBX2glTF v0.9.7",
        "version": "2.0"
    },
    "scene": 0,
    "buffers": [
        {
            "byteLength": 168336,
            "uri": "buffer.bin"
        }
    ],
    "bufferViews": [
        {
            "buffer": 0,
            "byteLength": 100,
            "byteOffset": 0
        },
        {
            "buffer": 0,
            "byteLength": 300,
            "byteOffset": 100
        },
        {
            "buffer": 0,
            "byteLength": 400,
            "byteOffset": 400
        },
        {
            "buffer": 0,
            "byteLength": 400,
            "byteOffset": 800
        },
        {
            "buffer": 0,
            "byteLength": 300,
            "byteOffset": 1200
        },
        {
            "buffer": 0,
            "byteLength": 400,
            "byteOffset": 1500
        },
        {
            "buffer": 0,
            "byteLength": 300,
            "byteOffset": 1900
        },
        {
            "buffer": 0,
            "byteLength": 400,
            "byteOffset": 2200
        },
        {
            "buffer": 0,
            "byteLength": 400,
            "byteOffset": 2600
        },
        {
            "buffer": 0,
            "byteLength": 300,
            "byteOffset": 3000
        },
        {
            "buffer": 0,
            "byteLength": 400,
            "byteOffset": 3300
        },
        {
            "buffer": 0,
            "byteLength": 300,
            "byteOffset": 3700
        },
        {
            "buffer": 0,
            "byteLength": 400,
            "byteOffset": 4000
        },
        {
            "buffer": 0,
            "byteLength": 300,
            "byteOffset": 4400
        },
        {
            "buffer": 0,
            "byteLength": 400,
            "byteOffset": 4700
        },
        {
            "buffer": 0,
            "byteLength": 300,
            "byteOffset": 5100
        },
        {
            "buffer": 0,
            "byteLength": 400,
            "byteOffset": 5400
        },
        {
            "buffer": 0,
            "byteLength": 300,
            "byteOffset": 5800
        },
        {
            "buffer": 0,
            "byteLength": 400,
            "byteOffset": 6100
        },
        {
            "buffer": 0,
            "byteLength": 300,
            "byteOffset": 6500
        },
        {
            "buffer": 0,
            "byteLength": 400,
            "byteOffset": 6800
        },
        {
            "buffer": 0,
            "byteLength": 300,
            "byteOffset": 7200
        },
        {
            "buffer": 0,
            "byteLength": 400,
            "byteOffset": 7500
        },
        {
            "buffer": 0,
            "byteLength": 300,
            "byteOffset": 7900
        },
        {
            "buffer": 0,
            "byteLength": 400,
            "byteOffset": 8200
        },
        {
            "buffer": 0,
            "byteLength": 300,
            "byteOffset": 8600
        },
        {
            "buffer": 0,
            "byteLength": 400,
            "byteOffset": 8900
        },
        {
            "buffer": 0,
            "byteLength": 300,
            "byteOffset": 9300
        },
        {
            "buffer": 0,
            "byteLength": 400,
            "byteOffset": 9600
        },
        {
            "buffer": 0,
            "byteLength": 300,
            "byteOffset": 10000
        },
        {
            "buffer": 0,
            "byteLength": 400,
            "byteOffset": 10300
        },
        {
            "buffer": 0,
            "byteLength": 300,
            "byteOffset": 10700
        },
        {
            "buffer": 0,
            "byteLength": 400,
            "byteOffset": 11000
        },
        {
            "buffer": 0,
            "byteLength": 300,
            "byteOffset": 11400
        },
        {
            "buffer": 0,
            "byteLength": 400,
            "byteOffset": 11700
        },
        {
            "buffer": 0,
            "byteLength": 300,
            "byteOffset": 12100
        },
        {
            "buffer": 0,
            "byteLength": 400,
            "byteOffset": 12400
        },
        {
            "buffer": 0,
            "byteLength": 300,
            "byteOffset": 12800
        },
        {
            "buffer": 0,
            "byteLength": 400,
            "byteOffset": 13100
        },
        {
            "buffer": 0,
            "byteLength": 300,
            "byteOffset": 13500
        },
        {
            "buffer": 0,
            "byteLength": 400,
            "byteOffset": 13800
        },
        {
            "buffer": 0,
            "byteLength": 300,
            "byteOffset": 14200
        },
        {
            "buffer": 0,
            "byteLength": 400,
            "byteOffset": 14500
        },
        {
            "buffer": 0,
            "byteLength": 300,
            "byteOffset": 14900
        },
        {
            "buffer": 0,
            "byteLength": 400,
            "byteOffset": 15200
        },
        {
            "buffer": 0,
            "byteLength": 300,
            "byteOffset": 15600
        },
        {
            "buffer": 0,
            "byteLength": 400,
            "byteOffset": 15900
        },
        {
            "buffer": 0,
            "byteLength": 300,
            "byteOffset": 16300
        },
        {
            "buffer": 0,
            "byteLength": 400,
            "byteOffset": 16600
        },
        {
            "buffer": 0,
            "byteLength": 300,
            "byteOffset": 17000
        },
        {
            "buffer": 0,
            "byteLength": 400,
            "byteOffset": 17300
        },
        {
            "buffer": 0,
            "byteLength": 300,
            "byteOffset": 17700
        },
        {
            "buffer": 0,
            "byteLength": 400,
            "byteOffset": 18000
        },
        {
            "buffer": 0,
            "byteLength": 300,
            "byteOffset": 18400
        },
        {
            "buffer": 0,
            "byteLength": 400,
            "byteOffset": 18700
        },
        {
            "buffer": 0,
            "byteLength": 300,
            "byteOffset": 19100
        },
        {
            "buffer": 0,
            "byteLength": 400,
            "byteOffset": 19400
        },
        {
            "buffer": 0,
            "byteLength": 400,
            "byteOffset": 19800
        },
        {
            "buffer": 0,
            "byteLength": 400,
            "byteOffset": 20200
        },
        {
            "buffer": 0,
            "byteLength": 400,
            "byteOffset": 20600
        },
        {
            "buffer": 0,
            "byteLength": 400,
            "byteOffset": 21000
        },
        {
            "buffer": 0,
            "byteLength": 400,
            "byteOffset": 21400
        },
        {
            "buffer": 0,
            "byteLength": 400,
            "byteOffset": 21800
        },
        {
            "buffer": 0,
            "byteLength": 16344,
            "byteOffset": 22200,
            "target": 34963
        },
        {
            "buffer": 0,
            "byteLength": 19644,
            "byteOffset": 38544,
            "target": 34962
        },
        {
            "buffer": 0,
            "byteLength": 19644,
            "byteOffset": 58188,
            "target": 34962
        },
        {
            "buffer": 0,
            "byteLength": 13096,
            "byteOffset": 77832,
            "target": 34962
        },
        {
            "buffer": 0,
            "byteLength": 13096,
            "byteOffset": 90928,
            "target": 34962
        },
        {
            "buffer": 0,
            "byteLength": 13096,
            "byteOffset": 104024,
            "target": 34962
        },
        {
            "buffer": 0,
            "byteLength": 26192,
            "byteOffset": 117120,
            "target": 34962
        },
        {
            "buffer": 0,
            "byteLength": 1320,
            "byteOffset": 143312,
            "target": 34963
        },
        {
            "buffer": 0,
            "byteLength": 2184,
            "byteOffset": 144632,
            "target": 34962
        },
        {
            "buffer": 0,
            "byteLength": 2184,
            "byteOffset": 146816,
            "target": 34962
        },
        {
            "buffer": 0,
            "byteLength": 1456,
            "byteOffset": 149000,
            "target": 34962
        },
        {
            "buffer": 0,
            "byteLength": 1456,
            "byteOffset": 150456,
            "target": 34962
        },
        {
            "buffer": 0,
            "byteLength": 1456,
            "byteOffset": 151912,
            "target": 34962
        },
        {
            "buffer": 0,
            "byteLength": 2912,
            "byteOffset": 153368,
            "target": 34962
        },
        {
            "buffer": 0,
            "byteLength": 600,
            "byteOffset": 156280,
            "target": 34963
        },
        {
            "buffer": 0,
            "byteLength": 1872,
            "byteOffset": 156880,
            "target": 34962
        },
        {
            "buffer": 0,
            "byteLength": 1872,
            "byteOffset": 158752,
            "target": 34962
        },
        {
            "buffer": 0,
            "byteLength": 1248,
            "byteOffset": 160624,
            "target": 34962
        },
        {
            "buffer": 0,
            "byteLength": 1248,
            "byteOffset": 161872,
            "target": 34962
        },
        {
            "buffer": 0,
            "byteLength": 1248,
            "byteOffset": 163120,
            "target": 34962
        },
        {
            "buffer": 0,
            "byteLength": 2496,
            "byteOffset": 164368,
            "target": 34962
        },
        {
            "buffer": 0,
            "byteLength": 832,
            "byteOffset": 166864
        },
        {
            "buffer": 0,
            "byteLength": 576,
            "byteOffset": 167696
        },
        {
            "buffer": 0,
            "byteLength": 64,
            "byteOffset": 168272
        }
    ],
    "scenes": [
        {
            "name": "Root Scene",
            "nodes": [
                0
            ]
        }
    ],
    "accessors": [
        {
            "componentType": 5126,
            "type": "SCALAR",
            "count": 25,
            "bufferView": 0,
            "byteOffset": 0,
            "min": [
                0.0
            ],
            "max": [
                1.0
            ]
        },
        {
            "componentType": 5126,
            "type": "VEC3",
            "count": 25,
            "bufferView": 1,
            "byteOffset": 0
        },
        {
            "componentType": 5126,
            "type": "VEC4",
            "count": 25,
            "bufferView": 2,
            "byteOffset": 0
        },
        {
            "componentType": 5126,
            "type": "VEC4",
            "count": 25,
            "bufferView": 3,
            "byteOffset": 0
        },
        {
            "componentType": 5126,
            "type": "VEC3",
            "count": 25,
            "bufferView": 4,
            "byteOffset": 0
        },
        {
            "componentType": 5126,
            "type": "VEC4",
            "count": 25,
            "bufferView": 5,
            "byteOffset": 0
        },
        {
            "componentType": 5126,
            "type": "VEC3",
            "count": 25,
            "bufferView": 6,
            "byteOffset": 0
        },
        {
            "componentType": 5126,
            "type": "VEC4",
            "count": 25,
            "bufferView": 7,
            "byteOffset": 0
        },
        {
            "componentType": 5126,
            "type": "VEC4",
            "count": 25,
            "bufferView": 8,
            "byteOffset": 0
        },
        {
            "componentType": 5126,
            "type": "VEC3",
            "count": 25,
            "bufferView": 9,
            "byteOffset": 0
        },
        {
            "componentType": 5126,
            "type": "VEC4",
            "count": 25,
            "bufferView": 10,
            "byteOffset": 0
        },
        {
            "componentType": 5126,
            "type": "VEC3",
            "count": 25,
            "bufferView": 11,
            "byteOffset": 0
        },
        {
            "componentType": 5126,
            "type": "VEC4",
            "count": 25,
            "bufferView": 12,
            "byteOffset": 0
        },
        {
            "componentType": 5126,
            "type": "VEC3",
            "count": 25,
            "bufferView": 13,
            "byteOffset": 0
        },
        {
            "componentType": 5126,
            "type": "VEC4",
            "count": 25,
            "bufferView": 14,
            "byteOffset": 0
        },
        {
            "componentType": 5126,
            "type": "VEC3",
            "count": 25,
            "bufferView": 15,
            "byteOffset": 0
        },
        {
            "componentType": 5126,
            "type": "VEC4",
            "count": 25,
            "bufferView": 16,
            "byteOffset": 0
        },
        {
            "componentType": 5126,
            "type": "VEC3",
            "count": 25,
            "bufferView": 17,
            "byteOffset": 0
        },
        {
            "componentType": 5126,
            "type": "VEC4",
            "count": 25,
            "bufferView": 18,
            "byteOffset": 0
        },
        {
            "componentType": 5126,
            "type": "VEC3",
            "count": 25,
            "bufferView": 19,
            "byteOffset": 0
        },
        {
            "componentType": 5126,
            "type": "VEC4",
            "count": 25,
            "bufferView": 20,
            "byteOffset": 0
        },
        {
            "componentType": 5126,
            "type": "VEC3",
            "count": 25,
            "bufferView": 21,
            "byteOffset": 0
        },
        {
            "componentType": 5126,
            "type": "VEC4",
            "count": 25,
            "bufferView": 22,
            "byteOffset": 0
        },
        {
            "componentType": 5126,
            "type": "VEC3",
            "count": 25,
            "bufferView": 23,
            "byteOffset": 0
        },
        {
            "componentType": 5126,
            "type": "VEC4",
            "count": 25,
            "bufferView": 24,
            "byteOffset": 0
        },
        {
            "componentType": 5126,
            "type": "VEC3",
            "count": 25,
            "bufferView": 25,
            "byteOffset": 0
        },
        {
            "componentType": 5126,
            "type": "VEC4",
            "count": 25,
            "bufferView": 26,
            "byteOffset": 0
        },
        {
            "componentType": 5126,
            "type": "VEC3",
            "count": 25,
            "bufferView": 27,
            "byteOffset": 0
        },
        {
            "componentType": 5126,
            "type": "VEC4",
            "count": 25,
            "bufferView": 28,
            "byteOffset": 0
        },
        {
            "componentType": 5126,
            "type": "VEC3",
            "count": 25,
            "bufferView": 29,
            "byteOffset": 0
        },
        {
            "componentType": 5126,
            "type": "VEC4",
            "count": 25,
            "bufferView": 30,
            "byteOffset": 0
        },
        {
            "componentType": 5126,
            "type": "VEC3",
            "count": 25,
            "bufferView": 31,
            "byteOffset": 0
        },
        {
            "componentType": 5126,
            "type": "VEC4",
            "count": 25,
            "bufferView": 32,
            "byteOffset": 0
        },
        {
            "componentType": 5126,
            "type": "VEC3",
            "count": 25,
            "bufferView": 33,
            "byteOffset": 0
        },
        {
            "componentType": 5126,
            "type": "VEC4",
            "count": 25,
            "bufferView": 34,
            "byteOffset": 0
        },
        {
            "componentType": 5126,
            "type": "VEC3",
            "count": 25,
            "bufferView": 35,
            "byteOffset": 0
        },
        {
            "componentType": 5126,
            "type": "VEC4",
            "count": 25,
            "bufferView": 36,
            "byteOffset": 0
        },
        {
            "componentType": 5126,
            "type": "VEC3",
            "count": 25,
            "bufferView": 37,
            "byteOffset": 0
        },
        {
            "componentType": 5126,
            "type": "VEC4",
            "count": 25,
            "bufferView": 38,
            "byteOffset": 0
        },
        {
            "componentType": 5126,
            "type": "VEC3",
            "count": 25,
            "bufferView": 39,
            "byteOffset": 0
        },
        {
            "componentType": 5126,
            "type": "VEC4",
            "count": 25,
            "bufferView": 40,
            "byteOffset": 0
        },
        {
            "componentType": 5126,
            "type": "VEC3",
            "count": 25,
            "bufferView": 41,
            "byteOffset": 0
        },
        {
            "componentType": 5126,
            "type": "VEC4",
            "count": 25,
            "bufferView": 42,
            "byteOffset": 0
        },
        {
            "componentType": 5126,
            "type": "VEC3",
            "count": 25,
            "bufferView": 43,
            "byteOffset": 0
        },
        {
            "componentType": 5126,
            "type": "VEC4",
            "count": 25,
            "bufferView": 44,
            "byteOffset": 0
        },
        {
            "componentType": 5126,
            "type": "VEC3",
            "count": 25,
            "bufferView": 45,
            "byteOffset": 0
        },
        {
            "componentType": 5126,
            "type": "VEC4",
            "count": 25,
            "bufferView": 46,
            "byteOffset": 0
        },
        {
            "componentType": 5126,
            "type": "VEC3",
            "count": 25,
            "bufferView": 47,
            "byteOffset": 0
        },
        {
            "componentType": 5126,
            "type": "VEC4",
            "count": 25,
            "bufferView": 48,
            "byteOffset": 0
        },
        {
            "componentType": 5126,
            "type": "VEC3",
            "count": 25,
            "bufferView": 49,
            "byteOffset": 0
        },
        {
            "componentType": 5126,
            "type": "VEC4",
            "count": 25,
            "bufferView": 50,
            "byteOffset": 0
        },
        {
            "componentType": 5126,
            "type": "VEC3",
            "count": 25,
            "bufferView": 51,
            "byteOffset": 0
        },
        {
            "componentType": 5126,
            "type": "VEC4",
            "count": 25,
            "bufferView": 52,
            "byteOffset": 0
        },
        {
            "componentType": 5126,
            "type": "VEC3",
            "count": 25,
            "bufferView": 53,
            "byteOffset": 0
        },
        {
            "componentType": 5126,
            "type": "VEC4",
            "count": 25,
            "bufferView": 54,
            "byteOffset": 0
        },
        {
            "componentType": 5126,
            "type": "VEC3",
            "count": 25,
            "bufferView": 55,
            "byteOffset": 0
        },
        {
            "componentType": 5126,
            "type": "VEC4",
            "count": 25,
            "bufferView": 56,
            "byteOffset": 0
        },
        {
            "componentType": 5126,
            "type": "VEC4",
            "count": 25,
            "bufferView": 57,
            "byteOffset": 0
        },
        {
            "componentType": 5126,
            "type": "VEC4",
            "count": 25,
            "bufferView": 58,
            "byteOffset": 0
        },
        {
            "componentType": 5126,
            "type": "VEC4",
            "count": 25,
            "bufferView": 59,
            "byteOffset": 0
        },
        {
            "componentType": 5126,
            "type": "VEC4",
            "count": 25,
            "bufferView": 60,
            "byteOffset": 0
        },
        {
            "componentType": 5126,
            "type": "VEC4",
            "count": 25,
            "bufferView": 61,
            "byteOffset": 0
        },
        {
            "componentType": 5126,
            "type": "VEC4",
            "count": 25,
            "bufferView": 62,
            "byteOffset": 0
        },
        {
            "componentType": 5123,
            "type": "SCALAR",
            "count": 8172,
            "bufferView": 63,
            "byteOffset": 0
        },
        {
            "componentType": 5126,
            "type": "VEC3",
            "count": 1637,
            "bufferView": 64,
            "byteOffset": 0,
            "min": [
                -0.00805865041911602,
                -1.35396003315691e-05,
                -0.00998892728239298
            ],
            "max": [
                0.00806283857673407,
                0.0279839802533388,
                0.0099889300763607
            ]
        },
        {
            "componentType": 5126,
            "type": "VEC3",
            "count": 1637,
            "bufferView": 65,
            "byteOffset": 0
        },
        {
            "componentType": 5126,
            "type": "VEC2",
            "count": 1637,
            "bufferView": 66,
            "byteOffset": 0
        },
        {
            "componentType": 5126,
            "type": "VEC2",
            "count": 1637,
            "bufferView": 67,
            "byteOffset": 0
        },
        {
            "componentType": 5123,
            "type": "VEC4",
            "count": 1637,
            "bufferView": 68,
            "byteOffset": 0
        },
        {
            "componentType": 5126,
            "type": "VEC4",
            "count": 1637,
            "bufferView": 69,
            "byteOffset": 0
        },
        {
            "componentType": 5123,
            "type": "SCALAR",
            "count": 660,
            "bufferView": 70,
            "byteOffset": 0
        },
        {
            "componentType": 5126,
            "type": "VEC3",
            "count": 182,
            "bufferView": 71,
            "byteOffset": 0,
            "min": [
                -0.00255490466952324,
                0.0155833913013339,
                -0.000937609351240098
            ],
            "max": [
                0.00255490466952324,
                0.0165759548544884,
                0.00626365281641483
            ]
        },
        {
            "componentType": 5126,
            "type": "VEC3",
            "count": 182,
            "bufferView": 72,
            "byteOffset": 0
        },
        {
            "componentType": 5126,
            "type": "VEC2",
            "count": 182,
            "bufferView": 73,
            "byteOffset": 0
        },
        {
            "componentType": 5126,
            "type": "VEC2",
            "count": 182,
            "bufferView": 74,
            "byteOffset": 0
        },
        {
            "componentType": 5123,
            "type": "VEC4",
            "count": 182,
            "bufferView": 75,
            "byteOffset": 0
        },
        {
            "componentType": 5126,
            "type": "VEC4",
            "count": 182,
            "bufferView": 76,
            "byteOffset": 0
        },
        {
            "componentType": 5123,
            "type": "SCALAR",
            "count": 300,
            "bufferView": 77,
            "byteOffset": 0
        },
        {
            "componentType": 5126,
            "type": "VEC3",
            "count": 156,
            "bufferView": 78,
            "byteOffset": 0,
            "min": [
                -0.00246280641295016,
                -0.00227897986769676,
                -0.0149398017674685
            ],
            "max": [
                0.00246280641295016,
                0.0137338573113084,
                -0.00760227767750621
            ]
        },
        {
            "componentType": 5126,
            "type": "VEC3",
            "count": 156,
            "bufferView": 79,
            "byteOffset": 0
        },
        {
            "componentType": 5126,
            "type": "VEC2",
            "count": 156,
            "bufferView": 80,
            "byteOffset": 0
        },
        {
            "componentType": 5126,
            "type": "VEC2",
            "count": 156,
            "bufferView": 81,
            "byteOffset": 0
        },
        {
            "componentType": 5123,
            "type": "VEC4",
            "count": 156,
            "bufferView": 82,
            "byteOffset": 0
        },
        {
            "componentType": 5126,
            "type": "VEC4",
            "count": 156,
            "bufferView": 83,
            "byteOffset": 0
        },
        {
            "componentType": 5126,
            "type": "MAT4",
            "count": 13,
            "bufferView": 84,
            "byteOffset": 0
        },
        {
            "componentType": 5126,
            "type": "MAT4",
            "count": 9,
            "bufferView": 85,
            "byteOffset": 0
        },
        {
            "componentType": 5126,
            "type": "MAT4",
            "count": 1,
            "bufferView": 86,
            "byteOffset": 0
        }
    ],
    "images": [
        {
            "name": "file54",
            "uri": "data:image/png;base64,iVBORw0KGgoAAAANSUhEUgAAAAEAAAABCAYAAAAfFcSJAAAADUlEQVR42mP8/5+hHgAHggJ/PchI7wAAAABJRU5ErkJggg=="
        }
    ],
    "samplers": [
        {}
    ],
    "textures": [
        {
            "name": "file54",
            "sampler": 0,
            "source": 0
        }
    ],
    "materials": [
        {
            "name": "lambert2",
            "alphaMode": "OPAQUE",
            "extras": {
                "fromFBX": {
                    "shadingModel": "Lambert",
                    "isTruePBR": false
                }
            },
            "pbrMetallicRoughness": {
                "baseColorTexture": {
                    "index": 0,
                    "texCoord": 0
                },
                "baseColorFactor": [
                    0.800000011920929,
                    0.800000011920929,
                    0.800000011920929,
                    1.0
                ],
                "metallicFactor": 0.200000002980232,
                "roughnessFactor": 0.800000011920929
            }
        },
        {
            "name": "initialShadingGroup2",
            "alphaMode": "OPAQUE",
            "extras": {
                "fromFBX": {
                    "shadingModel": "Lambert",
                    "isTruePBR": false
                }
            },
            "pbrMetallicRoughness": {
                "baseColorFactor": [
                    0.400000005960464,
                    0.400000005960464,
                    0.400000005960464,
                    1.0
                ],
                "metallicFactor": 0.200000002980232,
                "roughnessFactor": 0.800000011920929
            }
        }
    ],
    "meshes": [
        {
            "name": "AmongUS",
            "primitives": [
                {
                    "material": 0,
                    "mode": 4,
                    "attributes": {
                        "JOINTS_0": 68,
                        "NORMAL": 65,
                        "POSITION": 64,
                        "TEXCOORD_0": 66,
                        "TEXCOORD_1": 67,
                        "WEIGHTS_0": 69
                    },
                    "indices": 63
                }
            ]
        },
        {
            "name": "Luoi",
            "primitives": [
                {
                    "material": 0,
                    "mode": 4,
                    "attributes": {
                        "JOINTS_0": 75,
                        "NORMAL": 72,
                        "POSITION": 71,
                        "TEXCOORD_0": 73,
                        "TEXCOORD_1": 74,
                        "WEIGHTS_0": 76
                    },
                    "indices": 70
                }
            ]
        },
        {
            "name": "Bua",
            "primitives": [
                {
                    "material": 1,
                    "mode": 4,
                    "attributes": {
                        "JOINTS_0": 82,
                        "NORMAL": 79,
                        "POSITION": 78,
                        "TEXCOORD_0": 80,
                        "TEXCOORD_1": 81,
                        "WEIGHTS_0": 83
                    },
                    "indices": 77
                }
            ]
        }
    ],
    "skins": [
        {
            "joints": [
                5,
                6,
                7,
                8,
                9,
                34,
                45,
                46,
                47,
                49,
                50,
                51,
                10
            ],
            "inverseBindMatrices": 84,
            "skeleton": 5
        },
        {
            "joints": [
                36,
                37,
                38,
                39,
                40,
                41,
                42,
                43,
                44
            ],
            "inverseBindMatrices": 85,
            "skeleton": 36
        },
        {
            "joints": [
                33
            ],
            "inverseBindMatrices": 86,
            "skeleton": 33
        }
    ],
    "animations": [
        {
            "name": "Hammer Attack",
            "channels": [
                {
                    "sampler": 0,
                    "target": {
                        "node": 5,
                        "path": "translation"
                    }
                },
                {
                    "sampler": 1,
                    "target": {
                        "node": 5,
                        "path": "rotation"
                    }
                },
                {
                    "sampler": 2,
                    "target": {
                        "node": 6,
                        "path": "rotation"
                    }
                },
                {
                    "sampler": 3,
                    "target": {
                        "node": 7,
                        "path": "translation"
                    }
                },
                {
                    "sampler": 4,
                    "target": {
                        "node": 7,
                        "path": "rotation"
                    }
                },
                {
                    "sampler": 5,
                    "target": {
                        "node": 9,
                        "path": "translation"
                    }
                },
                {
                    "sampler": 6,
                    "target": {
                        "node": 9,
                        "path": "rotation"
                    }
                },
                {
                    "sampler": 7,
                    "target": {
                        "node": 10,
                        "path": "rotation"
                    }
                },
                {
                    "sampler": 8,
                    "target": {
                        "node": 11,
                        "path": "translation"
                    }
                },
                {
                    "sampler": 9,
                    "target": {
                        "node": 11,
                        "path": "rotation"
                    }
                },
                {
                    "sampler": 10,
                    "target": {
                        "node": 12,
                        "path": "translation"
                    }
                },
                {
                    "sampler": 11,
                    "target": {
                        "node": 12,
                        "path": "rotation"
                    }
                },
                {
                    "sampler": 12,
                    "target": {
                        "node": 13,
                        "path": "translation"
                    }
                },
                {
                    "sampler": 13,
                    "target": {
                        "node": 13,
                        "path": "rotation"
                    }
                },
                {
                    "sampler": 14,
                    "target": {
                        "node": 14,
                        "path": "translation"
                    }
                },
                {
                    "sampler": 15,
                    "target": {
                        "node": 14,
                        "path": "rotation"
                    }
                },
                {
                    "sampler": 16,
                    "target": {
                        "node": 15,
                        "path": "translation"
                    }
                },
                {
                    "sampler": 17,
                    "target": {
                        "node": 15,
                        "path": "rotation"
                    }
                },
                {
                    "sampler": 18,
                    "target": {
                        "node": 16,
                        "path": "translation"
                    }
                },
                {
                    "sampler": 19,
                    "target": {
                        "node": 16,
                        "path": "rotation"
                    }
                },
                {
                    "sampler": 20,
                    "target": {
                        "node": 17,
                        "path": "translation"
                    }
                },
                {
                    "sampler": 21,
                    "target": {
                        "node": 17,
                        "path": "rotation"
                    }
                },
                {
                    "sampler": 22,
                    "target": {
                        "node": 18,
                        "path": "translation"
                    }
                },
                {
                    "sampler": 23,
                    "target": {
                        "node": 18,
                        "path": "rotation"
                    }
                },
                {
                    "sampler": 24,
                    "target": {
                        "node": 19,
                        "path": "translation"
                    }
                },
                {
                    "sampler": 25,
                    "target": {
                        "node": 19,
                        "path": "rotation"
                    }
                },
                {
                    "sampler": 26,
                    "target": {
                        "node": 20,
                        "path": "translation"
                    }
                },
                {
                    "sampler": 27,
                    "target": {
                        "node": 20,
                        "path": "rotation"
                    }
                },
                {
                    "sampler": 28,
                    "target": {
                        "node": 21,
                        "path": "translation"
                    }
                },
                {
                    "sampler": 29,
                    "target": {
                        "node": 21,
                        "path": "rotation"
                    }
                },
                {
                    "sampler": 30,
                    "target": {
                        "node": 22,
                        "path": "translation"
                    }
                },
                {
                    "sampler": 31,
                    "target": {
                        "node": 22,
                        "path": "rotation"
                    }
                },
                {
                    "sampler": 32,
                    "target": {
                        "node": 23,
                        "path": "translation"
                    }
                },
                {
                    "sampler": 33,
                    "target": {
                        "node": 23,
                        "path": "rotation"
                    }
                },
                {
                    "sampler": 34,
                    "target": {
                        "node": 24,
                        "path": "translation"
                    }
                },
                {
                    "sampler": 35,
                    "target": {
                        "node": 24,
                        "path": "rotation"
                    }
                },
                {
                    "sampler": 36,
                    "target": {
                        "node": 25,
                        "path": "translation"
                    }
                },
                {
                    "sampler": 37,
                    "target": {
                        "node": 25,
                        "path": "rotation"
                    }
                },
                {
                    "sampler": 38,
                    "target": {
                        "node": 26,
                        "path": "translation"
                    }
                },
                {
                    "sampler": 39,
                    "target": {
                        "node": 26,
                        "path": "rotation"
                    }
                },
                {
                    "sampler": 40,
                    "target": {
                        "node": 27,
                        "path": "translation"
                    }
                },
                {
                    "sampler": 41,
                    "target": {
                        "node": 27,
                        "path": "rotation"
                    }
                },
                {
                    "sampler": 42,
                    "target": {
                        "node": 28,
                        "path": "translation"
                    }
                },
                {
                    "sampler": 43,
                    "target": {
                        "node": 28,
                        "path": "rotation"
                    }
                },
                {
                    "sampler": 44,
                    "target": {
                        "node": 29,
                        "path": "translation"
                    }
                },
                {
                    "sampler": 45,
                    "target": {
                        "node": 29,
                        "path": "rotation"
                    }
                },
                {
                    "sampler": 46,
                    "target": {
                        "node": 30,
                        "path": "translation"
                    }
                },
                {
                    "sampler": 47,
                    "target": {
                        "node": 30,
                        "path": "rotation"
                    }
                },
                {
                    "sampler": 48,
                    "target": {
                        "node": 31,
                        "path": "translation"
                    }
                },
                {
                    "sampler": 49,
                    "target": {
                        "node": 31,
                        "path": "rotation"
                    }
                },
                {
                    "sampler": 50,
                    "target": {
                        "node": 32,
                        "path": "translation"
                    }
                },
                {
                    "sampler": 51,
                    "target": {
                        "node": 32,
                        "path": "rotation"
                    }
                },
                {
                    "sampler": 52,
                    "target": {
                        "node": 33,
                        "path": "translation"
                    }
                },
                {
                    "sampler": 53,
                    "target": {
                        "node": 33,
                        "path": "rotation"
                    }
                },
                {
                    "sampler": 54,
                    "target": {
                        "node": 34,
                        "path": "translation"
                    }
                },
                {
                    "sampler": 55,
                    "target": {
                        "node": 34,
                        "path": "rotation"
                    }
                },
                {
                    "sampler": 56,
                    "target": {
                        "node": 45,
                        "path": "rotation"
                    }
                },
                {
                    "sampler": 57,
                    "target": {
                        "node": 46,
                        "path": "rotation"
                    }
                },
                {
                    "sampler": 58,
                    "target": {
                        "node": 47,
                        "path": "rotation"
                    }
                },
                {
                    "sampler": 59,
                    "target": {
                        "node": 49,
                        "path": "rotation"
                    }
                },
                {
                    "sampler": 60,
                    "target": {
                        "node": 50,
                        "path": "rotation"
                    }
                },
                {
                    "sampler": 61,
                    "target": {
                        "node": 51,
                        "path": "rotation"
                    }
                }
            ],
            "samplers": [
                {
                    "input": 0,
                    "interpolation": "LINEAR",
                    "output": 1
                },
                {
                    "input": 0,
                    "interpolation": "LINEAR",
                    "output": 2
                },
                {
                    "input": 0,
                    "interpolation": "LINEAR",
                    "output": 3
                },
                {
                    "input": 0,
                    "interpolation": "LINEAR",
                    "output": 4
                },
                {
                    "input": 0,
                    "interpolation": "LINEAR",
                    "output": 5
                },
                {
                    "input": 0,
                    "interpolation": "LINEAR",
                    "output": 6
                },
                {
                    "input": 0,
                    "interpolation": "LINEAR",
                    "output": 7
                },
                {
                    "input": 0,
                    "interpolation": "LINEAR",
                    "output": 8
                },
                {
                    "input": 0,
                    "interpolation": "LINEAR",
                    "output": 9
                },
                {
                    "input": 0,
                    "interpolation": "LINEAR",
                    "output": 10
                },
                {
                    "input": 0,
                    "interpolation": "LINEAR",
                    "output": 11
                },
                {
                    "input": 0,
                    "interpolation": "LINEAR",
                    "output": 12
                },
                {
                    "input": 0,
                    "interpolation": "LINEAR",
                    "output": 13
                },
                {
                    "input": 0,
                    "interpolation": "LINEAR",
                    "output": 14
                },
                {
                    "input": 0,
                    "interpolation": "LINEAR",
                    "output": 15
                },
                {
                    "input": 0,
                    "interpolation": "LINEAR",
                    "output": 16
                },
                {
                    "input": 0,
                    "interpolation": "LINEAR",
                    "output": 17
                },
                {
                    "input": 0,
                    "interpolation": "LINEAR",
                    "output": 18
                },
                {
                    "input": 0,
                    "interpolation": "LINEAR",
                    "output": 19
                },
                {
                    "input": 0,
                    "interpolation": "LINEAR",
                    "output": 20
                },
                {
                    "input": 0,
                    "interpolation": "LINEAR",
                    "output": 21
                },
                {
                    "input": 0,
                    "interpolation": "LINEAR",
                    "output": 22
                },
                {
                    "input": 0,
                    "interpolation": "LINEAR",
                    "output": 23
                },
                {
                    "input": 0,
                    "interpolation": "LINEAR",
                    "output": 24
                },
                {
                    "input": 0,
                    "interpolation": "LINEAR",
                    "output": 25
                },
                {
                    "input": 0,
                    "interpolation": "LINEAR",
                    "output": 26
                },
                {
                    "input": 0,
                    "interpolation": "LINEAR",
                    "output": 27
                },
                {
                    "input": 0,
                    "interpolation": "LINEAR",
                    "output": 28
                },
                {
                    "input": 0,
                    "interpolation": "LINEAR",
                    "output": 29
                },
                {
                    "input": 0,
                    "interpolation": "LINEAR",
                    "output": 30
                },
                {
                    "input": 0,
                    "interpolation": "LINEAR",
                    "output": 31
                },
                {
                    "input": 0,
                    "interpolation": "LINEAR",
                    "output": 32
                },
                {
                    "input": 0,
                    "interpolation": "LINEAR",
                    "output": 33
                },
                {
                    "input": 0,
                    "interpolation": "LINEAR",
                    "output": 34
                },
                {
                    "input": 0,
                    "interpolation": "LINEAR",
                    "output": 35
                },
                {
                    "input": 0,
                    "interpolation": "LINEAR",
                    "output": 36
                },
                {
                    "input": 0,
                    "interpolation": "LINEAR",
                    "output": 37
                },
                {
                    "input": 0,
                    "interpolation": "LINEAR",
                    "output": 38
                },
                {
                    "input": 0,
                    "interpolation": "LINEAR",
                    "output": 39
                },
                {
                    "input": 0,
                    "interpolation": "LINEAR",
                    "output": 40
                },
                {
                    "input": 0,
                    "interpolation": "LINEAR",
                    "output": 41
                },
                {
                    "input": 0,
                    "interpolation": "LINEAR",
                    "output": 42
                },
                {
                    "input": 0,
                    "interpolation": "LINEAR",
                    "output": 43
                },
                {
                    "input": 0,
                    "interpolation": "LINEAR",
                    "output": 44
                },
                {
                    "input": 0,
                    "interpolation": "LINEAR",
                    "output": 45
                },
                {
                    "input": 0,
                    "interpolation": "LINEAR",
                    "output": 46
                },
                {
                    "input": 0,
                    "interpolation": "LINEAR",
                    "output": 47
                },
                {
                    "input": 0,
                    "interpolation": "LINEAR",
                    "output": 48
                },
                {
                    "input": 0,
                    "interpolation": "LINEAR",
                    "output": 49
                },
                {
                    "input": 0,
                    "interpolation": "LINEAR",
                    "output": 50
                },
                {
                    "input": 0,
                    "interpolation": "LINEAR",
                    "output": 51
                },
                {
                    "input": 0,
                    "interpolation": "LINEAR",
                    "output": 52
                },
                {
                    "input": 0,
                    "interpolation": "LINEAR",
                    "output": 53
                },
                {
                    "input": 0,
                    "interpolation": "LINEAR",
                    "output": 54
                },
                {
                    "input": 0,
                    "interpolation": "LINEAR",
                    "output": 55
                },
                {
                    "input": 0,
                    "interpolation": "LINEAR",
                    "output": 56
                },
                {
                    "input": 0,
                    "interpolation": "LINEAR",
                    "output": 57
                },
                {
                    "input": 0,
                    "interpolation": "LINEAR",
                    "output": 58
                },
                {
                    "input": 0,
                    "interpolation": "LINEAR",
                    "output": 59
                },
                {
                    "input": 0,
                    "interpolation": "LINEAR",
                    "output": 60
                },
                {
                    "input": 0,
                    "interpolation": "LINEAR",
                    "output": 61
                },
                {
                    "input": 0,
                    "interpolation": "LINEAR",
                    "output": 62
                }
            ]
        }
    ],
    "nodes": [
        {
            "name": "RootNode",
            "translation": [
                0.0,
                0.0,
                0.0
            ],
            "rotation": [
                0.0,
                0.0,
                0.0,
                1.0
            ],
            "scale": [
                1.0,
                1.0,
                1.0
            ],
            "children": [
                1,
                3,
                53
            ]
        },
        {
            "name": "AmongUS",
            "translation": [
                0.0,
                0.0,
                0.0
            ],
            "rotation": [
                0.0,
                0.0,
                0.0,
                1.0
            ],
            "scale": [
                1.0,
                1.0,
                1.0
            ],
            "children": [
                2
            ],
            "mesh": 0,
            "skin": 0
        },
        {
            "name": "Luoi",
            "translation": [
                0.0,
                0.0,
                0.0
            ],
            "rotation": [
                0.0,
                0.0,
                0.0,
                1.0
            ],
            "scale": [
                1.0,
                1.0,
                1.0
            ],
            "mesh": 1,
            "skin": 1
        },
        {
            "name": "All_ctrl",
            "translation": [
                0.0,
                0.0,
                0.0
            ],
            "rotation": [
                0.0,
                0.0,
                0.0,
                1.0
            ],
            "scale": [
                1.0,
                1.0,
                1.0
            ],
            "children": [
                4
            ]
        },
        {
            "name": "all_joint",
            "translation": [
                0.0,
                0.0,
                0.0
            ],
            "rotation": [
                0.0,
                0.0,
                0.0,
                1.0
            ],
            "scale": [
                1.0,
                1.0,
                1.0
            ],
            "children": [
                5
            ]
        },
        {
            "name": "hip",
            "translation": [
                -2.06726599571994e-05,
                0.010750649496913,
                0.000261787907220423
            ],
            "rotation": [
                0.0,
                0.0,
                0.0,
                1.0
            ],
            "scale": [
                1.0,
                1.0,
                1.0
            ],
            "children": [
                6,
                45,
                49
            ]
        },
        {
            "name": "spine_01",
            "translation": [
                0.0,
                2.22044599961948e-18,
                0.0
            ],
            "rotation": [
                0.0,
                0.0,
                0.0,
                1.0
            ],
            "scale": [
                1.0,
                1.0,
                1.0
            ],
            "children": [
                7,
                34
            ]
        },
        {
            "name": "spine_02",
            "translation": [
                1.70663697645068e-05,
                0.00577584328129888,
                -0.000204509604373015
            ],
            "rotation": [
                0.0,
                0.0,
                0.0,
                1.0
            ],
            "scale": [
                1.0,
                1.0,
                1.0
            ],
            "children": [
                8,
                9,
                10,
                11,
                20
            ]
        },
        {
            "name": "head",
            "translation": [
                0.0,
                0.00608219299465418,
                0.0
            ],
            "rotation": [
                0.0,
                0.0,
                0.0,
                1.0
            ],
            "scale": [
                1.0,
                1.0,
                1.0
            ]
        },
        {
            "name": "back",
            "translation": [
                1.0842021482517e-21,
                -0.00257369480095804,
                -0.00784720573574305
            ],
            "rotation": [
                0.0,
                0.0,
                0.0,
                1.0
            ],
            "scale": [
                1.0,
                1.0,
                1.0
            ]
        },
        {
            "name": "jaw_up",
            "translation": [
                0.0,
                -0.00179415487218648,
                0.00304747698828578
            ],
            "rotation": [
                0.0,
                0.0,
                0.0,
                1.0
            ],
            "scale": [
                1.0,
                1.0,
                1.0
            ]
        },
        {
            "name": "Hand_L_01",
            "translation": [
                0.00438381778076291,
                -0.00327991810627282,
                -0.00882835313677788
            ],
            "rotation": [
                0.254279732704163,
                0.706709027290344,
                0.493450820446014,
                -0.438646167516708
            ],
            "scale": [
                1.0,
                1.0,
                1.0
            ],
            "children": [
                12,
                14,
                16,
                18
            ]
        },
        {
            "name": "Thumb_L_01",
            "translation": [
                0.00438021123409271,
                0.0132465753704309,
                -0.00877107493579388
            ],
            "rotation": [
                0.19027853012085,
                0.759691536426544,
                0.567167162895203,
                -0.254920065402985
            ],
            "scale": [
                1.0,
                1.0,
                1.0
            ],
            "children": [
                13
            ]
        },
        {
            "name": "Thumb_L_02",
            "translation": [
                0.00438021123409271,
                0.0132465753704309,
                -0.00877107493579388
            ],
            "rotation": [
                0.0516324117779732,
                0.701395869255066,
                0.564056575298309,
                -0.432687103748322
            ],
            "scale": [
                1.0,
                1.0,
                1.0
            ]
        },
        {
            "name": "idex_L_01",
            "translation": [
                0.00438021123409271,
                0.0132465753704309,
                -0.00877107493579388
            ],
            "rotation": [
                -0.403529226779938,
                0.720045685768127,
                0.540956795215607,
                0.161443889141083
            ],
            "scale": [
                1.0,
                1.0,
                1.0
            ],
            "children": [
                15
            ]
        },
        {
            "name": "idex_L_02",
            "translation": [
                0.00438021123409271,
                0.0132465753704309,
                -0.00877107493579388
            ],
            "rotation": [
                0.763898015022278,
                -0.312319666147232,
                -0.323070585727692,
                -0.463186413049698
            ],
            "scale": [
                1.0,
                1.0,
                1.0
            ]
        },
        {
            "name": "Ring_L_01",
            "translation": [
                0.00438021123409271,
                0.0132465753704309,
                -0.00877107493579388
            ],
            "rotation": [
                -0.37509348988533,
                0.68336808681488,
                0.61683601140976,
                0.108748286962509
            ],
            "scale": [
                1.0,
                1.0,
                1.0
            ],
            "children": [
                17
            ]
        },
        {
            "name": "Ring_L_02",
            "translation": [
                0.00438021123409271,
                0.0132465753704309,
                -0.00877107493579388
            ],
            "rotation": [
                0.700432240962982,
                -0.34211477637291,
                -0.441344857215881,
                -0.444484919309616
            ],
            "scale": [
                1.0,
                1.0,
                1.0
            ]
        },
        {
            "name": "Little_L_01",
            "translation": [
                0.00438021123409271,
                0.0132465753704309,
                -0.00877107493579388
            ],
            "rotation": [
                -0.450353890657425,
                0.578883767127991,
                0.658918619155884,
                0.167036518454552
            ],
            "scale": [
                1.0,
                1.0,
                1.0
            ],
            "children": [
                19
            ]
        },
        {
            "name": "Little_L_02",
            "translation": [
                0.00438021123409271,
                0.0132465753704309,
                -0.00877107493579388
            ],
            "rotation": [
                0.684369087219238,
                -0.263810187578201,
                -0.478431135416031,
                -0.482852786779404
            ],
            "scale": [
                1.0,
                1.0,
                1.0
            ]
        },
        {
            "name": "Hand_R_01",
            "translation": [
                0.00151650200132281,
                -0.000969985267147422,
                -0.00455965008586645
            ],
            "rotation": [
                0.862443625926971,
                -0.194767221808434,
                -0.00833551865071058,
                -0.467105150222778
            ],
            "scale": [
                1.0,
                1.0,
                1.0
            ],
            "children": [
                21,
                23,
                25,
                27,
                29,
                30,
                31,
                32,
                33
            ]
        },
        {
            "name": "Thumb_R_01",
            "translation": [
                0.00151289580389857,
                0.0155565077438951,
                -0.00450237188488245
            ],
            "rotation": [
                -0.758693218231201,
                -0.352993309497833,
                0.0297517310827971,
                0.546713054180145
            ],
            "scale": [
                1.0,
                1.0,
                1.0
            ],
            "children": [
                22
            ]
        },
        {
            "name": "Thumb_R_02",
            "translation": [
                0.00151289580389857,
                0.0155565077438951,
                -0.00450237188488245
            ],
            "rotation": [
                -0.729797422885895,
                -0.167081460356712,
                -0.203274071216583,
                0.630998551845551
            ],
            "scale": [
                1.0,
                1.0,
                1.0
            ]
        },
        {
            "name": "idex_R_01",
            "translation": [
                0.00151289580389857,
                0.0155565077438951,
                -0.00450237188488245
            ],
            "rotation": [
                0.735640287399292,
                0.45525050163269,
                0.209625363349915,
                -0.455672651529312
            ],
            "scale": [
                1.0,
                1.0,
                1.0
            ],
            "children": [
                24
            ]
        },
        {
            "name": "idex_R_02",
            "translation": [
                0.00151289580389857,
                0.0155565077438951,
                -0.00450237188488245
            ],
            "rotation": [
                0.526783049106598,
                0.686284422874451,
                0.35749951004982,
                -0.351720631122589
            ],
            "scale": [
                1.0,
                1.0,
                1.0
            ]
        },
        {
            "name": "Ring_R_01",
            "translation": [
                0.00151289580389857,
                0.0155565077438951,
                -0.00450237188488245
            ],
            "rotation": [
                0.762154638767242,
                0.436763048171997,
                0.271484404802322,
                -0.393261432647705
            ],
            "scale": [
                1.0,
                1.0,
                1.0
            ],
            "children": [
                26
            ]
        },
        {
            "name": "Ring_R_02",
            "translation": [
                0.00151289580389857,
                0.0155565077438951,
                -0.00450237188488245
            ],
            "rotation": [
                0.522640645503998,
                0.706043124198914,
                0.406557500362396,
                -0.251119196414948
            ],
            "scale": [
                1.0,
                1.0,
                1.0
            ]
        },
        {
            "name": "Little_R_01",
            "translation": [
                0.00151289580389857,
                0.0155565077438951,
                -0.00450237188488245
            ],
            "rotation": [
                0.773524403572083,
                0.433429688215256,
                0.32790669798851,
                -0.325999885797501
            ],
            "scale": [
                1.0,
                1.0,
                1.0
            ],
            "children": [
                28
            ]
        },
        {
            "name": "Little_R_02",
            "translation": [
                0.00151289580389857,
                0.0155565077438951,
                -0.00450237188488245
            ],
            "rotation": [
                0.504422843456268,
                0.729215085506439,
                0.437790483236313,
                -0.148803472518921
            ],
            "scale": [
                1.0,
                1.0,
                1.0
            ]
        },
        {
            "name": "weapon_gun_joint",
            "translation": [
                0.00151289580389857,
                0.0155565077438951,
                -0.00450237188488245
            ],
            "rotation": [
                0.889366865158081,
                -0.109494112432003,
                -0.161291018128395,
                0.41354912519455
            ],
            "scale": [
                1.0,
                1.0,
                1.0
            ]
        },
        {
            "name": "weapon_katana_joint",
            "translation": [
                0.00151289580389857,
                0.0155565077438951,
                -0.00450237188488245
            ],
            "rotation": [
                0.467105150222778,
                0.00833551865071058,
                -0.194767221808434,
                0.862443625926971
            ],
            "scale": [
                1.0,
                1.0,
                1.0
            ]
        },
        {
            "name": "weapon_knife_joint",
            "translation": [
                0.00151289580389857,
                0.0155565077438951,
                -0.00450237188488245
            ],
            "rotation": [
                0.886665463447571,
                -0.19512090086937,
                -0.0345104485750198,
                -0.417805284261703
            ],
            "scale": [
                1.0,
                1.0,
                1.0
            ]
        },
        {
            "name": "weapon_bazooka_joint",
            "translation": [
                0.00151289580389857,
                0.0155565077438951,
                -0.00450237188488245
            ],
            "rotation": [
                0.467105150222778,
                0.00833551865071058,
                -0.194767221808434,
                0.862443625926971
            ],
            "scale": [
                1.0,
                1.0,
                1.0
            ]
        },
        {
            "name": "weapon_bua_joint",
            "translation": [
                0.00151289580389857,
                0.0155565077438951,
                -0.00450237188488245
            ],
            "rotation": [
                0.441640257835388,
                -0.0959152951836586,
                -0.245385676622391,
                0.857636272907257
            ],
            "scale": [
                1.0,
                1.0,
                1.0
            ]
        },
        {
            "name": "jaw_down",
            "translation": [
                0.0,
                0.00247043999843299,
                -0.00123132392764091
            ],
            "rotation": [
                0.0,
                0.0,
                0.0,
                1.0
            ],
            "scale": [
                1.0,
                1.0,
                1.0
            ],
            "children": [
                35,
                36
            ]
        },
        {
            "name": "jaw_down1",
            "translation": [
                0.0,
                -0.00205848040059209,
                0.00652236258611083
            ],
            "rotation": [
                0.0,
                0.0,
                0.0,
                1.0
            ],
            "scale": [
                1.0,
                1.0,
                1.0
            ]
        },
        {
            "name": "Luoi1",
            "translation": [
                2.23042898142012e-05,
                -0.000203395495191216,
                0.000603716180194169
            ],
            "rotation": [
                -0.0,
                -0.70710676908493,
                0.0,
                0.70710676908493
            ],
            "scale": [
                1.0,
                1.0,
                1.0
            ],
            "children": [
                37
            ]
        },
        {
            "name": "Luoi2",
            "translation": [
                0.000704610487446189,
                0.0,
                1.56938263433301e-19
            ],
            "rotation": [
                0.0,
                0.0,
                0.0,
                1.0
            ],
            "scale": [
                1.0,
                1.0,
                1.0
            ],
            "children": [
                38
            ]
        },
        {
            "name": "Luoi3",
            "translation": [
                0.000730104802642018,
                0.0,
                1.6127506798734e-19
            ],
            "rotation": [
                0.0,
                0.0,
                0.0,
                1.0
            ],
            "scale": [
                1.0,
                1.0,
                1.0
            ],
            "children": [
                39
            ]
        },
        {
            "name": "Luoi4",
            "translation": [
                0.000752364401705563,
                0.0,
                1.67238187173841e-19
            ],
            "rotation": [
                0.0,
                0.0,
                0.0,
                1.0
            ],
            "scale": [
                1.0,
                1.0,
                1.0
            ],
            "children": [
                40
            ]
        },
        {
            "name": "Luoi5",
            "translation": [
                0.000736771035008132,
                0.0,
                1.62901369695105e-19
            ],
            "rotation": [
                0.0,
                0.0,
                0.0,
                1.0
            ],
            "scale": [
                1.0,
                1.0,
                1.0
            ],
            "children": [
                41
            ]
        },
        {
            "name": "Luoi6",
            "translation": [
                0.000753338332287967,
                2.22044599961948e-18,
                1.67780287743095e-19
            ],
            "rotation": [
                0.0,
                -0.0,
                -0.0160193089395761,
                0.999871671199799
            ],
            "scale": [
                1.0,
                1.0,
                1.0
            ],
            "children": [
                42
            ]
        },
        {
            "name": "Luoi7",
            "translation": [
                0.000747368496377021,
                -8.88178399847791e-18,
                1.653408287191e-19
            ],
            "rotation": [
                -3.85137935954083e-34,
                6.08380387256922e-36,
                -0.0157944578677416,
                0.999875247478485
            ],
            "scale": [
                1.0,
                1.0,
                1.0
            ],
            "children": [
                43
            ]
        },
        {
            "name": "Luoi8",
            "translation": [
                0.000753030471969396,
                2.22044599961948e-18,
                1.66967130426865e-19
            ],
            "rotation": [
                8.73465403715901e-34,
                6.149211517875e-33,
                -0.0167453978210688,
                0.999859809875488
            ],
            "scale": [
                1.0,
                1.0,
                1.0
            ],
            "children": [
                44
            ]
        },
        {
            "name": "Luoi9",
            "translation": [
                0.000740690680686384,
                4.44089199923895e-18,
                1.63985570833614e-19
            ],
            "rotation": [
                -7.70371977754894e-34,
                -0.0,
                0.0,
                1.0
            ],
            "scale": [
                1.0,
                1.0,
                1.0
            ]
        },
        {
            "name": "leg_L",
            "translation": [
                0.00465013552457094,
                -0.00379317277111113,
                0.000159112401888706
            ],
            "rotation": [
                -0.0723621472716331,
                -0.0487260296940804,
                -0.707963705062866,
                0.700840175151825
            ],
            "scale": [
                1.0,
                1.0,
                1.0
            ],
            "children": [
                46
            ]
        },
        {
            "name": "knee_L",
            "translation": [
                0.00354297086596489,
                5.55111499904869e-19,
                2.77555749952435e-19
            ],
            "rotation": [
                -0.000110674533061683,
                0.187327742576599,
                0.00652872817590833,
                0.982275784015656
            ],
            "scale": [
                1.0,
                1.0,
                1.0
            ],
            "children": [
                47
            ]
        },
        {
            "name": "feet_L",
            "translation": [
                0.0031205506529659,
                1.66533449971461e-18,
                -9.02056174420715e-19
            ],
            "rotation": [
                0.0125349489971995,
                -0.775841057300568,
                -0.0102942734956741,
                0.630719900131226
            ],
            "scale": [
                1.0,
                1.0,
                1.0
            ],
            "children": [
                48
            ]
        },
        {
            "name": "feet_L_end",
            "translation": [
                0.00199049687944353,
                0.0,
                2.77555749952435e-19
            ],
            "rotation": [
                -9.39371405928501e-27,
                -1.29246970711411e-26,
                -0.0,
                1.0
            ],
            "scale": [
                1.0,
                1.0,
                1.0
            ]
        },
        {
            "name": "leg_R",
            "translation": [
                -0.00465013738721609,
                -0.00379316788166761,
                0.000159112096298486
            ],
            "rotation": [
                0.700840175151825,
                0.707963645458221,
                -0.0487258844077587,
                0.0723622888326645
            ],
            "scale": [
                1.0,
                1.0,
                1.0
            ],
            "children": [
                50
            ]
        },
        {
            "name": "knee_R",
            "translation": [
                -0.00354298041202128,
                7.43038630623971e-10,
                -1.26160104585438e-09
            ],
            "rotation": [
                -0.000110674533061683,
                0.187327742576599,
                0.00652872817590833,
                0.982275784015656
            ],
            "scale": [
                1.0,
                1.0,
                1.0
            ],
            "children": [
                51
            ]
        },
        {
            "name": "feet_R",
            "translation": [
                -0.00312054716050625,
                -2.77555739612677e-18,
                3.18168646984418e-09
            ],
            "rotation": [
                0.0125351045280695,
                -0.775841057300568,
                -0.0102943992242217,
                0.630719900131226
            ],
            "scale": [
                1.0,
                1.0,
                1.0
            ],
            "children": [
                52
            ]
        },
        {
            "name": "feet_R_end",
            "translation": [
                -0.00199049199000001,
                -1.83464350584142e-15,
                2.98372422151579e-18
            ],
            "rotation": [
                -1.17029225515328e-26,
                3.23117426778526e-27,
                0.0,
                1.0
            ],
            "scale": [
                1.0,
                1.0,
                1.0
            ]
        },
        {
            "name": "Bua",
            "translation": [
                -0.0141736418008804,
                -0.0220633689314127,
                0.0102126859128475
            ],
            "rotation": [
                0.70710676908493,
                0.0,
                0.0,
                0.70710676908493
            ],
            "scale": [
                2.20000004768372,
                2.20000004768372,
                2.20000004768372
            ],
            "mesh": 2,
            "skin": 2
        }
    ]
}