{
  "__type__": "cc.Skeleton",
  "_name": "",
  "_objFlags": 0,
  "_native": "",
  "_model": {
    "__uuid__": "d8d8ae93-fb90-4893-a192-a6dd840d4517"
  },
  "_jointIndices": [
    5,
    6,
    7,
    8,
    9,
    34,
    45,
    46,
    47,
    49,
    50,
    51,
    10
  ],
  "_skinIndex": 0
}