{
  "__type__": "cc.Material",
  "_name": "batman",
  "_objFlags": 0,
  "_native": "",
  "_effectAsset": {
    "__uuid__": "abc2cb62-7852-4525-a90d-d474487b88f2"
  },
  "_techniqueIndex": 0,
  "_techniqueData": {
    "0": {
      "defines": {
        "USE_DIFFUSE_TEXTURE": true,
        "USE_EMISSIVE": true,
        "USE_EMISSIVE_TEXTURE": true
      },
      "props": {
        "emissiveColor": {
          "__type__": "cc.Color",
          "r": 223,
          "g": 223,
          "b": 223,
          "a": 255
        },
        "diffuseColor": {
          "__type__": "cc.Color",
          "r": 109,
          "g": 103,
          "b": 103,
          "a": 255
        },
        "specularColor": {
          "__type__": "cc.Color",
          "r": 109,
          "g": 103,
          "b": 103,
          "a": 255
        },
        "diffuseTexture": {
          "__uuid__": "830aaee9-671c-4666-a90c-4d3669a93059"
        },
        "emissiveTexture": {
          "__uuid__": "830aaee9-671c-4666-a90c-4d3669a93059"
        }
      }
    }
  }
}