[
  {
    "__type__": "cc.Mesh",
    "_name": "",
    "_objFlags": 0,
    "_native": ".bin",
    "_vertexBundles": [
      {
        "__id__": 1
      }
    ],
    "_primitives": [
      {
        "__id__": 7
      }
    ],
    "_minPos": {
      "__type__": "cc.Vec3",
      "x": -0.299938797950745,
      "y": 0.0271113906055689,
      "z": 0.130880668759346
    },
    "_maxPos": {
      "__type__": "cc.Vec3",
      "x": -0.244204223155975,
      "y": 0.134778827428818,
      "z": 0.214765012264252
    }
  },
  {
    "__type__": "cc.mesh.VertexBundle",
    "data": {
      "__id__": 2
    },
    "formats": [
      {
        "__id__": 3
      },
      {
        "__id__": 4
      },
      {
        "__id__": 5
      },
      {
        "__id__": 6
      }
    ],
    "verticesCount": 1405
  },
  {
    "__type__": "cc.BufferRange",
    "offset": 0,
    "length": 56200
  },
  {
    "__type__": "cc.mesh.VertexFormat",
    "name": "a_normal",
    "type": 5126,
    "num": 3,
    "normalize": false
  },
  {
    "__type__": "cc.mesh.VertexFormat",
    "name": "a_position",
    "type": 5126,
    "num": 3,
    "normalize": false
  },
  {
    "__type__": "cc.mesh.VertexFormat",
    "name": "a_uv0",
    "type": 5126,
    "num": 2,
    "normalize": false
  },
  {
    "__type__": "cc.mesh.VertexFormat",
    "name": "a_uv1",
    "type": 5126,
    "num": 2,
    "normalize": false
  },
  {
    "__type__": "cc.mesh.Primitive",
    "vertexBundleIndices": [
      0
    ],
    "data": {
      "__id__": 8
    },
    "indexUnit": 5123,
    "topology": 4
  },
  {
    "__type__": "cc.BufferRange",
    "offset": 56200,
    "length": 4896
  }
]