{
  "__type__": "cc.SkeletonAnimationClip",
  "_name": "Idle",
  "_objFlags": 0,
  "_native": ".bin",
  "_duration": 1.9166666269302368,
  "sample": 30,
  "speed": 1,
  "wrapMode": 2,
  "events": [],
  "description": {
    "Character1_Reference": {
      "position": {
        "offset": 0,
        "frameCount": 16
      },
      "quat": {
        "offset": 64,
        "frameCount": 20
      },
      "scale": {
        "offset": 164,
        "frameCount": 1
      }
    },
    "Character1_Reference/Character1_Hips/Character1_LeftUpLeg": {
      "quat": {
        "offset": 168,
        "frameCount": 30
      },
      "scale": {
        "offset": 318,
        "frameCount": 1
      },
      "position": {
        "offset": 322,
        "frameCount": 1
      }
    },
    "Character1_Reference/Character1_Hips/Character1_LeftUpLeg/Character1_LeftLeg": {
      "quat": {
        "offset": 326,
        "frameCount": 38
      },
      "scale": {
        "offset": 516,
        "frameCount": 1
      },
      "position": {
        "offset": 520,
        "frameCount": 1
      }
    },
    "Character1_Reference/Character1_Hips/Character1_RightUpLeg": {
      "quat": {
        "offset": 524,
        "frameCount": 23
      },
      "scale": {
        "offset": 639,
        "frameCount": 1
      },
      "position": {
        "offset": 643,
        "frameCount": 1
      }
    },
    "Character1_Reference/Character1_Hips/Character1_RightUpLeg/Character1_RightLeg": {
      "quat": {
        "offset": 647,
        "frameCount": 37
      },
      "scale": {
        "offset": 832,
        "frameCount": 1
      },
      "position": {
        "offset": 836,
        "frameCount": 1
      }
    },
    "Character1_Reference/Character1_Hips/Character1_Spine": {
      "quat": {
        "offset": 840,
        "frameCount": 19
      },
      "scale": {
        "offset": 935,
        "frameCount": 1
      },
      "position": {
        "offset": 939,
        "frameCount": 1
      }
    },
    "Character1_Reference/Character1_Hips/Character1_Spine/Character1_Spine1": {
      "quat": {
        "offset": 943,
        "frameCount": 8
      },
      "scale": {
        "offset": 983,
        "frameCount": 1
      },
      "position": {
        "offset": 987,
        "frameCount": 1
      }
    },
    "Character1_Reference/Character1_Hips/Character1_Spine/Character1_Spine1/Character1_Spine2": {
      "quat": {
        "offset": 991,
        "frameCount": 8
      },
      "scale": {
        "offset": 1031,
        "frameCount": 1
      },
      "position": {
        "offset": 1035,
        "frameCount": 1
      }
    },
    "Character1_Reference/Character1_Hips/Character1_Spine/Character1_Spine1/Character1_Spine2/Character1_Neck": {
      "quat": {
        "offset": 1039,
        "frameCount": 23
      },
      "scale": {
        "offset": 1154,
        "frameCount": 1
      },
      "position": {
        "offset": 1158,
        "frameCount": 1
      }
    },
    "Character1_Reference/Character1_Hips": {
      "quat": {
        "offset": 1162,
        "frameCount": 1
      },
      "scale": {
        "offset": 1167,
        "frameCount": 1
      },
      "position": {
        "offset": 1171,
        "frameCount": 1
      }
    },
    "Character1_Reference/Character1_Hips/Character1_LeftUpLeg/Character1_LeftLeg/Character1_LeftFoot": {
      "quat": {
        "offset": 1175,
        "frameCount": 1
      },
      "scale": {
        "offset": 1180,
        "frameCount": 1
      },
      "position": {
        "offset": 1184,
        "frameCount": 1
      }
    },
    "Character1_Reference/Character1_Hips/Character1_RightUpLeg/Character1_RightLeg/Character1_RightFoot": {
      "quat": {
        "offset": 1188,
        "frameCount": 1
      },
      "scale": {
        "offset": 1193,
        "frameCount": 1
      },
      "position": {
        "offset": 1197,
        "frameCount": 1
      }
    },
    "Character1_Reference/Character1_Hips/Character1_Spine/Character1_Spine1/Character1_Spine2/Character1_LeftShoulder": {
      "quat": {
        "offset": 1201,
        "frameCount": 1
      },
      "scale": {
        "offset": 1206,
        "frameCount": 1
      },
      "position": {
        "offset": 1210,
        "frameCount": 1
      }
    },
    "Character1_Reference/Character1_Hips/Character1_Spine/Character1_Spine1/Character1_Spine2/Character1_LeftShoulder/Character1_LeftArm": {
      "quat": {
        "offset": 1214,
        "frameCount": 1
      },
      "scale": {
        "offset": 1219,
        "frameCount": 1
      },
      "position": {
        "offset": 1223,
        "frameCount": 1
      }
    },
    "Character1_Reference/Character1_Hips/Character1_Spine/Character1_Spine1/Character1_Spine2/Character1_LeftShoulder/Character1_LeftArm/Character1_LeftForeArm": {
      "quat": {
        "offset": 1227,
        "frameCount": 1
      },
      "scale": {
        "offset": 1232,
        "frameCount": 1
      },
      "position": {
        "offset": 1236,
        "frameCount": 1
      }
    },
    "Character1_Reference/Character1_Hips/Character1_Spine/Character1_Spine1/Character1_Spine2/Character1_LeftShoulder/Character1_LeftArm/Character1_LeftForeArm/Character1_LeftHand": {
      "quat": {
        "offset": 1240,
        "frameCount": 1
      },
      "scale": {
        "offset": 1245,
        "frameCount": 1
      },
      "position": {
        "offset": 1249,
        "frameCount": 1
      }
    },
    "Character1_Reference/Character1_Hips/Character1_Spine/Character1_Spine1/Character1_Spine2/Character1_RightShoulder": {
      "quat": {
        "offset": 1253,
        "frameCount": 1
      },
      "scale": {
        "offset": 1258,
        "frameCount": 1
      },
      "position": {
        "offset": 1262,
        "frameCount": 1
      }
    },
    "Character1_Reference/Character1_Hips/Character1_Spine/Character1_Spine1/Character1_Spine2/Character1_RightShoulder/Character1_RightArm": {
      "quat": {
        "offset": 1266,
        "frameCount": 1
      },
      "scale": {
        "offset": 1271,
        "frameCount": 1
      },
      "position": {
        "offset": 1275,
        "frameCount": 1
      }
    },
    "Character1_Reference/Character1_Hips/Character1_Spine/Character1_Spine1/Character1_Spine2/Character1_RightShoulder/Character1_RightArm/Character1_RightForeArm": {
      "quat": {
        "offset": 1279,
        "frameCount": 1
      },
      "scale": {
        "offset": 1284,
        "frameCount": 1
      },
      "position": {
        "offset": 1288,
        "frameCount": 1
      }
    },
    "Character1_Reference/Character1_Hips/Character1_Spine/Character1_Spine1/Character1_Spine2/Character1_RightShoulder/Character1_RightArm/Character1_RightForeArm/Character1_RightHand": {
      "quat": {
        "offset": 1292,
        "frameCount": 1
      },
      "scale": {
        "offset": 1297,
        "frameCount": 1
      },
      "position": {
        "offset": 1301,
        "frameCount": 1
      }
    },
    "Character1_Reference/Character1_Hips/Character1_Spine/Character1_Spine1/Character1_Spine2/Character1_RightShoulder/Character1_RightArm/Character1_RightForeArm/Character1_RightHand/kiemngulam": {
      "quat": {
        "offset": 1305,
        "frameCount": 1
      },
      "scale": {
        "offset": 1310,
        "frameCount": 1
      },
      "position": {
        "offset": 1314,
        "frameCount": 1
      }
    },
    "Character1_Reference/Character1_Hips/Character1_Spine/Character1_Spine1/Character1_Spine2/Character1_RightShoulder/Character1_RightArm/Character1_RightForeArm/Character1_RightHand/kiemlon": {
      "quat": {
        "offset": 1318,
        "frameCount": 1
      },
      "scale": {
        "offset": 1323,
        "frameCount": 1
      },
      "position": {
        "offset": 1327,
        "frameCount": 1
      }
    },
    "Character1_Reference/Character1_Hips/Character1_Spine/Character1_Spine1/Character1_Spine2/Character1_RightShoulder/Character1_RightArm/Character1_RightForeArm/Character1_RightHand/katana": {
      "quat": {
        "offset": 1331,
        "frameCount": 1
      },
      "scale": {
        "offset": 1336,
        "frameCount": 1
      },
      "position": {
        "offset": 1340,
        "frameCount": 1
      }
    },
    "Character1_Reference/Character1_Hips/Character1_Spine/Character1_Spine1/Character1_Spine2/Character1_RightShoulder/Character1_RightArm/Character1_RightForeArm/Character1_RightHand/kiemlaze": {
      "quat": {
        "offset": 1344,
        "frameCount": 1
      },
      "scale": {
        "offset": 1349,
        "frameCount": 1
      },
      "position": {
        "offset": 1353,
        "frameCount": 1
      }
    },
    "Character1_Reference/Character1_Hips/Character1_Spine/Character1_Spine1/Character1_Spine2/Character1_RightShoulder/Character1_RightArm/Character1_RightForeArm/Character1_RightHand/kiemngan": {
      "quat": {
        "offset": 1357,
        "frameCount": 1
      },
      "scale": {
        "offset": 1362,
        "frameCount": 1
      },
      "position": {
        "offset": 1366,
        "frameCount": 1
      }
    },
    "Character1_Reference/Character1_Hips/Character1_Spine/Character1_Spine1/Character1_Spine2/Character1_Neck/Character1_Head": {
      "quat": {
        "offset": 1370,
        "frameCount": 1
      },
      "scale": {
        "offset": 1375,
        "frameCount": 1
      },
      "position": {
        "offset": 1379,
        "frameCount": 1
      }
    },
    "stickman_new": {
      "quat": {
        "offset": 1383,
        "frameCount": 1
      },
      "scale": {
        "offset": 1388,
        "frameCount": 1
      },
      "position": {
        "offset": 1392,
        "frameCount": 1
      }
    }
  }
}