{
  "__type__": "cc.Skeleton",
  "_name": "",
  "_objFlags": 0,
  "_native": "",
  "_model": {
    "__uuid__": "474dbf18-502c-412f-89b8-cc5b88275cf3"
  },
  "_jointIndices": [
    5,
    6,
    7,
    8,
    9,
    34,
    45,
    46,
    47,
    49,
    50,
    51,
    10
  ],
  "_skinIndex": 0
}