{
  "__type__": "cc.SkeletonAnimationClip",
  "_name": "Attack",
  "_objFlags": 0,
  "_native": ".bin",
  "_duration": 1.4166666269302368,
  "sample": 30,
  "speed": 1,
  "wrapMode": 2,
  "events": [],
  "description": {
    "Character1_Reference": {
      "position": {
        "offset": 0,
        "frameCount": 30
      },
      "quat": {
        "offset": 120,
        "frameCount": 35
      },
      "scale": {
        "offset": 295,
        "frameCount": 1
      }
    },
    "Character1_Reference/Character1_Hips/Character1_LeftUpLeg": {
      "quat": {
        "offset": 299,
        "frameCount": 34
      },
      "scale": {
        "offset": 469,
        "frameCount": 1
      },
      "position": {
        "offset": 473,
        "frameCount": 1
      }
    },
    "Character1_Reference/Character1_Hips/Character1_LeftUpLeg/Character1_LeftLeg": {
      "quat": {
        "offset": 477,
        "frameCount": 34
      },
      "scale": {
        "offset": 647,
        "frameCount": 1
      },
      "position": {
        "offset": 651,
        "frameCount": 1
      }
    },
    "Character1_Reference/Character1_Hips/Character1_RightUpLeg": {
      "quat": {
        "offset": 655,
        "frameCount": 34
      },
      "scale": {
        "offset": 825,
        "frameCount": 1
      },
      "position": {
        "offset": 829,
        "frameCount": 1
      }
    },
    "Character1_Reference/Character1_Hips/Character1_RightUpLeg/Character1_RightLeg": {
      "quat": {
        "offset": 833,
        "frameCount": 34
      },
      "scale": {
        "offset": 1003,
        "frameCount": 1
      },
      "position": {
        "offset": 1007,
        "frameCount": 1
      }
    },
    "Character1_Reference/Character1_Hips/Character1_Spine": {
      "quat": {
        "offset": 1011,
        "frameCount": 34
      },
      "scale": {
        "offset": 1181,
        "frameCount": 1
      },
      "position": {
        "offset": 1185,
        "frameCount": 1
      }
    },
    "Character1_Reference/Character1_Hips/Character1_Spine/Character1_Spine1": {
      "quat": {
        "offset": 1189,
        "frameCount": 31
      },
      "scale": {
        "offset": 1344,
        "frameCount": 1
      },
      "position": {
        "offset": 1348,
        "frameCount": 1
      }
    },
    "Character1_Reference/Character1_Hips/Character1_Spine/Character1_Spine1/Character1_Spine2": {
      "quat": {
        "offset": 1352,
        "frameCount": 31
      },
      "scale": {
        "offset": 1507,
        "frameCount": 1
      },
      "position": {
        "offset": 1511,
        "frameCount": 1
      }
    },
    "Character1_Reference/Character1_Hips/Character1_Spine/Character1_Spine1/Character1_Spine2/Character1_LeftShoulder/Character1_LeftArm": {
      "quat": {
        "offset": 1515,
        "frameCount": 13
      },
      "scale": {
        "offset": 1580,
        "frameCount": 1
      },
      "position": {
        "offset": 1584,
        "frameCount": 1
      }
    },
    "Character1_Reference/Character1_Hips/Character1_Spine/Character1_Spine1/Character1_Spine2/Character1_LeftShoulder/Character1_LeftArm/Character1_LeftForeArm": {
      "quat": {
        "offset": 1588,
        "frameCount": 13
      },
      "scale": {
        "offset": 1653,
        "frameCount": 1
      },
      "position": {
        "offset": 1657,
        "frameCount": 1
      }
    },
    "Character1_Reference/Character1_Hips/Character1_Spine/Character1_Spine1/Character1_Spine2/Character1_RightShoulder": {
      "quat": {
        "offset": 1661,
        "frameCount": 18
      },
      "scale": {
        "offset": 1751,
        "frameCount": 1
      },
      "position": {
        "offset": 1755,
        "frameCount": 1
      }
    },
    "Character1_Reference/Character1_Hips/Character1_Spine/Character1_Spine1/Character1_Spine2/Character1_RightShoulder/Character1_RightArm": {
      "quat": {
        "offset": 1759,
        "frameCount": 19
      },
      "scale": {
        "offset": 1854,
        "frameCount": 1
      },
      "position": {
        "offset": 1858,
        "frameCount": 1
      }
    },
    "Character1_Reference/Character1_Hips/Character1_Spine/Character1_Spine1/Character1_Spine2/Character1_RightShoulder/Character1_RightArm/Character1_RightForeArm": {
      "quat": {
        "offset": 1862,
        "frameCount": 19
      },
      "scale": {
        "offset": 1957,
        "frameCount": 1
      },
      "position": {
        "offset": 1961,
        "frameCount": 1
      }
    },
    "Character1_Reference/Character1_Hips/Character1_Spine/Character1_Spine1/Character1_Spine2/Character1_RightShoulder/Character1_RightArm/Character1_RightForeArm/Character1_RightHand": {
      "quat": {
        "offset": 1965,
        "frameCount": 13
      },
      "scale": {
        "offset": 2030,
        "frameCount": 1
      },
      "position": {
        "offset": 2034,
        "frameCount": 1
      }
    },
    "Character1_Reference/Character1_Hips/Character1_Spine/Character1_Spine1/Character1_Spine2/Character1_Neck": {
      "quat": {
        "offset": 2038,
        "frameCount": 33
      },
      "scale": {
        "offset": 2203,
        "frameCount": 1
      },
      "position": {
        "offset": 2207,
        "frameCount": 1
      }
    },
    "Character1_Reference/Character1_Hips": {
      "quat": {
        "offset": 2211,
        "frameCount": 1
      },
      "scale": {
        "offset": 2216,
        "frameCount": 1
      },
      "position": {
        "offset": 2220,
        "frameCount": 1
      }
    },
    "Character1_Reference/Character1_Hips/Character1_LeftUpLeg/Character1_LeftLeg/Character1_LeftFoot": {
      "quat": {
        "offset": 2224,
        "frameCount": 1
      },
      "scale": {
        "offset": 2229,
        "frameCount": 1
      },
      "position": {
        "offset": 2233,
        "frameCount": 1
      }
    },
    "Character1_Reference/Character1_Hips/Character1_RightUpLeg/Character1_RightLeg/Character1_RightFoot": {
      "quat": {
        "offset": 2237,
        "frameCount": 1
      },
      "scale": {
        "offset": 2242,
        "frameCount": 1
      },
      "position": {
        "offset": 2246,
        "frameCount": 1
      }
    },
    "Character1_Reference/Character1_Hips/Character1_Spine/Character1_Spine1/Character1_Spine2/Character1_LeftShoulder": {
      "quat": {
        "offset": 2250,
        "frameCount": 1
      },
      "scale": {
        "offset": 2255,
        "frameCount": 1
      },
      "position": {
        "offset": 2259,
        "frameCount": 1
      }
    },
    "Character1_Reference/Character1_Hips/Character1_Spine/Character1_Spine1/Character1_Spine2/Character1_LeftShoulder/Character1_LeftArm/Character1_LeftForeArm/Character1_LeftHand": {
      "quat": {
        "offset": 2263,
        "frameCount": 1
      },
      "scale": {
        "offset": 2268,
        "frameCount": 1
      },
      "position": {
        "offset": 2272,
        "frameCount": 1
      }
    },
    "Character1_Reference/Character1_Hips/Character1_Spine/Character1_Spine1/Character1_Spine2/Character1_RightShoulder/Character1_RightArm/Character1_RightForeArm/Character1_RightHand/kiemngulam": {
      "quat": {
        "offset": 2276,
        "frameCount": 1
      },
      "scale": {
        "offset": 2281,
        "frameCount": 1
      },
      "position": {
        "offset": 2285,
        "frameCount": 1
      }
    },
    "Character1_Reference/Character1_Hips/Character1_Spine/Character1_Spine1/Character1_Spine2/Character1_RightShoulder/Character1_RightArm/Character1_RightForeArm/Character1_RightHand/kiemlon": {
      "quat": {
        "offset": 2289,
        "frameCount": 1
      },
      "scale": {
        "offset": 2294,
        "frameCount": 1
      },
      "position": {
        "offset": 2298,
        "frameCount": 1
      }
    },
    "Character1_Reference/Character1_Hips/Character1_Spine/Character1_Spine1/Character1_Spine2/Character1_RightShoulder/Character1_RightArm/Character1_RightForeArm/Character1_RightHand/katana": {
      "quat": {
        "offset": 2302,
        "frameCount": 1
      },
      "scale": {
        "offset": 2307,
        "frameCount": 1
      },
      "position": {
        "offset": 2311,
        "frameCount": 1
      }
    },
    "Character1_Reference/Character1_Hips/Character1_Spine/Character1_Spine1/Character1_Spine2/Character1_RightShoulder/Character1_RightArm/Character1_RightForeArm/Character1_RightHand/kiemlaze": {
      "quat": {
        "offset": 2315,
        "frameCount": 1
      },
      "scale": {
        "offset": 2320,
        "frameCount": 1
      },
      "position": {
        "offset": 2324,
        "frameCount": 1
      }
    },
    "Character1_Reference/Character1_Hips/Character1_Spine/Character1_Spine1/Character1_Spine2/Character1_RightShoulder/Character1_RightArm/Character1_RightForeArm/Character1_RightHand/kiemngan": {
      "quat": {
        "offset": 2328,
        "frameCount": 1
      },
      "scale": {
        "offset": 2333,
        "frameCount": 1
      },
      "position": {
        "offset": 2337,
        "frameCount": 1
      }
    },
    "Character1_Reference/Character1_Hips/Character1_Spine/Character1_Spine1/Character1_Spine2/Character1_Neck/Character1_Head": {
      "quat": {
        "offset": 2341,
        "frameCount": 1
      },
      "scale": {
        "offset": 2346,
        "frameCount": 1
      },
      "position": {
        "offset": 2350,
        "frameCount": 1
      }
    },
    "stickman_new": {
      "quat": {
        "offset": 2354,
        "frameCount": 1
      },
      "scale": {
        "offset": 2359,
        "frameCount": 1
      },
      "position": {
        "offset": 2363,
        "frameCount": 1
      }
    }
  }
}