{
  "__type__": "cc.Skeleton",
  "_name": "",
  "_objFlags": 0,
  "_native": "",
  "_model": {
    "__uuid__": "474dbf18-502c-412f-89b8-cc5b88275cf3"
  },
  "_jointIndices": [
    36,
    37,
    38,
    39,
    40,
    41,
    42,
    43,
    44
  ],
  "_skinIndex": 1
}