{
  "__type__": "cc.SpriteFrame",
  "content": {
    "name": "skin_captain",
    "texture": "978282c1-af2c-48c5-a30a-763cfc1dea60",
    "atlas": "",
    "rect": [
      0,
      0,
      320,
      320
    ],
    "offset": [
      0,
      0
    ],
    "originalSize": [
      320,
      320
    ],
    "capInsets": [
      0,
      0,
      0,
      0
    ]
  }
}