{
  "__type__": "cc.Model",
  "_name": "map_city2",
  "_objFlags": 0,
  "_native": "",
  "_nodes": [
    {
      "name": "RootNode",
      "scale": [
        1,
        1,
        1
      ],
      "children": [
        1
      ],
      "position": [
        0,
        0,
        0
      ],
      "quat": [
        0,
        0,
        0,
        1
      ],
      "path": ""
    },
    {
      "name": "map_city",
      "scale": [
        1,
        1,
        1
      ],
      "children": [
        2,
        3,
        4,
        5,
        6,
        7,
        8,
        9,
        10,
        11,
        12,
        13,
        14,
        15,
        16,
        17,
        18,
        19,
        20,
        21,
        22
      ],
      "parent": null,
      "position": [
        0,
        0,
        0
      ],
      "quat": [
        0,
        0,
        0,
        1
      ],
      "path": "map_city"
    },
    {
      "name": "house:Объект_КF",
      "scale": [
        1,
        1,
        1
      ],
      "mesh": 0,
      "parent": null,
      "position": [
        -0.00460494589060545,
        0,
        0
      ],
      "quat": [
        0,
        0,
        0,
        1
      ],
      "path": "map_city/house:Объект_КF"
    },
    {
      "name": "Plane.023",
      "scale": [
        30.3762493133545,
        30.3762493133545,
        30.3762493133545
      ],
      "mesh": 17,
      "parent": null,
      "position": [
        -0.0000128941610455513,
        0.023232888430357,
        0.000642796512693167
      ],
      "quat": [
        -0.707106828689575,
        0,
        0,
        0.707106709480286
      ],
      "path": "map_city/Plane.023"
    },
    {
      "name": "Объект_Куб.009",
      "scale": [
        1,
        1,
        1
      ],
      "mesh": 1,
      "parent": null,
      "position": [
        0,
        0,
        0
      ],
      "quat": [
        0,
        0,
        0,
        1
      ],
      "path": "map_city/Объект_Куб.009"
    },
    {
      "name": "Объект_Куб.024",
      "scale": [
        0.00407712906599045,
        0.00407712906599045,
        0.00407712906599045
      ],
      "mesh": 2,
      "parent": null,
      "position": [
        0.0860166996717453,
        0.0666527897119522,
        -0.267387926578522
      ],
      "quat": [
        1.68415503765118e-8,
        -0.70710676908493,
        1.68415503765118e-8,
        0.70710676908493
      ],
      "path": "map_city/Объект_Куб.024"
    },
    {
      "name": "Объект_Куб.025",
      "scale": [
        0.00613179989159107,
        0.00648955674842,
        0.00613179989159107
      ],
      "mesh": 3,
      "parent": null,
      "position": [
        0.146772742271423,
        0.0880899429321289,
        -0.267387926578522
      ],
      "quat": [
        1.68415503765118e-8,
        -0.70710676908493,
        1.68415503765118e-8,
        0.70710676908493
      ],
      "path": "map_city/Объект_Куб.025"
    },
    {
      "name": "Объект_Куб.027",
      "scale": [
        0.00418811663985252,
        0.00418811663985252,
        0.00418811663985252
      ],
      "mesh": 4,
      "parent": null,
      "position": [
        0.271461218595505,
        0.0670683309435844,
        -0.125667825341225
      ],
      "quat": [
        1.92528149456014e-14,
        1,
        -8.14603424714733e-8,
        1.94707183709397e-7
      ],
      "path": "map_city/Объект_Куб.027"
    },
    {
      "name": "Объект_Куб.028",
      "scale": [
        1,
        1,
        1
      ],
      "mesh": 5,
      "parent": null,
      "position": [
        0,
        0,
        0
      ],
      "quat": [
        0,
        0,
        0,
        1
      ],
      "path": "map_city/Объект_Куб.028"
    },
    {
      "name": "Объект_Куб.029",
      "scale": [
        1,
        1,
        1
      ],
      "mesh": 6,
      "parent": null,
      "position": [
        0,
        0,
        0
      ],
      "quat": [
        0,
        0,
        0,
        1
      ],
      "path": "map_city/Объект_Куб.029"
    },
    {
      "name": "Объект_Куб.033",
      "scale": [
        0.00868973229080439,
        0.00868973229080439,
        0.00868973229080439
      ],
      "mesh": 7,
      "parent": null,
      "position": [
        0.0000963665443123318,
        0.0310678668320179,
        0.000181130031705834
      ],
      "quat": [
        9.58243460437696e-15,
        1,
        -8.14603495769006e-8,
        1.94707183709397e-7
      ],
      "path": "map_city/Объект_Куб.033"
    },
    {
      "name": "Plane.001",
      "scale": [
        30.3762493133545,
        30.3762493133545,
        30.3762493133545
      ],
      "mesh": 18,
      "parent": null,
      "position": [
        -0.0000128941610455513,
        0.0083364974707365,
        0.000642796512693167
      ],
      "quat": [
        -0.707106828689575,
        0,
        0,
        0.707106709480286
      ],
      "path": "map_city/Plane.001"
    },
    {
      "name": "Plane.002",
      "scale": [
        10.3508958816528,
        10.3508958816528,
        10.3508958816528
      ],
      "mesh": 19,
      "parent": null,
      "position": [
        -0.32515749335289,
        0.00695226108655334,
        -0.00312784314155579
      ],
      "quat": [
        -0.707106828689575,
        0,
        0,
        0.707106709480286
      ],
      "path": "map_city/Plane.002"
    },
    {
      "name": "fence",
      "scale": [
        30.3762493133545,
        30.3762493133545,
        30.3762493133545
      ],
      "mesh": 20,
      "parent": null,
      "position": [
        -0.0000128941610455513,
        0.0151072880253196,
        0.000642796512693167
      ],
      "quat": [
        -0.707106828689575,
        0,
        0,
        0.707106709480286
      ],
      "path": "map_city/fence"
    },
    {
      "name": "town:Объект_КF",
      "scale": [
        1,
        1,
        1
      ],
      "mesh": 8,
      "parent": null,
      "position": [
        0,
        0,
        0
      ],
      "quat": [
        0,
        0,
        0,
        1
      ],
      "path": "map_city/town:Объект_КF"
    },
    {
      "name": "Объект_Куб.034",
      "scale": [
        0.0127445850521326,
        0.0127445850521326,
        0.0127445850521326
      ],
      "mesh": 9,
      "parent": null,
      "position": [
        -0.270955413579941,
        0.0467545501887798,
        0.257006704807281
      ],
      "quat": [
        1.72982491503625e-13,
        -4.31904084052803e-7,
        4.00511368070511e-7,
        1
      ],
      "path": "map_city/Объект_Куб.034"
    },
    {
      "name": "Объект_КF6",
      "scale": [
        1,
        1,
        1
      ],
      "mesh": 10,
      "parent": null,
      "position": [
        -0.142765045166016,
        0,
        -0.0078983111307025
      ],
      "quat": [
        0,
        -0.70710676908493,
        0,
        0.70710676908493
      ],
      "path": "map_city/Объект_КF6"
    },
    {
      "name": "Объект_КF5",
      "scale": [
        1,
        1,
        1
      ],
      "mesh": 11,
      "parent": null,
      "position": [
        -0.579642117023468,
        0,
        0.0259172022342682
      ],
      "quat": [
        0,
        0,
        0,
        1
      ],
      "path": "map_city/Объект_КF5"
    },
    {
      "name": "Объект_КF4",
      "scale": [
        1,
        1,
        1
      ],
      "mesh": 12,
      "parent": null,
      "position": [
        0,
        0,
        0.11593172699213
      ],
      "quat": [
        0,
        0,
        0,
        1
      ],
      "path": "map_city/Объект_КF4"
    },
    {
      "name": "tree2:Объект_КF",
      "scale": [
        1,
        1,
        1
      ],
      "mesh": 13,
      "parent": null,
      "position": [
        0,
        0,
        0
      ],
      "quat": [
        0,
        0,
        0,
        1
      ],
      "path": "map_city/tree2:Объект_КF"
    },
    {
      "name": "Объект_КF3",
      "scale": [
        1,
        1,
        1
      ],
      "mesh": 14,
      "parent": null,
      "position": [
        -0.666056334972382,
        -0.0164719223976135,
        -0.0229497849941254
      ],
      "quat": [
        0,
        -0.70710676908493,
        0,
        0.70710676908493
      ],
      "path": "map_city/Объект_КF3"
    },
    {
      "name": "Объект_КF",
      "scale": [
        1,
        1,
        1
      ],
      "mesh": 15,
      "parent": null,
      "position": [
        -0.566089153289795,
        0,
        -0.100814409554005
      ],
      "quat": [
        0,
        -0.70710676908493,
        0,
        0.70710676908493
      ],
      "path": "map_city/Объект_КF"
    },
    {
      "name": "tree:Объект_КF",
      "scale": [
        1,
        1,
        1
      ],
      "mesh": 16,
      "parent": null,
      "position": [
        0,
        0,
        0
      ],
      "quat": [
        0,
        0,
        0,
        1
      ],
      "path": "map_city/tree:Объект_КF"
    }
  ],
  "_precomputeJointMatrix": false
}