{
    "asset": {
        "generator": "FBX2glTF v0.9.7",
        "version": "2.0"
    },
    "scene": 0,
    "buffers": [
        {
            "byteLength": 330164,
            "uri": "buffer.bin"
        }
    ],
    "bufferViews": [
        {
            "buffer": 0,
            "byteLength": 144,
            "byteOffset": 0
        },
        {
            "buffer": 0,
            "byteLength": 432,
            "byteOffset": 144
        },
        {
            "buffer": 0,
            "byteLength": 576,
            "byteOffset": 576
        },
        {
            "buffer": 0,
            "byteLength": 576,
            "byteOffset": 1152
        },
        {
            "buffer": 0,
            "byteLength": 576,
            "byteOffset": 1728
        },
        {
            "buffer": 0,
            "byteLength": 576,
            "byteOffset": 2304
        },
        {
            "buffer": 0,
            "byteLength": 576,
            "byteOffset": 2880
        },
        {
            "buffer": 0,
            "byteLength": 576,
            "byteOffset": 3456
        },
        {
            "buffer": 0,
            "byteLength": 576,
            "byteOffset": 4032
        },
        {
            "buffer": 0,
            "byteLength": 576,
            "byteOffset": 4608
        },
        {
            "buffer": 0,
            "byteLength": 576,
            "byteOffset": 5184
        },
        {
            "buffer": 0,
            "byteLength": 576,
            "byteOffset": 5760
        },
        {
            "buffer": 0,
            "byteLength": 576,
            "byteOffset": 6336
        },
        {
            "buffer": 0,
            "byteLength": 576,
            "byteOffset": 6912
        },
        {
            "buffer": 0,
            "byteLength": 576,
            "byteOffset": 7488
        },
        {
            "buffer": 0,
            "byteLength": 576,
            "byteOffset": 8064
        },
        {
            "buffer": 0,
            "byteLength": 576,
            "byteOffset": 8640
        },
        {
            "buffer": 0,
            "byteLength": 576,
            "byteOffset": 9216
        },
        {
            "buffer": 0,
            "byteLength": 3720,
            "byteOffset": 9792,
            "target": 34963
        },
        {
            "buffer": 0,
            "byteLength": 15564,
            "byteOffset": 13512,
            "target": 34962
        },
        {
            "buffer": 0,
            "byteLength": 15564,
            "byteOffset": 29076,
            "target": 34962
        },
        {
            "buffer": 0,
            "byteLength": 10376,
            "byteOffset": 44640,
            "target": 34962
        },
        {
            "buffer": 0,
            "byteLength": 10376,
            "byteOffset": 55016,
            "target": 34962
        },
        {
            "buffer": 0,
            "byteLength": 4200,
            "byteOffset": 65392,
            "target": 34963
        },
        {
            "buffer": 0,
            "byteLength": 15936,
            "byteOffset": 69592,
            "target": 34962
        },
        {
            "buffer": 0,
            "byteLength": 15936,
            "byteOffset": 85528,
            "target": 34962
        },
        {
            "buffer": 0,
            "byteLength": 10624,
            "byteOffset": 101464,
            "target": 34962
        },
        {
            "buffer": 0,
            "byteLength": 10624,
            "byteOffset": 112088,
            "target": 34962
        },
        {
            "buffer": 0,
            "byteLength": 1056,
            "byteOffset": 122712,
            "target": 34963
        },
        {
            "buffer": 0,
            "byteLength": 4416,
            "byteOffset": 123768,
            "target": 34962
        },
        {
            "buffer": 0,
            "byteLength": 4416,
            "byteOffset": 128184,
            "target": 34962
        },
        {
            "buffer": 0,
            "byteLength": 2944,
            "byteOffset": 132600,
            "target": 34962
        },
        {
            "buffer": 0,
            "byteLength": 2944,
            "byteOffset": 135544,
            "target": 34962
        },
        {
            "buffer": 0,
            "byteLength": 1152,
            "byteOffset": 138488,
            "target": 34963
        },
        {
            "buffer": 0,
            "byteLength": 4416,
            "byteOffset": 139640,
            "target": 34962
        },
        {
            "buffer": 0,
            "byteLength": 4416,
            "byteOffset": 144056,
            "target": 34962
        },
        {
            "buffer": 0,
            "byteLength": 2944,
            "byteOffset": 148472,
            "target": 34962
        },
        {
            "buffer": 0,
            "byteLength": 2944,
            "byteOffset": 151416,
            "target": 34962
        },
        {
            "buffer": 0,
            "byteLength": 768,
            "byteOffset": 154360,
            "target": 34963
        },
        {
            "buffer": 0,
            "byteLength": 3084,
            "byteOffset": 155128,
            "target": 34962
        },
        {
            "buffer": 0,
            "byteLength": 3084,
            "byteOffset": 158212,
            "target": 34962
        },
        {
            "buffer": 0,
            "byteLength": 2056,
            "byteOffset": 161296,
            "target": 34962
        },
        {
            "buffer": 0,
            "byteLength": 2056,
            "byteOffset": 163352,
            "target": 34962
        },
        {
            "buffer": 0,
            "byteLength": 2340,
            "byteOffset": 165408,
            "target": 34963
        },
        {
            "buffer": 0,
            "byteLength": 9876,
            "byteOffset": 167748,
            "target": 34962
        },
        {
            "buffer": 0,
            "byteLength": 9876,
            "byteOffset": 177624,
            "target": 34962
        },
        {
            "buffer": 0,
            "byteLength": 6584,
            "byteOffset": 187500,
            "target": 34962
        },
        {
            "buffer": 0,
            "byteLength": 6584,
            "byteOffset": 194084,
            "target": 34962
        },
        {
            "buffer": 0,
            "byteLength": 11928,
            "byteOffset": 200668,
            "target": 34963
        },
        {
            "buffer": 0,
            "byteLength": 21816,
            "byteOffset": 212596,
            "target": 34962
        },
        {
            "buffer": 0,
            "byteLength": 21816,
            "byteOffset": 234412,
            "target": 34962
        },
        {
            "buffer": 0,
            "byteLength": 14544,
            "byteOffset": 256228,
            "target": 34962
        },
        {
            "buffer": 0,
            "byteLength": 14544,
            "byteOffset": 270772,
            "target": 34962
        },
        {
            "buffer": 0,
            "byteLength": 14544,
            "byteOffset": 285316,
            "target": 34962
        },
        {
            "buffer": 0,
            "byteLength": 29088,
            "byteOffset": 299860,
            "target": 34962
        },
        {
            "buffer": 0,
            "byteLength": 1216,
            "byteOffset": 328948
        }
    ],
    "scenes": [
        {
            "name": "Root Scene",
            "nodes": [
                0
            ]
        }
    ],
    "accessors": [
        {
            "componentType": 5126,
            "type": "SCALAR",
            "count": 36,
            "bufferView": 0,
            "byteOffset": 0,
            "min": [
                0.0
            ],
            "max": [
                1.45833337306976
            ]
        },
        {
            "componentType": 5126,
            "type": "VEC3",
            "count": 36,
            "bufferView": 1,
            "byteOffset": 0
        },
        {
            "componentType": 5126,
            "type": "VEC4",
            "count": 36,
            "bufferView": 2,
            "byteOffset": 0
        },
        {
            "componentType": 5126,
            "type": "VEC4",
            "count": 36,
            "bufferView": 3,
            "byteOffset": 0
        },
        {
            "componentType": 5126,
            "type": "VEC4",
            "count": 36,
            "bufferView": 4,
            "byteOffset": 0
        },
        {
            "componentType": 5126,
            "type": "VEC4",
            "count": 36,
            "bufferView": 5,
            "byteOffset": 0
        },
        {
            "componentType": 5126,
            "type": "VEC4",
            "count": 36,
            "bufferView": 6,
            "byteOffset": 0
        },
        {
            "componentType": 5126,
            "type": "VEC4",
            "count": 36,
            "bufferView": 7,
            "byteOffset": 0
        },
        {
            "componentType": 5126,
            "type": "VEC4",
            "count": 36,
            "bufferView": 8,
            "byteOffset": 0
        },
        {
            "componentType": 5126,
            "type": "VEC4",
            "count": 36,
            "bufferView": 9,
            "byteOffset": 0
        },
        {
            "componentType": 5126,
            "type": "VEC4",
            "count": 36,
            "bufferView": 10,
            "byteOffset": 0
        },
        {
            "componentType": 5126,
            "type": "VEC4",
            "count": 36,
            "bufferView": 11,
            "byteOffset": 0
        },
        {
            "componentType": 5126,
            "type": "VEC4",
            "count": 36,
            "bufferView": 12,
            "byteOffset": 0
        },
        {
            "componentType": 5126,
            "type": "VEC4",
            "count": 36,
            "bufferView": 13,
            "byteOffset": 0
        },
        {
            "componentType": 5126,
            "type": "VEC4",
            "count": 36,
            "bufferView": 14,
            "byteOffset": 0
        },
        {
            "componentType": 5126,
            "type": "VEC4",
            "count": 36,
            "bufferView": 15,
            "byteOffset": 0
        },
        {
            "componentType": 5126,
            "type": "VEC4",
            "count": 36,
            "bufferView": 16,
            "byteOffset": 0
        },
        {
            "componentType": 5126,
            "type": "VEC4",
            "count": 36,
            "bufferView": 17,
            "byteOffset": 0
        },
        {
            "componentType": 5123,
            "type": "SCALAR",
            "count": 1860,
            "bufferView": 18,
            "byteOffset": 0
        },
        {
            "componentType": 5126,
            "type": "VEC3",
            "count": 1297,
            "bufferView": 19,
            "byteOffset": 0,
            "min": [
                -0.00851459708064795,
                -0.0376444235444069,
                -0.00445245578885078
            ],
            "max": [
                0.0104776890948415,
                0.0203254129737616,
                0.00445245578885078
            ]
        },
        {
            "componentType": 5126,
            "type": "VEC3",
            "count": 1297,
            "bufferView": 20,
            "byteOffset": 0
        },
        {
            "componentType": 5126,
            "type": "VEC2",
            "count": 1297,
            "bufferView": 21,
            "byteOffset": 0
        },
        {
            "componentType": 5126,
            "type": "VEC2",
            "count": 1297,
            "bufferView": 22,
            "byteOffset": 0
        },
        {
            "componentType": 5123,
            "type": "SCALAR",
            "count": 2100,
            "bufferView": 23,
            "byteOffset": 0
        },
        {
            "componentType": 5126,
            "type": "VEC3",
            "count": 1328,
            "bufferView": 24,
            "byteOffset": 0,
            "min": [
                -0.157083615660667,
                -0.000200445647351444,
                -0.0105492221191525
            ],
            "max": [
                -0.141019403934479,
                0.0597874447703362,
                -0.00925077777355909
            ]
        },
        {
            "componentType": 5126,
            "type": "VEC3",
            "count": 1328,
            "bufferView": 25,
            "byteOffset": 0
        },
        {
            "componentType": 5126,
            "type": "VEC2",
            "count": 1328,
            "bufferView": 26,
            "byteOffset": 0
        },
        {
            "componentType": 5126,
            "type": "VEC2",
            "count": 1328,
            "bufferView": 27,
            "byteOffset": 0
        },
        {
            "componentType": 5123,
            "type": "SCALAR",
            "count": 528,
            "bufferView": 28,
            "byteOffset": 0
        },
        {
            "componentType": 5126,
            "type": "VEC3",
            "count": 368,
            "bufferView": 29,
            "byteOffset": 0,
            "min": [
                -0.0149999968707561,
                -0.00499999895691872,
                -0.050753328949213
            ],
            "max": [
                0.0149999987334013,
                0.00499999942258,
                0.0150000043213367
            ]
        },
        {
            "componentType": 5126,
            "type": "VEC3",
            "count": 368,
            "bufferView": 30,
            "byteOffset": 0
        },
        {
            "componentType": 5126,
            "type": "VEC2",
            "count": 368,
            "bufferView": 31,
            "byteOffset": 0
        },
        {
            "componentType": 5126,
            "type": "VEC2",
            "count": 368,
            "bufferView": 32,
            "byteOffset": 0
        },
        {
            "componentType": 5123,
            "type": "SCALAR",
            "count": 576,
            "bufferView": 33,
            "byteOffset": 0
        },
        {
            "componentType": 5126,
            "type": "VEC3",
            "count": 368,
            "bufferView": 34,
            "byteOffset": 0,
            "min": [
                -0.00999999884516001,
                -0.016362139955163,
                -0.00999999884516001
            ],
            "max": [
                0.00999999884516001,
                0.016362139955163,
                0.00999999884516001
            ]
        },
        {
            "componentType": 5126,
            "type": "VEC3",
            "count": 368,
            "bufferView": 35,
            "byteOffset": 0
        },
        {
            "componentType": 5126,
            "type": "VEC2",
            "count": 368,
            "bufferView": 36,
            "byteOffset": 0
        },
        {
            "componentType": 5126,
            "type": "VEC2",
            "count": 368,
            "bufferView": 37,
            "byteOffset": 0
        },
        {
            "componentType": 5123,
            "type": "SCALAR",
            "count": 384,
            "bufferView": 38,
            "byteOffset": 0
        },
        {
            "componentType": 5126,
            "type": "VEC3",
            "count": 257,
            "bufferView": 39,
            "byteOffset": 0,
            "min": [
                -0.00850386638194323,
                -0.0092036034911871,
                -0.00850387662649155
            ],
            "max": [
                0.00850388966500759,
                0.00911427289247513,
                0.00850387662649155
            ]
        },
        {
            "componentType": 5126,
            "type": "VEC3",
            "count": 257,
            "bufferView": 40,
            "byteOffset": 0
        },
        {
            "componentType": 5126,
            "type": "VEC2",
            "count": 257,
            "bufferView": 41,
            "byteOffset": 0
        },
        {
            "componentType": 5126,
            "type": "VEC2",
            "count": 257,
            "bufferView": 42,
            "byteOffset": 0
        },
        {
            "componentType": 5123,
            "type": "SCALAR",
            "count": 1170,
            "bufferView": 43,
            "byteOffset": 0
        },
        {
            "componentType": 5126,
            "type": "VEC3",
            "count": 823,
            "bufferView": 44,
            "byteOffset": 0,
            "min": [
                -0.0114000029861927,
                -0.0144381485879421,
                -0.0110467001795769
            ],
            "max": [
                0.0114000020548701,
                0.030758598819375,
                0.0110467001795769
            ]
        },
        {
            "componentType": 5126,
            "type": "VEC3",
            "count": 823,
            "bufferView": 45,
            "byteOffset": 0
        },
        {
            "componentType": 5126,
            "type": "VEC2",
            "count": 823,
            "bufferView": 46,
            "byteOffset": 0
        },
        {
            "componentType": 5126,
            "type": "VEC2",
            "count": 823,
            "bufferView": 47,
            "byteOffset": 0
        },
        {
            "componentType": 5123,
            "type": "SCALAR",
            "count": 5964,
            "bufferView": 48,
            "byteOffset": 0
        },
        {
            "componentType": 5126,
            "type": "VEC3",
            "count": 1818,
            "bufferView": 49,
            "byteOffset": 0,
            "min": [
                -0.0408465415239334,
                9.62369085755199e-06,
                -0.0114701921120286
            ],
            "max": [
                0.0408465415239334,
                0.0793404877185822,
                0.0109114097431302
            ]
        },
        {
            "componentType": 5126,
            "type": "VEC3",
            "count": 1818,
            "bufferView": 50,
            "byteOffset": 0
        },
        {
            "componentType": 5126,
            "type": "VEC2",
            "count": 1818,
            "bufferView": 51,
            "byteOffset": 0
        },
        {
            "componentType": 5126,
            "type": "VEC2",
            "count": 1818,
            "bufferView": 52,
            "byteOffset": 0
        },
        {
            "componentType": 5123,
            "type": "VEC4",
            "count": 1818,
            "bufferView": 53,
            "byteOffset": 0
        },
        {
            "componentType": 5126,
            "type": "VEC4",
            "count": 1818,
            "bufferView": 54,
            "byteOffset": 0
        },
        {
            "componentType": 5126,
            "type": "MAT4",
            "count": 19,
            "bufferView": 55,
            "byteOffset": 0
        }
    ],
    "images": [
        {
            "name": "base_color_texture",
            "uri": "data:image/png;base64,iVBORw0KGgoAAAANSUhEUgAAAAEAAAABCAYAAAAfFcSJAAAADUlEQVR42mP8/5+hHgAHggJ/PchI7wAAAABJRU5ErkJggg=="
        }
    ],
    "samplers": [
        {}
    ],
    "textures": [
        {
            "name": "base_color_texture",
            "sampler": 0,
            "source": 0
        }
    ],
    "materials": [
        {
            "name": "weapon_texture_1Material5",
            "alphaMode": "OPAQUE",
            "extras": {
                "fromFBX": {
                    "shadingModel": "Phong",
                    "isTruePBR": false
                }
            },
            "pbrMetallicRoughness": {
                "baseColorTexture": {
                    "index": 0,
                    "texCoord": 0
                },
                "baseColorFactor": [
                    1.0,
                    1.0,
                    1.0,
                    1.0
                ],
                "metallicFactor": 0.400000005960464,
                "roughnessFactor": 0.301511347293854
            }
        },
        {
            "name": "weapon_texture_1Material6",
            "alphaMode": "OPAQUE",
            "extras": {
                "fromFBX": {
                    "shadingModel": "Phong",
                    "isTruePBR": false
                }
            },
            "pbrMetallicRoughness": {
                "baseColorTexture": {
                    "index": 0,
                    "texCoord": 0
                },
                "baseColorFactor": [
                    1.0,
                    1.0,
                    1.0,
                    1.0
                ],
                "metallicFactor": 0.400000005960464,
                "roughnessFactor": 0.301511347293854
            }
        },
        {
            "name": "weapon_texture_1Material7",
            "alphaMode": "OPAQUE",
            "extras": {
                "fromFBX": {
                    "shadingModel": "Phong",
                    "isTruePBR": false
                }
            },
            "pbrMetallicRoughness": {
                "baseColorTexture": {
                    "index": 0,
                    "texCoord": 0
                },
                "baseColorFactor": [
                    1.0,
                    1.0,
                    1.0,
                    1.0
                ],
                "metallicFactor": 0.400000005960464,
                "roughnessFactor": 0.301511347293854
            }
        },
        {
            "name": "weapon_texture_1Material8",
            "alphaMode": "OPAQUE",
            "extras": {
                "fromFBX": {
                    "shadingModel": "Phong",
                    "isTruePBR": false
                }
            },
            "pbrMetallicRoughness": {
                "baseColorTexture": {
                    "index": 0,
                    "texCoord": 0
                },
                "baseColorFactor": [
                    1.0,
                    1.0,
                    1.0,
                    1.0
                ],
                "metallicFactor": 0.400000005960464,
                "roughnessFactor": 0.301511347293854
            }
        },
        {
            "name": "weapon_texture_1Material9",
            "alphaMode": "OPAQUE",
            "extras": {
                "fromFBX": {
                    "shadingModel": "Phong",
                    "isTruePBR": false
                }
            },
            "pbrMetallicRoughness": {
                "baseColorTexture": {
                    "index": 0,
                    "texCoord": 0
                },
                "baseColorFactor": [
                    1.0,
                    1.0,
                    1.0,
                    1.0
                ],
                "metallicFactor": 0.400000005960464,
                "roughnessFactor": 0.301511347293854
            }
        },
        {
            "name": "weapon_texture_1Material10",
            "alphaMode": "OPAQUE",
            "extras": {
                "fromFBX": {
                    "shadingModel": "Phong",
                    "isTruePBR": false
                }
            },
            "pbrMetallicRoughness": {
                "baseColorTexture": {
                    "index": 0,
                    "texCoord": 0
                },
                "baseColorFactor": [
                    1.0,
                    1.0,
                    1.0,
                    1.0
                ],
                "metallicFactor": 0.400000005960464,
                "roughnessFactor": 0.301511347293854
            }
        },
        {
            "name": "lambert38",
            "alphaMode": "OPAQUE",
            "extras": {
                "fromFBX": {
                    "shadingModel": "Phong",
                    "isTruePBR": false
                }
            },
            "pbrMetallicRoughness": {
                "baseColorFactor": [
                    0.0,
                    0.346149921417236,
                    1.0,
                    1.0
                ],
                "metallicFactor": 0.400000005960464,
                "roughnessFactor": 0.301511347293854
            }
        }
    ],
    "meshes": [
        {
            "name": "bantay",
            "primitives": [
                {
                    "material": 0,
                    "mode": 4,
                    "attributes": {
                        "NORMAL": 20,
                        "POSITION": 19,
                        "TEXCOORD_0": 21,
                        "TEXCOORD_1": 22
                    },
                    "indices": 18
                }
            ]
        },
        {
            "name": "votruoi",
            "primitives": [
                {
                    "material": 1,
                    "mode": 4,
                    "attributes": {
                        "NORMAL": 25,
                        "POSITION": 24,
                        "TEXCOORD_0": 26,
                        "TEXCOORD_1": 27
                    },
                    "indices": 23
                }
            ]
        },
        {
            "name": "noel",
            "primitives": [
                {
                    "material": 2,
                    "mode": 4,
                    "attributes": {
                        "NORMAL": 30,
                        "POSITION": 29,
                        "TEXCOORD_0": 31,
                        "TEXCOORD_1": 32
                    },
                    "indices": 28
                }
            ]
        },
        {
            "name": "lanbot",
            "primitives": [
                {
                    "material": 3,
                    "mode": 4,
                    "attributes": {
                        "NORMAL": 35,
                        "POSITION": 34,
                        "TEXCOORD_0": 36,
                        "TEXCOORD_1": 37
                    },
                    "indices": 33
                }
            ]
        },
        {
            "name": "gaybongchay",
            "primitives": [
                {
                    "material": 4,
                    "mode": 4,
                    "attributes": {
                        "NORMAL": 40,
                        "POSITION": 39,
                        "TEXCOORD_0": 41,
                        "TEXCOORD_1": 42
                    },
                    "indices": 38
                }
            ]
        },
        {
            "name": "chuy",
            "primitives": [
                {
                    "material": 5,
                    "mode": 4,
                    "attributes": {
                        "NORMAL": 45,
                        "POSITION": 44,
                        "TEXCOORD_0": 46,
                        "TEXCOORD_1": 47
                    },
                    "indices": 43
                }
            ]
        },
        {
            "name": "stickman_new",
            "primitives": [
                {
                    "material": 6,
                    "mode": 4,
                    "attributes": {
                        "JOINTS_0": 53,
                        "NORMAL": 50,
                        "POSITION": 49,
                        "TEXCOORD_0": 51,
                        "TEXCOORD_1": 52,
                        "WEIGHTS_0": 54
                    },
                    "indices": 48
                }
            ]
        }
    ],
    "skins": [
        {
            "joints": [
                12,
                13,
                14,
                15,
                30,
                2,
                3,
                11,
                4,
                5,
                7,
                8,
                19,
                16,
                17,
                20,
                9,
                21,
                22
            ],
            "inverseBindMatrices": 55,
            "skeleton": 2
        }
    ],
    "animations": [
        {
            "name": "Attack",
            "channels": [
                {
                    "sampler": 0,
                    "target": {
                        "node": 1,
                        "path": "translation"
                    }
                },
                {
                    "sampler": 1,
                    "target": {
                        "node": 1,
                        "path": "rotation"
                    }
                },
                {
                    "sampler": 2,
                    "target": {
                        "node": 3,
                        "path": "rotation"
                    }
                },
                {
                    "sampler": 3,
                    "target": {
                        "node": 4,
                        "path": "rotation"
                    }
                },
                {
                    "sampler": 4,
                    "target": {
                        "node": 7,
                        "path": "rotation"
                    }
                },
                {
                    "sampler": 5,
                    "target": {
                        "node": 8,
                        "path": "rotation"
                    }
                },
                {
                    "sampler": 6,
                    "target": {
                        "node": 11,
                        "path": "rotation"
                    }
                },
                {
                    "sampler": 7,
                    "target": {
                        "node": 12,
                        "path": "rotation"
                    }
                },
                {
                    "sampler": 8,
                    "target": {
                        "node": 13,
                        "path": "rotation"
                    }
                },
                {
                    "sampler": 9,
                    "target": {
                        "node": 14,
                        "path": "rotation"
                    }
                },
                {
                    "sampler": 10,
                    "target": {
                        "node": 15,
                        "path": "rotation"
                    }
                },
                {
                    "sampler": 11,
                    "target": {
                        "node": 16,
                        "path": "rotation"
                    }
                },
                {
                    "sampler": 12,
                    "target": {
                        "node": 19,
                        "path": "rotation"
                    }
                },
                {
                    "sampler": 13,
                    "target": {
                        "node": 20,
                        "path": "rotation"
                    }
                },
                {
                    "sampler": 14,
                    "target": {
                        "node": 21,
                        "path": "rotation"
                    }
                },
                {
                    "sampler": 15,
                    "target": {
                        "node": 22,
                        "path": "rotation"
                    }
                },
                {
                    "sampler": 16,
                    "target": {
                        "node": 30,
                        "path": "rotation"
                    }
                }
            ],
            "samplers": [
                {
                    "input": 0,
                    "interpolation": "LINEAR",
                    "output": 1
                },
                {
                    "input": 0,
                    "interpolation": "LINEAR",
                    "output": 2
                },
                {
                    "input": 0,
                    "interpolation": "LINEAR",
                    "output": 3
                },
                {
                    "input": 0,
                    "interpolation": "LINEAR",
                    "output": 4
                },
                {
                    "input": 0,
                    "interpolation": "LINEAR",
                    "output": 5
                },
                {
                    "input": 0,
                    "interpolation": "LINEAR",
                    "output": 6
                },
                {
                    "input": 0,
                    "interpolation": "LINEAR",
                    "output": 7
                },
                {
                    "input": 0,
                    "interpolation": "LINEAR",
                    "output": 8
                },
                {
                    "input": 0,
                    "interpolation": "LINEAR",
                    "output": 9
                },
                {
                    "input": 0,
                    "interpolation": "LINEAR",
                    "output": 10
                },
                {
                    "input": 0,
                    "interpolation": "LINEAR",
                    "output": 11
                },
                {
                    "input": 0,
                    "interpolation": "LINEAR",
                    "output": 12
                },
                {
                    "input": 0,
                    "interpolation": "LINEAR",
                    "output": 13
                },
                {
                    "input": 0,
                    "interpolation": "LINEAR",
                    "output": 14
                },
                {
                    "input": 0,
                    "interpolation": "LINEAR",
                    "output": 15
                },
                {
                    "input": 0,
                    "interpolation": "LINEAR",
                    "output": 16
                },
                {
                    "input": 0,
                    "interpolation": "LINEAR",
                    "output": 17
                }
            ]
        }
    ],
    "nodes": [
        {
            "name": "RootNode",
            "translation": [
                0.0,
                0.0,
                0.0
            ],
            "rotation": [
                0.0,
                0.0,
                0.0,
                1.0
            ],
            "scale": [
                1.0,
                1.0,
                1.0
            ],
            "children": [
                1,
                33
            ]
        },
        {
            "name": "Character1_Reference",
            "translation": [
                -0.00215806183405221,
                -0.00850532297044992,
                -0.00233652628958225
            ],
            "rotation": [
                0.0288091078400612,
                -0.479791402816772,
                0.0220382362604141,
                0.876632511615753
            ],
            "scale": [
                1.00000059604645,
                1.00000059604645,
                1.00000059604645
            ],
            "children": [
                2
            ]
        },
        {
            "name": "Character1_Hips",
            "translation": [
                0.0,
                0.0268932320177555,
                0.0
            ],
            "rotation": [
                -5.20417042793042e-18,
                4.51389830715758e-35,
                -8.67361737988404e-18,
                1.0
            ],
            "scale": [
                1.0,
                1.0,
                1.0
            ],
            "children": [
                3,
                7,
                11
            ]
        },
        {
            "name": "Character1_LeftUpLeg",
            "translation": [
                0.00673886481672525,
                -0.00273666135035455,
                2.77555749952435e-19
            ],
            "rotation": [
                -0.627983212471008,
                0.241928979754448,
                0.185543119907379,
                0.716017603874207
            ],
            "scale": [
                0.999999940395355,
                0.999999940395355,
                1.0
            ],
            "children": [
                4
            ]
        },
        {
            "name": "Character1_LeftLeg",
            "translation": [
                0.00371353258378804,
                -0.0108860740438104,
                4.30477958834885e-10
            ],
            "rotation": [
                0.689575672149658,
                0.0962337628006935,
                -0.0939210951328278,
                0.711620211601257
            ],
            "scale": [
                1.0,
                1.0,
                1.0
            ],
            "children": [
                5
            ]
        },
        {
            "name": "Character1_LeftFoot",
            "translation": [
                0.00239629577845335,
                -0.00896722730249166,
                2.00751748558048e-10
            ],
            "rotation": [
                -4.24269197552007e-09,
                1.90921127796173e-08,
                -4.55313253766576e-09,
                1.0
            ],
            "scale": [
                1.0,
                1.0,
                1.0
            ],
            "children": [
                6
            ]
        },
        {
            "name": "Character1_LeftFoot_end",
            "translation": [
                5.55111499904869e-19,
                0.0092818820849061,
                -2.38418573772492e-09
            ],
            "rotation": [
                -1.38777878078145e-17,
                2.77555756156289e-17,
                1.38777878078145e-17,
                1.0
            ],
            "scale": [
                1.0,
                1.0,
                1.0
            ]
        },
        {
            "name": "Character1_RightUpLeg",
            "translation": [
                -0.00673886481672525,
                -0.00273666135035455,
                2.77555749952435e-19
            ],
            "rotation": [
                -0.398553282022476,
                -0.0516057647764683,
                0.220514506101608,
                0.888743758201599
            ],
            "scale": [
                1.0,
                1.0,
                1.0
            ],
            "children": [
                8
            ]
        },
        {
            "name": "Character1_RightLeg",
            "translation": [
                -0.00371353118680418,
                -0.0108860768377781,
                1.77986084204385e-10
            ],
            "rotation": [
                0.582869648933411,
                -0.101175963878632,
                -0.544851243495941,
                0.594275653362274
            ],
            "scale": [
                0.99999988079071,
                1.0,
                1.0
            ],
            "children": [
                9
            ]
        },
        {
            "name": "Character1_RightFoot",
            "translation": [
                -0.00239629554562271,
                -0.00896722730249166,
                -8.27842308592786e-11
            ],
            "rotation": [
                6.20882179003246e-10,
                -1.23141541408245e-08,
                1.55220436504067e-09,
                1.0
            ],
            "scale": [
                1.0,
                1.0,
                1.00000011920929
            ],
            "children": [
                10
            ]
        },
        {
            "name": "Character1_RightFoot_end",
            "translation": [
                0.0,
                0.0092818858101964,
                2.38418573772492e-09
            ],
            "rotation": [
                -1.15555796663234e-33,
                4.16333634234434e-17,
                2.77555756156289e-17,
                1.0
            ],
            "scale": [
                1.0,
                1.0,
                1.0
            ]
        },
        {
            "name": "Character1_Spine",
            "translation": [
                0.0,
                0.0107677718624473,
                5.55111499904869e-19
            ],
            "rotation": [
                -0.0511680841445923,
                0.00616699969395995,
                0.110473990440369,
                0.99254184961319
            ],
            "scale": [
                0.99999988079071,
                0.99999988079071,
                1.0
            ],
            "children": [
                12
            ]
        },
        {
            "name": "Character1_Spine1",
            "translation": [
                -2.32830629776082e-11,
                0.00623114407062531,
                -3.42261025076951e-10
            ],
            "rotation": [
                -0.0459402464330196,
                -0.00493559613823891,
                0.0674204975366592,
                0.996654212474823
            ],
            "scale": [
                1.00000011920929,
                1.00000011920929,
                1.0
            ],
            "children": [
                13
            ]
        },
        {
            "name": "Character1_Spine2",
            "translation": [
                3.31136888742645e-11,
                0.00623114220798016,
                9.93410770311343e-11
            ],
            "rotation": [
                -0.0802870765328407,
                -0.00952304434031248,
                0.0114197535440326,
                0.996660888195038
            ],
            "scale": [
                1.0,
                1.0,
                1.00000011920929
            ],
            "children": [
                14,
                19,
                30
            ]
        },
        {
            "name": "Character1_LeftShoulder",
            "translation": [
                0.00468312622979283,
                0.00250115781091154,
                -3.31136923437114e-11
            ],
            "rotation": [
                -0.00447341334074736,
                -0.180225640535355,
                0.0818975791335106,
                0.980199694633484
            ],
            "scale": [
                1.00000011920929,
                0.999999940395355,
                1.0
            ],
            "children": [
                15
            ]
        },
        {
            "name": "Character1_LeftArm",
            "translation": [
                0.00425448780879378,
                -0.001149931573309,
                -4.26338769843326e-10
            ],
            "rotation": [
                -0.133365198969841,
                -0.0919110551476479,
                -0.224555507302284,
                0.960906267166138
            ],
            "scale": [
                1.0,
                0.999999940395355,
                1.0
            ],
            "children": [
                16
            ]
        },
        {
            "name": "Character1_LeftForeArm",
            "translation": [
                0.0114695094525814,
                3.05792927974835e-05,
                -3.31136923437114e-11
            ],
            "rotation": [
                -0.095664270222187,
                -0.201310664415359,
                -0.0722054094076157,
                0.972167015075684
            ],
            "scale": [
                0.999999940395355,
                0.99999988079071,
                0.99999988079071
            ],
            "children": [
                17
            ]
        },
        {
            "name": "Character1_LeftHand",
            "translation": [
                0.0127815185114741,
                -1.32613540699822e-05,
                -1.30799071573762e-09
            ],
            "rotation": [
                1.30385648944298e-08,
                2.33866295218377e-08,
                -0.00260500377044082,
                0.999996602535248
            ],
            "scale": [
                0.999999582767487,
                0.999999642372131,
                1.0
            ],
            "children": [
                18
            ]
        },
        {
            "name": "Character1_LeftHand_end",
            "translation": [
                -1.19209286886246e-09,
                0.0127815287560225,
                -4.76837147544984e-09
            ],
            "rotation": [
                -1.47451495458029e-17,
                2.77555756156289e-17,
                -1.38777878078145e-17,
                1.0
            ],
            "scale": [
                1.0,
                1.0,
                1.0
            ]
        },
        {
            "name": "Character1_RightShoulder",
            "translation": [
                -0.00468312716111541,
                0.00250115990638733,
                -2.48352671761154e-10
            ],
            "rotation": [
                -0.026808625087142,
                0.0633024126291275,
                0.0200968701392412,
                0.997431814670563
            ],
            "scale": [
                1.0,
                0.999999821186066,
                0.999999940395355
            ],
            "children": [
                20
            ]
        },
        {
            "name": "Character1_RightArm",
            "translation": [
                -0.00425448874011636,
                -0.00114992982707918,
                -1.98682154062269e-10
            ],
            "rotation": [
                -0.346061289310455,
                -0.111039593815804,
                0.226922810077667,
                0.903558433055878
            ],
            "scale": [
                1.0,
                0.99999988079071,
                1.0
            ],
            "children": [
                21
            ]
        },
        {
            "name": "Character1_RightForeArm",
            "translation": [
                -0.0114695094525814,
                3.09010829369072e-05,
                -8.6923440667519e-10
            ],
            "rotation": [
                -0.128256440162659,
                0.0580713525414467,
                0.0397708155214787,
                0.989240229129791
            ],
            "scale": [
                0.999999821186066,
                0.999999523162842,
                0.999999821186066
            ],
            "children": [
                22
            ]
        },
        {
            "name": "Character1_RightHand",
            "translation": [
                -0.0127815054729581,
                -2.31523390539223e-05,
                -3.31136923437114e-10
            ],
            "rotation": [
                -0.0655530318617821,
                -0.0459066331386566,
                0.065220020711422,
                0.994656562805176
            ],
            "scale": [
                1.00000035762787,
                1.00000035762787,
                1.0
            ],
            "children": [
                23,
                24,
                25,
                26,
                27,
                28,
                29
            ]
        },
        {
            "name": "bantay",
            "translation": [
                -0.0184603929519653,
                0.0283750053495169,
                0.00877754203975201
            ],
            "rotation": [
                0.26829731464386,
                -0.727591156959534,
                0.053854264318943,
                0.629068613052368
            ],
            "scale": [
                1.0,
                1.0,
                1.0
            ],
            "mesh": 0
        },
        {
            "name": "votruoi",
            "translation": [
                -0.0202227924019098,
                -0.057228684425354,
                0.136987522244453
            ],
            "rotation": [
                0.272214770317078,
                -0.728343188762665,
                0.0539258234202862,
                0.626504063606262
            ],
            "scale": [
                1.0,
                1.0,
                1.0
            ],
            "mesh": 1
        },
        {
            "name": "noel",
            "translation": [
                -0.0186776556074619,
                0.0174812357872725,
                0.00517950532957911
            ],
            "rotation": [
                -0.574437975883484,
                -0.201709479093552,
                0.126168489456177,
                0.783208668231964
            ],
            "scale": [
                0.5,
                0.5,
                0.5
            ],
            "mesh": 2
        },
        {
            "name": "lanbot",
            "translation": [
                -0.012361004948616,
                0.0169348903000355,
                0.00560220237821341
            ],
            "rotation": [
                -0.167211249470711,
                -0.176763936877251,
                0.946769416332245,
                -0.210766673088074
            ],
            "scale": [
                0.350356012582779,
                1.48194205760956,
                0.350356012582779
            ],
            "mesh": 3
        },
        {
            "name": "gaybongchay",
            "translation": [
                -0.0145990643650293,
                0.0203971341252327,
                0.00653393985703588
            ],
            "rotation": [
                0.158127769827843,
                -0.063088446855545,
                0.244380444288254,
                0.954617023468018
            ],
            "scale": [
                0.500544011592865,
                2.87227702140808,
                0.500544011592865
            ],
            "mesh": 4
        },
        {
            "name": "chuy",
            "translation": [
                -0.00802090764045715,
                0.00818850006908178,
                0.00244490383192897
            ],
            "rotation": [
                0.152203753590584,
                -0.0825729295611382,
                0.228828102350235,
                0.957942306995392
            ],
            "scale": [
                1.0,
                1.0,
                1.0
            ],
            "mesh": 5
        },
        {
            "name": "Character1_RightHand_end",
            "translation": [
                -1.19209286886246e-09,
                0.0127815194427967,
                -2.38418573772492e-09
            ],
            "rotation": [
                -8.32667268468867e-17,
                3.46944695195361e-17,
                5.55111512312578e-17,
                1.0
            ],
            "scale": [
                1.0,
                1.0,
                1.0
            ]
        },
        {
            "name": "Character1_Neck",
            "translation": [
                -5.71211133948424e-10,
                0.00523114483803511,
                -4.76009287542212e-10
            ],
            "rotation": [
                0.0459302961826324,
                0.194660276174545,
                0.0341077372431755,
                0.979200899600983
            ],
            "scale": [
                1.0,
                0.999999940395355,
                0.999999940395355
            ],
            "children": [
                31
            ]
        },
        {
            "name": "Character1_Head",
            "translation": [
                1.32454769374846e-10,
                0.023577094078064,
                -1.82125303727076e-09
            ],
            "rotation": [
                -3.82877063387355e-09,
                6.05359584682219e-09,
                -5.17401399502404e-10,
                1.0
            ],
            "scale": [
                1.00000011920929,
                1.0,
                1.0
            ],
            "children": [
                32
            ]
        },
        {
            "name": "Character1_Head_end",
            "translation": [
                1.78813930329369e-09,
                0.023577094078064,
                4.44089199923895e-18
            ],
            "rotation": [
                5.55111512312578e-17,
                -5.55111512312578e-17,
                1.38777878078145e-17,
                1.0
            ],
            "scale": [
                1.0,
                1.0,
                1.0
            ]
        },
        {
            "name": "stickman_new",
            "translation": [
                0.00399839971214533,
                -0.00266104657202959,
                -0.0017696232534945
            ],
            "rotation": [
                0.0516241975128651,
                -0.42255774140358,
                0.0453161969780922,
                0.903729140758514
            ],
            "scale": [
                1.00000059604645,
                1.00000059604645,
                1.00000059604645
            ],
            "mesh": 6,
            "skin": 0
        }
    ]
}