{
    "asset": {
        "generator": "FBX2glTF v0.9.7",
        "version": "2.0"
    },
    "scene": 0,
    "buffers": [
        {
            "byteLength": 141016,
            "uri": "buffer.bin"
        }
    ],
    "bufferViews": [
        {
            "buffer": 0,
            "byteLength": 180,
            "byteOffset": 0
        },
        {
            "buffer": 0,
            "byteLength": 540,
            "byteOffset": 180
        },
        {
            "buffer": 0,
            "byteLength": 720,
            "byteOffset": 720
        },
        {
            "buffer": 0,
            "byteLength": 720,
            "byteOffset": 1440
        },
        {
            "buffer": 0,
            "byteLength": 720,
            "byteOffset": 2160
        },
        {
            "buffer": 0,
            "byteLength": 720,
            "byteOffset": 2880
        },
        {
            "buffer": 0,
            "byteLength": 720,
            "byteOffset": 3600
        },
        {
            "buffer": 0,
            "byteLength": 720,
            "byteOffset": 4320
        },
        {
            "buffer": 0,
            "byteLength": 720,
            "byteOffset": 5040
        },
        {
            "buffer": 0,
            "byteLength": 720,
            "byteOffset": 5760
        },
        {
            "buffer": 0,
            "byteLength": 720,
            "byteOffset": 6480
        },
        {
            "buffer": 0,
            "byteLength": 720,
            "byteOffset": 7200
        },
        {
            "buffer": 0,
            "byteLength": 720,
            "byteOffset": 7920
        },
        {
            "buffer": 0,
            "byteLength": 720,
            "byteOffset": 8640
        },
        {
            "buffer": 0,
            "byteLength": 720,
            "byteOffset": 9360
        },
        {
            "buffer": 0,
            "byteLength": 720,
            "byteOffset": 10080
        },
        {
            "buffer": 0,
            "byteLength": 720,
            "byteOffset": 10800
        },
        {
            "buffer": 0,
            "byteLength": 11928,
            "byteOffset": 11520,
            "target": 34963
        },
        {
            "buffer": 0,
            "byteLength": 21816,
            "byteOffset": 23448,
            "target": 34962
        },
        {
            "buffer": 0,
            "byteLength": 21816,
            "byteOffset": 45264,
            "target": 34962
        },
        {
            "buffer": 0,
            "byteLength": 14544,
            "byteOffset": 67080,
            "target": 34962
        },
        {
            "buffer": 0,
            "byteLength": 14544,
            "byteOffset": 81624,
            "target": 34962
        },
        {
            "buffer": 0,
            "byteLength": 14544,
            "byteOffset": 96168,
            "target": 34962
        },
        {
            "buffer": 0,
            "byteLength": 29088,
            "byteOffset": 110712,
            "target": 34962
        },
        {
            "buffer": 0,
            "byteLength": 1216,
            "byteOffset": 139800
        }
    ],
    "scenes": [
        {
            "name": "Root Scene",
            "nodes": [
                0
            ]
        }
    ],
    "accessors": [
        {
            "componentType": 5126,
            "type": "SCALAR",
            "count": 45,
            "bufferView": 0,
            "byteOffset": 0,
            "min": [
                0.0
            ],
            "max": [
                1.83333337306976
            ]
        },
        {
            "componentType": 5126,
            "type": "VEC3",
            "count": 45,
            "bufferView": 1,
            "byteOffset": 0
        },
        {
            "componentType": 5126,
            "type": "VEC4",
            "count": 45,
            "bufferView": 2,
            "byteOffset": 0
        },
        {
            "componentType": 5126,
            "type": "VEC4",
            "count": 45,
            "bufferView": 3,
            "byteOffset": 0
        },
        {
            "componentType": 5126,
            "type": "VEC4",
            "count": 45,
            "bufferView": 4,
            "byteOffset": 0
        },
        {
            "componentType": 5126,
            "type": "VEC4",
            "count": 45,
            "bufferView": 5,
            "byteOffset": 0
        },
        {
            "componentType": 5126,
            "type": "VEC4",
            "count": 45,
            "bufferView": 6,
            "byteOffset": 0
        },
        {
            "componentType": 5126,
            "type": "VEC4",
            "count": 45,
            "bufferView": 7,
            "byteOffset": 0
        },
        {
            "componentType": 5126,
            "type": "VEC4",
            "count": 45,
            "bufferView": 8,
            "byteOffset": 0
        },
        {
            "componentType": 5126,
            "type": "VEC4",
            "count": 45,
            "bufferView": 9,
            "byteOffset": 0
        },
        {
            "componentType": 5126,
            "type": "VEC4",
            "count": 45,
            "bufferView": 10,
            "byteOffset": 0
        },
        {
            "componentType": 5126,
            "type": "VEC4",
            "count": 45,
            "bufferView": 11,
            "byteOffset": 0
        },
        {
            "componentType": 5126,
            "type": "VEC4",
            "count": 45,
            "bufferView": 12,
            "byteOffset": 0
        },
        {
            "componentType": 5126,
            "type": "VEC4",
            "count": 45,
            "bufferView": 13,
            "byteOffset": 0
        },
        {
            "componentType": 5126,
            "type": "VEC4",
            "count": 45,
            "bufferView": 14,
            "byteOffset": 0
        },
        {
            "componentType": 5126,
            "type": "VEC4",
            "count": 45,
            "bufferView": 15,
            "byteOffset": 0
        },
        {
            "componentType": 5126,
            "type": "VEC4",
            "count": 45,
            "bufferView": 16,
            "byteOffset": 0
        },
        {
            "componentType": 5123,
            "type": "SCALAR",
            "count": 5964,
            "bufferView": 17,
            "byteOffset": 0
        },
        {
            "componentType": 5126,
            "type": "VEC3",
            "count": 1818,
            "bufferView": 18,
            "byteOffset": 0,
            "min": [
                -0.0408465415239334,
                9.62369085755199e-06,
                -0.0144365709275007
            ],
            "max": [
                0.0408465415239334,
                0.0793404877185822,
                0.00794503092765808
            ]
        },
        {
            "componentType": 5126,
            "type": "VEC3",
            "count": 1818,
            "bufferView": 19,
            "byteOffset": 0
        },
        {
            "componentType": 5126,
            "type": "VEC2",
            "count": 1818,
            "bufferView": 20,
            "byteOffset": 0
        },
        {
            "componentType": 5126,
            "type": "VEC2",
            "count": 1818,
            "bufferView": 21,
            "byteOffset": 0
        },
        {
            "componentType": 5123,
            "type": "VEC4",
            "count": 1818,
            "bufferView": 22,
            "byteOffset": 0
        },
        {
            "componentType": 5126,
            "type": "VEC4",
            "count": 1818,
            "bufferView": 23,
            "byteOffset": 0
        },
        {
            "componentType": 5126,
            "type": "MAT4",
            "count": 19,
            "bufferView": 24,
            "byteOffset": 0
        }
    ],
    "samplers": [
        {}
    ],
    "materials": [
        {
            "name": "lambert40",
            "alphaMode": "OPAQUE",
            "extras": {
                "fromFBX": {
                    "shadingModel": "Phong",
                    "isTruePBR": false
                }
            },
            "pbrMetallicRoughness": {
                "baseColorFactor": [
                    0.0,
                    0.276919931173325,
                    0.800000011920929,
                    1.0
                ],
                "metallicFactor": 0.400000005960464,
                "roughnessFactor": 0.70710676908493
            }
        }
    ],
    "meshes": [
        {
            "name": "stickman_new",
            "primitives": [
                {
                    "material": 0,
                    "mode": 4,
                    "attributes": {
                        "JOINTS_0": 22,
                        "NORMAL": 19,
                        "POSITION": 18,
                        "TEXCOORD_0": 20,
                        "TEXCOORD_1": 21,
                        "WEIGHTS_0": 23
                    },
                    "indices": 17
                }
            ]
        }
    ],
    "skins": [
        {
            "joints": [
                10,
                11,
                12,
                13,
                20,
                2,
                3,
                9,
                4,
                5,
                6,
                7,
                16,
                14,
                15,
                17,
                8,
                18,
                19
            ],
            "inverseBindMatrices": 24,
            "skeleton": 2
        }
    ],
    "animations": [
        {
            "name": "Idle",
            "channels": [
                {
                    "sampler": 0,
                    "target": {
                        "node": 1,
                        "path": "translation"
                    }
                },
                {
                    "sampler": 1,
                    "target": {
                        "node": 1,
                        "path": "rotation"
                    }
                },
                {
                    "sampler": 2,
                    "target": {
                        "node": 3,
                        "path": "rotation"
                    }
                },
                {
                    "sampler": 3,
                    "target": {
                        "node": 4,
                        "path": "rotation"
                    }
                },
                {
                    "sampler": 4,
                    "target": {
                        "node": 6,
                        "path": "rotation"
                    }
                },
                {
                    "sampler": 5,
                    "target": {
                        "node": 7,
                        "path": "rotation"
                    }
                },
                {
                    "sampler": 6,
                    "target": {
                        "node": 9,
                        "path": "rotation"
                    }
                },
                {
                    "sampler": 7,
                    "target": {
                        "node": 10,
                        "path": "rotation"
                    }
                },
                {
                    "sampler": 8,
                    "target": {
                        "node": 11,
                        "path": "rotation"
                    }
                },
                {
                    "sampler": 9,
                    "target": {
                        "node": 12,
                        "path": "rotation"
                    }
                },
                {
                    "sampler": 10,
                    "target": {
                        "node": 13,
                        "path": "rotation"
                    }
                },
                {
                    "sampler": 11,
                    "target": {
                        "node": 14,
                        "path": "rotation"
                    }
                },
                {
                    "sampler": 12,
                    "target": {
                        "node": 16,
                        "path": "rotation"
                    }
                },
                {
                    "sampler": 13,
                    "target": {
                        "node": 17,
                        "path": "rotation"
                    }
                },
                {
                    "sampler": 14,
                    "target": {
                        "node": 18,
                        "path": "rotation"
                    }
                },
                {
                    "sampler": 15,
                    "target": {
                        "node": 20,
                        "path": "rotation"
                    }
                }
            ],
            "samplers": [
                {
                    "input": 0,
                    "interpolation": "LINEAR",
                    "output": 1
                },
                {
                    "input": 0,
                    "interpolation": "LINEAR",
                    "output": 2
                },
                {
                    "input": 0,
                    "interpolation": "LINEAR",
                    "output": 3
                },
                {
                    "input": 0,
                    "interpolation": "LINEAR",
                    "output": 4
                },
                {
                    "input": 0,
                    "interpolation": "LINEAR",
                    "output": 5
                },
                {
                    "input": 0,
                    "interpolation": "LINEAR",
                    "output": 6
                },
                {
                    "input": 0,
                    "interpolation": "LINEAR",
                    "output": 7
                },
                {
                    "input": 0,
                    "interpolation": "LINEAR",
                    "output": 8
                },
                {
                    "input": 0,
                    "interpolation": "LINEAR",
                    "output": 9
                },
                {
                    "input": 0,
                    "interpolation": "LINEAR",
                    "output": 10
                },
                {
                    "input": 0,
                    "interpolation": "LINEAR",
                    "output": 11
                },
                {
                    "input": 0,
                    "interpolation": "LINEAR",
                    "output": 12
                },
                {
                    "input": 0,
                    "interpolation": "LINEAR",
                    "output": 13
                },
                {
                    "input": 0,
                    "interpolation": "LINEAR",
                    "output": 14
                },
                {
                    "input": 0,
                    "interpolation": "LINEAR",
                    "output": 15
                },
                {
                    "input": 0,
                    "interpolation": "LINEAR",
                    "output": 16
                }
            ]
        }
    ],
    "nodes": [
        {
            "name": "RootNode",
            "translation": [
                0.0,
                0.0,
                0.0
            ],
            "rotation": [
                0.0,
                0.0,
                0.0,
                1.0
            ],
            "scale": [
                1.0,
                1.0,
                1.0
            ],
            "children": [
                1,
                22
            ]
        },
        {
            "name": "Character1_Reference",
            "translation": [
                0.000197721397853456,
                1.38616096592159e-05,
                -8.81350570125505e-05
            ],
            "rotation": [
                0.0516238175332546,
                -0.422557592391968,
                0.0453169941902161,
                0.903729200363159
            ],
            "scale": [
                1.00000059604645,
                1.00000059604645,
                1.00000059604645
            ],
            "children": [
                2
            ]
        },
        {
            "name": "Character1_Hips",
            "translation": [
                -7.45058043039037e-11,
                0.0268932413309813,
                -1.49011603056692e-09
            ],
            "rotation": [
                -6.93889390390723e-18,
                -2.77555756156289e-17,
                3.46944695195361e-18,
                1.0
            ],
            "scale": [
                1.0,
                1.0,
                1.0
            ],
            "children": [
                3,
                6,
                9
            ]
        },
        {
            "name": "Character1_LeftUpLeg",
            "translation": [
                0.00673886621370912,
                -0.00273666135035455,
                -5.9604643443123e-10
            ],
            "rotation": [
                -0.440201580524445,
                0.313918858766556,
                0.00484240427613258,
                0.841221749782562
            ],
            "scale": [
                1.0,
                1.0,
                1.0
            ],
            "children": [
                4
            ]
        },
        {
            "name": "Character1_LeftLeg",
            "translation": [
                0.00371353048831224,
                -0.0108860731124878,
                4.44089199923895e-18
            ],
            "rotation": [
                0.420506358146667,
                -0.0285438876599073,
                -0.0430702865123749,
                0.905817091464996
            ],
            "scale": [
                1.0,
                1.0,
                1.0
            ],
            "children": [
                5
            ]
        },
        {
            "name": "Character1_LeftFoot",
            "translation": [
                0.00239629601128399,
                -0.00896722171455622,
                1.19209286886246e-09
            ],
            "rotation": [
                -1.38777878078145e-17,
                -2.40741243048404e-34,
                1.73472347597681e-17,
                1.0
            ],
            "scale": [
                1.0,
                1.0,
                1.0
            ]
        },
        {
            "name": "Character1_RightUpLeg",
            "translation": [
                -0.00673886761069298,
                -0.00273665902204812,
                -5.9604643443123e-10
            ],
            "rotation": [
                -0.273330181837082,
                -0.0286599919199944,
                -0.00657566823065281,
                0.961470723152161
            ],
            "scale": [
                1.0,
                1.0,
                1.0
            ],
            "children": [
                7
            ]
        },
        {
            "name": "Character1_RightLeg",
            "translation": [
                -0.00371353374794126,
                -0.0108860703185201,
                -2.22044599961948e-18
            ],
            "rotation": [
                0.446462631225586,
                -0.118716537952423,
                -0.0464973039925098,
                0.885672330856323
            ],
            "scale": [
                1.0,
                1.0,
                1.0
            ],
            "children": [
                8
            ]
        },
        {
            "name": "Character1_RightFoot",
            "translation": [
                -0.00239629740826786,
                -0.00896722823381424,
                -8.94069651646845e-10
            ],
            "rotation": [
                -6.93889390390723e-18,
                -5.55111512312578e-17,
                -3.85185988877447e-34,
                1.0
            ],
            "scale": [
                1.0,
                1.0,
                1.0
            ]
        },
        {
            "name": "Character1_Spine",
            "translation": [
                7.45058043039037e-11,
                0.010767781175673,
                1.38777874976217e-19
            ],
            "rotation": [
                0.0951093882322311,
                0.0255222618579865,
                -0.0140692796558142,
                0.995040118694305
            ],
            "scale": [
                1.0,
                1.0,
                1.0
            ],
            "children": [
                10
            ]
        },
        {
            "name": "Character1_Spine1",
            "translation": [
                5.21540644005114e-10,
                0.00623113848268986,
                -2.38418573772492e-09
            ],
            "rotation": [
                0.0513010919094086,
                0.0504420697689056,
                -0.0347029902040958,
                0.996804654598236
            ],
            "scale": [
                1.0,
                1.0,
                1.0
            ],
            "children": [
                11
            ]
        },
        {
            "name": "Character1_Spine2",
            "translation": [
                2.98023217215615e-10,
                0.00623113615438342,
                2.22044599961948e-18
            ],
            "rotation": [
                -0.0518493540585041,
                0.0537660159170628,
                -0.0292907766997814,
                0.996776282787323
            ],
            "scale": [
                1.0,
                1.0,
                1.0
            ],
            "children": [
                12,
                16,
                20
            ]
        },
        {
            "name": "Character1_LeftShoulder",
            "translation": [
                0.00468312529847026,
                0.00250114919617772,
                -1.78813930329369e-09
            ],
            "rotation": [
                -0.0126565489917994,
                -0.141087710857391,
                -0.0226013567298651,
                0.989658176898956
            ],
            "scale": [
                1.0,
                1.0,
                1.0
            ],
            "children": [
                13
            ]
        },
        {
            "name": "Character1_LeftArm",
            "translation": [
                0.00425448827445507,
                -0.00114994519390166,
                5.9604643443123e-10
            ],
            "rotation": [
                -0.0927636325359344,
                -0.0187018364667892,
                -0.3881955742836,
                0.916705727577209
            ],
            "scale": [
                1.0,
                1.0,
                1.0
            ],
            "children": [
                14
            ]
        },
        {
            "name": "Character1_LeftForeArm",
            "translation": [
                0.0114695094525814,
                3.05771827697754e-05,
                2.98023217215615e-10
            ],
            "rotation": [
                -0.160858422517776,
                -0.243477806448936,
                -0.085881695151329,
                0.952610850334167
            ],
            "scale": [
                1.0,
                1.0,
                1.0
            ],
            "children": [
                15
            ]
        },
        {
            "name": "Character1_LeftHand",
            "translation": [
                0.012781510129571,
                -1.32656095956918e-05,
                4.76837147544984e-09
            ],
            "rotation": [
                -7.230646166972e-20,
                -2.77554813170391e-17,
                -0.00260511483065784,
                0.999996602535248
            ],
            "scale": [
                1.0,
                1.0,
                1.0
            ]
        },
        {
            "name": "Character1_RightShoulder",
            "translation": [
                -0.00468312622979283,
                0.00250114919617772,
                -5.9604643443123e-10
            ],
            "rotation": [
                -0.0405227579176426,
                0.211191475391388,
                0.00341066997498274,
                0.976598381996155
            ],
            "scale": [
                1.0,
                1.0,
                1.0
            ],
            "children": [
                17
            ]
        },
        {
            "name": "Character1_RightArm",
            "translation": [
                -0.00425449199974537,
                -0.00114994042087346,
                -5.9604643443123e-10
            ],
            "rotation": [
                -0.0956729725003242,
                -0.287583529949188,
                0.445338368415833,
                0.842505872249603
            ],
            "scale": [
                1.0,
                1.0,
                1.0
            ],
            "children": [
                18
            ]
        },
        {
            "name": "Character1_RightForeArm",
            "translation": [
                -0.0114695113152266,
                3.09038150589913e-05,
                -5.9604643443123e-10
            ],
            "rotation": [
                -0.100847825407982,
                0.398590475320816,
                0.0865366086363792,
                0.907450675964355
            ],
            "scale": [
                1.0,
                1.0,
                1.0
            ],
            "children": [
                19
            ]
        },
        {
            "name": "Character1_RightHand",
            "translation": [
                -0.0127815045416355,
                -2.31480589718558e-05,
                0.0
            ],
            "rotation": [
                -2.80966122560172e-17,
                4.14039763134151e-17,
                0.008213902823627,
                0.999966263771057
            ],
            "scale": [
                1.0,
                1.0,
                1.0
            ]
        },
        {
            "name": "Character1_Neck",
            "translation": [
                8.94069651646845e-10,
                0.00523113226518035,
                5.9604643443123e-10
            ],
            "rotation": [
                0.0199735052883625,
                0.0816498175263405,
                -0.000656869204249233,
                0.996460676193237
            ],
            "scale": [
                1.0,
                1.0,
                1.0
            ],
            "children": [
                21
            ]
        },
        {
            "name": "Character1_Head",
            "translation": [
                8.94069651646845e-10,
                0.023577094078064,
                2.38418573772492e-09
            ],
            "rotation": [
                2.77555756156289e-17,
                5.55111512312578e-17,
                -1.54074395550979e-33,
                1.0
            ],
            "scale": [
                1.0,
                1.0,
                1.0
            ]
        },
        {
            "name": "stickman_new",
            "translation": [
                0.0,
                1.6543611881282e-26,
                0.00296637881547213
            ],
            "rotation": [
                0.0,
                0.0,
                0.0,
                1.0
            ],
            "scale": [
                1.00000059604645,
                1.00000059604645,
                1.00000059604645
            ],
            "mesh": 0,
            "skin": 0
        }
    ]
}