{
  "__type__": "cc.SpriteFrame",
  "content": {
    "name": "SmashAllImposter_DE",
    "texture": "4730a45f-7585-47fc-bf21-e60e7c32b08d",
    "atlas": "",
    "rect": [
      0,
      0,
      424,
      89
    ],
    "offset": [
      0,
      0
    ],
    "originalSize": [
      424,
      89
    ],
    "capInsets": [
      0,
      0,
      0,
      0
    ]
  }
}