{
  "__type__": "cc.Material",
  "_name": "Captain",
  "_objFlags": 0,
  "_native": "",
  "_effectAsset": {
    "__uuid__": "abc2cb62-7852-4525-a90d-d474487b88f2"
  },
  "_techniqueIndex": 0,
  "_techniqueData": {
    "0": {
      "defines": {
        "USE_DIFFUSE_TEXTURE": true,
        "USE_SPECULAR": false,
        "USE_SPECULAR_TEXTURE": false,
        "USE_EMISSIVE": true,
        "USE_EMISSIVE_TEXTURE": true
      },
      "props": {
        "emissiveColor": {
          "__type__": "cc.Color",
          "r": 218,
          "g": 218,
          "b": 218,
          "a": 255
        },
        "diffuseColor": {
          "__type__": "cc.Color",
          "r": 172,
          "g": 168,
          "b": 168,
          "a": 255
        },
        "specularColor": {
          "__type__": "cc.Color",
          "r": 172,
          "g": 168,
          "b": 168,
          "a": 255
        },
        "diffuseTexture": {
          "__uuid__": "978282c1-af2c-48c5-a30a-763cfc1dea60"
        },
        "emissiveTexture": {
          "__uuid__": "978282c1-af2c-48c5-a30a-763cfc1dea60"
        }
      }
    }
  }
}