{
  "__type__": "cc.Material",
  "_name": "Minion",
  "_objFlags": 0,
  "_native": "",
  "_effectAsset": {
    "__uuid__": "abc2cb62-7852-4525-a90d-d474487b88f2"
  },
  "_techniqueIndex": 0,
  "_techniqueData": {
    "0": {
      "defines": {
        "USE_DIFFUSE_TEXTURE": true,
        "USE_SPECULAR": false,
        "USE_EMISSIVE": true,
        "USE_EMISSIVE_TEXTURE": true,
        "USE_NORMAL_TEXTURE": false,
        "USE_SPECULAR_TEXTURE": true
      },
      "props": {
        "emissiveColor": {
          "__type__": "cc.Color",
          "r": 221,
          "g": 221,
          "b": 221,
          "a": 255
        },
        "diffuseTexture": {
          "__uuid__": "11011c79-8e45-484b-ba6d-726c147a66e3"
        },
        "emissiveTexture": {
          "__uuid__": "11011c79-8e45-484b-ba6d-726c147a66e3"
        },
        "diffuseColor": {
          "__type__": "cc.Color",
          "r": 109,
          "g": 103,
          "b": 103,
          "a": 255
        },
        "specularColor": {
          "__type__": "cc.Color",
          "r": 109,
          "g": 103,
          "b": 103,
          "a": 255
        }
      }
    }
  }
}