{
  "__type__": "cc.Model",
  "_name": "Idle",
  "_objFlags": 0,
  "_native": "",
  "_nodes": [
    {
      "name": "RootNode",
      "scale": [
        1,
        1,
        1
      ],
      "children": [
        1,
        22
      ],
      "position": [
        0,
        0,
        0
      ],
      "quat": [
        0,
        0,
        0,
        1
      ],
      "path": ""
    },
    {
      "name": "Character1_Reference",
      "scale": [
        1.00000059604645,
        1.00000059604645,
        1.00000059604645
      ],
      "children": [
        2
      ],
      "parent": null,
      "position": [
        0,
        0,
        0
      ],
      "quat": [
        0.0763357579708099,
        -0.453825414180756,
        0.0255049038678408,
        0.887448489665985
      ],
      "path": "Character1_Reference"
    },
    {
      "name": "Character1_Hips",
      "scale": [
        1,
        1,
        1
      ],
      "children": [
        3,
        6,
        9
      ],
      "parent": null,
      "position": [
        -3.72529007641731e-10,
        0.0268932264298201,
        1.19209286886246e-9
      ],
      "quat": [
        -6.93889390390723e-18,
        0,
        0,
        1
      ],
      "path": "Character1_Reference/Character1_Hips",
      "uniqueBindPose": [
        1,
        0,
        0,
        0,
        0,
        1,
        0,
        0,
        0,
        0,
        1,
        0,
        0,
        -0.02689322829246521,
        0.0029663785826414824,
        1
      ]
    },
    {
      "name": "Character1_LeftUpLeg",
      "scale": [
        1,
        1,
        1
      ],
      "children": [
        4
      ],
      "parent": null,
      "position": [
        0.00673886388540268,
        -0.00273666135035455,
        5.9604643443123e-10
      ],
      "quat": [
        -0.463604182004929,
        0.298663020133972,
        0.0211043432354927,
        0.833922147750854
      ],
      "path": "Character1_Reference/Character1_Hips/Character1_LeftUpLeg",
      "uniqueBindPose": [
        1,
        0,
        0,
        0,
        0,
        1,
        0,
        0,
        0,
        0,
        1,
        0,
        -0.006738859694451094,
        -0.024156570434570312,
        0.0029663785826414824,
        1
      ]
    },
    {
      "name": "Character1_LeftLeg",
      "scale": [
        1,
        1,
        1
      ],
      "children": [
        5
      ],
      "parent": null,
      "position": [
        0.00371353328227997,
        -0.0108860749751329,
        0
      ],
      "quat": [
        0.392430037260056,
        0.00130189466290176,
        -0.0148618938401341,
        0.919660866260529
      ],
      "path": "Character1_Reference/Character1_Hips/Character1_LeftUpLeg/Character1_LeftLeg",
      "uniqueBindPose": [
        1,
        0,
        0,
        0,
        0,
        1,
        0,
        0,
        0,
        0,
        1,
        0,
        -0.010452399961650372,
        -0.013270499184727669,
        0.0029663785826414824,
        1
      ]
    },
    {
      "name": "Character1_LeftFoot",
      "scale": [
        1,
        1,
        1
      ],
      "parent": null,
      "position": [
        0.00239629601128399,
        -0.00896722637116909,
        -2.38418573772492e-9
      ],
      "quat": [
        -2.08166817117217e-17,
        1.11022302462516e-16,
        3.46944695195361e-18,
        1
      ],
      "path": "Character1_Reference/Character1_Hips/Character1_LeftUpLeg/Character1_LeftLeg/Character1_LeftFoot",
      "uniqueBindPose": [
        1,
        0,
        0,
        0,
        0,
        1,
        0,
        0,
        0,
        0,
        1,
        0,
        -0.0128486892208457,
        -0.004303270019590855,
        0.0029663785826414824,
        1
      ]
    },
    {
      "name": "Character1_RightUpLeg",
      "scale": [
        1,
        1,
        1
      ],
      "children": [
        7
      ],
      "parent": null,
      "position": [
        -0.00673886388540268,
        -0.00273666135035455,
        -5.9604643443123e-10
      ],
      "quat": [
        -0.274713814258575,
        -0.204893231391907,
        -0.0486759841442108,
        0.938180029392242
      ],
      "path": "Character1_Reference/Character1_Hips/Character1_RightUpLeg",
      "uniqueBindPose": [
        1,
        0,
        0,
        0,
        0,
        1,
        0,
        0,
        0,
        0,
        1,
        0,
        0.006738859694451094,
        -0.024156570434570312,
        0.0029663785826414824,
        1
      ]
    },
    {
      "name": "Character1_RightLeg",
      "scale": [
        1,
        1,
        1
      ],
      "children": [
        8
      ],
      "parent": null,
      "position": [
        -0.00371353374794126,
        -0.0108860777691007,
        0
      ],
      "quat": [
        0.355680555105209,
        -0.122289307415485,
        -0.0509957857429981,
        0.92516815662384
      ],
      "path": "Character1_Reference/Character1_Hips/Character1_RightUpLeg/Character1_RightLeg",
      "uniqueBindPose": [
        1,
        0,
        0,
        0,
        0,
        1,
        0,
        0,
        0,
        0,
        1,
        0,
        0.010452399961650372,
        -0.013270499184727669,
        0.0029663785826414824,
        1
      ]
    },
    {
      "name": "Character1_RightFoot",
      "scale": [
        1,
        1,
        1
      ],
      "parent": null,
      "position": [
        -0.00239629438146949,
        -0.00896722637116909,
        0
      ],
      "quat": [
        3.90312782094782e-17,
        -5.4166779685891e-34,
        -1.38777878078145e-17,
        1
      ],
      "path": "Character1_Reference/Character1_Hips/Character1_RightUpLeg/Character1_RightLeg/Character1_RightFoot",
      "uniqueBindPose": [
        1,
        0,
        0,
        0,
        0,
        1,
        0,
        0,
        0,
        0,
        1,
        0,
        0.0128486892208457,
        -0.004303270019590855,
        0.0029663785826414824,
        1
      ]
    },
    {
      "name": "Character1_Spine",
      "scale": [
        1,
        1,
        1
      ],
      "children": [
        10
      ],
      "parent": null,
      "position": [
        2.23517412911711e-10,
        0.010767774656415,
        2.98023217215615e-10
      ],
      "quat": [
        0.0641531348228455,
        0.0320782549679279,
        -0.0201073233038187,
        0.997221648693085
      ],
      "path": "Character1_Reference/Character1_Hips/Character1_Spine",
      "uniqueBindPose": [
        1,
        0,
        0,
        0,
        0,
        1,
        0,
        0,
        0,
        0,
        1,
        0,
        0,
        -0.03766099736094475,
        0.0029663785826414824,
        1
      ]
    },
    {
      "name": "Character1_Spine1",
      "scale": [
        1,
        1,
        1
      ],
      "children": [
        11
      ],
      "parent": null,
      "position": [
        1.49011608607807e-10,
        0.00623114081099629,
        -1.66533449971461e-18
      ],
      "quat": [
        0.00953860115259886,
        0.0121766924858093,
        0.0202169474214315,
        0.999675929546356
      ],
      "path": "Character1_Reference/Character1_Hips/Character1_Spine/Character1_Spine1",
      "uniqueBindPose": [
        1,
        0,
        0,
        0,
        0,
        1,
        0,
        0,
        0,
        0,
        1,
        0,
        0,
        -0.043892137706279755,
        0.0029663785826414824,
        1
      ]
    },
    {
      "name": "Character1_Spine2",
      "scale": [
        1,
        1,
        1
      ],
      "children": [
        12,
        16,
        20
      ],
      "parent": null,
      "position": [
        -1.86264503820865e-10,
        0.00623114081099629,
        2.22044599961948e-18
      ],
      "quat": [
        0.000665053143166006,
        0.0112896785140038,
        0.00898104626685381,
        0.999895691871643
      ],
      "path": "Character1_Reference/Character1_Hips/Character1_Spine/Character1_Spine1/Character1_Spine2",
      "uniqueBindPose": [
        1,
        0,
        0,
        0,
        0,
        1,
        0,
        0,
        0,
        0,
        1,
        0,
        0,
        -0.05012328177690506,
        0.0029663785826414824,
        1
      ]
    },
    {
      "name": "Character1_LeftShoulder",
      "scale": [
        1,
        1,
        1
      ],
      "children": [
        13
      ],
      "parent": null,
      "position": [
        0.00468312483280897,
        0.00250115385279059,
        -1.11022299980974e-18
      ],
      "quat": [
        -0.0180709771811962,
        -0.0864961296319962,
        -0.0315419808030128,
        0.995588779449463
      ],
      "path": "Character1_Reference/Character1_Hips/Character1_Spine/Character1_Spine1/Character1_Spine2/Character1_LeftShoulder",
      "uniqueBindPose": [
        1,
        0,
        0,
        0,
        0,
        1,
        0,
        0,
        0,
        0,
        1,
        0,
        -0.004683129955083132,
        -0.05262443795800209,
        0.0029663785826414824,
        1
      ]
    },
    {
      "name": "Character1_LeftArm",
      "scale": [
        1,
        1,
        1
      ],
      "children": [
        14
      ],
      "parent": null,
      "position": [
        0.00425448780879378,
        -0.00114993087481707,
        -5.9604643443123e-10
      ],
      "quat": [
        0.0161125846207142,
        -0.13746652007103,
        -0.393935024738312,
        0.908657550811768
      ],
      "path": "Character1_Reference/Character1_Hips/Character1_Spine/Character1_Spine1/Character1_Spine2/Character1_LeftShoulder/Character1_LeftArm",
      "uniqueBindPose": [
        1,
        0.000012833112123189494,
        0,
        0,
        -0.000012833112123189494,
        1,
        0,
        0,
        0,
        0,
        1,
        0,
        -0.008936950005590916,
        -0.051474615931510925,
        0.0029663785826414824,
        1
      ]
    },
    {
      "name": "Character1_LeftForeArm",
      "scale": [
        1,
        1,
        1
      ],
      "children": [
        15
      ],
      "parent": null,
      "position": [
        0.0114695094525814,
        0.000030579565645894,
        -1.19209286886246e-9
      ],
      "quat": [
        -0.203322678804398,
        -0.6962730884552,
        -0.17788727581501,
        0.664996087551117
      ],
      "path": "Character1_Reference/Character1_Hips/Character1_Spine/Character1_Spine1/Character1_Spine2/Character1_LeftShoulder/Character1_LeftArm/Character1_LeftForeArm",
      "uniqueBindPose": [
        1,
        -0.0003593273286242038,
        0,
        0,
        0.0003593273286242038,
        1,
        0,
        0,
        0,
        0,
        1,
        0,
        -0.020425638183951378,
        -0.05149759724736214,
        0.0029663785826414824,
        1
      ]
    },
    {
      "name": "Character1_LeftHand",
      "scale": [
        1,
        1,
        1
      ],
      "parent": null,
      "position": [
        0.0127815138548613,
        -0.0000132679933813051,
        2.38418573772492e-9
      ],
      "quat": [
        -1.35574611591757e-20,
        -5.20415264354725e-18,
        -0.00260511483065784,
        0.999996602535248
      ],
      "path": "Character1_Reference/Character1_Hips/Character1_Spine/Character1_Spine1/Character1_Spine2/Character1_LeftShoulder/Character1_LeftArm/Character1_LeftForeArm/Character1_LeftHand",
      "uniqueBindPose": [
        0.9999880194664001,
        0.004850894678384066,
        0,
        0,
        -0.004850894678384066,
        0.9999880194664001,
        0,
        0,
        0,
        0,
        1,
        0,
        -0.032938458025455475,
        -0.05165664851665497,
        0.0029663785826414824,
        1
      ]
    },
    {
      "name": "Character1_RightShoulder",
      "scale": [
        1,
        1,
        1
      ],
      "children": [
        17
      ],
      "parent": null,
      "position": [
        -0.00468312622979283,
        0.00250115385279059,
        5.9604643443123e-10
      ],
      "quat": [
        -0.0639160573482513,
        -0.166964143514633,
        0.0292349196970463,
        0.983454644680023
      ],
      "path": "Character1_Reference/Character1_Hips/Character1_Spine/Character1_Spine1/Character1_Spine2/Character1_RightShoulder",
      "uniqueBindPose": [
        1,
        0,
        0,
        0,
        0,
        1,
        0,
        0,
        0,
        0,
        1,
        0,
        0.004683129955083132,
        -0.05262443795800209,
        0.0029663785826414824,
        1
      ]
    },
    {
      "name": "Character1_RightArm",
      "scale": [
        1,
        1,
        1
      ],
      "children": [
        18
      ],
      "parent": null,
      "position": [
        -0.00425448827445507,
        -0.00114993087481707,
        -1.19209286886246e-9
      ],
      "quat": [
        0.0310564208775759,
        0.0114092277362943,
        0.44651871919632,
        0.894162356853485
      ],
      "path": "Character1_Reference/Character1_Hips/Character1_Spine/Character1_Spine1/Character1_Spine2/Character1_RightShoulder/Character1_RightArm",
      "uniqueBindPose": [
        1,
        -0.00004046304093208164,
        0,
        0,
        0.00004046304093208164,
        1,
        0,
        0,
        0,
        0,
        1,
        0,
        0.008935529738664627,
        -0.05147486925125122,
        0.0029663785826414824,
        1
      ]
    },
    {
      "name": "Character1_RightForeArm",
      "scale": [
        1,
        1,
        1
      ],
      "children": [
        19
      ],
      "parent": null,
      "position": [
        -0.0114695113152266,
        0.0000309014321828727,
        -1.78813930329369e-9
      ],
      "quat": [
        -0.0238603223115206,
        0.601337075233459,
        0.0284683387726545,
        0.79813152551651
      ],
      "path": "Character1_Reference/Character1_Hips/Character1_Spine/Character1_Spine1/Character1_Spine2/Character1_RightShoulder/Character1_RightArm/Character1_RightForeArm",
      "uniqueBindPose": [
        0.9999989867210388,
        0.0011329611297696829,
        0,
        0,
        -0.0011329611297696829,
        0.9999989867210388,
        0,
        0,
        0,
        0,
        1,
        0,
        0.020465468987822533,
        -0.05148177966475487,
        0.0029663785826414824,
        1
      ]
    },
    {
      "name": "Character1_RightHand",
      "scale": [
        1,
        1,
        1
      ],
      "parent": null,
      "position": [
        -0.0127815026789904,
        -0.0000231504436669638,
        4.44089199923895e-18
      ],
      "quat": [
        -8.33779065386588e-17,
        1.31933752602656e-17,
        0.008213902823627,
        0.999966263771057
      ],
      "path": "Character1_Reference/Character1_Hips/Character1_Spine/Character1_Spine1/Character1_Spine2/Character1_RightShoulder/Character1_RightArm/Character1_RightForeArm/Character1_RightHand",
      "uniqueBindPose": [
        0.9998829364776611,
        -0.015294414013624191,
        0,
        0,
        0.015294414013624191,
        0.9998829364776611,
        0,
        0,
        0,
        0,
        1,
        0,
        0.032397158443927765,
        -0.0519978366792202,
        0.0029663785826414824,
        1
      ]
    },
    {
      "name": "Character1_Neck",
      "scale": [
        1,
        1,
        1
      ],
      "children": [
        21
      ],
      "parent": null,
      "position": [
        -4.47034825823422e-10,
        0.00523113738745451,
        1.19209286886246e-9
      ],
      "quat": [
        -0.0179660432040691,
        0.0851773619651794,
        -0.0150661114603281,
        0.99608987569809
      ],
      "path": "Character1_Reference/Character1_Hips/Character1_Spine/Character1_Spine1/Character1_Spine2/Character1_Neck",
      "uniqueBindPose": [
        1,
        0,
        0,
        0,
        0,
        1,
        0,
        0,
        0,
        0,
        1,
        0,
        0,
        -0.055354416370391846,
        0.0029663785826414824,
        1
      ]
    },
    {
      "name": "Character1_Head",
      "scale": [
        1,
        1,
        1
      ],
      "parent": null,
      "position": [
        5.9604643443123e-10,
        0.0235770847648382,
        2.38418573772492e-9
      ],
      "quat": [
        0,
        0,
        6.93889390390723e-18,
        1
      ],
      "path": "Character1_Reference/Character1_Hips/Character1_Spine/Character1_Spine1/Character1_Spine2/Character1_Neck/Character1_Head"
    },
    {
      "name": "stickman_new",
      "scale": [
        1.00000059604645,
        1.00000059604645,
        1.00000059604645
      ],
      "mesh": 0,
      "skin": 0,
      "parent": null,
      "position": [
        0,
        1.6543611881282e-26,
        0.00296637881547213
      ],
      "quat": [
        0,
        0,
        0,
        1
      ],
      "path": "stickman_new"
    }
  ],
  "_precomputeJointMatrix": false
}