{
  "__type__": "cc.Material",
  "_name": "",
  "_objFlags": 0,
  "_native": "",
  "_effectAsset": {
    "__uuid__": "abc2cb62-7852-4525-a90d-d474487b88f2"
  },
  "_techniqueIndex": 0,
  "_techniqueData": {
    "0": {
      "props": {
        "diffuseColor": {
          "__type__": "cc.Color",
          "r": 204,
          "g": 204,
          "b": 204,
          "a": 255
        },
        "diffuseTexture": {
          "__uuid__": "8650380d-cfb2-48a6-8b85-5ce5c1c0ac16"
        },
        "emissiveTexture": {
          "__uuid__": "8650380d-cfb2-48a6-8b85-5ce5c1c0ac16"
        },
        "emissiveColor": {
          "__type__": "cc.Color",
          "r": 255,
          "g": 255,
          "b": 255,
          "a": 255
        }
      },
      "defines": {
        "USE_DIFFUSE_TEXTURE": true,
        "USE_EMISSIVE": true,
        "USE_EMISSIVE_TEXTURE": true
      }
    }
  }
}