{
  "__type__": "cc.SkeletonAnimationClip",
  "_name": "Attack",
  "_objFlags": 0,
  "_native": ".bin",
  "_duration": 0.7916666865348816,
  "sample": 30,
  "speed": 1,
  "wrapMode": 2,
  "events": [],
  "description": {
    "Character1_Reference": {
      "position": {
        "offset": 0,
        "frameCount": 9
      },
      "quat": {
        "offset": 36,
        "frameCount": 12
      },
      "scale": {
        "offset": 96,
        "frameCount": 1
      }
    },
    "Character1_Reference/Character1_Hips/Character1_LeftUpLeg": {
      "quat": {
        "offset": 100,
        "frameCount": 12
      },
      "scale": {
        "offset": 160,
        "frameCount": 1
      },
      "position": {
        "offset": 164,
        "frameCount": 1
      }
    },
    "Character1_Reference/Character1_Hips/Character1_LeftUpLeg/Character1_LeftLeg": {
      "quat": {
        "offset": 168,
        "frameCount": 12
      },
      "scale": {
        "offset": 228,
        "frameCount": 1
      },
      "position": {
        "offset": 232,
        "frameCount": 1
      }
    },
    "Character1_Reference/Character1_Hips/Character1_RightUpLeg": {
      "quat": {
        "offset": 236,
        "frameCount": 12
      },
      "scale": {
        "offset": 296,
        "frameCount": 1
      },
      "position": {
        "offset": 300,
        "frameCount": 1
      }
    },
    "Character1_Reference/Character1_Hips/Character1_RightUpLeg/Character1_RightLeg": {
      "quat": {
        "offset": 304,
        "frameCount": 12
      },
      "scale": {
        "offset": 364,
        "frameCount": 1
      },
      "position": {
        "offset": 368,
        "frameCount": 1
      }
    },
    "Character1_Reference/Character1_Hips/Character1_Spine": {
      "position": {
        "offset": 372,
        "frameCount": 6
      },
      "quat": {
        "offset": 396,
        "frameCount": 17
      },
      "scale": {
        "offset": 481,
        "frameCount": 1
      }
    },
    "Character1_Reference/Character1_Hips/Character1_Spine/Character1_Spine1": {
      "quat": {
        "offset": 485,
        "frameCount": 15
      },
      "scale": {
        "offset": 560,
        "frameCount": 1
      },
      "position": {
        "offset": 564,
        "frameCount": 1
      }
    },
    "Character1_Reference/Character1_Hips/Character1_Spine/Character1_Spine1/Character1_Spine2": {
      "quat": {
        "offset": 568,
        "frameCount": 15
      },
      "scale": {
        "offset": 643,
        "frameCount": 1
      },
      "position": {
        "offset": 647,
        "frameCount": 1
      }
    },
    "Character1_Reference/Character1_Hips/Character1_Spine/Character1_Spine1/Character1_Spine2/Character1_LeftShoulder": {
      "quat": {
        "offset": 651,
        "frameCount": 16
      },
      "scale": {
        "offset": 731,
        "frameCount": 1
      },
      "position": {
        "offset": 735,
        "frameCount": 1
      }
    },
    "Character1_Reference/Character1_Hips/Character1_Spine/Character1_Spine1/Character1_Spine2/Character1_LeftShoulder/Character1_LeftArm": {
      "quat": {
        "offset": 739,
        "frameCount": 10
      },
      "scale": {
        "offset": 789,
        "frameCount": 1
      },
      "position": {
        "offset": 793,
        "frameCount": 1
      }
    },
    "Character1_Reference/Character1_Hips/Character1_Spine/Character1_Spine1/Character1_Spine2/Character1_LeftShoulder/Character1_LeftArm/Character1_LeftForeArm": {
      "quat": {
        "offset": 797,
        "frameCount": 11
      },
      "scale": {
        "offset": 852,
        "frameCount": 1
      },
      "position": {
        "offset": 856,
        "frameCount": 1
      }
    },
    "Character1_Reference/Character1_Hips/Character1_Spine/Character1_Spine1/Character1_Spine2/Character1_RightShoulder": {
      "quat": {
        "offset": 860,
        "frameCount": 17
      },
      "scale": {
        "offset": 945,
        "frameCount": 1
      },
      "position": {
        "offset": 949,
        "frameCount": 1
      }
    },
    "Character1_Reference/Character1_Hips/Character1_Spine/Character1_Spine1/Character1_Spine2/Character1_RightShoulder/Character1_RightArm": {
      "quat": {
        "offset": 953,
        "frameCount": 17
      },
      "scale": {
        "offset": 1038,
        "frameCount": 1
      },
      "position": {
        "offset": 1042,
        "frameCount": 1
      }
    },
    "Character1_Reference/Character1_Hips/Character1_Spine/Character1_Spine1/Character1_Spine2/Character1_RightShoulder/Character1_RightArm/Character1_RightForeArm": {
      "quat": {
        "offset": 1046,
        "frameCount": 17
      },
      "scale": {
        "offset": 1131,
        "frameCount": 1
      },
      "position": {
        "offset": 1135,
        "frameCount": 1
      }
    },
    "Character1_Reference/Character1_Hips/Character1_Spine/Character1_Spine1/Character1_Spine2/Character1_Neck": {
      "quat": {
        "offset": 1139,
        "frameCount": 15
      },
      "scale": {
        "offset": 1214,
        "frameCount": 1
      },
      "position": {
        "offset": 1218,
        "frameCount": 1
      }
    },
    "Character1_Reference/Character1_Hips": {
      "quat": {
        "offset": 1222,
        "frameCount": 1
      },
      "scale": {
        "offset": 1227,
        "frameCount": 1
      },
      "position": {
        "offset": 1231,
        "frameCount": 1
      }
    },
    "Character1_Reference/Character1_Hips/Character1_LeftUpLeg/Character1_LeftLeg/Character1_LeftFoot": {
      "quat": {
        "offset": 1235,
        "frameCount": 1
      },
      "scale": {
        "offset": 1240,
        "frameCount": 1
      },
      "position": {
        "offset": 1244,
        "frameCount": 1
      }
    },
    "Character1_Reference/Character1_Hips/Character1_LeftUpLeg/Character1_LeftLeg/Character1_LeftFoot/Character1_LeftFoot_end": {
      "quat": {
        "offset": 1248,
        "frameCount": 1
      },
      "scale": {
        "offset": 1253,
        "frameCount": 1
      },
      "position": {
        "offset": 1257,
        "frameCount": 1
      }
    },
    "Character1_Reference/Character1_Hips/Character1_RightUpLeg/Character1_RightLeg/Character1_RightFoot": {
      "quat": {
        "offset": 1261,
        "frameCount": 1
      },
      "scale": {
        "offset": 1266,
        "frameCount": 1
      },
      "position": {
        "offset": 1270,
        "frameCount": 1
      }
    },
    "Character1_Reference/Character1_Hips/Character1_RightUpLeg/Character1_RightLeg/Character1_RightFoot/Character1_RightFoot_end": {
      "quat": {
        "offset": 1274,
        "frameCount": 1
      },
      "scale": {
        "offset": 1279,
        "frameCount": 1
      },
      "position": {
        "offset": 1283,
        "frameCount": 1
      }
    },
    "Character1_Reference/Character1_Hips/Character1_Spine/Character1_Spine1/Character1_Spine2/Character1_LeftShoulder/Character1_LeftArm/Character1_LeftForeArm/Character1_LeftHand": {
      "quat": {
        "offset": 1287,
        "frameCount": 1
      },
      "scale": {
        "offset": 1292,
        "frameCount": 1
      },
      "position": {
        "offset": 1296,
        "frameCount": 1
      }
    },
    "Character1_Reference/Character1_Hips/Character1_Spine/Character1_Spine1/Character1_Spine2/Character1_LeftShoulder/Character1_LeftArm/Character1_LeftForeArm/Character1_LeftHand/Character1_LeftHand_end": {
      "quat": {
        "offset": 1300,
        "frameCount": 1
      },
      "scale": {
        "offset": 1305,
        "frameCount": 1
      },
      "position": {
        "offset": 1309,
        "frameCount": 1
      }
    },
    "Character1_Reference/Character1_Hips/Character1_Spine/Character1_Spine1/Character1_Spine2/Character1_RightShoulder/Character1_RightArm/Character1_RightForeArm/Character1_RightHand": {
      "quat": {
        "offset": 1313,
        "frameCount": 1
      },
      "scale": {
        "offset": 1318,
        "frameCount": 1
      },
      "position": {
        "offset": 1322,
        "frameCount": 1
      }
    },
    "Character1_Reference/Character1_Hips/Character1_Spine/Character1_Spine1/Character1_Spine2/Character1_RightShoulder/Character1_RightArm/Character1_RightForeArm/Character1_RightHand/trumpet": {
      "quat": {
        "offset": 1326,
        "frameCount": 1
      },
      "scale": {
        "offset": 1331,
        "frameCount": 1
      },
      "position": {
        "offset": 1335,
        "frameCount": 1
      }
    },
    "Character1_Reference/Character1_Hips/Character1_Spine/Character1_Spine1/Character1_Spine2/Character1_RightShoulder/Character1_RightArm/Character1_RightForeArm/Character1_RightHand/sung2nong": {
      "quat": {
        "offset": 1339,
        "frameCount": 1
      },
      "scale": {
        "offset": 1344,
        "frameCount": 1
      },
      "position": {
        "offset": 1348,
        "frameCount": 1
      }
    },
    "Character1_Reference/Character1_Hips/Character1_Spine/Character1_Spine1/Character1_Spine2/Character1_RightShoulder/Character1_RightArm/Character1_RightForeArm/Character1_RightHand/bazoka": {
      "quat": {
        "offset": 1352,
        "frameCount": 1
      },
      "scale": {
        "offset": 1357,
        "frameCount": 1
      },
      "position": {
        "offset": 1361,
        "frameCount": 1
      }
    },
    "Character1_Reference/Character1_Hips/Character1_Spine/Character1_Spine1/Character1_Spine2/Character1_RightShoulder/Character1_RightArm/Character1_RightForeArm/Character1_RightHand/sungtenlua": {
      "quat": {
        "offset": 1365,
        "frameCount": 1
      },
      "scale": {
        "offset": 1370,
        "frameCount": 1
      },
      "position": {
        "offset": 1374,
        "frameCount": 1
      }
    },
    "Character1_Reference/Character1_Hips/Character1_Spine/Character1_Spine1/Character1_Spine2/Character1_RightShoulder/Character1_RightArm/Character1_RightForeArm/Character1_RightHand/Character1_RightHand_end": {
      "quat": {
        "offset": 1378,
        "frameCount": 1
      },
      "scale": {
        "offset": 1383,
        "frameCount": 1
      },
      "position": {
        "offset": 1387,
        "frameCount": 1
      }
    },
    "Character1_Reference/Character1_Hips/Character1_Spine/Character1_Spine1/Character1_Spine2/Character1_Neck/Character1_Head": {
      "quat": {
        "offset": 1391,
        "frameCount": 1
      },
      "scale": {
        "offset": 1396,
        "frameCount": 1
      },
      "position": {
        "offset": 1400,
        "frameCount": 1
      }
    },
    "Character1_Reference/Character1_Hips/Character1_Spine/Character1_Spine1/Character1_Spine2/Character1_Neck/Character1_Head/Character1_Head_end": {
      "quat": {
        "offset": 1404,
        "frameCount": 1
      },
      "scale": {
        "offset": 1409,
        "frameCount": 1
      },
      "position": {
        "offset": 1413,
        "frameCount": 1
      }
    },
    "stickman_new": {
      "quat": {
        "offset": 1417,
        "frameCount": 1
      },
      "scale": {
        "offset": 1422,
        "frameCount": 1
      },
      "position": {
        "offset": 1426,
        "frameCount": 1
      }
    }
  }
}