[
  {
    "__type__": "cc.Prefab",
    "_name": "rob_hunter",
    "_objFlags": 0,
    "_native": "",
    "data": {
      "__id__": 1
    },
    "optimizationPolicy": 0,
    "asyncLoadAssets": false,
    "readonly": true
  },
  {
    "__type__": "cc.Node",
    "_name": "RootNode",
    "_objFlags": 0,
    "_parent": null,
    "_children": [
      {
        "__id__": 2
      },
      {
        "__id__": 5
      }
    ],
    "_active": true,
    "_components": [
      {
        "__id__": 85
      }
    ],
    "_prefab": {
      "__id__": 86
    },
    "_opacity": 255,
    "_color": {
      "__type__": "cc.Color",
      "r": 255,
      "g": 255,
      "b": 255,
      "a": 255
    },
    "_contentSize": {
      "__type__": "cc.Size",
      "width": 0,
      "height": 0
    },
    "_anchorPoint": {
      "__type__": "cc.Vec2",
      "x": 0.5,
      "y": 0.5
    },
    "_trs": {
      "__type__": "TypedArray",
      "ctor": "Float64Array",
      "array": [
        0,
        0,
        0,
        0,
        0,
        0,
        1,
        1,
        1,
        1
      ]
    },
    "_eulerAngles": {
      "__type__": "cc.Vec3",
      "x": 0,
      "y": 0,
      "z": 0
    },
    "_skewX": 0,
    "_skewY": 0,
    "_is3DNode": true,
    "_groupIndex": 0,
    "groupIndex": 0,
    "_id": ""
  },
  {
    "__type__": "cc.Node",
    "_name": "rob",
    "_objFlags": 0,
    "_parent": {
      "__id__": 1
    },
    "_children": [],
    "_active": true,
    "_components": [
      {
        "__id__": 3
      }
    ],
    "_prefab": {
      "__id__": 4
    },
    "_opacity": 255,
    "_color": {
      "__type__": "cc.Color",
      "r": 255,
      "g": 255,
      "b": 255,
      "a": 255
    },
    "_contentSize": {
      "__type__": "cc.Size",
      "width": 0,
      "height": 0
    },
    "_anchorPoint": {
      "__type__": "cc.Vec2",
      "x": 0.5,
      "y": 0.5
    },
    "_trs": {
      "__type__": "TypedArray",
      "ctor": "Float64Array",
      "array": [
        0,
        0,
        0,
        -6.12323426292584e-17,
        -1,
        -6.12323426292584e-17,
        6.123233995736766e-17,
        100,
        100,
        100
      ]
    },
    "_eulerAngles": {
      "__type__": "cc.Vec3",
      "x": -7.016709604711002e-15,
      "y": -180,
      "z": 7.016709604711002e-15
    },
    "_skewX": 0,
    "_skewY": 0,
    "_is3DNode": true,
    "_groupIndex": 0,
    "groupIndex": 0,
    "_id": ""
  },
  {
    "__type__": "cc.SkinnedMeshRenderer",
    "_name": "",
    "_objFlags": 0,
    "node": {
      "__id__": 2
    },
    "_enabled": true,
    "_materials": [
      {
        "__uuid__": "6de29a9f-4eaa-4345-b7dd-32d1c9a5a933"
      },
      {
        "__uuid__": "3de22c76-8bca-4160-b942-dc3e9a37dacf"
      },
      {
        "__uuid__": "2625a988-9abe-4e84-84ef-297868586e6a"
      },
      {
        "__uuid__": "885a85ef-62ce-439b-bf0b-7069f4e60a66"
      },
      {
        "__uuid__": "339beecb-9ecd-4553-b795-9af318e153bf"
      },
      {
        "__uuid__": "a2d32bb4-29c4-4dfb-a378-8cab618b7f4a"
      },
      {
        "__uuid__": "1a1b825e-dc36-4b0c-b6fa-d597c706b99a"
      },
      {
        "__uuid__": "b33464cf-01c0-4cc5-9253-b028d3b9981e"
      }
    ],
    "_mesh": {
      "__uuid__": "7ed3f15d-950a-4f52-a51a-90842225cd35"
    },
    "_receiveShadows": false,
    "_shadowCastingMode": 0,
    "_enableAutoBatch": false,
    "textures": [],
    "_skeleton": {
      "__uuid__": "b8c9c90e-da05-4be0-85df-91690a701332"
    },
    "_rootBone": {
      "__id__": 1
    },
    "_id": ""
  },
  {
    "__type__": "cc.PrefabInfo",
    "root": {
      "__id__": 1
    },
    "asset": {
      "__id__": 0
    },
    "fileId": "rob",
    "sync": false
  },
  {
    "__type__": "cc.Node",
    "_name": "Armature",
    "_objFlags": 0,
    "_parent": {
      "__id__": 1
    },
    "_children": [
      {
        "__id__": 6
      },
      {
        "__id__": 76
      },
      {
        "__id__": 78
      },
      {
        "__id__": 80
      },
      {
        "__id__": 82
      }
    ],
    "_active": true,
    "_components": [],
    "_prefab": {
      "__id__": 84
    },
    "_opacity": 255,
    "_color": {
      "__type__": "cc.Color",
      "r": 255,
      "g": 255,
      "b": 255,
      "a": 255
    },
    "_contentSize": {
      "__type__": "cc.Size",
      "width": 0,
      "height": 0
    },
    "_anchorPoint": {
      "__type__": "cc.Vec2",
      "x": 0.5,
      "y": 0.5
    },
    "_trs": {
      "__type__": "TypedArray",
      "ctor": "Float64Array",
      "array": [
        0,
        0,
        0,
        -0.7071067094802836,
        3.090861505303499e-8,
        -3.0908623216418974e-8,
        0.7071068528928028,
        100,
        100,
        100
      ]
    },
    "_eulerAngles": {
      "__type__": "cc.Vec3",
      "x": -89.99998837950321,
      "y": -1.5351845337910644e-13,
      "z": -0.000005008956141038521
    },
    "_skewX": 0,
    "_skewY": 0,
    "_is3DNode": true,
    "_groupIndex": 0,
    "groupIndex": 0,
    "_id": ""
  },
  {
    "__type__": "cc.Node",
    "_name": "belly",
    "_objFlags": 0,
    "_parent": {
      "__id__": 5
    },
    "_children": [
      {
        "__id__": 7
      },
      {
        "__id__": 63
      },
      {
        "__id__": 69
      }
    ],
    "_active": true,
    "_components": [],
    "_prefab": {
      "__id__": 75
    },
    "_opacity": 255,
    "_color": {
      "__type__": "cc.Color",
      "r": 255,
      "g": 255,
      "b": 255,
      "a": 255
    },
    "_contentSize": {
      "__type__": "cc.Size",
      "width": 0,
      "height": 0
    },
    "_anchorPoint": {
      "__type__": "cc.Vec2",
      "x": 0.5,
      "y": 0.5
    },
    "_trs": {
      "__type__": "TypedArray",
      "ctor": "Float64Array",
      "array": [
        1.32348882724304e-25,
        0,
        0.00747093465179205,
        0.7050663232803352,
        -0.053680109621550044,
        -0.0536800995469094,
        0.7050662185352536,
        1,
        1,
        1
      ]
    },
    "_eulerAngles": {
      "__type__": "cc.Vec3",
      "x": 90.0000084988288,
      "y": -1.7163829047766285e-7,
      "z": -8.707610835416588
    },
    "_skewX": 0,
    "_skewY": 0,
    "_is3DNode": true,
    "_groupIndex": 0,
    "groupIndex": 0,
    "_id": ""
  },
  {
    "__type__": "cc.Node",
    "_name": "torso",
    "_objFlags": 0,
    "_parent": {
      "__id__": 6
    },
    "_children": [
      {
        "__id__": 8
      },
      {
        "__id__": 13
      },
      {
        "__id__": 21
      }
    ],
    "_active": true,
    "_components": [],
    "_prefab": {
      "__id__": 62
    },
    "_opacity": 255,
    "_color": {
      "__type__": "cc.Color",
      "r": 255,
      "g": 255,
      "b": 255,
      "a": 255
    },
    "_contentSize": {
      "__type__": "cc.Size",
      "width": 0,
      "height": 0
    },
    "_anchorPoint": {
      "__type__": "cc.Vec2",
      "x": 0.5,
      "y": 0.5
    },
    "_trs": {
      "__type__": "TypedArray",
      "ctor": "Float64Array",
      "array": [
        1.32348895050256e-25,
        0.00290033523924649,
        2.64697790100512e-25,
        5.370976378262808e-23,
        -0.04552231240024674,
        1.569615422900491e-23,
        0.9989633221864226,
        0.999999940395355,
        1,
        0.999999940395355
      ]
    },
    "_eulerAngles": {
      "__type__": "cc.Vec3",
      "x": 6.23018370159237e-21,
      "y": -5.218276096760161,
      "z": 1.5166066475053793e-21
    },
    "_skewX": 0,
    "_skewY": 0,
    "_is3DNode": true,
    "_groupIndex": 0,
    "groupIndex": 0,
    "_id": ""
  },
  {
    "__type__": "cc.Node",
    "_name": "head",
    "_objFlags": 0,
    "_parent": {
      "__id__": 7
    },
    "_children": [
      {
        "__id__": 9
      }
    ],
    "_active": true,
    "_components": [],
    "_prefab": {
      "__id__": 12
    },
    "_opacity": 255,
    "_color": {
      "__type__": "cc.Color",
      "r": 255,
      "g": 255,
      "b": 255,
      "a": 255
    },
    "_contentSize": {
      "__type__": "cc.Size",
      "width": 0,
      "height": 0
    },
    "_anchorPoint": {
      "__type__": "cc.Vec2",
      "x": 0.5,
      "y": 0.5
    },
    "_trs": {
      "__type__": "TypedArray",
      "ctor": "Float64Array",
      "array": [
        6.6174447525128e-26,
        0.00402124878019094,
        -2.64697790100512e-25,
        -5.35879349470527e-23,
        0.10051145684026429,
        3.7508352219420065e-24,
        0.9949359009724434,
        1,
        1,
        1
      ]
    },
    "_eulerAngles": {
      "__type__": "cc.Vec3",
      "x": -6.152829007933017e-21,
      "y": 11.53724637494688,
      "z": -1.8957578207746752e-22
    },
    "_skewX": 0,
    "_skewY": 0,
    "_is3DNode": true,
    "_groupIndex": 0,
    "groupIndex": 0,
    "_id": ""
  },
  {
    "__type__": "cc.Node",
    "_name": "hair",
    "_objFlags": 0,
    "_parent": {
      "__id__": 8
    },
    "_children": [],
    "_active": true,
    "_components": [
      {
        "__id__": 10
      }
    ],
    "_prefab": {
      "__id__": 11
    },
    "_opacity": 255,
    "_color": {
      "__type__": "cc.Color",
      "r": 255,
      "g": 255,
      "b": 255,
      "a": 255
    },
    "_contentSize": {
      "__type__": "cc.Size",
      "width": 0,
      "height": 0
    },
    "_anchorPoint": {
      "__type__": "cc.Vec2",
      "x": 0.5,
      "y": 0.5
    },
    "_trs": {
      "__type__": "TypedArray",
      "ctor": "Float64Array",
      "array": [
        -1.6543611881282e-26,
        -0.0145891336724162,
        -1.05879116040205e-24,
        6.123234262925847e-17,
        0.999999999999999,
        -6.123234262925845e-17,
        4.371138834797025e-8,
        0.999999940395355,
        1,
        0.999999940395355
      ]
    },
    "_eulerAngles": {
      "__type__": "cc.Vec3",
      "x": 7.016709911421121e-15,
      "y": 179.99999499104388,
      "z": 7.016709298000884e-15
    },
    "_skewX": 0,
    "_skewY": 0,
    "_is3DNode": true,
    "_groupIndex": 0,
    "groupIndex": 0,
    "_id": ""
  },
  {
    "__type__": "cc.MeshRenderer",
    "_name": "",
    "_objFlags": 0,
    "node": {
      "__id__": 9
    },
    "_enabled": true,
    "_materials": [
      {
        "__uuid__": "3a3e95b5-1a56-4b11-a198-9214cadc4229"
      }
    ],
    "_mesh": {
      "__uuid__": "3f0081fd-e139-49f8-ac64-df5ee7873ac1"
    },
    "_receiveShadows": false,
    "_shadowCastingMode": 0,
    "_enableAutoBatch": false,
    "textures": [],
    "_id": ""
  },
  {
    "__type__": "cc.PrefabInfo",
    "root": {
      "__id__": 1
    },
    "asset": {
      "__id__": 0
    },
    "fileId": "Armature/belly/torso/head/hair",
    "sync": false
  },
  {
    "__type__": "cc.PrefabInfo",
    "root": {
      "__id__": 1
    },
    "asset": {
      "__id__": 0
    },
    "fileId": "Armature/belly/torso/head",
    "sync": false
  },
  {
    "__type__": "cc.Node",
    "_name": "arm_up.L",
    "_objFlags": 0,
    "_parent": {
      "__id__": 7
    },
    "_children": [
      {
        "__id__": 14
      }
    ],
    "_active": true,
    "_components": [],
    "_prefab": {
      "__id__": 20
    },
    "_opacity": 255,
    "_color": {
      "__type__": "cc.Color",
      "r": 255,
      "g": 255,
      "b": 255,
      "a": 255
    },
    "_contentSize": {
      "__type__": "cc.Size",
      "width": 0,
      "height": 0
    },
    "_anchorPoint": {
      "__type__": "cc.Vec2",
      "x": 0.5,
      "y": 0.5
    },
    "_trs": {
      "__type__": "TypedArray",
      "ctor": "Float64Array",
      "array": [
        0.00333630526438355,
        0.00363481277599931,
        0.000010716988981585,
        0.9226514726378032,
        0.09392844067355917,
        0.1809752728170482,
        0.3273219496164619,
        1.00000059604645,
        1,
        0.999999940395355
      ]
    },
    "_eulerAngles": {
      "__type__": "cc.Vec3",
      "x": 143.4198403455002,
      "y": -16.55059791183792,
      "z": 16.965797280970115
    },
    "_skewX": 0,
    "_skewY": 0,
    "_is3DNode": true,
    "_groupIndex": 0,
    "groupIndex": 0,
    "_id": ""
  },
  {
    "__type__": "cc.Node",
    "_name": "arm_down.L",
    "_objFlags": 0,
    "_parent": {
      "__id__": 13
    },
    "_children": [
      {
        "__id__": 15
      }
    ],
    "_active": true,
    "_components": [],
    "_prefab": {
      "__id__": 19
    },
    "_opacity": 255,
    "_color": {
      "__type__": "cc.Color",
      "r": 255,
      "g": 255,
      "b": 255,
      "a": 255
    },
    "_contentSize": {
      "__type__": "cc.Size",
      "width": 0,
      "height": 0
    },
    "_anchorPoint": {
      "__type__": "cc.Vec2",
      "x": 0.5,
      "y": 0.5
    },
    "_trs": {
      "__type__": "TypedArray",
      "ctor": "Float64Array",
      "array": [
        -4.47034825823422e-10,
        0.00365612260065973,
        1.11022299980974e-18,
        -0.22835556232617518,
        -0.1704574434465168,
        0.2987154171450323,
        0.9108057403685175,
        0.999999940395355,
        0.999999940395355,
        1.00000011920929
      ]
    },
    "_eulerAngles": {
      "__type__": "cc.Vec3",
      "x": -23.652411796911835,
      "y": -12.845259021884283,
      "z": 38.461838264145214
    },
    "_skewX": 0,
    "_skewY": 0,
    "_is3DNode": true,
    "_groupIndex": 0,
    "groupIndex": 0,
    "_id": ""
  },
  {
    "__type__": "cc.Node",
    "_name": "hand.L",
    "_objFlags": 0,
    "_parent": {
      "__id__": 14
    },
    "_children": [
      {
        "__id__": 16
      }
    ],
    "_active": true,
    "_components": [],
    "_prefab": {
      "__id__": 18
    },
    "_opacity": 255,
    "_color": {
      "__type__": "cc.Color",
      "r": 255,
      "g": 255,
      "b": 255,
      "a": 255
    },
    "_contentSize": {
      "__type__": "cc.Size",
      "width": 0,
      "height": 0
    },
    "_anchorPoint": {
      "__type__": "cc.Vec2",
      "x": 0.5,
      "y": 0.5
    },
    "_trs": {
      "__type__": "TypedArray",
      "ctor": "Float64Array",
      "array": [
        7.30506141688458e-11,
        0.00350510980933905,
        7.97444943412273e-10,
        -0.0012510710958960752,
        -0.6158031821368858,
        0.23958975108507335,
        0.7505875211234136,
        1,
        0.999999940395355,
        1.00000011920929
      ]
    },
    "_eulerAngles": {
      "__type__": "cc.Vec3",
      "x": 18.326453310285203,
      "y": -82.18675534962502,
      "z": 21.174339422450476
    },
    "_skewX": 0,
    "_skewY": 0,
    "_is3DNode": true,
    "_groupIndex": 0,
    "groupIndex": 0,
    "_id": ""
  },
  {
    "__type__": "cc.Node",
    "_name": "wep.L",
    "_objFlags": 0,
    "_parent": {
      "__id__": 15
    },
    "_children": [],
    "_active": true,
    "_components": [],
    "_prefab": {
      "__id__": 17
    },
    "_opacity": 255,
    "_color": {
      "__type__": "cc.Color",
      "r": 255,
      "g": 255,
      "b": 255,
      "a": 255
    },
    "_contentSize": {
      "__type__": "cc.Size",
      "width": 0,
      "height": 0
    },
    "_anchorPoint": {
      "__type__": "cc.Vec2",
      "x": 0.5,
      "y": 0.5
    },
    "_trs": {
      "__type__": "TypedArray",
      "ctor": "Float64Array",
      "array": [
        2.10944550715908e-9,
        0.00113627209793776,
        -0.000658010772895068,
        5.5031442534862694e-8,
        -0.7071068528928002,
        0.7071067094802836,
        -5.173871096512068e-8,
        1,
        1,
        1
      ]
    },
    "_eulerAngles": {
      "__type__": "cc.Vec3",
      "x": 89.99998837950345,
      "y": -179.9999997331959,
      "z": -0.000008651422041773153
    },
    "_skewX": 0,
    "_skewY": 0,
    "_is3DNode": true,
    "_groupIndex": 0,
    "groupIndex": 0,
    "_id": ""
  },
  {
    "__type__": "cc.PrefabInfo",
    "root": {
      "__id__": 1
    },
    "asset": {
      "__id__": 0
    },
    "fileId": "Armature/belly/torso/arm_up.L/arm_down.L/hand.L/wep.L",
    "sync": false
  },
  {
    "__type__": "cc.PrefabInfo",
    "root": {
      "__id__": 1
    },
    "asset": {
      "__id__": 0
    },
    "fileId": "Armature/belly/torso/arm_up.L/arm_down.L/hand.L",
    "sync": false
  },
  {
    "__type__": "cc.PrefabInfo",
    "root": {
      "__id__": 1
    },
    "asset": {
      "__id__": 0
    },
    "fileId": "Armature/belly/torso/arm_up.L/arm_down.L",
    "sync": false
  },
  {
    "__type__": "cc.PrefabInfo",
    "root": {
      "__id__": 1
    },
    "asset": {
      "__id__": 0
    },
    "fileId": "Armature/belly/torso/arm_up.L",
    "sync": false
  },
  {
    "__type__": "cc.Node",
    "_name": "arm_up.R",
    "_objFlags": 0,
    "_parent": {
      "__id__": 7
    },
    "_children": [
      {
        "__id__": 22
      }
    ],
    "_active": true,
    "_components": [],
    "_prefab": {
      "__id__": 61
    },
    "_opacity": 255,
    "_color": {
      "__type__": "cc.Color",
      "r": 255,
      "g": 255,
      "b": 255,
      "a": 255
    },
    "_contentSize": {
      "__type__": "cc.Size",
      "width": 0,
      "height": 0
    },
    "_anchorPoint": {
      "__type__": "cc.Vec2",
      "x": 0.5,
      "y": 0.5
    },
    "_trs": {
      "__type__": "TypedArray",
      "ctor": "Float64Array",
      "array": [
        -0.00333630503155291,
        0.00363481277599931,
        0.0000107170635601506,
        -0.9186980542966922,
        0.22878822853674635,
        0.320811485042698,
        0.027015228653270662,
        1.00000047683716,
        1,
        1.00000023841858
      ]
    },
    "_eulerAngles": {
      "__type__": "cc.Vec3",
      "x": -167.60566841302256,
      "y": 41.11673174039041,
      "z": -23.768424842772543
    },
    "_skewX": 0,
    "_skewY": 0,
    "_is3DNode": true,
    "_groupIndex": 0,
    "groupIndex": 0,
    "_id": ""
  },
  {
    "__type__": "cc.Node",
    "_name": "arm_down.R",
    "_objFlags": 0,
    "_parent": {
      "__id__": 21
    },
    "_children": [
      {
        "__id__": 23
      }
    ],
    "_active": true,
    "_components": [],
    "_prefab": {
      "__id__": 60
    },
    "_opacity": 255,
    "_color": {
      "__type__": "cc.Color",
      "r": 255,
      "g": 255,
      "b": 255,
      "a": 255
    },
    "_contentSize": {
      "__type__": "cc.Size",
      "width": 0,
      "height": 0
    },
    "_anchorPoint": {
      "__type__": "cc.Vec2",
      "x": 0.5,
      "y": 0.5
    },
    "_trs": {
      "__type__": "TypedArray",
      "ctor": "Float64Array",
      "array": [
        -5.9604643443123e-10,
        0.00365612073801458,
        1.49011608607807e-10,
        -0.6507478365170881,
        0.06270585373596874,
        -0.09858117289939029,
        0.7502512789228373,
        1,
        1.00000011920929,
        0.999999940395355
      ]
    },
    "_eulerAngles": {
      "__type__": "cc.Vec3",
      "x": -82.10932446521574,
      "y": -2.0144291940844608,
      "z": -13.269561377487166
    },
    "_skewX": 0,
    "_skewY": 0,
    "_is3DNode": true,
    "_groupIndex": 0,
    "groupIndex": 0,
    "_id": ""
  },
  {
    "__type__": "cc.Node",
    "_name": "hand.R",
    "_objFlags": 0,
    "_parent": {
      "__id__": 22
    },
    "_children": [
      {
        "__id__": 24
      }
    ],
    "_active": true,
    "_components": [],
    "_prefab": {
      "__id__": 59
    },
    "_opacity": 255,
    "_color": {
      "__type__": "cc.Color",
      "r": 255,
      "g": 255,
      "b": 255,
      "a": 255
    },
    "_contentSize": {
      "__type__": "cc.Size",
      "width": 0,
      "height": 0
    },
    "_anchorPoint": {
      "__type__": "cc.Vec2",
      "x": 0.5,
      "y": 0.5
    },
    "_trs": {
      "__type__": "TypedArray",
      "ctor": "Float64Array",
      "array": [
        2.23517412911711e-10,
        0.00350511027500033,
        4.09781930610364e-10,
        -0.0484748581108034,
        0.08665698527593031,
        0.00485015669877279,
        0.9950463461638469,
        1,
        1,
        0.999999940395355
      ]
    },
    "_eulerAngles": {
      "__type__": "cc.Vec3",
      "x": -5.584297107541479,
      "y": 9.957974430631632,
      "z": 0.07167080919196485
    },
    "_skewX": 0,
    "_skewY": 0,
    "_is3DNode": true,
    "_groupIndex": 0,
    "groupIndex": 0,
    "_id": ""
  },
  {
    "__type__": "cc.Node",
    "_name": "wep.R",
    "_objFlags": 0,
    "_parent": {
      "__id__": 23
    },
    "_children": [
      {
        "__id__": 25
      },
      {
        "__id__": 28
      },
      {
        "__id__": 31
      },
      {
        "__id__": 34
      },
      {
        "__id__": 37
      },
      {
        "__id__": 40
      },
      {
        "__id__": 43
      },
      {
        "__id__": 46
      },
      {
        "__id__": 49
      },
      {
        "__id__": 52
      },
      {
        "__id__": 55
      }
    ],
    "_active": true,
    "_components": [],
    "_prefab": {
      "__id__": 58
    },
    "_opacity": 255,
    "_color": {
      "__type__": "cc.Color",
      "r": 255,
      "g": 255,
      "b": 255,
      "a": 255
    },
    "_contentSize": {
      "__type__": "cc.Size",
      "width": 0,
      "height": 0
    },
    "_anchorPoint": {
      "__type__": "cc.Vec2",
      "x": 0.5,
      "y": 0.5
    },
    "_trs": {
      "__type__": "TypedArray",
      "ctor": "Float64Array",
      "array": [
        -1.86264510759759e-11,
        0.00113627256359905,
        -0.000658010831102729,
        6.581510830525128e-8,
        -0.7071068528928,
        0.7071067094802835,
        -4.095504127290926e-8,
        1,
        1,
        1
      ]
    },
    "_eulerAngles": {
      "__type__": "cc.Vec3",
      "x": 89.99998837950358,
      "y": -179.99999798562772,
      "z": -0.000008651421901211183
    },
    "_skewX": 0,
    "_skewY": 0,
    "_is3DNode": true,
    "_groupIndex": 0,
    "groupIndex": 0,
    "_id": ""
  },
  {
    "__type__": "cc.Node",
    "_name": "rocket",
    "_objFlags": 0,
    "_parent": {
      "__id__": 24
    },
    "_children": [],
    "_active": true,
    "_components": [
      {
        "__id__": 26
      }
    ],
    "_prefab": {
      "__id__": 27
    },
    "_opacity": 255,
    "_color": {
      "__type__": "cc.Color",
      "r": 255,
      "g": 255,
      "b": 255,
      "a": 255
    },
    "_contentSize": {
      "__type__": "cc.Size",
      "width": 0,
      "height": 0
    },
    "_anchorPoint": {
      "__type__": "cc.Vec2",
      "x": 0.5,
      "y": 0.5
    },
    "_trs": {
      "__type__": "TypedArray",
      "ctor": "Float64Array",
      "array": [
        -0.00453630369156599,
        -0.000653319933917373,
        -0.00610776664689183,
        0.7071068286895766,
        2.1913080840024927e-7,
        -5.120185767902217e-8,
        0.7071067336834793,
        0.999999642372131,
        1,
        1.00000011920929
      ]
    },
    "_eulerAngles": {
      "__type__": "cc.Vec3",
      "x": 90.00000769819594,
      "y": 0.000021904640991415652,
      "z": 0.000013607027157593376
    },
    "_skewX": 0,
    "_skewY": 0,
    "_is3DNode": true,
    "_groupIndex": 0,
    "groupIndex": 0,
    "_id": ""
  },
  {
    "__type__": "cc.MeshRenderer",
    "_name": "",
    "_objFlags": 0,
    "node": {
      "__id__": 25
    },
    "_enabled": true,
    "_materials": [
      {
        "__uuid__": "6339b3d0-80f6-47fc-b7ea-e7aa72224d01"
      }
    ],
    "_mesh": {
      "__uuid__": "02f88b30-865b-4d13-8793-471906a3ce3d"
    },
    "_receiveShadows": false,
    "_shadowCastingMode": 0,
    "_enableAutoBatch": false,
    "textures": [],
    "_id": ""
  },
  {
    "__type__": "cc.PrefabInfo",
    "root": {
      "__id__": 1
    },
    "asset": {
      "__id__": 0
    },
    "fileId": "Armature/belly/torso/arm_up.R/arm_down.R/hand.R/wep.R/rocket",
    "sync": false
  },
  {
    "__type__": "cc.Node",
    "_name": "bazoka1",
    "_objFlags": 0,
    "_parent": {
      "__id__": 24
    },
    "_children": [],
    "_active": true,
    "_components": [
      {
        "__id__": 29
      }
    ],
    "_prefab": {
      "__id__": 30
    },
    "_opacity": 255,
    "_color": {
      "__type__": "cc.Color",
      "r": 255,
      "g": 255,
      "b": 255,
      "a": 255
    },
    "_contentSize": {
      "__type__": "cc.Size",
      "width": 0,
      "height": 0
    },
    "_anchorPoint": {
      "__type__": "cc.Vec2",
      "x": 0.5,
      "y": 0.5
    },
    "_trs": {
      "__type__": "TypedArray",
      "ctor": "Float64Array",
      "array": [
        -0.00453630369156599,
        -0.000653319933917373,
        -0.00610776664689183,
        0.7071068286895766,
        2.1913080840024927e-7,
        -5.120185767902217e-8,
        0.7071067336834793,
        0.999999642372131,
        1,
        1.00000011920929
      ]
    },
    "_eulerAngles": {
      "__type__": "cc.Vec3",
      "x": 90.00000769819594,
      "y": 0.000021904640991415652,
      "z": 0.000013607027157593376
    },
    "_skewX": 0,
    "_skewY": 0,
    "_is3DNode": true,
    "_groupIndex": 0,
    "groupIndex": 0,
    "_id": ""
  },
  {
    "__type__": "cc.MeshRenderer",
    "_name": "",
    "_objFlags": 0,
    "node": {
      "__id__": 28
    },
    "_enabled": true,
    "_materials": [
      {
        "__uuid__": "6339b3d0-80f6-47fc-b7ea-e7aa72224d01"
      }
    ],
    "_mesh": {
      "__uuid__": "9675f0a0-e64a-4fbc-9a27-e7b59675c6b9"
    },
    "_receiveShadows": false,
    "_shadowCastingMode": 0,
    "_enableAutoBatch": false,
    "textures": [],
    "_id": ""
  },
  {
    "__type__": "cc.PrefabInfo",
    "root": {
      "__id__": 1
    },
    "asset": {
      "__id__": 0
    },
    "fileId": "Armature/belly/torso/arm_up.R/arm_down.R/hand.R/wep.R/bazoka1",
    "sync": false
  },
  {
    "__type__": "cc.Node",
    "_name": "bazoka2",
    "_objFlags": 0,
    "_parent": {
      "__id__": 24
    },
    "_children": [],
    "_active": true,
    "_components": [
      {
        "__id__": 32
      }
    ],
    "_prefab": {
      "__id__": 33
    },
    "_opacity": 255,
    "_color": {
      "__type__": "cc.Color",
      "r": 255,
      "g": 255,
      "b": 255,
      "a": 255
    },
    "_contentSize": {
      "__type__": "cc.Size",
      "width": 0,
      "height": 0
    },
    "_anchorPoint": {
      "__type__": "cc.Vec2",
      "x": 0.5,
      "y": 0.5
    },
    "_trs": {
      "__type__": "TypedArray",
      "ctor": "Float64Array",
      "array": [
        -0.00453630369156599,
        -0.000653319933917373,
        -0.00610776664689183,
        0.7071068286895766,
        2.1913080840024927e-7,
        -5.120185767902217e-8,
        0.7071067336834793,
        0.999999642372131,
        1,
        1.00000011920929
      ]
    },
    "_eulerAngles": {
      "__type__": "cc.Vec3",
      "x": 90.00000769819594,
      "y": 0.000021904640991415652,
      "z": 0.000013607027157593376
    },
    "_skewX": 0,
    "_skewY": 0,
    "_is3DNode": true,
    "_groupIndex": 0,
    "groupIndex": 0,
    "_id": ""
  },
  {
    "__type__": "cc.MeshRenderer",
    "_name": "",
    "_objFlags": 0,
    "node": {
      "__id__": 31
    },
    "_enabled": true,
    "_materials": [
      {
        "__uuid__": "6339b3d0-80f6-47fc-b7ea-e7aa72224d01"
      }
    ],
    "_mesh": {
      "__uuid__": "510ad1df-e4cc-4fb8-9db3-e71ab80a59af"
    },
    "_receiveShadows": false,
    "_shadowCastingMode": 0,
    "_enableAutoBatch": false,
    "textures": [],
    "_id": ""
  },
  {
    "__type__": "cc.PrefabInfo",
    "root": {
      "__id__": 1
    },
    "asset": {
      "__id__": 0
    },
    "fileId": "Armature/belly/torso/arm_up.R/arm_down.R/hand.R/wep.R/bazoka2",
    "sync": false
  },
  {
    "__type__": "cc.Node",
    "_name": "bazoka3",
    "_objFlags": 0,
    "_parent": {
      "__id__": 24
    },
    "_children": [],
    "_active": true,
    "_components": [
      {
        "__id__": 35
      }
    ],
    "_prefab": {
      "__id__": 36
    },
    "_opacity": 255,
    "_color": {
      "__type__": "cc.Color",
      "r": 255,
      "g": 255,
      "b": 255,
      "a": 255
    },
    "_contentSize": {
      "__type__": "cc.Size",
      "width": 0,
      "height": 0
    },
    "_anchorPoint": {
      "__type__": "cc.Vec2",
      "x": 0.5,
      "y": 0.5
    },
    "_trs": {
      "__type__": "TypedArray",
      "ctor": "Float64Array",
      "array": [
        -0.00453630369156599,
        -0.000653319933917373,
        -0.00610776664689183,
        0.7071068286895766,
        2.1913080840024927e-7,
        -5.120185767902217e-8,
        0.7071067336834793,
        0.999999642372131,
        1,
        1.00000011920929
      ]
    },
    "_eulerAngles": {
      "__type__": "cc.Vec3",
      "x": 90.00000769819594,
      "y": 0.000021904640991415652,
      "z": 0.000013607027157593376
    },
    "_skewX": 0,
    "_skewY": 0,
    "_is3DNode": true,
    "_groupIndex": 0,
    "groupIndex": 0,
    "_id": ""
  },
  {
    "__type__": "cc.MeshRenderer",
    "_name": "",
    "_objFlags": 0,
    "node": {
      "__id__": 34
    },
    "_enabled": true,
    "_materials": [
      {
        "__uuid__": "6339b3d0-80f6-47fc-b7ea-e7aa72224d01"
      }
    ],
    "_mesh": {
      "__uuid__": "75096e9a-2018-47a5-88f7-1ff906696121"
    },
    "_receiveShadows": false,
    "_shadowCastingMode": 0,
    "_enableAutoBatch": false,
    "textures": [],
    "_id": ""
  },
  {
    "__type__": "cc.PrefabInfo",
    "root": {
      "__id__": 1
    },
    "asset": {
      "__id__": 0
    },
    "fileId": "Armature/belly/torso/arm_up.R/arm_down.R/hand.R/wep.R/bazoka3",
    "sync": false
  },
  {
    "__type__": "cc.Node",
    "_name": "grenade_launcher",
    "_objFlags": 0,
    "_parent": {
      "__id__": 24
    },
    "_children": [],
    "_active": true,
    "_components": [
      {
        "__id__": 38
      }
    ],
    "_prefab": {
      "__id__": 39
    },
    "_opacity": 255,
    "_color": {
      "__type__": "cc.Color",
      "r": 255,
      "g": 255,
      "b": 255,
      "a": 255
    },
    "_contentSize": {
      "__type__": "cc.Size",
      "width": 0,
      "height": 0
    },
    "_anchorPoint": {
      "__type__": "cc.Vec2",
      "x": 0.5,
      "y": 0.5
    },
    "_trs": {
      "__type__": "TypedArray",
      "ctor": "Float64Array",
      "array": [
        -0.00453630369156599,
        -0.000653319933917373,
        -0.00610776664689183,
        0.7071068286895766,
        2.1913080840024927e-7,
        -5.120185767902217e-8,
        0.7071067336834793,
        0.999999642372131,
        1,
        1.00000011920929
      ]
    },
    "_eulerAngles": {
      "__type__": "cc.Vec3",
      "x": 90.00000769819594,
      "y": 0.000021904640991415652,
      "z": 0.000013607027157593376
    },
    "_skewX": 0,
    "_skewY": 0,
    "_is3DNode": true,
    "_groupIndex": 0,
    "groupIndex": 0,
    "_id": ""
  },
  {
    "__type__": "cc.MeshRenderer",
    "_name": "",
    "_objFlags": 0,
    "node": {
      "__id__": 37
    },
    "_enabled": true,
    "_materials": [
      {
        "__uuid__": "6339b3d0-80f6-47fc-b7ea-e7aa72224d01"
      }
    ],
    "_mesh": {
      "__uuid__": "46f0805d-9eee-46a4-85a5-752ce92f381d"
    },
    "_receiveShadows": false,
    "_shadowCastingMode": 0,
    "_enableAutoBatch": false,
    "textures": [],
    "_id": ""
  },
  {
    "__type__": "cc.PrefabInfo",
    "root": {
      "__id__": 1
    },
    "asset": {
      "__id__": 0
    },
    "fileId": "Armature/belly/torso/arm_up.R/arm_down.R/hand.R/wep.R/grenade_launcher",
    "sync": false
  },
  {
    "__type__": "cc.Node",
    "_name": "halo_rocket",
    "_objFlags": 0,
    "_parent": {
      "__id__": 24
    },
    "_children": [],
    "_active": true,
    "_components": [
      {
        "__id__": 41
      }
    ],
    "_prefab": {
      "__id__": 42
    },
    "_opacity": 255,
    "_color": {
      "__type__": "cc.Color",
      "r": 255,
      "g": 255,
      "b": 255,
      "a": 255
    },
    "_contentSize": {
      "__type__": "cc.Size",
      "width": 0,
      "height": 0
    },
    "_anchorPoint": {
      "__type__": "cc.Vec2",
      "x": 0.5,
      "y": 0.5
    },
    "_trs": {
      "__type__": "TypedArray",
      "ctor": "Float64Array",
      "array": [
        -0.00453630369156599,
        -0.000653319933917373,
        -0.00610776664689183,
        0.7071068286895766,
        2.1913080840024927e-7,
        -5.120185767902217e-8,
        0.7071067336834793,
        0.999999642372131,
        1,
        1.00000011920929
      ]
    },
    "_eulerAngles": {
      "__type__": "cc.Vec3",
      "x": 90.00000769819594,
      "y": 0.000021904640991415652,
      "z": 0.000013607027157593376
    },
    "_skewX": 0,
    "_skewY": 0,
    "_is3DNode": true,
    "_groupIndex": 0,
    "groupIndex": 0,
    "_id": ""
  },
  {
    "__type__": "cc.MeshRenderer",
    "_name": "",
    "_objFlags": 0,
    "node": {
      "__id__": 40
    },
    "_enabled": true,
    "_materials": [
      {
        "__uuid__": "6339b3d0-80f6-47fc-b7ea-e7aa72224d01"
      }
    ],
    "_mesh": {
      "__uuid__": "cf566911-1d5b-404a-b5e7-396bb554cf09"
    },
    "_receiveShadows": false,
    "_shadowCastingMode": 0,
    "_enableAutoBatch": false,
    "textures": [],
    "_id": ""
  },
  {
    "__type__": "cc.PrefabInfo",
    "root": {
      "__id__": 1
    },
    "asset": {
      "__id__": 0
    },
    "fileId": "Armature/belly/torso/arm_up.R/arm_down.R/hand.R/wep.R/halo_rocket",
    "sync": false
  },
  {
    "__type__": "cc.Node",
    "_name": "launcher",
    "_objFlags": 0,
    "_parent": {
      "__id__": 24
    },
    "_children": [],
    "_active": true,
    "_components": [
      {
        "__id__": 44
      }
    ],
    "_prefab": {
      "__id__": 45
    },
    "_opacity": 255,
    "_color": {
      "__type__": "cc.Color",
      "r": 255,
      "g": 255,
      "b": 255,
      "a": 255
    },
    "_contentSize": {
      "__type__": "cc.Size",
      "width": 0,
      "height": 0
    },
    "_anchorPoint": {
      "__type__": "cc.Vec2",
      "x": 0.5,
      "y": 0.5
    },
    "_trs": {
      "__type__": "TypedArray",
      "ctor": "Float64Array",
      "array": [
        -0.00453630369156599,
        -0.000653319933917373,
        -0.00610776664689183,
        0.7071068286895766,
        2.1913080840024927e-7,
        -5.120185767902217e-8,
        0.7071067336834793,
        0.999999642372131,
        1,
        1.00000011920929
      ]
    },
    "_eulerAngles": {
      "__type__": "cc.Vec3",
      "x": 90.00000769819594,
      "y": 0.000021904640991415652,
      "z": 0.000013607027157593376
    },
    "_skewX": 0,
    "_skewY": 0,
    "_is3DNode": true,
    "_groupIndex": 0,
    "groupIndex": 0,
    "_id": ""
  },
  {
    "__type__": "cc.MeshRenderer",
    "_name": "",
    "_objFlags": 0,
    "node": {
      "__id__": 43
    },
    "_enabled": true,
    "_materials": [
      {
        "__uuid__": "6339b3d0-80f6-47fc-b7ea-e7aa72224d01"
      }
    ],
    "_mesh": {
      "__uuid__": "fd83f68c-3110-4a8b-8ad4-011a2fcfe5d6"
    },
    "_receiveShadows": false,
    "_shadowCastingMode": 0,
    "_enableAutoBatch": false,
    "textures": [],
    "_id": ""
  },
  {
    "__type__": "cc.PrefabInfo",
    "root": {
      "__id__": 1
    },
    "asset": {
      "__id__": 0
    },
    "fileId": "Armature/belly/torso/arm_up.R/arm_down.R/hand.R/wep.R/launcher",
    "sync": false
  },
  {
    "__type__": "cc.Node",
    "_name": "launcher1",
    "_objFlags": 0,
    "_parent": {
      "__id__": 24
    },
    "_children": [],
    "_active": true,
    "_components": [
      {
        "__id__": 47
      }
    ],
    "_prefab": {
      "__id__": 48
    },
    "_opacity": 255,
    "_color": {
      "__type__": "cc.Color",
      "r": 255,
      "g": 255,
      "b": 255,
      "a": 255
    },
    "_contentSize": {
      "__type__": "cc.Size",
      "width": 0,
      "height": 0
    },
    "_anchorPoint": {
      "__type__": "cc.Vec2",
      "x": 0.5,
      "y": 0.5
    },
    "_trs": {
      "__type__": "TypedArray",
      "ctor": "Float64Array",
      "array": [
        -0.00453630369156599,
        -0.000653319933917373,
        -0.00610776664689183,
        0.7071068286895766,
        2.1913080840024927e-7,
        -5.120185767902217e-8,
        0.7071067336834793,
        0.999999642372131,
        1,
        1.00000011920929
      ]
    },
    "_eulerAngles": {
      "__type__": "cc.Vec3",
      "x": 90.00000769819594,
      "y": 0.000021904640991415652,
      "z": 0.000013607027157593376
    },
    "_skewX": 0,
    "_skewY": 0,
    "_is3DNode": true,
    "_groupIndex": 0,
    "groupIndex": 0,
    "_id": ""
  },
  {
    "__type__": "cc.MeshRenderer",
    "_name": "",
    "_objFlags": 0,
    "node": {
      "__id__": 46
    },
    "_enabled": true,
    "_materials": [
      {
        "__uuid__": "6339b3d0-80f6-47fc-b7ea-e7aa72224d01"
      }
    ],
    "_mesh": {
      "__uuid__": "e4f98793-a27b-462c-8926-2c8ccb97148a"
    },
    "_receiveShadows": false,
    "_shadowCastingMode": 0,
    "_enableAutoBatch": false,
    "textures": [],
    "_id": ""
  },
  {
    "__type__": "cc.PrefabInfo",
    "root": {
      "__id__": 1
    },
    "asset": {
      "__id__": 0
    },
    "fileId": "Armature/belly/torso/arm_up.R/arm_down.R/hand.R/wep.R/launcher1",
    "sync": false
  },
  {
    "__type__": "cc.Node",
    "_name": "launcher2",
    "_objFlags": 0,
    "_parent": {
      "__id__": 24
    },
    "_children": [],
    "_active": true,
    "_components": [
      {
        "__id__": 50
      }
    ],
    "_prefab": {
      "__id__": 51
    },
    "_opacity": 255,
    "_color": {
      "__type__": "cc.Color",
      "r": 255,
      "g": 255,
      "b": 255,
      "a": 255
    },
    "_contentSize": {
      "__type__": "cc.Size",
      "width": 0,
      "height": 0
    },
    "_anchorPoint": {
      "__type__": "cc.Vec2",
      "x": 0.5,
      "y": 0.5
    },
    "_trs": {
      "__type__": "TypedArray",
      "ctor": "Float64Array",
      "array": [
        -0.00453630369156599,
        -0.000653319933917373,
        -0.00610776664689183,
        0.7071068286895766,
        2.1913080840024927e-7,
        -5.120185767902217e-8,
        0.7071067336834793,
        0.999999642372131,
        1,
        1.00000011920929
      ]
    },
    "_eulerAngles": {
      "__type__": "cc.Vec3",
      "x": 90.00000769819594,
      "y": 0.000021904640991415652,
      "z": 0.000013607027157593376
    },
    "_skewX": 0,
    "_skewY": 0,
    "_is3DNode": true,
    "_groupIndex": 0,
    "groupIndex": 0,
    "_id": ""
  },
  {
    "__type__": "cc.MeshRenderer",
    "_name": "",
    "_objFlags": 0,
    "node": {
      "__id__": 49
    },
    "_enabled": true,
    "_materials": [
      {
        "__uuid__": "6339b3d0-80f6-47fc-b7ea-e7aa72224d01"
      }
    ],
    "_mesh": {
      "__uuid__": "d026af3a-e868-48d1-ac9c-4363c27c5a5f"
    },
    "_receiveShadows": false,
    "_shadowCastingMode": 0,
    "_enableAutoBatch": false,
    "textures": [],
    "_id": ""
  },
  {
    "__type__": "cc.PrefabInfo",
    "root": {
      "__id__": 1
    },
    "asset": {
      "__id__": 0
    },
    "fileId": "Armature/belly/torso/arm_up.R/arm_down.R/hand.R/wep.R/launcher2",
    "sync": false
  },
  {
    "__type__": "cc.Node",
    "_name": "launcher3",
    "_objFlags": 0,
    "_parent": {
      "__id__": 24
    },
    "_children": [],
    "_active": true,
    "_components": [
      {
        "__id__": 53
      }
    ],
    "_prefab": {
      "__id__": 54
    },
    "_opacity": 255,
    "_color": {
      "__type__": "cc.Color",
      "r": 255,
      "g": 255,
      "b": 255,
      "a": 255
    },
    "_contentSize": {
      "__type__": "cc.Size",
      "width": 0,
      "height": 0
    },
    "_anchorPoint": {
      "__type__": "cc.Vec2",
      "x": 0.5,
      "y": 0.5
    },
    "_trs": {
      "__type__": "TypedArray",
      "ctor": "Float64Array",
      "array": [
        -0.00453630369156599,
        -0.000653319933917373,
        -0.00610776664689183,
        0.7071068286895766,
        2.1913080840024927e-7,
        -5.120185767902217e-8,
        0.7071067336834793,
        0.999999642372131,
        1,
        1.00000011920929
      ]
    },
    "_eulerAngles": {
      "__type__": "cc.Vec3",
      "x": 90.00000769819594,
      "y": 0.000021904640991415652,
      "z": 0.000013607027157593376
    },
    "_skewX": 0,
    "_skewY": 0,
    "_is3DNode": true,
    "_groupIndex": 0,
    "groupIndex": 0,
    "_id": ""
  },
  {
    "__type__": "cc.MeshRenderer",
    "_name": "",
    "_objFlags": 0,
    "node": {
      "__id__": 52
    },
    "_enabled": true,
    "_materials": [
      {
        "__uuid__": "6339b3d0-80f6-47fc-b7ea-e7aa72224d01"
      }
    ],
    "_mesh": {
      "__uuid__": "c0ac4500-a6ce-4e44-b360-c1ba245185fb"
    },
    "_receiveShadows": false,
    "_shadowCastingMode": 0,
    "_enableAutoBatch": false,
    "textures": [],
    "_id": ""
  },
  {
    "__type__": "cc.PrefabInfo",
    "root": {
      "__id__": 1
    },
    "asset": {
      "__id__": 0
    },
    "fileId": "Armature/belly/torso/arm_up.R/arm_down.R/hand.R/wep.R/launcher3",
    "sync": false
  },
  {
    "__type__": "cc.Node",
    "_name": "pirahna_cannon",
    "_objFlags": 0,
    "_parent": {
      "__id__": 24
    },
    "_children": [],
    "_active": true,
    "_components": [
      {
        "__id__": 56
      }
    ],
    "_prefab": {
      "__id__": 57
    },
    "_opacity": 255,
    "_color": {
      "__type__": "cc.Color",
      "r": 255,
      "g": 255,
      "b": 255,
      "a": 255
    },
    "_contentSize": {
      "__type__": "cc.Size",
      "width": 0,
      "height": 0
    },
    "_anchorPoint": {
      "__type__": "cc.Vec2",
      "x": 0.5,
      "y": 0.5
    },
    "_trs": {
      "__type__": "TypedArray",
      "ctor": "Float64Array",
      "array": [
        -0.00453630369156599,
        -0.000653319933917373,
        -0.00610776664689183,
        0.7071068286895766,
        2.1913080840024927e-7,
        -5.120185767902217e-8,
        0.7071067336834793,
        0.999999642372131,
        1,
        1.00000011920929
      ]
    },
    "_eulerAngles": {
      "__type__": "cc.Vec3",
      "x": 90.00000769819594,
      "y": 0.000021904640991415652,
      "z": 0.000013607027157593376
    },
    "_skewX": 0,
    "_skewY": 0,
    "_is3DNode": true,
    "_groupIndex": 0,
    "groupIndex": 0,
    "_id": ""
  },
  {
    "__type__": "cc.MeshRenderer",
    "_name": "",
    "_objFlags": 0,
    "node": {
      "__id__": 55
    },
    "_enabled": true,
    "_materials": [
      {
        "__uuid__": "6339b3d0-80f6-47fc-b7ea-e7aa72224d01"
      }
    ],
    "_mesh": {
      "__uuid__": "4f40eba4-cde3-482f-9a9e-15c98257196d"
    },
    "_receiveShadows": false,
    "_shadowCastingMode": 0,
    "_enableAutoBatch": false,
    "textures": [],
    "_id": ""
  },
  {
    "__type__": "cc.PrefabInfo",
    "root": {
      "__id__": 1
    },
    "asset": {
      "__id__": 0
    },
    "fileId": "Armature/belly/torso/arm_up.R/arm_down.R/hand.R/wep.R/pirahna_cannon",
    "sync": false
  },
  {
    "__type__": "cc.PrefabInfo",
    "root": {
      "__id__": 1
    },
    "asset": {
      "__id__": 0
    },
    "fileId": "Armature/belly/torso/arm_up.R/arm_down.R/hand.R/wep.R",
    "sync": false
  },
  {
    "__type__": "cc.PrefabInfo",
    "root": {
      "__id__": 1
    },
    "asset": {
      "__id__": 0
    },
    "fileId": "Armature/belly/torso/arm_up.R/arm_down.R/hand.R",
    "sync": false
  },
  {
    "__type__": "cc.PrefabInfo",
    "root": {
      "__id__": 1
    },
    "asset": {
      "__id__": 0
    },
    "fileId": "Armature/belly/torso/arm_up.R/arm_down.R",
    "sync": false
  },
  {
    "__type__": "cc.PrefabInfo",
    "root": {
      "__id__": 1
    },
    "asset": {
      "__id__": 0
    },
    "fileId": "Armature/belly/torso/arm_up.R",
    "sync": false
  },
  {
    "__type__": "cc.PrefabInfo",
    "root": {
      "__id__": 1
    },
    "asset": {
      "__id__": 0
    },
    "fileId": "Armature/belly/torso",
    "sync": false
  },
  {
    "__type__": "cc.Node",
    "_name": "leg_up.L",
    "_objFlags": 0,
    "_parent": {
      "__id__": 6
    },
    "_children": [
      {
        "__id__": 64
      }
    ],
    "_active": true,
    "_components": [],
    "_prefab": {
      "__id__": 68
    },
    "_opacity": 255,
    "_color": {
      "__type__": "cc.Color",
      "r": 255,
      "g": 255,
      "b": 255,
      "a": 255
    },
    "_contentSize": {
      "__type__": "cc.Size",
      "width": 0,
      "height": 0
    },
    "_anchorPoint": {
      "__type__": "cc.Vec2",
      "x": 0.5,
      "y": 0.5
    },
    "_trs": {
      "__type__": "TypedArray",
      "ctor": "Float64Array",
      "array": [
        0.00155919685494155,
        0.000565400696359575,
        -2.83091643277249e-20,
        0.9863778388231862,
        0.030382543787819537,
        -0.1007630746662679,
        0.12642176590794,
        1,
        1.00000357627869,
        1.00010871887207
      ]
    },
    "_eulerAngles": {
      "__type__": "cc.Vec3",
      "x": 165.1864744488843,
      "y": 11.922337461810327,
      "z": 1.9748060646718948
    },
    "_skewX": 0,
    "_skewY": 0,
    "_is3DNode": true,
    "_groupIndex": 0,
    "groupIndex": 0,
    "_id": ""
  },
  {
    "__type__": "cc.Node",
    "_name": "leg_down.L",
    "_objFlags": 0,
    "_parent": {
      "__id__": 63
    },
    "_children": [
      {
        "__id__": 65
      }
    ],
    "_active": true,
    "_components": [],
    "_prefab": {
      "__id__": 67
    },
    "_opacity": 255,
    "_color": {
      "__type__": "cc.Color",
      "r": 255,
      "g": 255,
      "b": 255,
      "a": 255
    },
    "_contentSize": {
      "__type__": "cc.Size",
      "width": 0,
      "height": 0
    },
    "_anchorPoint": {
      "__type__": "cc.Vec2",
      "x": 0.5,
      "y": 0.5
    },
    "_trs": {
      "__type__": "TypedArray",
      "ctor": "Float64Array",
      "array": [
        -3.11993042512171e-10,
        0.00387041689828038,
        -5.58793532279278e-11,
        0.24075448777438435,
        7.796292586180778e-9,
        -1.9191093850090945e-9,
        0.970586048022788,
        1,
        0.999992609024048,
        1.00000548362732
      ]
    },
    "_eulerAngles": {
      "__type__": "cc.Vec3",
      "x": 27.862150216095028,
      "y": 9.200564304124235e-7,
      "z": 1.6422843299494263e-9
    },
    "_skewX": 0,
    "_skewY": 0,
    "_is3DNode": true,
    "_groupIndex": 0,
    "groupIndex": 0,
    "_id": ""
  },
  {
    "__type__": "cc.Node",
    "_name": "foot.L",
    "_objFlags": 0,
    "_parent": {
      "__id__": 64
    },
    "_children": [],
    "_active": true,
    "_components": [],
    "_prefab": {
      "__id__": 66
    },
    "_opacity": 255,
    "_color": {
      "__type__": "cc.Color",
      "r": 255,
      "g": 255,
      "b": 255,
      "a": 255
    },
    "_contentSize": {
      "__type__": "cc.Size",
      "width": 0,
      "height": 0
    },
    "_anchorPoint": {
      "__type__": "cc.Vec2",
      "x": 0.5,
      "y": 0.5
    },
    "_trs": {
      "__type__": "TypedArray",
      "ctor": "Float64Array",
      "array": [
        -1.14087010671948e-10,
        0.00297308014705777,
        -6.51925805006393e-11,
        -0.6164706342314495,
        -0.033270843150877805,
        0.003878985666961026,
        0.786665088583763,
        1.00000143051147,
        1.00002026557922,
        1.00001525878906
      ]
    },
    "_eulerAngles": {
      "__type__": "cc.Vec3",
      "x": -76.10374273099897,
      "y": -2.729248437688559,
      "z": 2.7010020732164173
    },
    "_skewX": 0,
    "_skewY": 0,
    "_is3DNode": true,
    "_groupIndex": 0,
    "groupIndex": 0,
    "_id": ""
  },
  {
    "__type__": "cc.PrefabInfo",
    "root": {
      "__id__": 1
    },
    "asset": {
      "__id__": 0
    },
    "fileId": "Armature/belly/leg_up.L/leg_down.L/foot.L",
    "sync": false
  },
  {
    "__type__": "cc.PrefabInfo",
    "root": {
      "__id__": 1
    },
    "asset": {
      "__id__": 0
    },
    "fileId": "Armature/belly/leg_up.L/leg_down.L",
    "sync": false
  },
  {
    "__type__": "cc.PrefabInfo",
    "root": {
      "__id__": 1
    },
    "asset": {
      "__id__": 0
    },
    "fileId": "Armature/belly/leg_up.L",
    "sync": false
  },
  {
    "__type__": "cc.Node",
    "_name": "leg_up.R",
    "_objFlags": 0,
    "_parent": {
      "__id__": 6
    },
    "_children": [
      {
        "__id__": 70
      }
    ],
    "_active": true,
    "_components": [],
    "_prefab": {
      "__id__": 74
    },
    "_opacity": 255,
    "_color": {
      "__type__": "cc.Color",
      "r": 255,
      "g": 255,
      "b": 255,
      "a": 255
    },
    "_contentSize": {
      "__type__": "cc.Size",
      "width": 0,
      "height": 0
    },
    "_anchorPoint": {
      "__type__": "cc.Vec2",
      "x": 0.5,
      "y": 0.5
    },
    "_trs": {
      "__type__": "TypedArray",
      "ctor": "Float64Array",
      "array": [
        -0.00155919685494155,
        0.000565400696359575,
        4.10797731603838e-20,
        0.9899957589519546,
        -0.02650957764570034,
        0.05523454517182823,
        0.12710147351565657,
        1,
        1.0000034570694,
        1.00010871887207
      ]
    },
    "_eulerAngles": {
      "__type__": "cc.Vec3",
      "x": 165.2396454662225,
      "y": -6.672189481138804,
      "z": -2.2034486368795174
    },
    "_skewX": 0,
    "_skewY": 0,
    "_is3DNode": true,
    "_groupIndex": 0,
    "groupIndex": 0,
    "_id": ""
  },
  {
    "__type__": "cc.Node",
    "_name": "leg_down.R",
    "_objFlags": 0,
    "_parent": {
      "__id__": 69
    },
    "_children": [
      {
        "__id__": 71
      }
    ],
    "_active": true,
    "_components": [],
    "_prefab": {
      "__id__": 73
    },
    "_opacity": 255,
    "_color": {
      "__type__": "cc.Color",
      "r": 255,
      "g": 255,
      "b": 255,
      "a": 255
    },
    "_contentSize": {
      "__type__": "cc.Size",
      "width": 0,
      "height": 0
    },
    "_anchorPoint": {
      "__type__": "cc.Vec2",
      "x": 0.5,
      "y": 0.5
    },
    "_trs": {
      "__type__": "TypedArray",
      "ctor": "Float64Array",
      "array": [
        -3.72529021519519e-11,
        0.00387041643261909,
        -1.11758706455856e-10,
        0.240268782718421,
        1.6550034300991322e-8,
        -1.9188693281947264e-9,
        0.9707063984805128,
        1,
        0.999992668628693,
        1.00000536441803
      ]
    },
    "_eulerAngles": {
      "__type__": "cc.Vec3",
      "x": 27.804809346584488,
      "y": 0.0000018937708824671658,
      "z": 2.4222339232615377e-7
    },
    "_skewX": 0,
    "_skewY": 0,
    "_is3DNode": true,
    "_groupIndex": 0,
    "groupIndex": 0,
    "_id": ""
  },
  {
    "__type__": "cc.Node",
    "_name": "foot.R",
    "_objFlags": 0,
    "_parent": {
      "__id__": 70
    },
    "_children": [],
    "_active": true,
    "_components": [],
    "_prefab": {
      "__id__": 72
    },
    "_opacity": 255,
    "_color": {
      "__type__": "cc.Color",
      "r": 255,
      "g": 255,
      "b": 255,
      "a": 255
    },
    "_contentSize": {
      "__type__": "cc.Size",
      "width": 0,
      "height": 0
    },
    "_anchorPoint": {
      "__type__": "cc.Vec2",
      "x": 0.5,
      "y": 0.5
    },
    "_trs": {
      "__type__": "TypedArray",
      "ctor": "Float64Array",
      "array": [
        -4.0284931640544e-11,
        0.00297308061271906,
        -3.66981054919502e-12,
        -0.616990449145457,
        -0.03207184377004619,
        -0.03100416714014792,
        0.7857053672467963,
        1.00000405311584,
        1.00001811981201,
        1.00001490116119
      ]
    },
    "_eulerAngles": {
      "__type__": "cc.Vec3",
      "x": -76.30620358034491,
      "y": -5.086539614195826,
      "z": -0.5239335731628003
    },
    "_skewX": 0,
    "_skewY": 0,
    "_is3DNode": true,
    "_groupIndex": 0,
    "groupIndex": 0,
    "_id": ""
  },
  {
    "__type__": "cc.PrefabInfo",
    "root": {
      "__id__": 1
    },
    "asset": {
      "__id__": 0
    },
    "fileId": "Armature/belly/leg_up.R/leg_down.R/foot.R",
    "sync": false
  },
  {
    "__type__": "cc.PrefabInfo",
    "root": {
      "__id__": 1
    },
    "asset": {
      "__id__": 0
    },
    "fileId": "Armature/belly/leg_up.R/leg_down.R",
    "sync": false
  },
  {
    "__type__": "cc.PrefabInfo",
    "root": {
      "__id__": 1
    },
    "asset": {
      "__id__": 0
    },
    "fileId": "Armature/belly/leg_up.R",
    "sync": false
  },
  {
    "__type__": "cc.PrefabInfo",
    "root": {
      "__id__": 1
    },
    "asset": {
      "__id__": 0
    },
    "fileId": "Armature/belly",
    "sync": false
  },
  {
    "__type__": "cc.Node",
    "_name": "ik_pole.L",
    "_objFlags": 0,
    "_parent": {
      "__id__": 5
    },
    "_children": [],
    "_active": true,
    "_components": [],
    "_prefab": {
      "__id__": 77
    },
    "_opacity": 255,
    "_color": {
      "__type__": "cc.Color",
      "r": 255,
      "g": 255,
      "b": 255,
      "a": 255
    },
    "_contentSize": {
      "__type__": "cc.Size",
      "width": 0,
      "height": 0
    },
    "_anchorPoint": {
      "__type__": "cc.Vec2",
      "x": 0.5,
      "y": 0.5
    },
    "_trs": {
      "__type__": "TypedArray",
      "ctor": "Float64Array",
      "array": [
        0.00204915343783796,
        -0.00800686795264482,
        0.00596656184643507,
        -6.123233728081702e-17,
        -6.123233728081702e-17,
        -0.999999999999999,
        4.371138828673794e-8,
        1,
        1,
        1
      ]
    },
    "_eulerAngles": {
      "__type__": "cc.Vec3",
      "x": -180,
      "y": -180,
      "z": -0.0000050089561309753344
    },
    "_skewX": 0,
    "_skewY": 0,
    "_is3DNode": true,
    "_groupIndex": 0,
    "groupIndex": 0,
    "_id": ""
  },
  {
    "__type__": "cc.PrefabInfo",
    "root": {
      "__id__": 1
    },
    "asset": {
      "__id__": 0
    },
    "fileId": "Armature/ik_pole.L",
    "sync": false
  },
  {
    "__type__": "cc.Node",
    "_name": "ik_foot.L",
    "_objFlags": 0,
    "_parent": {
      "__id__": 5
    },
    "_children": [],
    "_active": true,
    "_components": [],
    "_prefab": {
      "__id__": 79
    },
    "_opacity": 255,
    "_color": {
      "__type__": "cc.Color",
      "r": 255,
      "g": 255,
      "b": 255,
      "a": 255
    },
    "_contentSize": {
      "__type__": "cc.Size",
      "width": 0,
      "height": 0
    },
    "_anchorPoint": {
      "__type__": "cc.Vec2",
      "x": 0.5,
      "y": 0.5
    },
    "_trs": {
      "__type__": "TypedArray",
      "ctor": "Float64Array",
      "array": [
        0.00178745260927826,
        -0.000541012268513441,
        0.00140221288893372,
        0.0022400344533906767,
        0.025732585811040196,
        0.050330306654722295,
        0.9983985559410463,
        0.999999940395355,
        1,
        1
      ]
    },
    "_eulerAngles": {
      "__type__": "cc.Vec3",
      "x": 0.10841735526864764,
      "y": 2.9473451452909876,
      "z": 5.774568420868713
    },
    "_skewX": 0,
    "_skewY": 0,
    "_is3DNode": true,
    "_groupIndex": 0,
    "groupIndex": 0,
    "_id": ""
  },
  {
    "__type__": "cc.PrefabInfo",
    "root": {
      "__id__": 1
    },
    "asset": {
      "__id__": 0
    },
    "fileId": "Armature/ik_foot.L",
    "sync": false
  },
  {
    "__type__": "cc.Node",
    "_name": "ik_pole.R",
    "_objFlags": 0,
    "_parent": {
      "__id__": 5
    },
    "_children": [],
    "_active": true,
    "_components": [],
    "_prefab": {
      "__id__": 81
    },
    "_opacity": 255,
    "_color": {
      "__type__": "cc.Color",
      "r": 255,
      "g": 255,
      "b": 255,
      "a": 255
    },
    "_contentSize": {
      "__type__": "cc.Size",
      "width": 0,
      "height": 0
    },
    "_anchorPoint": {
      "__type__": "cc.Vec2",
      "x": 0.5,
      "y": 0.5
    },
    "_trs": {
      "__type__": "TypedArray",
      "ctor": "Float64Array",
      "array": [
        -0.00389116397127509,
        -0.00800686795264482,
        0.00596656184643507,
        -6.123233728081702e-17,
        -6.123233728081702e-17,
        -0.999999999999999,
        4.371138828673794e-8,
        1,
        1,
        1
      ]
    },
    "_eulerAngles": {
      "__type__": "cc.Vec3",
      "x": -180,
      "y": -180,
      "z": -0.0000050089561309753344
    },
    "_skewX": 0,
    "_skewY": 0,
    "_is3DNode": true,
    "_groupIndex": 0,
    "groupIndex": 0,
    "_id": ""
  },
  {
    "__type__": "cc.PrefabInfo",
    "root": {
      "__id__": 1
    },
    "asset": {
      "__id__": 0
    },
    "fileId": "Armature/ik_pole.R",
    "sync": false
  },
  {
    "__type__": "cc.Node",
    "_name": "ik_foot.R",
    "_objFlags": 0,
    "_parent": {
      "__id__": 5
    },
    "_children": [],
    "_active": true,
    "_components": [],
    "_prefab": {
      "__id__": 83
    },
    "_opacity": 255,
    "_color": {
      "__type__": "cc.Color",
      "r": 255,
      "g": 255,
      "b": 255,
      "a": 255
    },
    "_contentSize": {
      "__type__": "cc.Size",
      "width": 0,
      "height": 0
    },
    "_anchorPoint": {
      "__type__": "cc.Vec2",
      "x": 0.5,
      "y": 0.5
    },
    "_trs": {
      "__type__": "TypedArray",
      "ctor": "Float64Array",
      "array": [
        -0.00187088712118566,
        3.3087223762564e-26,
        0.00140221288893372,
        0.0031381454778781816,
        -0.037122710803936095,
        -0.08417545092262835,
        0.9957542617772216,
        1,
        1,
        0.999999940395355
      ]
    },
    "_eulerAngles": {
      "__type__": "cc.Vec3",
      "x": 9.442060965909757e-8,
      "y": -4.270109893054922,
      "z": -9.66394829180738
    },
    "_skewX": 0,
    "_skewY": 0,
    "_is3DNode": true,
    "_groupIndex": 0,
    "groupIndex": 0,
    "_id": ""
  },
  {
    "__type__": "cc.PrefabInfo",
    "root": {
      "__id__": 1
    },
    "asset": {
      "__id__": 0
    },
    "fileId": "Armature/ik_foot.R",
    "sync": false
  },
  {
    "__type__": "cc.PrefabInfo",
    "root": {
      "__id__": 1
    },
    "asset": {
      "__id__": 0
    },
    "fileId": "Armature",
    "sync": false
  },
  {
    "__type__": "cc.SkeletonAnimation",
    "_name": "",
    "_objFlags": 0,
    "node": {
      "__id__": 1
    },
    "_enabled": true,
    "_defaultClip": null,
    "_clips": [],
    "playOnLoad": false,
    "_model": {
      "__uuid__": "6c03b3ab-8c03-4a25-b84d-f87ad0aacab0"
    },
    "_id": ""
  },
  {
    "__type__": "cc.PrefabInfo",
    "root": {
      "__id__": 1
    },
    "asset": {
      "__id__": 0
    },
    "fileId": "6c03b3ab-8c03-4a25-b84d-f87ad0aacab0",
    "sync": false
  }
]