{
  "__type__": "cc.SpriteFrame",
  "content": {
    "name": "impostor_EN",
    "texture": "8a721569-f3d0-4500-993f-cfb68bcdd3bc",
    "atlas": "",
    "rect": [
      0,
      0,
      280,
      34
    ],
    "offset": [
      0,
      0
    ],
    "originalSize": [
      280,
      34
    ],
    "capInsets": [
      0,
      0,
      0,
      0
    ]
  }
}