{
  "__type__": "cc.SpriteFrame",
  "content": {
    "name": "skin_ninja",
    "texture": "55cd5db3-77da-4a8e-8b26-58d6a0e9d569",
    "atlas": "",
    "rect": [
      0,
      0,
      320,
      320
    ],
    "offset": [
      0,
      0
    ],
    "originalSize": [
      320,
      320
    ],
    "capInsets": [
      0,
      0,
      0,
      0
    ]
  }
}