{
  "__type__": "cc.SkeletonAnimationClip",
  "_name": "Armature|rob_jump_up",
  "_objFlags": 0,
  "_native": ".bin",
  "_duration": 0.5833333134651184,
  "sample": 30,
  "speed": 1,
  "wrapMode": 2,
  "events": [],
  "description": {
    "Armature/belly": {
      "position": {
        "offset": 0,
        "frameCount": 9
      },
      "quat": {
        "offset": 36,
        "frameCount": 15
      },
      "scale": {
        "offset": 111,
        "frameCount": 1
      }
    },
    "Armature/belly/torso": {
      "quat": {
        "offset": 115,
        "frameCount": 14
      },
      "scale": {
        "offset": 185,
        "frameCount": 1
      },
      "position": {
        "offset": 189,
        "frameCount": 1
      }
    },
    "Armature/belly/torso/head": {
      "quat": {
        "offset": 193,
        "frameCount": 15
      },
      "scale": {
        "offset": 268,
        "frameCount": 1
      },
      "position": {
        "offset": 272,
        "frameCount": 1
      }
    },
    "Armature/belly/torso/arm_up.L": {
      "quat": {
        "offset": 276,
        "frameCount": 15
      },
      "scale": {
        "offset": 351,
        "frameCount": 1
      },
      "position": {
        "offset": 355,
        "frameCount": 1
      }
    },
    "Armature/belly/torso/arm_up.R": {
      "quat": {
        "offset": 359,
        "frameCount": 15
      },
      "scale": {
        "offset": 434,
        "frameCount": 1
      },
      "position": {
        "offset": 438,
        "frameCount": 1
      }
    },
    "Armature/belly/leg_up.L": {
      "quat": {
        "offset": 442,
        "frameCount": 15
      },
      "scale": {
        "offset": 517,
        "frameCount": 1
      },
      "position": {
        "offset": 521,
        "frameCount": 1
      }
    },
    "Armature/belly/leg_up.L/leg_down.L": {
      "quat": {
        "offset": 525,
        "frameCount": 14
      },
      "scale": {
        "offset": 595,
        "frameCount": 1
      },
      "position": {
        "offset": 599,
        "frameCount": 1
      }
    },
    "Armature/belly/leg_up.L/leg_down.L/foot.L": {
      "quat": {
        "offset": 603,
        "frameCount": 15
      },
      "scale": {
        "offset": 678,
        "frameCount": 1
      },
      "position": {
        "offset": 682,
        "frameCount": 1
      }
    },
    "Armature/belly/leg_up.R": {
      "quat": {
        "offset": 686,
        "frameCount": 15
      },
      "scale": {
        "offset": 761,
        "frameCount": 1
      },
      "position": {
        "offset": 765,
        "frameCount": 1
      }
    },
    "Armature/belly/leg_up.R/leg_down.R": {
      "quat": {
        "offset": 769,
        "frameCount": 14
      },
      "scale": {
        "offset": 839,
        "frameCount": 1
      },
      "position": {
        "offset": 843,
        "frameCount": 1
      }
    },
    "Armature/belly/leg_up.R/leg_down.R/foot.R": {
      "quat": {
        "offset": 847,
        "frameCount": 15
      },
      "scale": {
        "offset": 922,
        "frameCount": 1
      },
      "position": {
        "offset": 926,
        "frameCount": 1
      }
    },
    "rob": {
      "quat": {
        "offset": 930,
        "frameCount": 1
      },
      "scale": {
        "offset": 935,
        "frameCount": 1
      },
      "position": {
        "offset": 939,
        "frameCount": 1
      }
    },
    "Armature": {
      "quat": {
        "offset": 943,
        "frameCount": 1
      },
      "scale": {
        "offset": 948,
        "frameCount": 1
      },
      "position": {
        "offset": 952,
        "frameCount": 1
      }
    },
    "Armature/belly/torso/head/hair": {
      "quat": {
        "offset": 956,
        "frameCount": 1
      },
      "scale": {
        "offset": 961,
        "frameCount": 1
      },
      "position": {
        "offset": 965,
        "frameCount": 1
      }
    },
    "Armature/belly/torso/arm_up.L/arm_down.L": {
      "quat": {
        "offset": 969,
        "frameCount": 1
      },
      "scale": {
        "offset": 974,
        "frameCount": 1
      },
      "position": {
        "offset": 978,
        "frameCount": 1
      }
    },
    "Armature/belly/torso/arm_up.L/arm_down.L/hand.L": {
      "quat": {
        "offset": 982,
        "frameCount": 1
      },
      "scale": {
        "offset": 987,
        "frameCount": 1
      },
      "position": {
        "offset": 991,
        "frameCount": 1
      }
    },
    "Armature/belly/torso/arm_up.L/arm_down.L/hand.L/wep.L": {
      "quat": {
        "offset": 995,
        "frameCount": 1
      },
      "scale": {
        "offset": 1000,
        "frameCount": 1
      },
      "position": {
        "offset": 1004,
        "frameCount": 1
      }
    },
    "Armature/belly/torso/arm_up.R/arm_down.R": {
      "quat": {
        "offset": 1008,
        "frameCount": 1
      },
      "scale": {
        "offset": 1013,
        "frameCount": 1
      },
      "position": {
        "offset": 1017,
        "frameCount": 1
      }
    },
    "Armature/belly/torso/arm_up.R/arm_down.R/hand.R": {
      "quat": {
        "offset": 1021,
        "frameCount": 1
      },
      "scale": {
        "offset": 1026,
        "frameCount": 1
      },
      "position": {
        "offset": 1030,
        "frameCount": 1
      }
    },
    "Armature/belly/torso/arm_up.R/arm_down.R/hand.R/wep.R": {
      "quat": {
        "offset": 1034,
        "frameCount": 1
      },
      "scale": {
        "offset": 1039,
        "frameCount": 1
      },
      "position": {
        "offset": 1043,
        "frameCount": 1
      }
    },
    "Armature/ik_pole.L": {
      "quat": {
        "offset": 1047,
        "frameCount": 1
      },
      "scale": {
        "offset": 1052,
        "frameCount": 1
      },
      "position": {
        "offset": 1056,
        "frameCount": 1
      }
    },
    "Armature/ik_foot.L": {
      "quat": {
        "offset": 1060,
        "frameCount": 1
      },
      "scale": {
        "offset": 1065,
        "frameCount": 1
      },
      "position": {
        "offset": 1069,
        "frameCount": 1
      }
    },
    "Armature/ik_pole.R": {
      "quat": {
        "offset": 1073,
        "frameCount": 1
      },
      "scale": {
        "offset": 1078,
        "frameCount": 1
      },
      "position": {
        "offset": 1082,
        "frameCount": 1
      }
    },
    "Armature/ik_foot.R": {
      "quat": {
        "offset": 1086,
        "frameCount": 1
      },
      "scale": {
        "offset": 1091,
        "frameCount": 1
      },
      "position": {
        "offset": 1095,
        "frameCount": 1
      }
    }
  }
}