[
  {
    "__type__": "cc.Mesh",
    "_name": "",
    "_objFlags": 0,
    "_native": ".bin",
    "_vertexBundles": [
      {
        "__id__": 1
      }
    ],
    "_primitives": [
      {
        "__id__": 7
      }
    ],
    "_minPos": {
      "__type__": "cc.Vec3",
      "x": -0.00245829578489065,
      "y": 0,
      "z": -0.00238075014203787
    },
    "_maxPos": {
      "__type__": "cc.Vec3",
      "x": 0.0427860915660858,
      "y": 0.0126027734950185,
      "z": 0.00238074897788465
    }
  },
  {
    "__type__": "cc.mesh.VertexBundle",
    "data": {
      "__id__": 2
    },
    "formats": [
      {
        "__id__": 3
      },
      {
        "__id__": 4
      },
      {
        "__id__": 5
      },
      {
        "__id__": 6
      }
    ],
    "verticesCount": 979
  },
  {
    "__type__": "cc.BufferRange",
    "offset": 0,
    "length": 39160
  },
  {
    "__type__": "cc.mesh.VertexFormat",
    "name": "a_normal",
    "type": 5126,
    "num": 3,
    "normalize": false
  },
  {
    "__type__": "cc.mesh.VertexFormat",
    "name": "a_position",
    "type": 5126,
    "num": 3,
    "normalize": false
  },
  {
    "__type__": "cc.mesh.VertexFormat",
    "name": "a_uv0",
    "type": 5126,
    "num": 2,
    "normalize": false
  },
  {
    "__type__": "cc.mesh.VertexFormat",
    "name": "a_uv1",
    "type": 5126,
    "num": 2,
    "normalize": false
  },
  {
    "__type__": "cc.mesh.Primitive",
    "vertexBundleIndices": [
      0
    ],
    "data": {
      "__id__": 8
    },
    "indexUnit": 5123,
    "topology": 4
  },
  {
    "__type__": "cc.BufferRange",
    "offset": 39160,
    "length": 2856
  }
]