{
    "asset": {
        "generator": "FBX2glTF v0.9.7",
        "version": "2.0"
    },
    "scene": 0,
    "buffers": [
        {
            "byteLength": 144380,
            "uri": "buffer.bin"
        }
    ],
    "bufferViews": [
        {
            "buffer": 0,
            "byteLength": 244,
            "byteOffset": 0
        },
        {
            "buffer": 0,
            "byteLength": 976,
            "byteOffset": 244
        },
        {
            "buffer": 0,
            "byteLength": 976,
            "byteOffset": 1220
        },
        {
            "buffer": 0,
            "byteLength": 976,
            "byteOffset": 2196
        },
        {
            "buffer": 0,
            "byteLength": 976,
            "byteOffset": 3172
        },
        {
            "buffer": 0,
            "byteLength": 976,
            "byteOffset": 4148
        },
        {
            "buffer": 0,
            "byteLength": 976,
            "byteOffset": 5124
        },
        {
            "buffer": 0,
            "byteLength": 976,
            "byteOffset": 6100
        },
        {
            "buffer": 0,
            "byteLength": 976,
            "byteOffset": 7076
        },
        {
            "buffer": 0,
            "byteLength": 976,
            "byteOffset": 8052
        },
        {
            "buffer": 0,
            "byteLength": 976,
            "byteOffset": 9028
        },
        {
            "buffer": 0,
            "byteLength": 976,
            "byteOffset": 10004
        },
        {
            "buffer": 0,
            "byteLength": 976,
            "byteOffset": 10980
        },
        {
            "buffer": 0,
            "byteLength": 976,
            "byteOffset": 11956
        },
        {
            "buffer": 0,
            "byteLength": 976,
            "byteOffset": 12932
        },
        {
            "buffer": 0,
            "byteLength": 976,
            "byteOffset": 13908
        },
        {
            "buffer": 0,
            "byteLength": 11928,
            "byteOffset": 14884,
            "target": 34963
        },
        {
            "buffer": 0,
            "byteLength": 21816,
            "byteOffset": 26812,
            "target": 34962
        },
        {
            "buffer": 0,
            "byteLength": 21816,
            "byteOffset": 48628,
            "target": 34962
        },
        {
            "buffer": 0,
            "byteLength": 14544,
            "byteOffset": 70444,
            "target": 34962
        },
        {
            "buffer": 0,
            "byteLength": 14544,
            "byteOffset": 84988,
            "target": 34962
        },
        {
            "buffer": 0,
            "byteLength": 14544,
            "byteOffset": 99532,
            "target": 34962
        },
        {
            "buffer": 0,
            "byteLength": 29088,
            "byteOffset": 114076,
            "target": 34962
        },
        {
            "buffer": 0,
            "byteLength": 1216,
            "byteOffset": 143164
        }
    ],
    "scenes": [
        {
            "name": "Root Scene",
            "nodes": [
                0
            ]
        }
    ],
    "accessors": [
        {
            "componentType": 5126,
            "type": "SCALAR",
            "count": 61,
            "bufferView": 0,
            "byteOffset": 0,
            "min": [
                0.0
            ],
            "max": [
                2.5
            ]
        },
        {
            "componentType": 5126,
            "type": "VEC4",
            "count": 61,
            "bufferView": 1,
            "byteOffset": 0
        },
        {
            "componentType": 5126,
            "type": "VEC4",
            "count": 61,
            "bufferView": 2,
            "byteOffset": 0
        },
        {
            "componentType": 5126,
            "type": "VEC4",
            "count": 61,
            "bufferView": 3,
            "byteOffset": 0
        },
        {
            "componentType": 5126,
            "type": "VEC4",
            "count": 61,
            "bufferView": 4,
            "byteOffset": 0
        },
        {
            "componentType": 5126,
            "type": "VEC4",
            "count": 61,
            "bufferView": 5,
            "byteOffset": 0
        },
        {
            "componentType": 5126,
            "type": "VEC4",
            "count": 61,
            "bufferView": 6,
            "byteOffset": 0
        },
        {
            "componentType": 5126,
            "type": "VEC4",
            "count": 61,
            "bufferView": 7,
            "byteOffset": 0
        },
        {
            "componentType": 5126,
            "type": "VEC4",
            "count": 61,
            "bufferView": 8,
            "byteOffset": 0
        },
        {
            "componentType": 5126,
            "type": "VEC4",
            "count": 61,
            "bufferView": 9,
            "byteOffset": 0
        },
        {
            "componentType": 5126,
            "type": "VEC4",
            "count": 61,
            "bufferView": 10,
            "byteOffset": 0
        },
        {
            "componentType": 5126,
            "type": "VEC4",
            "count": 61,
            "bufferView": 11,
            "byteOffset": 0
        },
        {
            "componentType": 5126,
            "type": "VEC4",
            "count": 61,
            "bufferView": 12,
            "byteOffset": 0
        },
        {
            "componentType": 5126,
            "type": "VEC4",
            "count": 61,
            "bufferView": 13,
            "byteOffset": 0
        },
        {
            "componentType": 5126,
            "type": "VEC4",
            "count": 61,
            "bufferView": 14,
            "byteOffset": 0
        },
        {
            "componentType": 5126,
            "type": "VEC4",
            "count": 61,
            "bufferView": 15,
            "byteOffset": 0
        },
        {
            "componentType": 5123,
            "type": "SCALAR",
            "count": 5964,
            "bufferView": 16,
            "byteOffset": 0
        },
        {
            "componentType": 5126,
            "type": "VEC3",
            "count": 1818,
            "bufferView": 17,
            "byteOffset": 0,
            "min": [
                -0.0408465415239334,
                9.62369085755199e-06,
                -0.0144365709275007
            ],
            "max": [
                0.0408465415239334,
                0.0793404877185822,
                0.00794503092765808
            ]
        },
        {
            "componentType": 5126,
            "type": "VEC3",
            "count": 1818,
            "bufferView": 18,
            "byteOffset": 0
        },
        {
            "componentType": 5126,
            "type": "VEC2",
            "count": 1818,
            "bufferView": 19,
            "byteOffset": 0
        },
        {
            "componentType": 5126,
            "type": "VEC2",
            "count": 1818,
            "bufferView": 20,
            "byteOffset": 0
        },
        {
            "componentType": 5123,
            "type": "VEC4",
            "count": 1818,
            "bufferView": 21,
            "byteOffset": 0
        },
        {
            "componentType": 5126,
            "type": "VEC4",
            "count": 1818,
            "bufferView": 22,
            "byteOffset": 0
        },
        {
            "componentType": 5126,
            "type": "MAT4",
            "count": 19,
            "bufferView": 23,
            "byteOffset": 0
        }
    ],
    "samplers": [
        {}
    ],
    "materials": [
        {
            "name": "lambert49",
            "alphaMode": "OPAQUE",
            "extras": {
                "fromFBX": {
                    "shadingModel": "Phong",
                    "isTruePBR": false
                }
            },
            "pbrMetallicRoughness": {
                "baseColorFactor": [
                    0.0,
                    0.276919931173325,
                    0.800000011920929,
                    1.0
                ],
                "metallicFactor": 0.400000005960464,
                "roughnessFactor": 0.806901276111603
            }
        }
    ],
    "meshes": [
        {
            "name": "stickman_new",
            "primitives": [
                {
                    "material": 0,
                    "mode": 4,
                    "attributes": {
                        "JOINTS_0": 21,
                        "NORMAL": 18,
                        "POSITION": 17,
                        "TEXCOORD_0": 19,
                        "TEXCOORD_1": 20,
                        "WEIGHTS_0": 22
                    },
                    "indices": 16
                }
            ]
        }
    ],
    "skins": [
        {
            "joints": [
                10,
                11,
                12,
                13,
                20,
                2,
                3,
                9,
                4,
                5,
                6,
                7,
                16,
                14,
                15,
                17,
                8,
                18,
                19
            ],
            "inverseBindMatrices": 23,
            "skeleton": 2
        }
    ],
    "animations": [
        {
            "name": "Take 001",
            "channels": [
                {
                    "sampler": 0,
                    "target": {
                        "node": 1,
                        "path": "rotation"
                    }
                },
                {
                    "sampler": 1,
                    "target": {
                        "node": 3,
                        "path": "rotation"
                    }
                },
                {
                    "sampler": 2,
                    "target": {
                        "node": 4,
                        "path": "rotation"
                    }
                },
                {
                    "sampler": 3,
                    "target": {
                        "node": 6,
                        "path": "rotation"
                    }
                },
                {
                    "sampler": 4,
                    "target": {
                        "node": 7,
                        "path": "rotation"
                    }
                },
                {
                    "sampler": 5,
                    "target": {
                        "node": 9,
                        "path": "rotation"
                    }
                },
                {
                    "sampler": 6,
                    "target": {
                        "node": 10,
                        "path": "rotation"
                    }
                },
                {
                    "sampler": 7,
                    "target": {
                        "node": 11,
                        "path": "rotation"
                    }
                },
                {
                    "sampler": 8,
                    "target": {
                        "node": 12,
                        "path": "rotation"
                    }
                },
                {
                    "sampler": 9,
                    "target": {
                        "node": 13,
                        "path": "rotation"
                    }
                },
                {
                    "sampler": 10,
                    "target": {
                        "node": 14,
                        "path": "rotation"
                    }
                },
                {
                    "sampler": 11,
                    "target": {
                        "node": 16,
                        "path": "rotation"
                    }
                },
                {
                    "sampler": 12,
                    "target": {
                        "node": 17,
                        "path": "rotation"
                    }
                },
                {
                    "sampler": 13,
                    "target": {
                        "node": 18,
                        "path": "rotation"
                    }
                },
                {
                    "sampler": 14,
                    "target": {
                        "node": 20,
                        "path": "rotation"
                    }
                }
            ],
            "samplers": [
                {
                    "input": 0,
                    "interpolation": "LINEAR",
                    "output": 1
                },
                {
                    "input": 0,
                    "interpolation": "LINEAR",
                    "output": 2
                },
                {
                    "input": 0,
                    "interpolation": "LINEAR",
                    "output": 3
                },
                {
                    "input": 0,
                    "interpolation": "LINEAR",
                    "output": 4
                },
                {
                    "input": 0,
                    "interpolation": "LINEAR",
                    "output": 5
                },
                {
                    "input": 0,
                    "interpolation": "LINEAR",
                    "output": 6
                },
                {
                    "input": 0,
                    "interpolation": "LINEAR",
                    "output": 7
                },
                {
                    "input": 0,
                    "interpolation": "LINEAR",
                    "output": 8
                },
                {
                    "input": 0,
                    "interpolation": "LINEAR",
                    "output": 9
                },
                {
                    "input": 0,
                    "interpolation": "LINEAR",
                    "output": 10
                },
                {
                    "input": 0,
                    "interpolation": "LINEAR",
                    "output": 11
                },
                {
                    "input": 0,
                    "interpolation": "LINEAR",
                    "output": 12
                },
                {
                    "input": 0,
                    "interpolation": "LINEAR",
                    "output": 13
                },
                {
                    "input": 0,
                    "interpolation": "LINEAR",
                    "output": 14
                },
                {
                    "input": 0,
                    "interpolation": "LINEAR",
                    "output": 15
                }
            ]
        }
    ],
    "nodes": [
        {
            "name": "RootNode",
            "translation": [
                0.0,
                0.0,
                0.0
            ],
            "rotation": [
                0.0,
                0.0,
                0.0,
                1.0
            ],
            "scale": [
                1.0,
                1.0,
                1.0
            ],
            "children": [
                1,
                22
            ]
        },
        {
            "name": "Character1_Reference",
            "translation": [
                0.0,
                0.0,
                0.0
            ],
            "rotation": [
                0.0767120569944382,
                -0.454550623893738,
                0.0255334079265594,
                0.887044012546539
            ],
            "scale": [
                1.00000059604645,
                1.00000059604645,
                1.00000059604645
            ],
            "children": [
                2
            ]
        },
        {
            "name": "Character1_Hips",
            "translation": [
                -3.72529007641731e-10,
                0.0268932264298201,
                1.19209286886246e-09
            ],
            "rotation": [
                2.76471719419926e-17,
                -1.7345886504927e-08,
                2.79396816793565e-09,
                1.0
            ],
            "scale": [
                1.0,
                1.0,
                1.0
            ],
            "children": [
                3,
                6,
                9
            ]
        },
        {
            "name": "Character1_LeftUpLeg",
            "translation": [
                0.00673886388540268,
                -0.00273666135035455,
                5.9604643443123e-10
            ],
            "rotation": [
                -0.46426585316658,
                0.298357456922531,
                0.0219079237431288,
                0.833642661571503
            ],
            "scale": [
                1.0,
                1.0,
                1.0
            ],
            "children": [
                4
            ]
        },
        {
            "name": "Character1_LeftLeg",
            "translation": [
                0.00371353328227997,
                -0.0108860749751329,
                0.0
            ],
            "rotation": [
                0.393916010856628,
                0.00232305470854044,
                -0.014928818680346,
                0.919022262096405
            ],
            "scale": [
                1.0,
                1.0,
                1.0
            ],
            "children": [
                5
            ]
        },
        {
            "name": "Character1_LeftFoot",
            "translation": [
                0.00239629601128399,
                -0.00896722637116909,
                -2.38418573772492e-09
            ],
            "rotation": [
                2.79396794589104e-09,
                -9.08039599067934e-09,
                1.49619965977449e-17,
                1.0
            ],
            "scale": [
                1.0,
                1.0,
                1.0
            ]
        },
        {
            "name": "Character1_RightUpLeg",
            "translation": [
                -0.00673886388540268,
                -0.00273666135035455,
                -5.9604643443123e-10
            ],
            "rotation": [
                -0.275205761194229,
                -0.204356998205185,
                -0.0487000718712807,
                0.93815153837204
            ],
            "scale": [
                1.0,
                1.0,
                1.0
            ],
            "children": [
                7
            ]
        },
        {
            "name": "Character1_RightLeg",
            "translation": [
                -0.00371353374794126,
                -0.0108860777691007,
                0.0
            ],
            "rotation": [
                0.35646715760231,
                -0.122180759906769,
                -0.0508063808083534,
                0.924890100955963
            ],
            "scale": [
                1.0,
                1.0,
                1.0
            ],
            "children": [
                8
            ]
        },
        {
            "name": "Character1_RightFoot",
            "translation": [
                -0.00239629438146949,
                -0.00896722637116909,
                -1.11022299980974e-18
            ],
            "rotation": [
                7.37257741987939e-17,
                -3.72529118664033e-09,
                1.49011647465613e-08,
                1.0
            ],
            "scale": [
                1.0,
                1.0,
                1.0
            ]
        },
        {
            "name": "Character1_Spine",
            "translation": [
                2.23517412911711e-10,
                0.010767774656415,
                2.98023217215615e-10
            ],
            "rotation": [
                0.0635814815759659,
                0.0317703895270824,
                -0.0198931805789471,
                0.997272431850433
            ],
            "scale": [
                1.0,
                1.0,
                1.0
            ],
            "children": [
                10
            ]
        },
        {
            "name": "Character1_Spine1",
            "translation": [
                1.49011608607807e-10,
                0.00623114081099629,
                -1.11022299980974e-18
            ],
            "rotation": [
                0.0108007015660405,
                0.012161104939878,
                0.0204300004988909,
                0.99965900182724
            ],
            "scale": [
                1.0,
                1.0,
                1.0
            ],
            "children": [
                11
            ]
        },
        {
            "name": "Character1_Spine2",
            "translation": [
                -1.86264503820865e-10,
                0.00623114081099629,
                0.0
            ],
            "rotation": [
                0.00193017884157598,
                0.0112358862534165,
                0.00922753661870956,
                0.99989241361618
            ],
            "scale": [
                1.0,
                1.0,
                1.0
            ],
            "children": [
                12,
                16,
                20
            ]
        },
        {
            "name": "Character1_LeftShoulder",
            "translation": [
                0.00468312483280897,
                0.00250115385279059,
                1.11022299980974e-18
            ],
            "rotation": [
                -0.0178936496376991,
                -0.0870921611785889,
                -0.0339640527963638,
                0.995460331439972
            ],
            "scale": [
                1.0,
                1.0,
                1.0
            ],
            "children": [
                13
            ]
        },
        {
            "name": "Character1_LeftArm",
            "translation": [
                0.00425448780879378,
                -0.00114993087481707,
                -5.9604643443123e-10
            ],
            "rotation": [
                0.0150021212175488,
                -0.135661527514458,
                -0.390271157026291,
                0.910526931285858
            ],
            "scale": [
                1.0,
                1.0,
                1.0
            ],
            "children": [
                14
            ]
        },
        {
            "name": "Character1_LeftForeArm",
            "translation": [
                0.0114695094525814,
                3.0579565645894e-05,
                -1.19209286886246e-09
            ],
            "rotation": [
                -0.203334361314774,
                -0.699480652809143,
                -0.180113032460213,
                0.661015272140503
            ],
            "scale": [
                1.0,
                1.0,
                1.0
            ],
            "children": [
                15
            ]
        },
        {
            "name": "Character1_LeftHand",
            "translation": [
                0.0127815138548613,
                -1.32679933813051e-05,
                2.38418573772492e-09
            ],
            "rotation": [
                -3.75439235256181e-09,
                -1.11661284663001e-08,
                -0.0026051290333271,
                0.999996602535248
            ],
            "scale": [
                1.0,
                1.0,
                1.0
            ]
        },
        {
            "name": "Character1_RightShoulder",
            "translation": [
                -0.00468312622979283,
                0.00250115385279059,
                5.9604643443123e-10
            ],
            "rotation": [
                -0.067608967423439,
                -0.165818825364113,
                0.0349857583642006,
                0.983213663101196
            ],
            "scale": [
                1.0,
                1.0,
                1.0
            ],
            "children": [
                17
            ]
        },
        {
            "name": "Character1_RightArm",
            "translation": [
                -0.00425448827445507,
                -0.00114993087481707,
                -1.19209286886246e-09
            ],
            "rotation": [
                0.0330201908946037,
                0.00621840497478843,
                0.438570648431778,
                0.898068368434906
            ],
            "scale": [
                1.0,
                1.0,
                1.0
            ],
            "children": [
                18
            ]
        },
        {
            "name": "Character1_RightForeArm",
            "translation": [
                -0.0114695113152266,
                3.09014321828727e-05,
                -1.78813930329369e-09
            ],
            "rotation": [
                -0.0244085174053907,
                0.60505872964859,
                0.0291788186877966,
                0.795271515846252
            ],
            "scale": [
                1.0,
                1.0,
                1.0
            ],
            "children": [
                19
            ]
        },
        {
            "name": "Character1_RightHand",
            "translation": [
                -0.0127815026789904,
                -2.31504436669638e-05,
                0.0
            ],
            "rotation": [
                2.98013205224379e-08,
                2.44794018389172e-10,
                0.00821392331272364,
                0.999966263771057
            ],
            "scale": [
                1.0,
                1.0,
                1.0
            ]
        },
        {
            "name": "Character1_Neck",
            "translation": [
                -4.47034825823422e-10,
                0.00523113738745451,
                1.19209286886246e-09
            ],
            "rotation": [
                -0.0172704681754112,
                0.0850844606757164,
                -0.0150282746180892,
                0.996110677719116
            ],
            "scale": [
                1.0,
                1.0,
                1.0
            ],
            "children": [
                21
            ]
        },
        {
            "name": "Character1_Head",
            "translation": [
                5.9604643443123e-10,
                0.0235770847648382,
                2.38418573772492e-09
            ],
            "rotation": [
                1.49011611938477e-08,
                -1.86264514923096e-08,
                -3.72529007641731e-09,
                1.0
            ],
            "scale": [
                1.0,
                1.0,
                1.0
            ]
        },
        {
            "name": "stickman_new",
            "translation": [
                0.0,
                -7.72108319155556e-27,
                0.00296637881547213
            ],
            "rotation": [
                2.18556959197258e-08,
                0.0,
                0.0,
                1.0
            ],
            "scale": [
                1.00000059604645,
                1.00000059604645,
                1.00000059604645
            ],
            "mesh": 0,
            "skin": 0
        }
    ]
}