{
  "__type__": "cc.SkeletonAnimationClip",
  "_name": "Armature|hammer_idle",
  "_objFlags": 0,
  "_native": ".bin",
  "_duration": 2.6666667461395264,
  "sample": 30,
  "speed": 1,
  "wrapMode": 2,
  "events": [],
  "description": {
    "Armature/belly": {
      "position": {
        "offset": 0,
        "frameCount": 2
      },
      "quat": {
        "offset": 8,
        "frameCount": 32
      },
      "scale": {
        "offset": 168,
        "frameCount": 1
      }
    },
    "Armature/belly/torso/head": {
      "quat": {
        "offset": 172,
        "frameCount": 39
      },
      "scale": {
        "offset": 367,
        "frameCount": 1
      },
      "position": {
        "offset": 371,
        "frameCount": 1
      }
    },
    "Armature/belly/torso/arm_up.L": {
      "quat": {
        "offset": 375,
        "frameCount": 65
      },
      "scale": {
        "offset": 700,
        "frameCount": 1
      },
      "position": {
        "offset": 704,
        "frameCount": 1
      }
    },
    "Armature/belly/torso/arm_up.L/arm_down.L": {
      "quat": {
        "offset": 708,
        "frameCount": 49
      },
      "scale": {
        "offset": 953,
        "frameCount": 1
      },
      "position": {
        "offset": 957,
        "frameCount": 1
      }
    },
    "Armature/belly/torso/arm_up.L/arm_down.L/hand.L": {
      "quat": {
        "offset": 961,
        "frameCount": 49
      },
      "scale": {
        "offset": 1206,
        "frameCount": 1
      },
      "position": {
        "offset": 1210,
        "frameCount": 1
      }
    },
    "Armature/belly/torso/arm_up.R": {
      "quat": {
        "offset": 1214,
        "frameCount": 65
      },
      "scale": {
        "offset": 1539,
        "frameCount": 1
      },
      "position": {
        "offset": 1543,
        "frameCount": 1
      }
    },
    "Armature/belly/torso/arm_up.R/arm_down.R/hand.R": {
      "quat": {
        "offset": 1547,
        "frameCount": 49
      },
      "scale": {
        "offset": 1792,
        "frameCount": 1
      },
      "position": {
        "offset": 1796,
        "frameCount": 1
      }
    },
    "Armature/belly/leg_up.L": {
      "quat": {
        "offset": 1800,
        "frameCount": 65
      },
      "scale": {
        "offset": 2125,
        "frameCount": 1
      },
      "position": {
        "offset": 2129,
        "frameCount": 1
      }
    },
    "Armature/belly/leg_up.L/leg_down.L": {
      "quat": {
        "offset": 2133,
        "frameCount": 65
      },
      "scale": {
        "offset": 2458,
        "frameCount": 1
      },
      "position": {
        "offset": 2462,
        "frameCount": 1
      }
    },
    "Armature/belly/leg_up.L/leg_down.L/foot.L": {
      "quat": {
        "offset": 2466,
        "frameCount": 65
      },
      "scale": {
        "offset": 2791,
        "frameCount": 1
      },
      "position": {
        "offset": 2795,
        "frameCount": 1
      }
    },
    "Armature/belly/leg_up.R": {
      "quat": {
        "offset": 2799,
        "frameCount": 65
      },
      "scale": {
        "offset": 3124,
        "frameCount": 1
      },
      "position": {
        "offset": 3128,
        "frameCount": 1
      }
    },
    "Armature/belly/leg_up.R/leg_down.R": {
      "quat": {
        "offset": 3132,
        "frameCount": 65
      },
      "scale": {
        "offset": 3457,
        "frameCount": 1
      },
      "position": {
        "offset": 3461,
        "frameCount": 1
      }
    },
    "Armature/belly/leg_up.R/leg_down.R/foot.R": {
      "quat": {
        "offset": 3465,
        "frameCount": 64
      },
      "scale": {
        "offset": 3785,
        "frameCount": 1
      },
      "position": {
        "offset": 3789,
        "frameCount": 1
      }
    },
    "rob": {
      "quat": {
        "offset": 3793,
        "frameCount": 1
      },
      "scale": {
        "offset": 3798,
        "frameCount": 1
      },
      "position": {
        "offset": 3802,
        "frameCount": 1
      }
    },
    "Armature": {
      "quat": {
        "offset": 3806,
        "frameCount": 1
      },
      "scale": {
        "offset": 3811,
        "frameCount": 1
      },
      "position": {
        "offset": 3815,
        "frameCount": 1
      }
    },
    "Armature/belly/torso": {
      "quat": {
        "offset": 3819,
        "frameCount": 1
      },
      "scale": {
        "offset": 3824,
        "frameCount": 1
      },
      "position": {
        "offset": 3828,
        "frameCount": 1
      }
    },
    "Armature/belly/torso/head/hair": {
      "quat": {
        "offset": 3832,
        "frameCount": 1
      },
      "scale": {
        "offset": 3837,
        "frameCount": 1
      },
      "position": {
        "offset": 3841,
        "frameCount": 1
      }
    },
    "Armature/belly/torso/arm_up.L/arm_down.L/hand.L/wep.L": {
      "quat": {
        "offset": 3845,
        "frameCount": 1
      },
      "scale": {
        "offset": 3850,
        "frameCount": 1
      },
      "position": {
        "offset": 3854,
        "frameCount": 1
      }
    },
    "Armature/belly/torso/arm_up.R/arm_down.R": {
      "quat": {
        "offset": 3858,
        "frameCount": 1
      },
      "scale": {
        "offset": 3863,
        "frameCount": 1
      },
      "position": {
        "offset": 3867,
        "frameCount": 1
      }
    },
    "Armature/belly/torso/arm_up.R/arm_down.R/hand.R/wep.R": {
      "quat": {
        "offset": 3871,
        "frameCount": 1
      },
      "scale": {
        "offset": 3876,
        "frameCount": 1
      },
      "position": {
        "offset": 3880,
        "frameCount": 1
      }
    },
    "Armature/belly/torso/arm_up.R/arm_down.R/hand.R/wep.R/buada": {
      "quat": {
        "offset": 3884,
        "frameCount": 1
      },
      "scale": {
        "offset": 3889,
        "frameCount": 1
      },
      "position": {
        "offset": 3893,
        "frameCount": 1
      }
    },
    "Armature/belly/torso/arm_up.R/arm_down.R/hand.R/wep.R/warhammer": {
      "quat": {
        "offset": 3897,
        "frameCount": 1
      },
      "scale": {
        "offset": 3902,
        "frameCount": 1
      },
      "position": {
        "offset": 3906,
        "frameCount": 1
      }
    },
    "Armature/belly/torso/arm_up.R/arm_down.R/hand.R/wep.R/carrot": {
      "quat": {
        "offset": 3910,
        "frameCount": 1
      },
      "scale": {
        "offset": 3915,
        "frameCount": 1
      },
      "position": {
        "offset": 3919,
        "frameCount": 1
      }
    },
    "Armature/belly/torso/arm_up.R/arm_down.R/hand.R/wep.R/destapador": {
      "quat": {
        "offset": 3923,
        "frameCount": 1
      },
      "scale": {
        "offset": 3928,
        "frameCount": 1
      },
      "position": {
        "offset": 3932,
        "frameCount": 1
      }
    },
    "Armature/belly/torso/arm_up.R/arm_down.R/hand.R/wep.R/hammer": {
      "quat": {
        "offset": 3936,
        "frameCount": 1
      },
      "scale": {
        "offset": 3941,
        "frameCount": 1
      },
      "position": {
        "offset": 3945,
        "frameCount": 1
      }
    },
    "Armature/belly/torso/arm_up.R/arm_down.R/hand.R/wep.R/hammer_iron": {
      "quat": {
        "offset": 3949,
        "frameCount": 1
      },
      "scale": {
        "offset": 3954,
        "frameCount": 1
      },
      "position": {
        "offset": 3958,
        "frameCount": 1
      }
    },
    "Armature/belly/torso/arm_up.R/arm_down.R/hand.R/wep.R/hotdog": {
      "quat": {
        "offset": 3962,
        "frameCount": 1
      },
      "scale": {
        "offset": 3967,
        "frameCount": 1
      },
      "position": {
        "offset": 3971,
        "frameCount": 1
      }
    },
    "Armature/belly/torso/arm_up.R/arm_down.R/hand.R/wep.R/lollipop": {
      "quat": {
        "offset": 3975,
        "frameCount": 1
      },
      "scale": {
        "offset": 3980,
        "frameCount": 1
      },
      "position": {
        "offset": 3984,
        "frameCount": 1
      }
    },
    "Armature/belly/torso/arm_up.R/arm_down.R/hand.R/wep.R/mjolnir": {
      "quat": {
        "offset": 3988,
        "frameCount": 1
      },
      "scale": {
        "offset": 3993,
        "frameCount": 1
      },
      "position": {
        "offset": 3997,
        "frameCount": 1
      }
    },
    "Armature/belly/torso/arm_up.R/arm_down.R/hand.R/wep.R/old_phone": {
      "quat": {
        "offset": 4001,
        "frameCount": 1
      },
      "scale": {
        "offset": 4006,
        "frameCount": 1
      },
      "position": {
        "offset": 4010,
        "frameCount": 1
      }
    },
    "Armature/belly/torso/arm_up.R/arm_down.R/hand.R/wep.R/pan": {
      "quat": {
        "offset": 4014,
        "frameCount": 1
      },
      "scale": {
        "offset": 4019,
        "frameCount": 1
      },
      "position": {
        "offset": 4023,
        "frameCount": 1
      }
    },
    "Armature/belly/torso/arm_up.R/arm_down.R/hand.R/wep.R/rack": {
      "quat": {
        "offset": 4027,
        "frameCount": 1
      },
      "scale": {
        "offset": 4032,
        "frameCount": 1
      },
      "position": {
        "offset": 4036,
        "frameCount": 1
      }
    },
    "Armature/belly/torso/arm_up.R/arm_down.R/hand.R/wep.R/shovel_iron": {
      "quat": {
        "offset": 4040,
        "frameCount": 1
      },
      "scale": {
        "offset": 4045,
        "frameCount": 1
      },
      "position": {
        "offset": 4049,
        "frameCount": 1
      }
    },
    "Armature/belly/torso/arm_up.R/arm_down.R/hand.R/wep.R/stick": {
      "quat": {
        "offset": 4053,
        "frameCount": 1
      },
      "scale": {
        "offset": 4058,
        "frameCount": 1
      },
      "position": {
        "offset": 4062,
        "frameCount": 1
      }
    },
    "Armature/ik_pole.L": {
      "quat": {
        "offset": 4066,
        "frameCount": 1
      },
      "scale": {
        "offset": 4071,
        "frameCount": 1
      },
      "position": {
        "offset": 4075,
        "frameCount": 1
      }
    },
    "Armature/ik_foot.L": {
      "quat": {
        "offset": 4079,
        "frameCount": 1
      },
      "scale": {
        "offset": 4084,
        "frameCount": 1
      },
      "position": {
        "offset": 4088,
        "frameCount": 1
      }
    },
    "Armature/ik_pole.R": {
      "quat": {
        "offset": 4092,
        "frameCount": 1
      },
      "scale": {
        "offset": 4097,
        "frameCount": 1
      },
      "position": {
        "offset": 4101,
        "frameCount": 1
      }
    },
    "Armature/ik_foot.R": {
      "quat": {
        "offset": 4105,
        "frameCount": 1
      },
      "scale": {
        "offset": 4110,
        "frameCount": 1
      },
      "position": {
        "offset": 4114,
        "frameCount": 1
      }
    }
  }
}