{
  "__type__": "cc.SkeletonAnimationClip",
  "_name": "Armature|rob_idle_4",
  "_objFlags": 0,
  "_native": ".bin",
  "_duration": 5.833333492279053,
  "sample": 30,
  "speed": 1,
  "wrapMode": 2,
  "events": [],
  "description": {
    "Armature/belly": {
      "quat": {
        "offset": 0,
        "frameCount": 132
      },
      "scale": {
        "offset": 660,
        "frameCount": 1
      },
      "position": {
        "offset": 664,
        "frameCount": 1
      }
    },
    "Armature/belly/torso": {
      "quat": {
        "offset": 668,
        "frameCount": 20
      },
      "scale": {
        "offset": 768,
        "frameCount": 1
      },
      "position": {
        "offset": 772,
        "frameCount": 1
      }
    },
    "Armature/belly/torso/head": {
      "quat": {
        "offset": 776,
        "frameCount": 80
      },
      "scale": {
        "offset": 1176,
        "frameCount": 1
      },
      "position": {
        "offset": 1180,
        "frameCount": 1
      }
    },
    "Armature/belly/torso/arm_up.L": {
      "quat": {
        "offset": 1184,
        "frameCount": 18
      },
      "scale": {
        "offset": 1274,
        "frameCount": 1
      },
      "position": {
        "offset": 1278,
        "frameCount": 1
      }
    },
    "Armature/belly/torso/arm_up.L/arm_down.L": {
      "quat": {
        "offset": 1282,
        "frameCount": 18
      },
      "scale": {
        "offset": 1372,
        "frameCount": 1
      },
      "position": {
        "offset": 1376,
        "frameCount": 1
      }
    },
    "Armature/belly/torso/arm_up.R": {
      "quat": {
        "offset": 1380,
        "frameCount": 17
      },
      "scale": {
        "offset": 1465,
        "frameCount": 1
      },
      "position": {
        "offset": 1469,
        "frameCount": 1
      }
    },
    "Armature/belly/torso/arm_up.R/arm_down.R": {
      "quat": {
        "offset": 1473,
        "frameCount": 18
      },
      "scale": {
        "offset": 1563,
        "frameCount": 1
      },
      "position": {
        "offset": 1567,
        "frameCount": 1
      }
    },
    "Armature/belly/leg_up.L": {
      "quat": {
        "offset": 1571,
        "frameCount": 134
      },
      "scale": {
        "offset": 2241,
        "frameCount": 1
      },
      "position": {
        "offset": 2245,
        "frameCount": 1
      }
    },
    "Armature/belly/leg_up.L/leg_down.L": {
      "quat": {
        "offset": 2249,
        "frameCount": 89
      },
      "scale": {
        "offset": 2694,
        "frameCount": 1
      },
      "position": {
        "offset": 2698,
        "frameCount": 1
      }
    },
    "Armature/belly/leg_up.L/leg_down.L/foot.L": {
      "quat": {
        "offset": 2702,
        "frameCount": 102
      },
      "scale": {
        "offset": 3212,
        "frameCount": 1
      },
      "position": {
        "offset": 3216,
        "frameCount": 1
      }
    },
    "Armature/belly/leg_up.R": {
      "quat": {
        "offset": 3220,
        "frameCount": 133
      },
      "scale": {
        "offset": 3885,
        "frameCount": 1
      },
      "position": {
        "offset": 3889,
        "frameCount": 1
      }
    },
    "Armature/belly/leg_up.R/leg_down.R": {
      "quat": {
        "offset": 3893,
        "frameCount": 97
      },
      "scale": {
        "offset": 4378,
        "frameCount": 1
      },
      "position": {
        "offset": 4382,
        "frameCount": 1
      }
    },
    "Armature/belly/leg_up.R/leg_down.R/foot.R": {
      "quat": {
        "offset": 4386,
        "frameCount": 100
      },
      "scale": {
        "offset": 4886,
        "frameCount": 1
      },
      "position": {
        "offset": 4890,
        "frameCount": 1
      }
    },
    "rob": {
      "quat": {
        "offset": 4894,
        "frameCount": 1
      },
      "scale": {
        "offset": 4899,
        "frameCount": 1
      },
      "position": {
        "offset": 4903,
        "frameCount": 1
      }
    },
    "Armature": {
      "quat": {
        "offset": 4907,
        "frameCount": 1
      },
      "scale": {
        "offset": 4912,
        "frameCount": 1
      },
      "position": {
        "offset": 4916,
        "frameCount": 1
      }
    },
    "Armature/belly/torso/head/hair": {
      "quat": {
        "offset": 4920,
        "frameCount": 1
      },
      "scale": {
        "offset": 4925,
        "frameCount": 1
      },
      "position": {
        "offset": 4929,
        "frameCount": 1
      }
    },
    "Armature/belly/torso/arm_up.L/arm_down.L/hand.L": {
      "quat": {
        "offset": 4933,
        "frameCount": 1
      },
      "scale": {
        "offset": 4938,
        "frameCount": 1
      },
      "position": {
        "offset": 4942,
        "frameCount": 1
      }
    },
    "Armature/belly/torso/arm_up.L/arm_down.L/hand.L/wep.L": {
      "quat": {
        "offset": 4946,
        "frameCount": 1
      },
      "scale": {
        "offset": 4951,
        "frameCount": 1
      },
      "position": {
        "offset": 4955,
        "frameCount": 1
      }
    },
    "Armature/belly/torso/arm_up.R/arm_down.R/hand.R": {
      "quat": {
        "offset": 4959,
        "frameCount": 1
      },
      "scale": {
        "offset": 4964,
        "frameCount": 1
      },
      "position": {
        "offset": 4968,
        "frameCount": 1
      }
    },
    "Armature/belly/torso/arm_up.R/arm_down.R/hand.R/wep.R": {
      "quat": {
        "offset": 4972,
        "frameCount": 1
      },
      "scale": {
        "offset": 4977,
        "frameCount": 1
      },
      "position": {
        "offset": 4981,
        "frameCount": 1
      }
    },
    "Armature/ik_pole.L": {
      "quat": {
        "offset": 4985,
        "frameCount": 1
      },
      "scale": {
        "offset": 4990,
        "frameCount": 1
      },
      "position": {
        "offset": 4994,
        "frameCount": 1
      }
    },
    "Armature/ik_foot.L": {
      "quat": {
        "offset": 4998,
        "frameCount": 1
      },
      "scale": {
        "offset": 5003,
        "frameCount": 1
      },
      "position": {
        "offset": 5007,
        "frameCount": 1
      }
    },
    "Armature/ik_pole.R": {
      "quat": {
        "offset": 5011,
        "frameCount": 1
      },
      "scale": {
        "offset": 5016,
        "frameCount": 1
      },
      "position": {
        "offset": 5020,
        "frameCount": 1
      }
    },
    "Armature/ik_foot.R": {
      "quat": {
        "offset": 5024,
        "frameCount": 1
      },
      "scale": {
        "offset": 5029,
        "frameCount": 1
      },
      "position": {
        "offset": 5033,
        "frameCount": 1
      }
    }
  }
}