{
  "__type__": "cc.SpriteFrame",
  "content": {
    "name": "342-65-max",
    "texture": "1aac0127-dcf1-4e88-b0aa-0dffeaa5a06e",
    "atlas": "",
    "rect": [
      0,
      0,
      342,
      65
    ],
    "offset": [
      0,
      0
    ],
    "originalSize": [
      342,
      65
    ],
    "capInsets": [
      0,
      0,
      0,
      0
    ]
  }
}