{
  "__type__": "cc.Skeleton",
  "_name": "",
  "_objFlags": 0,
  "_native": "",
  "_model": {
    "__uuid__": "811eac71-8d64-441a-95d1-d608d8ab62ba"
  },
  "_jointIndices": [
    10,
    11,
    12,
    13,
    20,
    2,
    3,
    9,
    4,
    5,
    6,
    7,
    16,
    14,
    15,
    17,
    8,
    18,
    19
  ],
  "_skinIndex": 0
}