{
  "__type__": "cc.SkeletonAnimationClip",
  "_name": "Bazooka Attack",
  "_objFlags": 0,
  "_native": ".bin",
  "_duration": 1.3333333730697632,
  "sample": 30,
  "speed": 1,
  "wrapMode": 2,
  "events": [],
  "description": {
    "All_ctrl/all_joint/hip": {
      "position": {
        "offset": 0,
        "frameCount": 18
      },
      "quat": {
        "offset": 72,
        "frameCount": 33
      },
      "scale": {
        "offset": 237,
        "frameCount": 1
      }
    },
    "All_ctrl/all_joint/hip/spine_01": {
      "quat": {
        "offset": 241,
        "frameCount": 28
      },
      "scale": {
        "offset": 381,
        "frameCount": 1
      },
      "position": {
        "offset": 385,
        "frameCount": 1
      }
    },
    "All_ctrl/all_joint/hip/spine_01/spine_02": {
      "position": {
        "offset": 389,
        "frameCount": 16
      },
      "quat": {
        "offset": 453,
        "frameCount": 30
      },
      "scale": {
        "offset": 603,
        "frameCount": 1
      }
    },
    "All_ctrl/all_joint/hip/spine_01/spine_02/head": {
      "quat": {
        "offset": 607,
        "frameCount": 9
      },
      "scale": {
        "offset": 652,
        "frameCount": 1
      },
      "position": {
        "offset": 656,
        "frameCount": 1
      }
    },
    "All_ctrl/all_joint/hip/spine_01/spine_02/jaw_up": {
      "quat": {
        "offset": 660,
        "frameCount": 21
      },
      "scale": {
        "offset": 765,
        "frameCount": 1
      },
      "position": {
        "offset": 769,
        "frameCount": 1
      }
    },
    "All_ctrl/all_joint/hip/spine_01/spine_02/Hand_L_01": {
      "position": {
        "offset": 773,
        "frameCount": 12
      },
      "quat": {
        "offset": 821,
        "frameCount": 14
      },
      "scale": {
        "offset": 891,
        "frameCount": 1
      }
    },
    "All_ctrl/all_joint/hip/spine_01/spine_02/Hand_L_01/Thumb_L_01": {
      "position": {
        "offset": 895,
        "frameCount": 4
      },
      "quat": {
        "offset": 911,
        "frameCount": 10
      },
      "scale": {
        "offset": 961,
        "frameCount": 1
      }
    },
    "All_ctrl/all_joint/hip/spine_01/spine_02/Hand_L_01/Thumb_L_01/Thumb_L_02": {
      "position": {
        "offset": 965,
        "frameCount": 4
      },
      "quat": {
        "offset": 981,
        "frameCount": 10
      },
      "scale": {
        "offset": 1031,
        "frameCount": 1
      }
    },
    "All_ctrl/all_joint/hip/spine_01/spine_02/Hand_L_01/idex_L_01": {
      "position": {
        "offset": 1035,
        "frameCount": 4
      },
      "quat": {
        "offset": 1051,
        "frameCount": 14
      },
      "scale": {
        "offset": 1121,
        "frameCount": 1
      }
    },
    "All_ctrl/all_joint/hip/spine_01/spine_02/Hand_L_01/idex_L_01/idex_L_02": {
      "position": {
        "offset": 1125,
        "frameCount": 4
      },
      "quat": {
        "offset": 1141,
        "frameCount": 14
      },
      "scale": {
        "offset": 1211,
        "frameCount": 1
      }
    },
    "All_ctrl/all_joint/hip/spine_01/spine_02/Hand_L_01/Ring_L_01": {
      "position": {
        "offset": 1215,
        "frameCount": 4
      },
      "quat": {
        "offset": 1231,
        "frameCount": 14
      },
      "scale": {
        "offset": 1301,
        "frameCount": 1
      }
    },
    "All_ctrl/all_joint/hip/spine_01/spine_02/Hand_L_01/Ring_L_01/Ring_L_02": {
      "position": {
        "offset": 1305,
        "frameCount": 4
      },
      "quat": {
        "offset": 1321,
        "frameCount": 14
      },
      "scale": {
        "offset": 1391,
        "frameCount": 1
      }
    },
    "All_ctrl/all_joint/hip/spine_01/spine_02/Hand_L_01/Little_L_01": {
      "position": {
        "offset": 1395,
        "frameCount": 4
      },
      "quat": {
        "offset": 1411,
        "frameCount": 14
      },
      "scale": {
        "offset": 1481,
        "frameCount": 1
      }
    },
    "All_ctrl/all_joint/hip/spine_01/spine_02/Hand_L_01/Little_L_01/Little_L_02": {
      "position": {
        "offset": 1485,
        "frameCount": 4
      },
      "quat": {
        "offset": 1501,
        "frameCount": 14
      },
      "scale": {
        "offset": 1571,
        "frameCount": 1
      }
    },
    "All_ctrl/all_joint/hip/spine_01/spine_02/Hand_R_01": {
      "position": {
        "offset": 1575,
        "frameCount": 26
      },
      "quat": {
        "offset": 1679,
        "frameCount": 30
      },
      "scale": {
        "offset": 1829,
        "frameCount": 1
      }
    },
    "All_ctrl/all_joint/hip/spine_01/spine_02/Hand_R_01/Thumb_R_01": {
      "position": {
        "offset": 1833,
        "frameCount": 4
      },
      "quat": {
        "offset": 1849,
        "frameCount": 6
      },
      "scale": {
        "offset": 1879,
        "frameCount": 1
      }
    },
    "All_ctrl/all_joint/hip/spine_01/spine_02/Hand_R_01/Thumb_R_01/Thumb_R_02": {
      "position": {
        "offset": 1883,
        "frameCount": 4
      },
      "quat": {
        "offset": 1899,
        "frameCount": 6
      },
      "scale": {
        "offset": 1929,
        "frameCount": 1
      }
    },
    "All_ctrl/all_joint/hip/spine_01/spine_02/Hand_R_01/idex_R_01": {
      "position": {
        "offset": 1933,
        "frameCount": 4
      },
      "quat": {
        "offset": 1949,
        "frameCount": 6
      },
      "scale": {
        "offset": 1979,
        "frameCount": 1
      }
    },
    "All_ctrl/all_joint/hip/spine_01/spine_02/Hand_R_01/idex_R_01/idex_R_02": {
      "position": {
        "offset": 1983,
        "frameCount": 4
      },
      "quat": {
        "offset": 1999,
        "frameCount": 4
      },
      "scale": {
        "offset": 2019,
        "frameCount": 1
      }
    },
    "All_ctrl/all_joint/hip/spine_01/spine_02/Hand_R_01/Ring_R_01": {
      "position": {
        "offset": 2023,
        "frameCount": 4
      },
      "quat": {
        "offset": 2039,
        "frameCount": 6
      },
      "scale": {
        "offset": 2069,
        "frameCount": 1
      }
    },
    "All_ctrl/all_joint/hip/spine_01/spine_02/Hand_R_01/Ring_R_01/Ring_R_02": {
      "position": {
        "offset": 2073,
        "frameCount": 4
      },
      "quat": {
        "offset": 2089,
        "frameCount": 4
      },
      "scale": {
        "offset": 2109,
        "frameCount": 1
      }
    },
    "All_ctrl/all_joint/hip/spine_01/spine_02/Hand_R_01/Little_R_01": {
      "position": {
        "offset": 2113,
        "frameCount": 4
      },
      "quat": {
        "offset": 2129,
        "frameCount": 6
      },
      "scale": {
        "offset": 2159,
        "frameCount": 1
      }
    },
    "All_ctrl/all_joint/hip/spine_01/spine_02/Hand_R_01/Little_R_01/Little_R_02": {
      "position": {
        "offset": 2163,
        "frameCount": 4
      },
      "quat": {
        "offset": 2179,
        "frameCount": 4
      },
      "scale": {
        "offset": 2199,
        "frameCount": 1
      }
    },
    "All_ctrl/all_joint/hip/spine_01/spine_02/Hand_R_01/weapon_gun_joint": {
      "position": {
        "offset": 2203,
        "frameCount": 4
      },
      "quat": {
        "offset": 2219,
        "frameCount": 4
      },
      "scale": {
        "offset": 2239,
        "frameCount": 1
      }
    },
    "All_ctrl/all_joint/hip/spine_01/spine_02/Hand_R_01/weapon_katana_joint": {
      "position": {
        "offset": 2243,
        "frameCount": 4
      },
      "quat": {
        "offset": 2259,
        "frameCount": 4
      },
      "scale": {
        "offset": 2279,
        "frameCount": 1
      }
    },
    "All_ctrl/all_joint/hip/spine_01/spine_02/Hand_R_01/weapon_knife_joint": {
      "position": {
        "offset": 2283,
        "frameCount": 4
      },
      "quat": {
        "offset": 2299,
        "frameCount": 4
      },
      "scale": {
        "offset": 2319,
        "frameCount": 1
      }
    },
    "All_ctrl/all_joint/hip/spine_01/spine_02/Hand_R_01/weapon_bazooka_joint": {
      "position": {
        "offset": 2323,
        "frameCount": 8
      },
      "quat": {
        "offset": 2355,
        "frameCount": 4
      },
      "scale": {
        "offset": 2375,
        "frameCount": 1
      }
    },
    "All_ctrl/all_joint/hip/spine_01/spine_02/Hand_R_01/weapon_bua_joint": {
      "position": {
        "offset": 2379,
        "frameCount": 4
      },
      "quat": {
        "offset": 2395,
        "frameCount": 4
      },
      "scale": {
        "offset": 2415,
        "frameCount": 1
      }
    },
    "All_ctrl/all_joint/hip/spine_01/jaw_down": {
      "position": {
        "offset": 2419,
        "frameCount": 2
      },
      "quat": {
        "offset": 2427,
        "frameCount": 22
      },
      "scale": {
        "offset": 2537,
        "frameCount": 1
      }
    },
    "All_ctrl/all_joint/hip/leg_L": {
      "quat": {
        "offset": 2541,
        "frameCount": 33
      },
      "scale": {
        "offset": 2706,
        "frameCount": 1
      },
      "position": {
        "offset": 2710,
        "frameCount": 1
      }
    },
    "All_ctrl/all_joint/hip/leg_L/knee_L": {
      "quat": {
        "offset": 2714,
        "frameCount": 32
      },
      "scale": {
        "offset": 2874,
        "frameCount": 1
      },
      "position": {
        "offset": 2878,
        "frameCount": 1
      }
    },
    "All_ctrl/all_joint/hip/leg_L/knee_L/feet_L": {
      "quat": {
        "offset": 2882,
        "frameCount": 33
      },
      "scale": {
        "offset": 3047,
        "frameCount": 1
      },
      "position": {
        "offset": 3051,
        "frameCount": 1
      }
    },
    "All_ctrl/all_joint/hip/leg_R": {
      "quat": {
        "offset": 3055,
        "frameCount": 33
      },
      "scale": {
        "offset": 3220,
        "frameCount": 1
      },
      "position": {
        "offset": 3224,
        "frameCount": 1
      }
    },
    "All_ctrl/all_joint/hip/leg_R/knee_R": {
      "quat": {
        "offset": 3228,
        "frameCount": 32
      },
      "scale": {
        "offset": 3388,
        "frameCount": 1
      },
      "position": {
        "offset": 3392,
        "frameCount": 1
      }
    },
    "All_ctrl/all_joint/hip/leg_R/knee_R/feet_R": {
      "quat": {
        "offset": 3396,
        "frameCount": 33
      },
      "scale": {
        "offset": 3561,
        "frameCount": 1
      },
      "position": {
        "offset": 3565,
        "frameCount": 1
      }
    },
    "AmongUS": {
      "quat": {
        "offset": 3569,
        "frameCount": 1
      },
      "scale": {
        "offset": 3574,
        "frameCount": 1
      },
      "position": {
        "offset": 3578,
        "frameCount": 1
      }
    },
    "AmongUS/Luoi": {
      "quat": {
        "offset": 3582,
        "frameCount": 1
      },
      "scale": {
        "offset": 3587,
        "frameCount": 1
      },
      "position": {
        "offset": 3591,
        "frameCount": 1
      }
    },
    "AmongUS/Hand3": {
      "quat": {
        "offset": 3595,
        "frameCount": 1
      },
      "scale": {
        "offset": 3600,
        "frameCount": 1
      },
      "position": {
        "offset": 3604,
        "frameCount": 1
      }
    },
    "All_ctrl": {
      "quat": {
        "offset": 3608,
        "frameCount": 1
      },
      "scale": {
        "offset": 3613,
        "frameCount": 1
      },
      "position": {
        "offset": 3617,
        "frameCount": 1
      }
    },
    "All_ctrl/all_joint": {
      "quat": {
        "offset": 3621,
        "frameCount": 1
      },
      "scale": {
        "offset": 3626,
        "frameCount": 1
      },
      "position": {
        "offset": 3630,
        "frameCount": 1
      }
    },
    "All_ctrl/all_joint/hip/spine_01/spine_02/back": {
      "quat": {
        "offset": 3634,
        "frameCount": 1
      },
      "scale": {
        "offset": 3639,
        "frameCount": 1
      },
      "position": {
        "offset": 3643,
        "frameCount": 1
      }
    },
    "All_ctrl/all_joint/hip/spine_01/jaw_down/jaw_down1": {
      "quat": {
        "offset": 3647,
        "frameCount": 1
      },
      "scale": {
        "offset": 3652,
        "frameCount": 1
      },
      "position": {
        "offset": 3656,
        "frameCount": 1
      }
    },
    "All_ctrl/all_joint/hip/spine_01/jaw_down/Luoi1": {
      "quat": {
        "offset": 3660,
        "frameCount": 1
      },
      "scale": {
        "offset": 3665,
        "frameCount": 1
      },
      "position": {
        "offset": 3669,
        "frameCount": 1
      }
    },
    "All_ctrl/all_joint/hip/spine_01/jaw_down/Luoi1/Luoi2": {
      "quat": {
        "offset": 3673,
        "frameCount": 1
      },
      "scale": {
        "offset": 3678,
        "frameCount": 1
      },
      "position": {
        "offset": 3682,
        "frameCount": 1
      }
    },
    "All_ctrl/all_joint/hip/spine_01/jaw_down/Luoi1/Luoi2/Luoi3": {
      "quat": {
        "offset": 3686,
        "frameCount": 1
      },
      "scale": {
        "offset": 3691,
        "frameCount": 1
      },
      "position": {
        "offset": 3695,
        "frameCount": 1
      }
    },
    "All_ctrl/all_joint/hip/spine_01/jaw_down/Luoi1/Luoi2/Luoi3/Luoi4": {
      "quat": {
        "offset": 3699,
        "frameCount": 1
      },
      "scale": {
        "offset": 3704,
        "frameCount": 1
      },
      "position": {
        "offset": 3708,
        "frameCount": 1
      }
    },
    "All_ctrl/all_joint/hip/spine_01/jaw_down/Luoi1/Luoi2/Luoi3/Luoi4/Luoi5": {
      "quat": {
        "offset": 3712,
        "frameCount": 1
      },
      "scale": {
        "offset": 3717,
        "frameCount": 1
      },
      "position": {
        "offset": 3721,
        "frameCount": 1
      }
    },
    "All_ctrl/all_joint/hip/spine_01/jaw_down/Luoi1/Luoi2/Luoi3/Luoi4/Luoi5/Luoi6": {
      "quat": {
        "offset": 3725,
        "frameCount": 1
      },
      "scale": {
        "offset": 3730,
        "frameCount": 1
      },
      "position": {
        "offset": 3734,
        "frameCount": 1
      }
    },
    "All_ctrl/all_joint/hip/spine_01/jaw_down/Luoi1/Luoi2/Luoi3/Luoi4/Luoi5/Luoi6/Luoi7": {
      "quat": {
        "offset": 3738,
        "frameCount": 1
      },
      "scale": {
        "offset": 3743,
        "frameCount": 1
      },
      "position": {
        "offset": 3747,
        "frameCount": 1
      }
    },
    "All_ctrl/all_joint/hip/spine_01/jaw_down/Luoi1/Luoi2/Luoi3/Luoi4/Luoi5/Luoi6/Luoi7/Luoi8": {
      "quat": {
        "offset": 3751,
        "frameCount": 1
      },
      "scale": {
        "offset": 3756,
        "frameCount": 1
      },
      "position": {
        "offset": 3760,
        "frameCount": 1
      }
    },
    "All_ctrl/all_joint/hip/spine_01/jaw_down/Luoi1/Luoi2/Luoi3/Luoi4/Luoi5/Luoi6/Luoi7/Luoi8/Luoi9": {
      "quat": {
        "offset": 3764,
        "frameCount": 1
      },
      "scale": {
        "offset": 3769,
        "frameCount": 1
      },
      "position": {
        "offset": 3773,
        "frameCount": 1
      }
    },
    "All_ctrl/all_joint/hip/leg_L/knee_L/feet_L/feet_L_end": {
      "quat": {
        "offset": 3777,
        "frameCount": 1
      },
      "scale": {
        "offset": 3782,
        "frameCount": 1
      },
      "position": {
        "offset": 3786,
        "frameCount": 1
      }
    },
    "All_ctrl/all_joint/hip/leg_R/knee_R/feet_R/feet_R_end": {
      "quat": {
        "offset": 3790,
        "frameCount": 1
      },
      "scale": {
        "offset": 3795,
        "frameCount": 1
      },
      "position": {
        "offset": 3799,
        "frameCount": 1
      }
    },
    "weapon_bazooka": {
      "quat": {
        "offset": 3803,
        "frameCount": 1
      },
      "scale": {
        "offset": 3808,
        "frameCount": 1
      },
      "position": {
        "offset": 3812,
        "frameCount": 1
      }
    }
  }
}