{
  "__type__": "cc.SkeletonAnimationClip",
  "_name": "Armature|hunter_run",
  "_objFlags": 0,
  "_native": ".bin",
  "_duration": 0.5,
  "sample": 30,
  "speed": 1,
  "wrapMode": 2,
  "events": [],
  "description": {
    "Armature/belly": {
      "position": {
        "offset": 0,
        "frameCount": 8
      },
      "quat": {
        "offset": 32,
        "frameCount": 13
      },
      "scale": {
        "offset": 97,
        "frameCount": 1
      }
    },
    "Armature/belly/torso": {
      "quat": {
        "offset": 101,
        "frameCount": 2
      },
      "scale": {
        "offset": 111,
        "frameCount": 1
      },
      "position": {
        "offset": 115,
        "frameCount": 1
      }
    },
    "Armature/belly/torso/head": {
      "quat": {
        "offset": 119,
        "frameCount": 2
      },
      "scale": {
        "offset": 129,
        "frameCount": 1
      },
      "position": {
        "offset": 133,
        "frameCount": 1
      }
    },
    "Armature/belly/torso/arm_up.L": {
      "quat": {
        "offset": 137,
        "frameCount": 2
      },
      "scale": {
        "offset": 147,
        "frameCount": 1
      },
      "position": {
        "offset": 151,
        "frameCount": 1
      }
    },
    "Armature/belly/torso/arm_up.L/arm_down.L": {
      "quat": {
        "offset": 155,
        "frameCount": 12
      },
      "scale": {
        "offset": 215,
        "frameCount": 1
      },
      "position": {
        "offset": 219,
        "frameCount": 1
      }
    },
    "Armature/belly/torso/arm_up.R": {
      "quat": {
        "offset": 223,
        "frameCount": 2
      },
      "scale": {
        "offset": 233,
        "frameCount": 1
      },
      "position": {
        "offset": 237,
        "frameCount": 1
      }
    },
    "Armature/belly/torso/arm_up.R/arm_down.R": {
      "quat": {
        "offset": 241,
        "frameCount": 12
      },
      "scale": {
        "offset": 301,
        "frameCount": 1
      },
      "position": {
        "offset": 305,
        "frameCount": 1
      }
    },
    "Armature/belly/torso/arm_up.R/arm_down.R/hand.R": {
      "quat": {
        "offset": 309,
        "frameCount": 2
      },
      "scale": {
        "offset": 319,
        "frameCount": 1
      },
      "position": {
        "offset": 323,
        "frameCount": 1
      }
    },
    "Armature/belly/leg_up.L": {
      "quat": {
        "offset": 327,
        "frameCount": 13
      },
      "scale": {
        "offset": 392,
        "frameCount": 2
      },
      "position": {
        "offset": 400,
        "frameCount": 1
      }
    },
    "Armature/belly/leg_up.L/leg_down.L": {
      "quat": {
        "offset": 404,
        "frameCount": 13
      },
      "scale": {
        "offset": 469,
        "frameCount": 2
      },
      "position": {
        "offset": 477,
        "frameCount": 1
      }
    },
    "Armature/belly/leg_up.L/leg_down.L/foot.L": {
      "quat": {
        "offset": 481,
        "frameCount": 13
      },
      "scale": {
        "offset": 546,
        "frameCount": 2
      },
      "position": {
        "offset": 554,
        "frameCount": 1
      }
    },
    "Armature/belly/leg_up.R": {
      "quat": {
        "offset": 558,
        "frameCount": 13
      },
      "scale": {
        "offset": 623,
        "frameCount": 1
      },
      "position": {
        "offset": 627,
        "frameCount": 1
      }
    },
    "Armature/belly/leg_up.R/leg_down.R": {
      "quat": {
        "offset": 631,
        "frameCount": 13
      },
      "scale": {
        "offset": 696,
        "frameCount": 1
      },
      "position": {
        "offset": 700,
        "frameCount": 1
      }
    },
    "Armature/belly/leg_up.R/leg_down.R/foot.R": {
      "quat": {
        "offset": 704,
        "frameCount": 13
      },
      "scale": {
        "offset": 769,
        "frameCount": 1
      },
      "position": {
        "offset": 773,
        "frameCount": 1
      }
    },
    "Armature/ik_pole.L": {
      "position": {
        "offset": 777,
        "frameCount": 2
      },
      "quat": {
        "offset": 785,
        "frameCount": 1
      },
      "scale": {
        "offset": 790,
        "frameCount": 1
      }
    },
    "Armature/ik_foot.L": {
      "position": {
        "offset": 794,
        "frameCount": 12
      },
      "quat": {
        "offset": 842,
        "frameCount": 13
      },
      "scale": {
        "offset": 907,
        "frameCount": 1
      }
    },
    "Armature/ik_pole.R": {
      "position": {
        "offset": 911,
        "frameCount": 2
      },
      "quat": {
        "offset": 919,
        "frameCount": 1
      },
      "scale": {
        "offset": 924,
        "frameCount": 1
      }
    },
    "Armature/ik_foot.R": {
      "position": {
        "offset": 928,
        "frameCount": 13
      },
      "quat": {
        "offset": 980,
        "frameCount": 13
      },
      "scale": {
        "offset": 1045,
        "frameCount": 1
      }
    },
    "rob": {
      "quat": {
        "offset": 1049,
        "frameCount": 1
      },
      "scale": {
        "offset": 1054,
        "frameCount": 1
      },
      "position": {
        "offset": 1058,
        "frameCount": 1
      }
    },
    "Armature": {
      "quat": {
        "offset": 1062,
        "frameCount": 1
      },
      "scale": {
        "offset": 1067,
        "frameCount": 1
      },
      "position": {
        "offset": 1071,
        "frameCount": 1
      }
    },
    "Armature/belly/torso/head/hair": {
      "quat": {
        "offset": 1075,
        "frameCount": 1
      },
      "scale": {
        "offset": 1080,
        "frameCount": 1
      },
      "position": {
        "offset": 1084,
        "frameCount": 1
      }
    },
    "Armature/belly/torso/arm_up.L/arm_down.L/hand.L": {
      "quat": {
        "offset": 1088,
        "frameCount": 1
      },
      "scale": {
        "offset": 1093,
        "frameCount": 1
      },
      "position": {
        "offset": 1097,
        "frameCount": 1
      }
    },
    "Armature/belly/torso/arm_up.L/arm_down.L/hand.L/wep.L": {
      "quat": {
        "offset": 1101,
        "frameCount": 1
      },
      "scale": {
        "offset": 1106,
        "frameCount": 1
      },
      "position": {
        "offset": 1110,
        "frameCount": 1
      }
    },
    "Armature/belly/torso/arm_up.R/arm_down.R/hand.R/wep.R": {
      "quat": {
        "offset": 1114,
        "frameCount": 1
      },
      "scale": {
        "offset": 1119,
        "frameCount": 1
      },
      "position": {
        "offset": 1123,
        "frameCount": 1
      }
    },
    "Armature/belly/torso/arm_up.R/arm_down.R/hand.R/wep.R/rocket": {
      "quat": {
        "offset": 1127,
        "frameCount": 1
      },
      "scale": {
        "offset": 1132,
        "frameCount": 1
      },
      "position": {
        "offset": 1136,
        "frameCount": 1
      }
    },
    "Armature/belly/torso/arm_up.R/arm_down.R/hand.R/wep.R/bazoka1": {
      "quat": {
        "offset": 1140,
        "frameCount": 1
      },
      "scale": {
        "offset": 1145,
        "frameCount": 1
      },
      "position": {
        "offset": 1149,
        "frameCount": 1
      }
    },
    "Armature/belly/torso/arm_up.R/arm_down.R/hand.R/wep.R/bazoka2": {
      "quat": {
        "offset": 1153,
        "frameCount": 1
      },
      "scale": {
        "offset": 1158,
        "frameCount": 1
      },
      "position": {
        "offset": 1162,
        "frameCount": 1
      }
    },
    "Armature/belly/torso/arm_up.R/arm_down.R/hand.R/wep.R/bazoka3": {
      "quat": {
        "offset": 1166,
        "frameCount": 1
      },
      "scale": {
        "offset": 1171,
        "frameCount": 1
      },
      "position": {
        "offset": 1175,
        "frameCount": 1
      }
    },
    "Armature/belly/torso/arm_up.R/arm_down.R/hand.R/wep.R/grenade_launcher": {
      "quat": {
        "offset": 1179,
        "frameCount": 1
      },
      "scale": {
        "offset": 1184,
        "frameCount": 1
      },
      "position": {
        "offset": 1188,
        "frameCount": 1
      }
    },
    "Armature/belly/torso/arm_up.R/arm_down.R/hand.R/wep.R/halo_rocket": {
      "quat": {
        "offset": 1192,
        "frameCount": 1
      },
      "scale": {
        "offset": 1197,
        "frameCount": 1
      },
      "position": {
        "offset": 1201,
        "frameCount": 1
      }
    },
    "Armature/belly/torso/arm_up.R/arm_down.R/hand.R/wep.R/launcher": {
      "quat": {
        "offset": 1205,
        "frameCount": 1
      },
      "scale": {
        "offset": 1210,
        "frameCount": 1
      },
      "position": {
        "offset": 1214,
        "frameCount": 1
      }
    },
    "Armature/belly/torso/arm_up.R/arm_down.R/hand.R/wep.R/launcher1": {
      "quat": {
        "offset": 1218,
        "frameCount": 1
      },
      "scale": {
        "offset": 1223,
        "frameCount": 1
      },
      "position": {
        "offset": 1227,
        "frameCount": 1
      }
    },
    "Armature/belly/torso/arm_up.R/arm_down.R/hand.R/wep.R/launcher2": {
      "quat": {
        "offset": 1231,
        "frameCount": 1
      },
      "scale": {
        "offset": 1236,
        "frameCount": 1
      },
      "position": {
        "offset": 1240,
        "frameCount": 1
      }
    },
    "Armature/belly/torso/arm_up.R/arm_down.R/hand.R/wep.R/launcher3": {
      "quat": {
        "offset": 1244,
        "frameCount": 1
      },
      "scale": {
        "offset": 1249,
        "frameCount": 1
      },
      "position": {
        "offset": 1253,
        "frameCount": 1
      }
    },
    "Armature/belly/torso/arm_up.R/arm_down.R/hand.R/wep.R/pirahna_cannon": {
      "quat": {
        "offset": 1257,
        "frameCount": 1
      },
      "scale": {
        "offset": 1262,
        "frameCount": 1
      },
      "position": {
        "offset": 1266,
        "frameCount": 1
      }
    }
  }
}