{
  "__type__": "cc.SpriteFrame",
  "content": {
    "name": "PLAY NOW",
    "texture": "5ac5f43f-7056-4cd8-b1a3-ce4c81cc8b3a",
    "atlas": "",
    "rect": [
      0,
      0,
      253,
      96
    ],
    "offset": [
      0,
      0
    ],
    "originalSize": [
      253,
      96
    ],
    "capInsets": [
      0,
      0,
      0,
      0
    ]
  }
}