{
  "__type__": "cc.Material",
  "_name": "",
  "_objFlags": 0,
  "_native": "",
  "_effectAsset": {
    "__uuid__": "abc2cb62-7852-4525-a90d-d474487b88f2"
  },
  "_techniqueIndex": 0,
  "_techniqueData": {
    "0": {
      "props": {
        "diffuseColor": {
          "__type__": "cc.Color",
          "r": 255,
          "g": 255,
          "b": 255,
          "a": 255
        },
        "diffuseTexture": {
          "__uuid__": "65050b6c-8af1-4d31-970e-47caa165818b"
        },
        "emissiveTexture": {
          "__uuid__": "65050b6c-8af1-4d31-970e-47caa165818b"
        },
        "emissiveColor": {
          "__type__": "cc.Color",
          "r": 230,
          "g": 230,
          "b": 230,
          "a": 255
        }
      },
      "defines": {
        "USE_DIFFUSE_TEXTURE": true,
        "USE_EMISSIVE": true,
        "USE_EMISSIVE_TEXTURE": true
      }
    }
  }
}