{
  "__type__": "cc.SpriteFrame",
  "content": {
    "name": "Choose The Skin To Continue Playing_EN",
    "texture": "35395170-608f-4be3-938f-5101b3d5b56c",
    "atlas": "",
    "rect": [
      0,
      0,
      425,
      82
    ],
    "offset": [
      0,
      0
    ],
    "originalSize": [
      425,
      82
    ],
    "capInsets": [
      0,
      0,
      0,
      0
    ]
  }
}