{
  "__type__": "cc.Material",
  "_name": "Spiderman",
  "_objFlags": 0,
  "_native": "",
  "_effectAsset": {
    "__uuid__": "abc2cb62-7852-4525-a90d-d474487b88f2"
  },
  "_techniqueIndex": 0,
  "_techniqueData": {
    "0": {
      "defines": {
        "USE_DIFFUSE_TEXTURE": true,
        "USE_EMISSIVE": true,
        "USE_EMISSIVE_TEXTURE": true
      },
      "props": {
        "emissiveColor": {
          "__type__": "cc.Color",
          "r": 201,
          "g": 199,
          "b": 199,
          "a": 255
        },
        "diffuseColor": {
          "__type__": "cc.Color",
          "r": 206,
          "g": 199,
          "b": 199,
          "a": 255
        },
        "diffuseTexture": {
          "__uuid__": "fb7006b7-a5f5-48aa-ad4b-d872e254661f"
        },
        "emissiveTexture": {
          "__uuid__": "fb7006b7-a5f5-48aa-ad4b-d872e254661f"
        }
      }
    }
  }
}