{
  "__type__": "cc.AnimationClip",
  "_name": "ChooseCharacter",
  "_objFlags": 0,
  "_native": "",
  "_duration": 3.1666666666666665,
  "sample": 60,
  "speed": 0.8,
  "wrapMode": 2,
  "curveData": {
    "paths": {
      "Hand": {
        "props": {
          "position": [
            {
              "frame": 0,
              "value": [
                -49.87,
                150,
                0
              ]
            },
            {
              "frame": 0.16666666666666666,
              "value": [
                -49.87,
                150,
                0
              ]
            },
            {
              "frame": 0.3333333333333333,
              "value": [
                -49.87,
                150,
                0
              ]
            },
            {
              "frame": 0.5,
              "value": [
                -49.87,
                150,
                0
              ]
            },
            {
              "frame": 1,
              "value": [
                215.229,
                150,
                0
              ]
            },
            {
              "frame": 1.0166666666666666,
              "value": [
                215.229,
                150,
                0
              ]
            },
            {
              "frame": 1.1666666666666667,
              "value": [
                215.229,
                150,
                0
              ]
            },
            {
              "frame": 1.3333333333333333,
              "value": [
                215.229,
                150,
                0
              ]
            },
            {
              "frame": 1.5,
              "value": [
                215.229,
                150,
                0
              ]
            },
            {
              "frame": 2,
              "value": [
                84.102,
                -220,
                0
              ]
            },
            {
              "frame": 2.1666666666666665,
              "value": [
                84.102,
                -220,
                0
              ]
            },
            {
              "frame": 2.3333333333333335,
              "value": [
                84.102,
                -220,
                0
              ]
            },
            {
              "frame": 2.5,
              "value": [
                84.102,
                -220,
                0
              ]
            },
            {
              "frame": 2.6666666666666665,
              "value": [
                84.102,
                -220,
                0
              ]
            },
            {
              "frame": 3.1666666666666665,
              "value": [
                -49.892,
                150,
                0
              ]
            }
          ],
          "opacity": [
            {
              "frame": 0,
              "value": 255
            },
            {
              "frame": 0.16666666666666666,
              "value": 255
            },
            {
              "frame": 0.3333333333333333,
              "value": 255
            },
            {
              "frame": 0.5,
              "value": 0
            },
            {
              "frame": 1,
              "value": 0
            },
            {
              "frame": 1.1666666666666667,
              "value": 255
            },
            {
              "frame": 1.3333333333333333,
              "value": 255
            },
            {
              "frame": 1.5,
              "value": 0
            },
            {
              "frame": 2,
              "value": 0
            },
            {
              "frame": 2.1666666666666665,
              "value": 255
            },
            {
              "frame": 2.3333333333333335,
              "value": 255
            },
            {
              "frame": 2.5,
              "value": 255
            },
            {
              "frame": 2.6666666666666665,
              "value": 0
            }
          ],
          "angle": [
            {
              "frame": 0,
              "value": 0
            },
            {
              "frame": 0.16666666666666666,
              "value": 10
            },
            {
              "frame": 0.3333333333333333,
              "value": 0
            },
            {
              "frame": 0.5,
              "value": 0
            },
            {
              "frame": 1,
              "value": 0
            },
            {
              "frame": 1.1666666666666667,
              "value": 0
            },
            {
              "frame": 1.3333333333333333,
              "value": 10
            },
            {
              "frame": 1.5,
              "value": 0
            },
            {
              "frame": 2,
              "value": 0
            },
            {
              "frame": 2.1666666666666665,
              "value": 0
            },
            {
              "frame": 2.3333333333333335,
              "value": 10
            },
            {
              "frame": 2.5,
              "value": 0
            },
            {
              "frame": 2.6666666666666665,
              "value": 0
            }
          ]
        }
      },
      "character1": {
        "props": {
          "scale": [
            {
              "frame": 0,
              "value": {
                "__type__": "cc.Vec2",
                "x": 1,
                "y": 1
              }
            },
            {
              "frame": 0.16666666666666666,
              "value": {
                "__type__": "cc.Vec2",
                "x": 1.1,
                "y": 1.1
              }
            },
            {
              "frame": 0.3333333333333333,
              "value": {
                "__type__": "cc.Vec2",
                "x": 1,
                "y": 1
              }
            }
          ]
        }
      },
      "character2": {
        "props": {
          "scale": [
            {
              "frame": 0,
              "value": {
                "__type__": "cc.Vec2",
                "x": 1,
                "y": 1
              }
            },
            {
              "frame": 1.1666666666666667,
              "value": {
                "__type__": "cc.Vec2",
                "x": 1,
                "y": 1
              }
            },
            {
              "frame": 1.3333333333333333,
              "value": {
                "__type__": "cc.Vec2",
                "x": 1.1,
                "y": 1.1
              }
            },
            {
              "frame": 1.5,
              "value": {
                "__type__": "cc.Vec2",
                "x": 1,
                "y": 1
              }
            }
          ]
        }
      },
      "character3": {
        "props": {
          "scale": [
            {
              "frame": 2,
              "value": {
                "__type__": "cc.Vec2",
                "x": 1,
                "y": 1
              }
            },
            {
              "frame": 2.1666666666666665,
              "value": {
                "__type__": "cc.Vec2",
                "x": 1,
                "y": 1
              }
            },
            {
              "frame": 2.3333333333333335,
              "value": {
                "__type__": "cc.Vec2",
                "x": 1.1,
                "y": 1.1
              }
            },
            {
              "frame": 2.5,
              "value": {
                "__type__": "cc.Vec2",
                "x": 1,
                "y": 1
              }
            }
          ]
        }
      }
    }
  },
  "events": []
}