{
    "asset": {
        "generator": "FBX2glTF v0.9.7",
        "version": "2.0"
    },
    "scene": 0,
    "buffers": [
        {
            "byteLength": 212744,
            "uri": "buffer.bin"
        }
    ],
    "bufferViews": [
        {
            "buffer": 0,
            "byteLength": 876,
            "byteOffset": 0,
            "target": 34963
        },
        {
            "buffer": 0,
            "byteLength": 5028,
            "byteOffset": 876,
            "target": 34962
        },
        {
            "buffer": 0,
            "byteLength": 5028,
            "byteOffset": 5904,
            "target": 34962
        },
        {
            "buffer": 0,
            "byteLength": 3352,
            "byteOffset": 10932,
            "target": 34962
        },
        {
            "buffer": 0,
            "byteLength": 1446,
            "byteOffset": 14284,
            "target": 34963
        },
        {
            "buffer": 0,
            "byteLength": 8316,
            "byteOffset": 15732,
            "target": 34962
        },
        {
            "buffer": 0,
            "byteLength": 8316,
            "byteOffset": 24048,
            "target": 34962
        },
        {
            "buffer": 0,
            "byteLength": 5544,
            "byteOffset": 32364,
            "target": 34962
        },
        {
            "buffer": 0,
            "byteLength": 2568,
            "byteOffset": 37908,
            "target": 34963
        },
        {
            "buffer": 0,
            "byteLength": 15036,
            "byteOffset": 40476,
            "target": 34962
        },
        {
            "buffer": 0,
            "byteLength": 15036,
            "byteOffset": 55512,
            "target": 34962
        },
        {
            "buffer": 0,
            "byteLength": 10024,
            "byteOffset": 70548,
            "target": 34962
        },
        {
            "buffer": 0,
            "byteLength": 2082,
            "byteOffset": 80572,
            "target": 34963
        },
        {
            "buffer": 0,
            "byteLength": 12012,
            "byteOffset": 82656,
            "target": 34962
        },
        {
            "buffer": 0,
            "byteLength": 12012,
            "byteOffset": 94668,
            "target": 34962
        },
        {
            "buffer": 0,
            "byteLength": 8008,
            "byteOffset": 106680,
            "target": 34962
        },
        {
            "buffer": 0,
            "byteLength": 678,
            "byteOffset": 114688,
            "target": 34963
        },
        {
            "buffer": 0,
            "byteLength": 3936,
            "byteOffset": 115368,
            "target": 34962
        },
        {
            "buffer": 0,
            "byteLength": 3936,
            "byteOffset": 119304,
            "target": 34962
        },
        {
            "buffer": 0,
            "byteLength": 2624,
            "byteOffset": 123240,
            "target": 34962
        },
        {
            "buffer": 0,
            "byteLength": 492,
            "byteOffset": 125864,
            "target": 34963
        },
        {
            "buffer": 0,
            "byteLength": 1224,
            "byteOffset": 126356,
            "target": 34962
        },
        {
            "buffer": 0,
            "byteLength": 1224,
            "byteOffset": 127580,
            "target": 34962
        },
        {
            "buffer": 0,
            "byteLength": 816,
            "byteOffset": 128804,
            "target": 34962
        },
        {
            "buffer": 0,
            "byteLength": 2568,
            "byteOffset": 129620,
            "target": 34963
        },
        {
            "buffer": 0,
            "byteLength": 14796,
            "byteOffset": 132188,
            "target": 34962
        },
        {
            "buffer": 0,
            "byteLength": 14796,
            "byteOffset": 146984,
            "target": 34962
        },
        {
            "buffer": 0,
            "byteLength": 9864,
            "byteOffset": 161780,
            "target": 34962
        },
        {
            "buffer": 0,
            "byteLength": 1446,
            "byteOffset": 171644,
            "target": 34963
        },
        {
            "buffer": 0,
            "byteLength": 8136,
            "byteOffset": 173092,
            "target": 34962
        },
        {
            "buffer": 0,
            "byteLength": 8136,
            "byteOffset": 181228,
            "target": 34962
        },
        {
            "buffer": 0,
            "byteLength": 5424,
            "byteOffset": 189364,
            "target": 34962
        },
        {
            "buffer": 0,
            "byteLength": 684,
            "byteOffset": 194788,
            "target": 34963
        },
        {
            "buffer": 0,
            "byteLength": 3948,
            "byteOffset": 195472,
            "target": 34962
        },
        {
            "buffer": 0,
            "byteLength": 3948,
            "byteOffset": 199420,
            "target": 34962
        },
        {
            "buffer": 0,
            "byteLength": 2632,
            "byteOffset": 203368,
            "target": 34962
        },
        {
            "buffer": 0,
            "byteLength": 258,
            "byteOffset": 206000,
            "target": 34963
        },
        {
            "buffer": 0,
            "byteLength": 804,
            "byteOffset": 206260,
            "target": 34962
        },
        {
            "buffer": 0,
            "byteLength": 804,
            "byteOffset": 207064,
            "target": 34962
        },
        {
            "buffer": 0,
            "byteLength": 536,
            "byteOffset": 207868,
            "target": 34962
        },
        {
            "buffer": 0,
            "byteLength": 372,
            "byteOffset": 208404,
            "target": 34963
        },
        {
            "buffer": 0,
            "byteLength": 1488,
            "byteOffset": 208776,
            "target": 34962
        },
        {
            "buffer": 0,
            "byteLength": 1488,
            "byteOffset": 210264,
            "target": 34962
        },
        {
            "buffer": 0,
            "byteLength": 992,
            "byteOffset": 211752,
            "target": 34962
        }
    ],
    "scenes": [
        {
            "name": "Root Scene",
            "nodes": [
                0
            ]
        }
    ],
    "accessors": [
        {
            "componentType": 5123,
            "type": "SCALAR",
            "count": 438,
            "bufferView": 0,
            "byteOffset": 0
        },
        {
            "componentType": 5126,
            "type": "VEC3",
            "count": 419,
            "bufferView": 1,
            "byteOffset": 0,
            "min": [
                -0.253054231405258,
                -0.00792194530367851,
                -0.0357092097401619
            ],
            "max": [
                -0.212037459015846,
                0.0726052522659302,
                0.0213574953377247
            ]
        },
        {
            "componentType": 5126,
            "type": "VEC3",
            "count": 419,
            "bufferView": 2,
            "byteOffset": 0
        },
        {
            "componentType": 5126,
            "type": "VEC2",
            "count": 419,
            "bufferView": 3,
            "byteOffset": 0
        },
        {
            "componentType": 5123,
            "type": "SCALAR",
            "count": 723,
            "bufferView": 4,
            "byteOffset": 0
        },
        {
            "componentType": 5126,
            "type": "VEC3",
            "count": 693,
            "bufferView": 5,
            "byteOffset": 0,
            "min": [
                0.19195082783699,
                0.00355019373819232,
                -0.0746166631579399
            ],
            "max": [
                0.252582401037216,
                0.0905364528298378,
                0.00641293032094836
            ]
        },
        {
            "componentType": 5126,
            "type": "VEC3",
            "count": 693,
            "bufferView": 6,
            "byteOffset": 0
        },
        {
            "componentType": 5126,
            "type": "VEC2",
            "count": 693,
            "bufferView": 7,
            "byteOffset": 0
        },
        {
            "componentType": 5123,
            "type": "SCALAR",
            "count": 1284,
            "bufferView": 8,
            "byteOffset": 0
        },
        {
            "componentType": 5126,
            "type": "VEC3",
            "count": 1253,
            "bufferView": 9,
            "byteOffset": 0,
            "min": [
                -0.175607144832611,
                0.00566567154601216,
                -0.225587770342827
            ],
            "max": [
                0.0066334935836494,
                0.132249966263771,
                -0.126264646649361
            ]
        },
        {
            "componentType": 5126,
            "type": "VEC3",
            "count": 1253,
            "bufferView": 10,
            "byteOffset": 0
        },
        {
            "componentType": 5126,
            "type": "VEC2",
            "count": 1253,
            "bufferView": 11,
            "byteOffset": 0
        },
        {
            "componentType": 5123,
            "type": "SCALAR",
            "count": 1041,
            "bufferView": 12,
            "byteOffset": 0
        },
        {
            "componentType": 5126,
            "type": "VEC3",
            "count": 1001,
            "bufferView": 13,
            "byteOffset": 0,
            "min": [
                -0.23234324157238,
                0.00502236234024167,
                -0.138322696089745
            ],
            "max": [
                -0.141606658697128,
                0.11530215293169,
                -0.024480389431119
            ]
        },
        {
            "componentType": 5126,
            "type": "VEC3",
            "count": 1001,
            "bufferView": 14,
            "byteOffset": 0
        },
        {
            "componentType": 5126,
            "type": "VEC2",
            "count": 1001,
            "bufferView": 15,
            "byteOffset": 0
        },
        {
            "componentType": 5123,
            "type": "SCALAR",
            "count": 339,
            "bufferView": 16,
            "byteOffset": 0
        },
        {
            "componentType": 5126,
            "type": "VEC3",
            "count": 328,
            "bufferView": 17,
            "byteOffset": 0,
            "min": [
                -0.237846195697784,
                0.00358577654697001,
                0.00584164867177606
            ],
            "max": [
                -0.200685247778893,
                0.0841681286692619,
                0.0523147992789745
            ]
        },
        {
            "componentType": 5126,
            "type": "VEC3",
            "count": 328,
            "bufferView": 18,
            "byteOffset": 0
        },
        {
            "componentType": 5126,
            "type": "VEC2",
            "count": 328,
            "bufferView": 19,
            "byteOffset": 0
        },
        {
            "componentType": 5123,
            "type": "SCALAR",
            "count": 246,
            "bufferView": 20,
            "byteOffset": 0
        },
        {
            "componentType": 5126,
            "type": "VEC3",
            "count": 102,
            "bufferView": 21,
            "byteOffset": 0,
            "min": [
                -0.269800007343292,
                -0.0122499698773026,
                -0.233653694391251
            ],
            "max": [
                0.269800007343292,
                0.00775002921000123,
                0.233653679490089
            ]
        },
        {
            "componentType": 5126,
            "type": "VEC3",
            "count": 102,
            "bufferView": 22,
            "byteOffset": 0
        },
        {
            "componentType": 5126,
            "type": "VEC2",
            "count": 102,
            "bufferView": 23,
            "byteOffset": 0
        },
        {
            "componentType": 5123,
            "type": "SCALAR",
            "count": 1284,
            "bufferView": 24,
            "byteOffset": 0
        },
        {
            "componentType": 5126,
            "type": "VEC3",
            "count": 1233,
            "bufferView": 25,
            "byteOffset": 0,
            "min": [
                0.0286093577742577,
                0.00566567154601216,
                -0.225746423006058
            ],
            "max": [
                0.195025324821472,
                0.132249966263771,
                -0.0974603891372681
            ]
        },
        {
            "componentType": 5126,
            "type": "VEC3",
            "count": 1233,
            "bufferView": 26,
            "byteOffset": 0
        },
        {
            "componentType": 5126,
            "type": "VEC2",
            "count": 1233,
            "bufferView": 27,
            "byteOffset": 0
        },
        {
            "componentType": 5123,
            "type": "SCALAR",
            "count": 723,
            "bufferView": 28,
            "byteOffset": 0
        },
        {
            "componentType": 5126,
            "type": "VEC3",
            "count": 678,
            "bufferView": 29,
            "byteOffset": 0,
            "min": [
                0.17644190788269,
                0.000961893005296588,
                0.00112638704013079
            ],
            "max": [
                0.244932055473328,
                0.0931247472763062,
                0.0846171379089355
            ]
        },
        {
            "componentType": 5126,
            "type": "VEC3",
            "count": 678,
            "bufferView": 30,
            "byteOffset": 0
        },
        {
            "componentType": 5126,
            "type": "VEC2",
            "count": 678,
            "bufferView": 31,
            "byteOffset": 0
        },
        {
            "componentType": 5123,
            "type": "SCALAR",
            "count": 342,
            "bufferView": 32,
            "byteOffset": 0
        },
        {
            "componentType": 5126,
            "type": "VEC3",
            "count": 329,
            "bufferView": 33,
            "byteOffset": 0,
            "min": [
                0.176844343543053,
                0.00358577654697001,
                -0.10727982968092
            ],
            "max": [
                0.214167341589928,
                0.0841681286692619,
                -0.0608118250966072
            ]
        },
        {
            "componentType": 5126,
            "type": "VEC3",
            "count": 329,
            "bufferView": 34,
            "byteOffset": 0
        },
        {
            "componentType": 5126,
            "type": "VEC2",
            "count": 329,
            "bufferView": 35,
            "byteOffset": 0
        },
        {
            "componentType": 5123,
            "type": "SCALAR",
            "count": 129,
            "bufferView": 36,
            "byteOffset": 0
        },
        {
            "componentType": 5126,
            "type": "VEC3",
            "count": 67,
            "bufferView": 37,
            "byteOffset": 0,
            "min": [
                -0.615530014038086,
                0.00863550137728453,
                -0.533064723014832
            ],
            "max": [
                0.615530014038086,
                0.00863550137728453,
                0.533064782619476
            ]
        },
        {
            "componentType": 5126,
            "type": "VEC3",
            "count": 67,
            "bufferView": 38,
            "byteOffset": 0
        },
        {
            "componentType": 5126,
            "type": "VEC2",
            "count": 67,
            "bufferView": 39,
            "byteOffset": 0
        },
        {
            "componentType": 5123,
            "type": "SCALAR",
            "count": 186,
            "bufferView": 40,
            "byteOffset": 0
        },
        {
            "componentType": 5126,
            "type": "VEC3",
            "count": 124,
            "bufferView": 41,
            "byteOffset": 0,
            "min": [
                -0.219341337680817,
                0.00863550137728453,
                -0.175339639186859
            ],
            "max": [
                0.215741395950317,
                0.0464903712272644,
                0.22558705508709
            ]
        },
        {
            "componentType": 5126,
            "type": "VEC3",
            "count": 124,
            "bufferView": 42,
            "byteOffset": 0
        },
        {
            "componentType": 5126,
            "type": "VEC2",
            "count": 124,
            "bufferView": 43,
            "byteOffset": 0
        }
    ],
    "images": [
        {
            "name": "map1-texture.jpg",
            "uri": "map1-texture.jpg"
        }
    ],
    "samplers": [
        {}
    ],
    "textures": [
        {
            "name": "map1_texture_1",
            "sampler": 0,
            "source": 0
        }
    ],
    "materials": [
        {
            "name": "map1_texture_1Material",
            "alphaMode": "OPAQUE",
            "extras": {
                "fromFBX": {
                    "shadingModel": "Lambert",
                    "isTruePBR": false
                }
            },
            "pbrMetallicRoughness": {
                "baseColorTexture": {
                    "index": 0,
                    "texCoord": 0
                },
                "baseColorFactor": [
                    0.800000011920929,
                    0.800000011920929,
                    0.800000011920929,
                    1.0
                ],
                "metallicFactor": 0.200000002980232,
                "roughnessFactor": 0.800000011920929
            }
        }
    ],
    "meshes": [
        {
            "name": "Mountain2",
            "primitives": [
                {
                    "material": 0,
                    "mode": 4,
                    "attributes": {
                        "NORMAL": 2,
                        "POSITION": 1,
                        "TEXCOORD_0": 3
                    },
                    "indices": 0
                }
            ]
        },
        {
            "name": "Mountain4",
            "primitives": [
                {
                    "material": 0,
                    "mode": 4,
                    "attributes": {
                        "NORMAL": 6,
                        "POSITION": 5,
                        "TEXCOORD_0": 7
                    },
                    "indices": 4
                }
            ]
        },
        {
            "name": "Mountain5",
            "primitives": [
                {
                    "material": 0,
                    "mode": 4,
                    "attributes": {
                        "NORMAL": 10,
                        "POSITION": 9,
                        "TEXCOORD_0": 11
                    },
                    "indices": 8
                }
            ]
        },
        {
            "name": "Mountain6",
            "primitives": [
                {
                    "material": 0,
                    "mode": 4,
                    "attributes": {
                        "NORMAL": 14,
                        "POSITION": 13,
                        "TEXCOORD_0": 15
                    },
                    "indices": 12
                }
            ]
        },
        {
            "name": "Mountain7",
            "primitives": [
                {
                    "material": 0,
                    "mode": 4,
                    "attributes": {
                        "NORMAL": 18,
                        "POSITION": 17,
                        "TEXCOORD_0": 19
                    },
                    "indices": 16
                }
            ]
        },
        {
            "name": "Ground",
            "primitives": [
                {
                    "material": 0,
                    "mode": 4,
                    "attributes": {
                        "NORMAL": 22,
                        "POSITION": 21,
                        "TEXCOORD_0": 23
                    },
                    "indices": 20
                }
            ]
        },
        {
            "name": "Mountain8",
            "primitives": [
                {
                    "material": 0,
                    "mode": 4,
                    "attributes": {
                        "NORMAL": 26,
                        "POSITION": 25,
                        "TEXCOORD_0": 27
                    },
                    "indices": 24
                }
            ]
        },
        {
            "name": "Mountain9",
            "primitives": [
                {
                    "material": 0,
                    "mode": 4,
                    "attributes": {
                        "NORMAL": 30,
                        "POSITION": 29,
                        "TEXCOORD_0": 31
                    },
                    "indices": 28
                }
            ]
        },
        {
            "name": "Mountain10",
            "primitives": [
                {
                    "material": 0,
                    "mode": 4,
                    "attributes": {
                        "NORMAL": 34,
                        "POSITION": 33,
                        "TEXCOORD_0": 35
                    },
                    "indices": 32
                }
            ]
        },
        {
            "name": "Water",
            "primitives": [
                {
                    "material": 0,
                    "mode": 4,
                    "attributes": {
                        "NORMAL": 38,
                        "POSITION": 37,
                        "TEXCOORD_0": 39
                    },
                    "indices": 36
                }
            ]
        },
        {
            "name": "Wall",
            "primitives": [
                {
                    "material": 0,
                    "mode": 4,
                    "attributes": {
                        "NORMAL": 42,
                        "POSITION": 41,
                        "TEXCOORD_0": 43
                    },
                    "indices": 40
                }
            ]
        }
    ],
    "nodes": [
        {
            "name": "RootNode",
            "translation": [
                0.0,
                0.0,
                0.0
            ],
            "rotation": [
                0.0,
                0.0,
                0.0,
                1.0
            ],
            "scale": [
                1.0,
                1.0,
                1.0
            ],
            "children": [
                1
            ]
        },
        {
            "name": "Map2",
            "translation": [
                0.0,
                0.0,
                0.0
            ],
            "rotation": [
                0.0,
                0.0,
                0.0,
                1.0
            ],
            "scale": [
                1.0,
                1.0,
                1.0
            ],
            "children": [
                2,
                3,
                4,
                5,
                6,
                7,
                8,
                9,
                10,
                11,
                12
            ]
        },
        {
            "name": "Mountain2",
            "translation": [
                0.0,
                0.0,
                0.0
            ],
            "rotation": [
                0.0,
                0.0,
                0.0,
                1.0
            ],
            "scale": [
                1.0,
                1.0,
                1.0
            ],
            "mesh": 0
        },
        {
            "name": "Mountain4",
            "translation": [
                0.0,
                0.0,
                0.0
            ],
            "rotation": [
                0.0,
                0.0,
                0.0,
                1.0
            ],
            "scale": [
                1.0,
                1.0,
                1.0
            ],
            "mesh": 1
        },
        {
            "name": "Mountain5",
            "translation": [
                0.0,
                0.0,
                0.0
            ],
            "rotation": [
                0.0,
                0.0,
                0.0,
                1.0
            ],
            "scale": [
                1.0,
                1.0,
                1.0
            ],
            "mesh": 2
        },
        {
            "name": "Mountain6",
            "translation": [
                0.0,
                0.0,
                0.0
            ],
            "rotation": [
                0.0,
                0.0,
                0.0,
                1.0
            ],
            "scale": [
                1.0,
                1.0,
                1.0
            ],
            "mesh": 3
        },
        {
            "name": "Mountain7",
            "translation": [
                0.0,
                0.0,
                0.0
            ],
            "rotation": [
                0.0,
                0.0,
                0.0,
                1.0
            ],
            "scale": [
                1.0,
                1.0,
                1.0
            ],
            "mesh": 4
        },
        {
            "name": "Ground",
            "translation": [
                0.0,
                0.0,
                0.0
            ],
            "rotation": [
                0.0,
                0.0,
                0.0,
                1.0
            ],
            "scale": [
                1.0,
                1.0,
                1.0
            ],
            "mesh": 5
        },
        {
            "name": "Mountain8",
            "translation": [
                0.0,
                0.0,
                0.0
            ],
            "rotation": [
                0.0,
                0.0,
                0.0,
                1.0
            ],
            "scale": [
                1.0,
                1.0,
                1.0
            ],
            "mesh": 6
        },
        {
            "name": "Mountain9",
            "translation": [
                0.0,
                0.0,
                0.0
            ],
            "rotation": [
                0.0,
                0.0,
                0.0,
                1.0
            ],
            "scale": [
                1.0,
                1.0,
                1.0
            ],
            "mesh": 7
        },
        {
            "name": "Mountain10",
            "translation": [
                0.0,
                0.0,
                0.0
            ],
            "rotation": [
                0.0,
                0.0,
                0.0,
                1.0
            ],
            "scale": [
                1.0,
                1.0,
                1.0
            ],
            "mesh": 8
        },
        {
            "name": "Water",
            "translation": [
                0.0,
                0.0,
                0.0
            ],
            "rotation": [
                0.0,
                0.0,
                0.0,
                1.0
            ],
            "scale": [
                1.0,
                1.0,
                1.0
            ],
            "mesh": 9
        },
        {
            "name": "Wall",
            "translation": [
                0.0,
                0.0,
                0.0
            ],
            "rotation": [
                0.0,
                0.0,
                0.0,
                1.0
            ],
            "scale": [
                1.0,
                1.0,
                1.0
            ],
            "mesh": 10
        }
    ]
}