{
  "title": "RoBlox",
  "packageName": "org.cocos2d.demo",
  "startScene": "8adf36f4-69ad-44c0-895f-f7975821ad60",
  "excludeScenes": [
    "0ced273e-4410-4c3f-aa5a-b2c7e273a078",
    "3a7bd75a-802f-457b-bc3d-7e1f19e29601",
    "243dc307-20b1-40f0-aab4-dfbf8ac93193",
    "61e613b7-65e4-43c7-b398-9039b39524a3",
    "a92f9b25-9924-4b8c-96c7-a05ccea239fe",
    "d35d86f3-36b5-4773-ac16-263a6d410179",
    "835f8dd1-b48e-44c8-b19e-bef6543372c3",
    "06325815-fc8b-418a-b8e0-36295efd402f",
    "3b7c33d8-9f1a-46e0-a9fb-c4076069b59d",
    "4e4052f3-f504-4a92-ab16-5722c1cd5112",
    "7685ebc9-f78a-46ce-9e03-a33291d3226b",
    "ac510989-71be-4c1b-9c01-6cb59d531d54"
  ],
  "includeSDKBox": false,
  "orientation": {
    "landscapeLeft": true,
    "landscapeRight": true,
    "portrait": false,
    "upsideDown": false
  },
  "webOrientation": "auto",
  "inlineSpriteFrames": true,
  "inlineSpriteFrames_native": true,
  "mergeStartScene": false,
  "optimizeHotUpdate": false,
  "md5Cache": false,
  "encryptJs": true,
  "xxteaKey": "5b3fd522-5db7-41",
  "zipCompressJs": true,
  "fb-instant-games": {},
  "android": {
    "packageName": "org.cocos2d.demo"
  },
  "ios": {
    "packageName": "org.cocos2d.demo"
  },
  "mac": {
    "packageName": "org.cocos2d.demo"
  },
  "win32": {},
  "android-instant": {
    "REMOTE_SERVER_ROOT": "",
    "host": "",
    "packageName": "org.cocos2d.demo",
    "pathPattern": "",
    "recordPath": "",
    "scheme": "https",
    "skipRecord": false
  },
  "appBundle": false
}
