{
  "__type__": "cc.SpriteFrame",
  "content": {
    "name": "SmallAllImposter_KR",
    "texture": "ff60451b-6139-439d-a0ed-4b2dc4e4b54b",
    "atlas": "",
    "rect": [
      0,
      0,
      337,
      47
    ],
    "offset": [
      0,
      0
    ],
    "originalSize": [
      337,
      47
    ],
    "capInsets": [
      0,
      0,
      0,
      0
    ]
  }
}