{
  "__type__": "cc.Material",
  "_name": "Pikachu",
  "_objFlags": 0,
  "_native": "",
  "_effectAsset": {
    "__uuid__": "abc2cb62-7852-4525-a90d-d474487b88f2"
  },
  "_techniqueIndex": 0,
  "_techniqueData": {
    "0": {
      "defines": {
        "USE_DIFFUSE_TEXTURE": true,
        "USE_EMISSIVE": true,
        "USE_EMISSIVE_TEXTURE": true
      },
      "props": {
        "emissiveColor": {
          "__type__": "cc.Color",
          "r": 178,
          "g": 178,
          "b": 178,
          "a": 255
        },
        "diffuseColor": {
          "__type__": "cc.Color",
          "r": 228,
          "g": 228,
          "b": 228,
          "a": 255
        },
        "emissiveTexture": {
          "__uuid__": "519f20a2-c6e4-495b-8ce0-5655101c69e5"
        },
        "diffuseTexture": {
          "__uuid__": "519f20a2-c6e4-495b-8ce0-5655101c69e5"
        }
      }
    }
  }
}