{
  "__type__": "cc.Skeleton",
  "_name": "",
  "_objFlags": 0,
  "_native": "",
  "_model": {
    "__uuid__": "32fd98f6-abc0-4909-8382-33c69f1fae09"
  },
  "_jointIndices": [
    12,
    13,
    14,
    15,
    28,
    2,
    3,
    11,
    4,
    5,
    7,
    8,
    19,
    16,
    17,
    20,
    9,
    21,
    22
  ],
  "_skinIndex": 0
}