{
  "__type__": "cc.SpriteFrame",
  "content": {
    "name": "skin_batman",
    "texture": "830aaee9-671c-4666-a90c-4d3669a93059",
    "atlas": "",
    "rect": [
      0,
      0,
      320,
      320
    ],
    "offset": [
      0,
      0
    ],
    "originalSize": [
      320,
      320
    ],
    "capInsets": [
      0,
      0,
      0,
      0
    ]
  }
}