{
  "__type__": "cc.SpriteFrame",
  "content": {
    "name": "PLAY",
    "texture": "eaab3be3-5209-4986-832b-b81fd50843aa",
    "atlas": "",
    "rect": [
      0,
      0,
      253,
      74
    ],
    "offset": [
      0,
      0
    ],
    "originalSize": [
      253,
      74
    ],
    "capInsets": [
      0,
      0,
      0,
      0
    ]
  }
}