{
  "__type__": "cc.Model",
  "_name": "idle",
  "_objFlags": 0,
  "_native": "",
  "_nodes": [
    {
      "name": "RootNode",
      "scale": [
        1,
        1,
        1
      ],
      "children": [
        1,
        22
      ],
      "position": [
        0,
        0,
        0
      ],
      "quat": [
        0,
        0,
        0,
        1
      ],
      "path": ""
    },
    {
      "name": "Character1_Reference",
      "scale": [
        1.00000059604645,
        1.00000059604645,
        1.00000059604645
      ],
      "children": [
        2
      ],
      "parent": null,
      "position": [
        0,
        0,
        0
      ],
      "quat": [
        0.04140654951334,
        -0.454355686903,
        -0.052182711660862,
        0.888326168060303
      ],
      "path": "Character1_Reference"
    },
    {
      "name": "Character1_Hips",
      "scale": [
        1,
        1,
        1
      ],
      "children": [
        3,
        6,
        9
      ],
      "parent": null,
      "position": [
        -8.94069651646845e-10,
        0.0268932320177555,
        -1.49011608607807e-10
      ],
      "quat": [
        -9.31322408082025e-10,
        1.9441360521455e-8,
        -7.45058148510225e-9,
        1
      ],
      "path": "Character1_Reference/Character1_Hips",
      "uniqueBindPose": [
        1,
        0,
        0,
        0,
        0,
        1,
        6.617444900424222e-24,
        0,
        0,
        -6.617444900424222e-24,
        1,
        0,
        0,
        -0.02689322829246521,
        0.002966378815472126,
        1
      ]
    },
    {
      "name": "Character1_LeftUpLeg",
      "scale": [
        1,
        1,
        1
      ],
      "children": [
        4
      ],
      "parent": null,
      "position": [
        0.0067388629540801,
        -0.00273666135035455,
        -7.45058043039037e-11
      ],
      "quat": [
        -0.244782492518425,
        0.0875475853681564,
        -0.00618974398821592,
        0.965597569942474
      ],
      "path": "Character1_Reference/Character1_Hips/Character1_LeftUpLeg",
      "uniqueBindPose": [
        1,
        0,
        0,
        0,
        0,
        1,
        6.617444900424222e-24,
        0,
        0,
        -6.617444900424222e-24,
        1,
        0,
        -0.006738859694451094,
        -0.024156570434570312,
        0.002966378815472126,
        1
      ]
    },
    {
      "name": "Character1_LeftLeg",
      "scale": [
        1,
        1,
        1
      ],
      "children": [
        5
      ],
      "parent": null,
      "position": [
        0.00371353211812675,
        -0.0108860703185201,
        -2.38418573772492e-9
      ],
      "quat": [
        0.172075614333153,
        0.15409517288208,
        0.02199044264853,
        0.972708106040955
      ],
      "path": "Character1_Reference/Character1_Hips/Character1_LeftUpLeg/Character1_LeftLeg",
      "uniqueBindPose": [
        1,
        0,
        0,
        0,
        0,
        1,
        6.617444900424222e-24,
        0,
        0,
        -6.617444900424222e-24,
        1,
        0,
        -0.010452399961650372,
        -0.013270501047372818,
        0.002966378815472126,
        1
      ]
    },
    {
      "name": "Character1_LeftFoot",
      "scale": [
        1,
        1,
        1
      ],
      "parent": null,
      "position": [
        0.00239629507996142,
        -0.00896722637116909,
        -1.19209286886246e-9
      ],
      "quat": [
        -5.58793544769287e-9,
        1.93249434232712e-8,
        1.27068494615301e-16,
        1
      ],
      "path": "Character1_Reference/Character1_Hips/Character1_LeftUpLeg/Character1_LeftLeg/Character1_LeftFoot",
      "uniqueBindPose": [
        1,
        0,
        0,
        0,
        0,
        1,
        6.617444900424222e-24,
        0,
        0,
        -6.617444900424222e-24,
        1,
        0,
        -0.012848690152168274,
        -0.004303270019590855,
        0.002966378815472126,
        1
      ]
    },
    {
      "name": "Character1_RightUpLeg",
      "scale": [
        1,
        1,
        1
      ],
      "children": [
        7
      ],
      "parent": null,
      "position": [
        -0.0067388629540801,
        -0.00273666135035455,
        -7.45058043039037e-11
      ],
      "quat": [
        -0.125097915530205,
        -0.108251310884953,
        0.119402572512627,
        0.978966414928436
      ],
      "path": "Character1_Reference/Character1_Hips/Character1_RightUpLeg",
      "uniqueBindPose": [
        1,
        0,
        0,
        0,
        0,
        1,
        6.617444900424222e-24,
        0,
        0,
        -6.617444900424222e-24,
        1,
        0,
        0.006738859694451094,
        -0.024156570434570312,
        0.002966378815472126,
        1
      ]
    },
    {
      "name": "Character1_RightLeg",
      "scale": [
        1,
        1,
        1
      ],
      "children": [
        8
      ],
      "parent": null,
      "position": [
        -0.00371353258378804,
        -0.0108860712498426,
        -1.19209286886246e-9
      ],
      "quat": [
        0.209200695157051,
        0.00558058172464371,
        0.00618285033851862,
        0.977837264537811
      ],
      "path": "Character1_Reference/Character1_Hips/Character1_RightUpLeg/Character1_RightLeg",
      "uniqueBindPose": [
        1,
        0,
        0,
        0,
        0,
        1,
        6.617444900424222e-24,
        0,
        0,
        -6.617444900424222e-24,
        1,
        0,
        0.010452399961650372,
        -0.013270501047372818,
        0.002966378815472126,
        1
      ]
    },
    {
      "name": "Character1_RightFoot",
      "scale": [
        1,
        1,
        1
      ],
      "parent": null,
      "position": [
        -0.00239629624411464,
        -0.00896722823381424,
        -4.47034825823422e-10
      ],
      "quat": [
        3.46944695195361e-18,
        -1.49011594174908e-8,
        3.46944695195361e-18,
        1
      ],
      "path": "Character1_Reference/Character1_Hips/Character1_RightUpLeg/Character1_RightLeg/Character1_RightFoot",
      "uniqueBindPose": [
        1,
        0,
        0,
        0,
        0,
        1,
        6.617444900424222e-24,
        0,
        0,
        -6.617444900424222e-24,
        1,
        0,
        0.012848690152168274,
        -0.004303270019590855,
        0.002966378815472126,
        1
      ]
    },
    {
      "name": "Character1_Spine",
      "scale": [
        1,
        1,
        1
      ],
      "children": [
        10
      ],
      "parent": null,
      "position": [
        -2.98023217215615e-10,
        0.0107677718624473,
        -1.49011608607807e-10
      ],
      "quat": [
        0.0229156110435724,
        0.0605484321713448,
        0.033807460218668,
        0.997329354286194
      ],
      "path": "Character1_Reference/Character1_Hips/Character1_Spine",
      "uniqueBindPose": [
        1,
        0,
        0,
        0,
        0,
        1,
        6.617444900424222e-24,
        0,
        0,
        -6.617444900424222e-24,
        1,
        0,
        0,
        -0.037661001086235046,
        0.002966378815472126,
        1
      ]
    },
    {
      "name": "Character1_Spine1",
      "scale": [
        1,
        1,
        1
      ],
      "children": [
        11
      ],
      "parent": null,
      "position": [
        -5.9604643443123e-10,
        0.00623113848268986,
        -1.49011608607807e-10
      ],
      "quat": [
        0.0232734903693199,
        0.0687588453292847,
        -0.00194570608437061,
        0.997359931468964
      ],
      "path": "Character1_Reference/Character1_Hips/Character1_Spine/Character1_Spine1",
      "uniqueBindPose": [
        1,
        0,
        0,
        0,
        0,
        1,
        6.617444900424222e-24,
        0,
        0,
        -6.617444900424222e-24,
        1,
        0,
        0,
        -0.043892137706279755,
        0.002966378815472126,
        1
      ]
    },
    {
      "name": "Character1_Spine2",
      "scale": [
        1,
        1,
        1
      ],
      "children": [
        12,
        16,
        20
      ],
      "parent": null,
      "position": [
        5.9604643443123e-10,
        0.00623113615438342,
        8.94069651646845e-10
      ],
      "quat": [
        0.0239387638866901,
        0.0686845481395721,
        -0.00349179795011878,
        0.997345089912415
      ],
      "path": "Character1_Reference/Character1_Hips/Character1_Spine/Character1_Spine1/Character1_Spine2",
      "uniqueBindPose": [
        1,
        0,
        0,
        0,
        0,
        1,
        6.617444900424222e-24,
        0,
        0,
        -6.617444900424222e-24,
        1,
        0,
        0,
        -0.05012328177690506,
        0.002966378815472126,
        1
      ]
    },
    {
      "name": "Character1_LeftShoulder",
      "scale": [
        1,
        1,
        1
      ],
      "children": [
        13
      ],
      "parent": null,
      "position": [
        0.00468312669545412,
        0.00250114919617772,
        1.11022299980974e-18
      ],
      "quat": [
        0.0274356957525015,
        0.0438394881784916,
        -0.0796439275145531,
        0.995480895042419
      ],
      "path": "Character1_Reference/Character1_Hips/Character1_Spine/Character1_Spine1/Character1_Spine2/Character1_LeftShoulder",
      "uniqueBindPose": [
        1,
        0,
        0,
        0,
        0,
        1,
        6.617444900424222e-24,
        0,
        0,
        -6.617444900424222e-24,
        1,
        0,
        -0.004683129955083132,
        -0.05262443795800209,
        0.002966378815472126,
        1
      ]
    },
    {
      "name": "Character1_LeftArm",
      "scale": [
        1,
        1,
        1
      ],
      "children": [
        14
      ],
      "parent": null,
      "position": [
        0.00425448687747121,
        -0.00114992610178888,
        -1.19209286886246e-9
      ],
      "quat": [
        -0.333855420351028,
        -0.377646714448929,
        -0.17933501303196,
        0.8448446393013
      ],
      "path": "Character1_Reference/Character1_Hips/Character1_Spine/Character1_Spine1/Character1_Spine2/Character1_LeftShoulder/Character1_LeftArm",
      "uniqueBindPose": [
        1,
        0.000012833098480768967,
        3.0743899374940806e-20,
        0,
        -0.000012833098480768967,
        1,
        3.599367247683643e-18,
        0,
        -3.069770650760855e-20,
        -3.599367247683643e-18,
        1,
        0,
        -0.008936949074268341,
        -0.051474615931510925,
        0.002966378815472126,
        1
      ]
    },
    {
      "name": "Character1_LeftForeArm",
      "scale": [
        1,
        1,
        1
      ],
      "children": [
        15
      ],
      "parent": null,
      "position": [
        0.0114695141091943,
        0.0000305843350361101,
        2.38418573772492e-9
      ],
      "quat": [
        -0.132118329405785,
        -0.641826868057251,
        0.00177056062966585,
        0.755380630493164
      ],
      "path": "Character1_Reference/Character1_Hips/Character1_Spine/Character1_Spine1/Character1_Spine2/Character1_LeftShoulder/Character1_LeftArm/Character1_LeftForeArm",
      "uniqueBindPose": [
        1,
        -0.0003593270084820688,
        2.379288872262575e-19,
        0,
        0.0003593270084820688,
        1,
        -6.466222387815237e-17,
        0,
        -2.1469401712979942e-19,
        6.466231652238098e-17,
        1,
        0,
        -0.020425641909241676,
        -0.05149759724736214,
        0.002966378815472126,
        1
      ]
    },
    {
      "name": "Character1_LeftHand",
      "scale": [
        1,
        1,
        1
      ],
      "parent": null,
      "position": [
        0.0127815194427967,
        -0.0000132632249005837,
        -1.19209286886246e-9
      ],
      "quat": [
        -1.49399337345812e-8,
        -1.48622936180232e-8,
        -0.00260511948727071,
        0.999996602535248
      ],
      "path": "Character1_Reference/Character1_Hips/Character1_Spine/Character1_Spine1/Character1_Spine2/Character1_LeftShoulder/Character1_LeftArm/Character1_LeftForeArm/Character1_LeftHand",
      "uniqueBindPose": [
        0.9999879002571106,
        0.0048508900217711926,
        -6.699095898689331e-18,
        0,
        -0.0048508900217711926,
        0.9999879002571106,
        4.329202929645715e-17,
        0,
        6.909020689675182e-18,
        -4.3259018172571385e-17,
        1,
        0,
        -0.032938458025455475,
        -0.05165664851665497,
        0.002966378815472126,
        1
      ]
    },
    {
      "name": "Character1_RightShoulder",
      "scale": [
        1,
        1,
        1
      ],
      "children": [
        17
      ],
      "parent": null,
      "position": [
        -0.00468312716111541,
        0.00250114919617772,
        -1.19209286886246e-9
      ],
      "quat": [
        -0.12905940413475,
        0.0106873866170645,
        -0.0610873214900494,
        0.98969578742981
      ],
      "path": "Character1_Reference/Character1_Hips/Character1_Spine/Character1_Spine1/Character1_Spine2/Character1_RightShoulder",
      "uniqueBindPose": [
        1,
        0,
        0,
        0,
        0,
        1,
        6.617444900424222e-24,
        0,
        0,
        -6.617444900424222e-24,
        1,
        0,
        0.004683129955083132,
        -0.05262443795800209,
        0.002966378815472126,
        1
      ]
    },
    {
      "name": "Character1_RightArm",
      "scale": [
        1,
        1,
        1
      ],
      "children": [
        18
      ],
      "parent": null,
      "position": [
        -0.00425448780879378,
        -0.00114992610178888,
        0
      ],
      "quat": [
        -0.240717306733131,
        0.745827555656433,
        0.328216522932053,
        0.527323782444
      ],
      "path": "Character1_Reference/Character1_Hips/Character1_Spine/Character1_Spine1/Character1_Spine2/Character1_RightShoulder/Character1_RightArm",
      "uniqueBindPose": [
        1,
        -0.000040462997276335955,
        -7.500714174622026e-20,
        0,
        0.000040462997276335955,
        1,
        3.5783303903451943e-17,
        0,
        7.355923316978008e-20,
        -3.5783303903451943e-17,
        1,
        0,
        0.008935529738664627,
        -0.05147486552596092,
        0.002966378815472126,
        1
      ]
    },
    {
      "name": "Character1_RightForeArm",
      "scale": [
        1,
        1,
        1
      ],
      "children": [
        19
      ],
      "parent": null,
      "position": [
        -0.0114695141091943,
        0.0000308895105263218,
        -4.76837147544984e-9
      ],
      "quat": [
        -0.0507063306868076,
        0.245888039469719,
        -0.00261184154078364,
        0.967967510223389
      ],
      "path": "Character1_Reference/Character1_Hips/Character1_Spine/Character1_Spine1/Character1_Spine2/Character1_RightShoulder/Character1_RightArm/Character1_RightForeArm",
      "uniqueBindPose": [
        0.9999990463256836,
        0.0011329600820317864,
        9.019619792284607e-19,
        0,
        -0.0011329600820317864,
        0.9999990463256836,
        7.636135691884506e-17,
        0,
        -8.154467453712333e-19,
        -7.636229659602092e-17,
        1,
        0,
        0.020465468987822533,
        -0.05148177966475487,
        0.002966378815472126,
        1
      ]
    },
    {
      "name": "Character1_RightHand",
      "scale": [
        1,
        1,
        1
      ],
      "parent": null,
      "position": [
        -0.0127815026789904,
        -0.0000231504436669638,
        4.44089199923895e-18
      ],
      "quat": [
        6.11981784692794e-11,
        -7.45033057469868e-9,
        0.0082138879224658,
        0.999966263771057
      ],
      "path": "Character1_Reference/Character1_Hips/Character1_Spine/Character1_Spine1/Character1_Spine2/Character1_RightShoulder/Character1_RightArm/Character1_RightForeArm/Character1_RightHand",
      "uniqueBindPose": [
        0.9998829364776611,
        -0.015294400043785572,
        -1.107113338373937e-17,
        0,
        0.015294400043785572,
        0.9998829364776611,
        -1.122568794529184e-16,
        0,
        1.2786739061398851e-17,
        1.120744100272341e-16,
        1,
        0,
        0.032397158443927765,
        -0.0519978404045105,
        0.002966378815472126,
        1
      ]
    },
    {
      "name": "Character1_Neck",
      "scale": [
        1,
        1,
        1
      ],
      "children": [
        21
      ],
      "parent": null,
      "position": [
        0,
        0.00523113738745451,
        -1.19209286886246e-9
      ],
      "quat": [
        0.102996021509171,
        0.0632652714848518,
        -0.0321113392710686,
        0.992148280143738
      ],
      "path": "Character1_Reference/Character1_Hips/Character1_Spine/Character1_Spine1/Character1_Spine2/Character1_Neck",
      "uniqueBindPose": [
        1,
        0,
        0,
        0,
        0,
        1,
        6.617444900424222e-24,
        0,
        0,
        -6.617444900424222e-24,
        1,
        0,
        0,
        -0.05535442382097244,
        0.002966378815472126,
        1
      ]
    },
    {
      "name": "Character1_Head",
      "scale": [
        1,
        1,
        1
      ],
      "parent": null,
      "position": [
        2.98023217215615e-10,
        0.0235770978033543,
        2.38418573772492e-9
      ],
      "quat": [
        1.49011611938477e-8,
        7.45058148510225e-9,
        -1.11758726717426e-8,
        1
      ],
      "path": "Character1_Reference/Character1_Hips/Character1_Spine/Character1_Spine1/Character1_Spine2/Character1_Neck/Character1_Head"
    },
    {
      "name": "stickman_new",
      "scale": [
        1.00000059604645,
        1.00000059604645,
        1.00000059604645
      ],
      "mesh": 0,
      "skin": 0,
      "parent": null,
      "position": [
        0,
        -7.72108319155556e-27,
        0.00296637881547213
      ],
      "quat": [
        2.18556959197258e-8,
        0,
        0,
        1
      ],
      "path": "stickman_new"
    }
  ],
  "_precomputeJointMatrix": false
}