{
  "__type__": "cc.SpriteFrame",
  "content": {
    "name": "Choose the imposter_KR",
    "texture": "6fe5e22e-94cb-495d-ba01-62d38a6a8442",
    "atlas": "",
    "rect": [
      0,
      0,
      492,
      54
    ],
    "offset": [
      0,
      0
    ],
    "originalSize": [
      492,
      54
    ],
    "capInsets": [
      0,
      0,
      0,
      0
    ]
  }
}