{
  "__type__": "cc.SkeletonAnimationClip",
  "_name": "mixamo.com",
  "_objFlags": 0,
  "_native": ".bin",
  "_duration": 2.1666667461395264,
  "sample": 30,
  "speed": 1,
  "wrapMode": 2,
  "events": [],
  "description": {
    "mixamorig:Hips": {
      "position": {
        "offset": 0,
        "frameCount": 2
      },
      "quat": {
        "offset": 8,
        "frameCount": 53
      },
      "scale": {
        "offset": 273,
        "frameCount": 1
      }
    },
    "mixamorig:Hips/mixamorig:Spine": {
      "quat": {
        "offset": 277,
        "frameCount": 53
      },
      "scale": {
        "offset": 542,
        "frameCount": 1
      },
      "position": {
        "offset": 546,
        "frameCount": 1
      }
    },
    "mixamorig:Hips/mixamorig:Spine/mixamorig:Spine1": {
      "quat": {
        "offset": 550,
        "frameCount": 53
      },
      "scale": {
        "offset": 815,
        "frameCount": 1
      },
      "position": {
        "offset": 819,
        "frameCount": 1
      }
    },
    "mixamorig:Hips/mixamorig:Spine/mixamorig:Spine1/mixamorig:Spine2": {
      "quat": {
        "offset": 823,
        "frameCount": 53
      },
      "scale": {
        "offset": 1088,
        "frameCount": 1
      },
      "position": {
        "offset": 1092,
        "frameCount": 1
      }
    },
    "mixamorig:Hips/mixamorig:Spine/mixamorig:Spine1/mixamorig:Spine2/mixamorig:Neck": {
      "quat": {
        "offset": 1096,
        "frameCount": 53
      },
      "scale": {
        "offset": 1361,
        "frameCount": 1
      },
      "position": {
        "offset": 1365,
        "frameCount": 1
      }
    },
    "mixamorig:Hips/mixamorig:Spine/mixamorig:Spine1/mixamorig:Spine2/mixamorig:Neck/mixamorig:Head": {
      "quat": {
        "offset": 1369,
        "frameCount": 53
      },
      "scale": {
        "offset": 1634,
        "frameCount": 1
      },
      "position": {
        "offset": 1638,
        "frameCount": 1
      }
    },
    "mixamorig:Hips/mixamorig:Spine/mixamorig:Spine1/mixamorig:Spine2/mixamorig:LeftShoulder": {
      "quat": {
        "offset": 1642,
        "frameCount": 53
      },
      "scale": {
        "offset": 1907,
        "frameCount": 1
      },
      "position": {
        "offset": 1911,
        "frameCount": 1
      }
    },
    "mixamorig:Hips/mixamorig:Spine/mixamorig:Spine1/mixamorig:Spine2/mixamorig:LeftShoulder/mixamorig:LeftArm": {
      "quat": {
        "offset": 1915,
        "frameCount": 53
      },
      "scale": {
        "offset": 2180,
        "frameCount": 1
      },
      "position": {
        "offset": 2184,
        "frameCount": 1
      }
    },
    "mixamorig:Hips/mixamorig:Spine/mixamorig:Spine1/mixamorig:Spine2/mixamorig:LeftShoulder/mixamorig:LeftArm/mixamorig:LeftForeArm": {
      "quat": {
        "offset": 2188,
        "frameCount": 52
      },
      "scale": {
        "offset": 2448,
        "frameCount": 1
      },
      "position": {
        "offset": 2452,
        "frameCount": 1
      }
    },
    "mixamorig:Hips/mixamorig:Spine/mixamorig:Spine1/mixamorig:Spine2/mixamorig:LeftShoulder/mixamorig:LeftArm/mixamorig:LeftForeArm/mixamorig:LeftHand": {
      "quat": {
        "offset": 2456,
        "frameCount": 53
      },
      "scale": {
        "offset": 2721,
        "frameCount": 1
      },
      "position": {
        "offset": 2725,
        "frameCount": 1
      }
    },
    "mixamorig:Hips/mixamorig:Spine/mixamorig:Spine1/mixamorig:Spine2/mixamorig:LeftShoulder/mixamorig:LeftArm/mixamorig:LeftForeArm/mixamorig:LeftHand/mixamorig:LeftHandIndex1": {
      "quat": {
        "offset": 2729,
        "frameCount": 2
      },
      "scale": {
        "offset": 2739,
        "frameCount": 1
      },
      "position": {
        "offset": 2743,
        "frameCount": 1
      }
    },
    "mixamorig:Hips/mixamorig:Spine/mixamorig:Spine1/mixamorig:Spine2/mixamorig:LeftShoulder/mixamorig:LeftArm/mixamorig:LeftForeArm/mixamorig:LeftHand/mixamorig:LeftHandIndex1/mixamorig:LeftHandIndex2": {
      "quat": {
        "offset": 2747,
        "frameCount": 2
      },
      "scale": {
        "offset": 2757,
        "frameCount": 1
      },
      "position": {
        "offset": 2761,
        "frameCount": 1
      }
    },
    "mixamorig:Hips/mixamorig:Spine/mixamorig:Spine1/mixamorig:Spine2/mixamorig:LeftShoulder/mixamorig:LeftArm/mixamorig:LeftForeArm/mixamorig:LeftHand/mixamorig:LeftHandIndex1/mixamorig:LeftHandIndex2/mixamorig:LeftHandIndex3": {
      "quat": {
        "offset": 2765,
        "frameCount": 2
      },
      "scale": {
        "offset": 2775,
        "frameCount": 1
      },
      "position": {
        "offset": 2779,
        "frameCount": 1
      }
    },
    "mixamorig:Hips/mixamorig:Spine/mixamorig:Spine1/mixamorig:Spine2/mixamorig:RightShoulder": {
      "quat": {
        "offset": 2783,
        "frameCount": 53
      },
      "scale": {
        "offset": 3048,
        "frameCount": 1
      },
      "position": {
        "offset": 3052,
        "frameCount": 1
      }
    },
    "mixamorig:Hips/mixamorig:Spine/mixamorig:Spine1/mixamorig:Spine2/mixamorig:RightShoulder/mixamorig:RightArm": {
      "quat": {
        "offset": 3056,
        "frameCount": 53
      },
      "scale": {
        "offset": 3321,
        "frameCount": 1
      },
      "position": {
        "offset": 3325,
        "frameCount": 1
      }
    },
    "mixamorig:Hips/mixamorig:Spine/mixamorig:Spine1/mixamorig:Spine2/mixamorig:RightShoulder/mixamorig:RightArm/mixamorig:RightForeArm": {
      "quat": {
        "offset": 3329,
        "frameCount": 52
      },
      "scale": {
        "offset": 3589,
        "frameCount": 1
      },
      "position": {
        "offset": 3593,
        "frameCount": 1
      }
    },
    "mixamorig:Hips/mixamorig:Spine/mixamorig:Spine1/mixamorig:Spine2/mixamorig:RightShoulder/mixamorig:RightArm/mixamorig:RightForeArm/mixamorig:RightHand": {
      "quat": {
        "offset": 3597,
        "frameCount": 53
      },
      "scale": {
        "offset": 3862,
        "frameCount": 1
      },
      "position": {
        "offset": 3866,
        "frameCount": 1
      }
    },
    "mixamorig:Hips/mixamorig:Spine/mixamorig:Spine1/mixamorig:Spine2/mixamorig:RightShoulder/mixamorig:RightArm/mixamorig:RightForeArm/mixamorig:RightHand/mixamorig:RightHandIndex1": {
      "quat": {
        "offset": 3870,
        "frameCount": 2
      },
      "scale": {
        "offset": 3880,
        "frameCount": 1
      },
      "position": {
        "offset": 3884,
        "frameCount": 1
      }
    },
    "mixamorig:Hips/mixamorig:Spine/mixamorig:Spine1/mixamorig:Spine2/mixamorig:RightShoulder/mixamorig:RightArm/mixamorig:RightForeArm/mixamorig:RightHand/mixamorig:RightHandIndex1/mixamorig:RightHandIndex2": {
      "quat": {
        "offset": 3888,
        "frameCount": 2
      },
      "scale": {
        "offset": 3898,
        "frameCount": 1
      },
      "position": {
        "offset": 3902,
        "frameCount": 1
      }
    },
    "mixamorig:Hips/mixamorig:Spine/mixamorig:Spine1/mixamorig:Spine2/mixamorig:RightShoulder/mixamorig:RightArm/mixamorig:RightForeArm/mixamorig:RightHand/mixamorig:RightHandIndex1/mixamorig:RightHandIndex2/mixamorig:RightHandIndex3": {
      "quat": {
        "offset": 3906,
        "frameCount": 2
      },
      "scale": {
        "offset": 3916,
        "frameCount": 1
      },
      "position": {
        "offset": 3920,
        "frameCount": 1
      }
    },
    "mixamorig:Hips/mixamorig:LeftUpLeg": {
      "quat": {
        "offset": 3924,
        "frameCount": 53
      },
      "scale": {
        "offset": 4189,
        "frameCount": 1
      },
      "position": {
        "offset": 4193,
        "frameCount": 1
      }
    },
    "mixamorig:Hips/mixamorig:LeftUpLeg/mixamorig:LeftLeg": {
      "quat": {
        "offset": 4197,
        "frameCount": 53
      },
      "scale": {
        "offset": 4462,
        "frameCount": 1
      },
      "position": {
        "offset": 4466,
        "frameCount": 1
      }
    },
    "mixamorig:Hips/mixamorig:LeftUpLeg/mixamorig:LeftLeg/mixamorig:LeftFoot": {
      "quat": {
        "offset": 4470,
        "frameCount": 53
      },
      "scale": {
        "offset": 4735,
        "frameCount": 1
      },
      "position": {
        "offset": 4739,
        "frameCount": 1
      }
    },
    "mixamorig:Hips/mixamorig:LeftUpLeg/mixamorig:LeftLeg/mixamorig:LeftFoot/mixamorig:LeftToeBase": {
      "quat": {
        "offset": 4743,
        "frameCount": 53
      },
      "scale": {
        "offset": 5008,
        "frameCount": 1
      },
      "position": {
        "offset": 5012,
        "frameCount": 1
      }
    },
    "mixamorig:Hips/mixamorig:RightUpLeg": {
      "quat": {
        "offset": 5016,
        "frameCount": 53
      },
      "scale": {
        "offset": 5281,
        "frameCount": 1
      },
      "position": {
        "offset": 5285,
        "frameCount": 1
      }
    },
    "mixamorig:Hips/mixamorig:RightUpLeg/mixamorig:RightLeg": {
      "quat": {
        "offset": 5289,
        "frameCount": 53
      },
      "scale": {
        "offset": 5554,
        "frameCount": 1
      },
      "position": {
        "offset": 5558,
        "frameCount": 1
      }
    },
    "mixamorig:Hips/mixamorig:RightUpLeg/mixamorig:RightLeg/mixamorig:RightFoot": {
      "quat": {
        "offset": 5562,
        "frameCount": 53
      },
      "scale": {
        "offset": 5827,
        "frameCount": 1
      },
      "position": {
        "offset": 5831,
        "frameCount": 1
      }
    },
    "mixamorig:Hips/mixamorig:RightUpLeg/mixamorig:RightLeg/mixamorig:RightFoot/mixamorig:RightToeBase": {
      "quat": {
        "offset": 5835,
        "frameCount": 52
      },
      "scale": {
        "offset": 6095,
        "frameCount": 1
      },
      "position": {
        "offset": 6099,
        "frameCount": 1
      }
    },
    "Body_Boss_Crew": {
      "quat": {
        "offset": 6103,
        "frameCount": 1
      },
      "scale": {
        "offset": 6108,
        "frameCount": 1
      },
      "position": {
        "offset": 6112,
        "frameCount": 1
      }
    },
    "Body_Boss_Crew_0": {
      "quat": {
        "offset": 6116,
        "frameCount": 1
      },
      "scale": {
        "offset": 6121,
        "frameCount": 1
      },
      "position": {
        "offset": 6125,
        "frameCount": 1
      }
    },
    "mixamorig:Hips/mixamorig:Spine/mixamorig:Spine1/mixamorig:Spine2/mixamorig:Neck/mixamorig:Head/mixamorig:HeadTop_End": {
      "quat": {
        "offset": 6129,
        "frameCount": 1
      },
      "scale": {
        "offset": 6134,
        "frameCount": 1
      },
      "position": {
        "offset": 6138,
        "frameCount": 1
      }
    },
    "mixamorig:Hips/mixamorig:Spine/mixamorig:Spine1/mixamorig:Spine2/mixamorig:LeftShoulder/mixamorig:LeftArm/mixamorig:LeftForeArm/mixamorig:LeftHand/mixamorig:LeftHandIndex1/mixamorig:LeftHandIndex2/mixamorig:LeftHandIndex3/mixamorig:LeftHandIndex4": {
      "quat": {
        "offset": 6142,
        "frameCount": 1
      },
      "scale": {
        "offset": 6147,
        "frameCount": 1
      },
      "position": {
        "offset": 6151,
        "frameCount": 1
      }
    },
    "mixamorig:Hips/mixamorig:Spine/mixamorig:Spine1/mixamorig:Spine2/mixamorig:RightShoulder/mixamorig:RightArm/mixamorig:RightForeArm/mixamorig:RightHand/mixamorig:RightHandIndex1/mixamorig:RightHandIndex2/mixamorig:RightHandIndex3/mixamorig:RightHandIndex4": {
      "quat": {
        "offset": 6155,
        "frameCount": 1
      },
      "scale": {
        "offset": 6160,
        "frameCount": 1
      },
      "position": {
        "offset": 6164,
        "frameCount": 1
      }
    },
    "mixamorig:Hips/mixamorig:LeftUpLeg/mixamorig:LeftLeg/mixamorig:LeftFoot/mixamorig:LeftToeBase/mixamorig:LeftToe_End": {
      "quat": {
        "offset": 6168,
        "frameCount": 1
      },
      "scale": {
        "offset": 6173,
        "frameCount": 1
      },
      "position": {
        "offset": 6177,
        "frameCount": 1
      }
    },
    "mixamorig:Hips/mixamorig:RightUpLeg/mixamorig:RightLeg/mixamorig:RightFoot/mixamorig:RightToeBase/mixamorig:RightToe_End": {
      "quat": {
        "offset": 6181,
        "frameCount": 1
      },
      "scale": {
        "offset": 6186,
        "frameCount": 1
      },
      "position": {
        "offset": 6190,
        "frameCount": 1
      }
    }
  }
}