{
  "__type__": "cc.Model",
  "_name": "die-with-gun",
  "_objFlags": 0,
  "_native": "",
  "_nodes": [
    {
      "name": "RootNode",
      "scale": [
        1,
        1,
        1
      ],
      "children": [
        1,
        22
      ],
      "position": [
        0,
        0,
        0
      ],
      "quat": [
        0,
        0,
        0,
        1
      ],
      "path": ""
    },
    {
      "name": "Character1_Reference",
      "scale": [
        1,
        1,
        1
      ],
      "children": [
        2
      ],
      "parent": null,
      "position": [
        0.00333156273700297,
        0.00848611071705818,
        -0.0086252735927701
      ],
      "quat": [
        -0.745039820671082,
        -0.0466410405933857,
        0.110201083123684,
        0.656198084354401
      ],
      "path": "Character1_Reference"
    },
    {
      "name": "Character1_Hips",
      "scale": [
        1,
        1,
        1
      ],
      "children": [
        3,
        6,
        9
      ],
      "parent": null,
      "position": [
        0,
        0.0268932320177555,
        0
      ],
      "quat": [
        -6.93889390390723e-18,
        -1.73472347597681e-18,
        -2.08166817117217e-17,
        1
      ],
      "path": "Character1_Reference/Character1_Hips",
      "uniqueBindPose": [
        1,
        0,
        0,
        0,
        0,
        1,
        0,
        0,
        0,
        0,
        1,
        0,
        0,
        -0.02689322829246521,
        0,
        1
      ]
    },
    {
      "name": "Character1_LeftUpLeg",
      "scale": [
        1,
        1,
        1
      ],
      "children": [
        4
      ],
      "parent": null,
      "position": [
        0.00673886481672525,
        -0.0027366615831852,
        0
      ],
      "quat": [
        0.0218636877834797,
        0.106732524931431,
        -0.126127764582634,
        0.986013174057007
      ],
      "path": "Character1_Reference/Character1_Hips/Character1_LeftUpLeg",
      "uniqueBindPose": [
        1,
        0,
        0,
        0,
        0,
        1,
        0,
        0,
        0,
        0,
        1,
        0,
        -0.006738859694451094,
        -0.024156570434570312,
        0,
        1
      ]
    },
    {
      "name": "Character1_LeftLeg",
      "scale": [
        1,
        1,
        1
      ],
      "children": [
        5
      ],
      "parent": null,
      "position": [
        0.00371353235095739,
        -0.0108860731124878,
        0
      ],
      "quat": [
        0.0736355558037758,
        0.270189642906189,
        0.0938770025968552,
        0.95538604259491
      ],
      "path": "Character1_Reference/Character1_Hips/Character1_LeftUpLeg/Character1_LeftLeg",
      "uniqueBindPose": [
        1,
        0,
        0,
        0,
        0,
        1,
        0,
        0,
        0,
        0,
        1,
        0,
        -0.010452399961650372,
        -0.013270499184727669,
        0,
        1
      ]
    },
    {
      "name": "Character1_LeftFoot",
      "scale": [
        1,
        1,
        1
      ],
      "parent": null,
      "position": [
        0.00239629531279206,
        -0.00896722637116909,
        -2.22044599961948e-18
      ],
      "quat": [
        -6.93889390390723e-18,
        5.76795555762288e-17,
        -3.46944695195361e-18,
        1
      ],
      "path": "Character1_Reference/Character1_Hips/Character1_LeftUpLeg/Character1_LeftLeg/Character1_LeftFoot",
      "uniqueBindPose": [
        1,
        0,
        0,
        0,
        0,
        1,
        0,
        0,
        0,
        0,
        1,
        0,
        -0.0128486892208457,
        -0.004303270019590855,
        0,
        1
      ]
    },
    {
      "name": "Character1_RightUpLeg",
      "scale": [
        1,
        1,
        1
      ],
      "children": [
        7
      ],
      "parent": null,
      "position": [
        -0.00673886481672525,
        -0.0027366615831852,
        0
      ],
      "quat": [
        -0.323977798223495,
        -0.401451051235199,
        -0.21244552731514,
        0.829905033111572
      ],
      "path": "Character1_Reference/Character1_Hips/Character1_RightUpLeg",
      "uniqueBindPose": [
        1,
        0,
        0,
        0,
        0,
        1,
        0,
        0,
        0,
        0,
        1,
        0,
        0.006738859694451094,
        -0.024156570434570312,
        0,
        1
      ]
    },
    {
      "name": "Character1_RightLeg",
      "scale": [
        1,
        1,
        1
      ],
      "children": [
        8
      ],
      "parent": null,
      "position": [
        -0.00371353235095739,
        -0.0108860731124878,
        0
      ],
      "quat": [
        0.737803101539612,
        -0.285097628831863,
        0.0144319068640471,
        0.611684262752533
      ],
      "path": "Character1_Reference/Character1_Hips/Character1_RightUpLeg/Character1_RightLeg",
      "uniqueBindPose": [
        1,
        0,
        0,
        0,
        0,
        1,
        0,
        0,
        0,
        0,
        1,
        0,
        0.010452399961650372,
        -0.013270499184727669,
        0,
        1
      ]
    },
    {
      "name": "Character1_RightFoot",
      "scale": [
        1,
        1,
        1
      ],
      "parent": null,
      "position": [
        -0.00239629531279206,
        -0.00896722637116909,
        0
      ],
      "quat": [
        2.77555756156289e-17,
        8.67361737988404e-18,
        -1.73472347597681e-17,
        1
      ],
      "path": "Character1_Reference/Character1_Hips/Character1_RightUpLeg/Character1_RightLeg/Character1_RightFoot",
      "uniqueBindPose": [
        1,
        0,
        0,
        0,
        0,
        1,
        0,
        0,
        0,
        0,
        1,
        0,
        0.0128486892208457,
        -0.004303270019590855,
        0,
        1
      ]
    },
    {
      "name": "Character1_Spine",
      "scale": [
        1,
        1,
        1
      ],
      "children": [
        10
      ],
      "parent": null,
      "position": [
        0,
        0.0107677718624473,
        0
      ],
      "quat": [
        0.14462947845459,
        0.0385661870241165,
        0.0765873491764069,
        0.985763311386108
      ],
      "path": "Character1_Reference/Character1_Hips/Character1_Spine",
      "uniqueBindPose": [
        1,
        0,
        0,
        0,
        0,
        1,
        0,
        0,
        0,
        0,
        1,
        0,
        0,
        -0.03766099736094475,
        0,
        1
      ]
    },
    {
      "name": "Character1_Spine1",
      "scale": [
        1,
        1,
        1
      ],
      "children": [
        11
      ],
      "parent": null,
      "position": [
        0,
        0.00623113987967372,
        1.11022299980974e-18
      ],
      "quat": [
        0.0131562799215317,
        0.0134317753836513,
        0.0185818392783403,
        0.999650537967682
      ],
      "path": "Character1_Reference/Character1_Hips/Character1_Spine/Character1_Spine1",
      "uniqueBindPose": [
        1,
        0,
        0,
        0,
        0,
        1,
        0,
        0,
        0,
        0,
        1,
        0,
        0,
        -0.043892137706279755,
        0,
        1
      ]
    },
    {
      "name": "Character1_Spine2",
      "scale": [
        1,
        1,
        1
      ],
      "children": [
        12,
        16,
        20
      ],
      "parent": null,
      "position": [
        2.22044599961948e-18,
        0.00623113987967372,
        0
      ],
      "quat": [
        -0.0321870185434818,
        0.0283854976296425,
        0.0215804558247328,
        0.99884557723999
      ],
      "path": "Character1_Reference/Character1_Hips/Character1_Spine/Character1_Spine1/Character1_Spine2",
      "uniqueBindPose": [
        1,
        0,
        0,
        0,
        0,
        1,
        0,
        0,
        0,
        0,
        1,
        0,
        0,
        -0.05012328177690506,
        0,
        1
      ]
    },
    {
      "name": "Character1_LeftShoulder",
      "scale": [
        1,
        1,
        1
      ],
      "children": [
        13
      ],
      "parent": null,
      "position": [
        0.00468312622979283,
        0.00250115268863738,
        0
      ],
      "quat": [
        0.0146536864340305,
        0.170429855585098,
        0.0232729371637106,
        0.984985947608948
      ],
      "path": "Character1_Reference/Character1_Hips/Character1_Spine/Character1_Spine1/Character1_Spine2/Character1_LeftShoulder",
      "uniqueBindPose": [
        1,
        0,
        0,
        0,
        0,
        1,
        0,
        0,
        0,
        0,
        1,
        0,
        -0.004683129955083132,
        -0.05262443795800209,
        0,
        1
      ]
    },
    {
      "name": "Character1_LeftArm",
      "scale": [
        1,
        1,
        1
      ],
      "children": [
        14
      ],
      "parent": null,
      "position": [
        0.00425448827445507,
        -0.00114993168972433,
        0
      ],
      "quat": [
        0.512660026550293,
        -0.300964742898941,
        -0.270236432552338,
        0.757345497608185
      ],
      "path": "Character1_Reference/Character1_Hips/Character1_Spine/Character1_Spine1/Character1_Spine2/Character1_LeftShoulder/Character1_LeftArm",
      "uniqueBindPose": [
        1,
        0.00001283309939026367,
        0,
        0,
        -0.00001283309939026367,
        1,
        0,
        0,
        0,
        0,
        1,
        0,
        -0.008936950005590916,
        -0.051474615931510925,
        0,
        1
      ]
    },
    {
      "name": "Character1_LeftForeArm",
      "scale": [
        1,
        1,
        1
      ],
      "children": [
        15
      ],
      "parent": null,
      "position": [
        0.0114695141091943,
        0.0000305805187963415,
        0
      ],
      "quat": [
        0.11585533618927,
        -0.0657848566770554,
        0.0274332985281944,
        0.99070543050766
      ],
      "path": "Character1_Reference/Character1_Hips/Character1_Spine/Character1_Spine1/Character1_Spine2/Character1_LeftShoulder/Character1_LeftArm/Character1_LeftForeArm",
      "uniqueBindPose": [
        1,
        -0.0003593270084820688,
        0,
        0,
        0.0003593270084820688,
        1,
        0,
        0,
        0,
        0,
        1,
        0,
        -0.020425638183951378,
        -0.05149759724736214,
        0,
        1
      ]
    },
    {
      "name": "Character1_LeftHand",
      "scale": [
        1,
        1,
        1
      ],
      "parent": null,
      "position": [
        0.0127815157175064,
        -0.0000132642389871762,
        0
      ],
      "quat": [
        -7.23064552073714e-20,
        -2.77554813170391e-17,
        -0.0026051145978272,
        0.999996602535248
      ],
      "path": "Character1_Reference/Character1_Hips/Character1_Spine/Character1_Spine1/Character1_Spine2/Character1_LeftShoulder/Character1_LeftArm/Character1_LeftForeArm/Character1_LeftHand",
      "uniqueBindPose": [
        0.9999880194664001,
        0.0048508900217711926,
        0,
        0,
        -0.0048508900217711926,
        0.9999880194664001,
        0,
        0,
        0,
        0,
        1,
        0,
        -0.032938458025455475,
        -0.05165664851665497,
        0,
        1
      ]
    },
    {
      "name": "Character1_RightShoulder",
      "scale": [
        1,
        1,
        1
      ],
      "children": [
        17
      ],
      "parent": null,
      "position": [
        -0.00468312622979283,
        0.00250115268863738,
        0
      ],
      "quat": [
        0.029609389603138,
        0.0428711026906967,
        -0.269400537014008,
        0.961617767810822
      ],
      "path": "Character1_Reference/Character1_Hips/Character1_Spine/Character1_Spine1/Character1_Spine2/Character1_RightShoulder",
      "uniqueBindPose": [
        1,
        0,
        0,
        0,
        0,
        1,
        0,
        0,
        0,
        0,
        1,
        0,
        0.004683129955083132,
        -0.05262443795800209,
        0,
        1
      ]
    },
    {
      "name": "Character1_RightArm",
      "scale": [
        1,
        1,
        1
      ],
      "children": [
        18
      ],
      "parent": null,
      "position": [
        -0.00425448827445507,
        -0.00114993168972433,
        -1.66533449971461e-18
      ],
      "quat": [
        -0.226247936487198,
        -0.159745559096336,
        0.0665448680520058,
        0.95857447385788
      ],
      "path": "Character1_Reference/Character1_Hips/Character1_Spine/Character1_Spine1/Character1_Spine2/Character1_RightShoulder/Character1_RightArm",
      "uniqueBindPose": [
        1,
        -0.000040462997276335955,
        0,
        0,
        0.000040462997276335955,
        1,
        0,
        0,
        0,
        0,
        1,
        0,
        0.008935529738664627,
        -0.05147486925125122,
        0,
        1
      ]
    },
    {
      "name": "Character1_RightForeArm",
      "scale": [
        1,
        1,
        1
      ],
      "children": [
        19
      ],
      "parent": null,
      "position": [
        -0.0114695131778717,
        0.0000308974194922484,
        4.44089199923895e-18
      ],
      "quat": [
        -0.596682488918304,
        0.0419650301337242,
        0.0642029568552971,
        0.798803448677063
      ],
      "path": "Character1_Reference/Character1_Hips/Character1_Spine/Character1_Spine1/Character1_Spine2/Character1_RightShoulder/Character1_RightArm/Character1_RightForeArm",
      "uniqueBindPose": [
        0.9999989867210388,
        0.0011329599656164646,
        0,
        0,
        -0.0011329599656164646,
        0.9999989867210388,
        0,
        0,
        0,
        0,
        1,
        0,
        0.020465468987822533,
        -0.05148177966475487,
        0,
        1
      ]
    },
    {
      "name": "Character1_RightHand",
      "scale": [
        1,
        1,
        1
      ],
      "parent": null,
      "position": [
        -0.0127815017476678,
        -0.0000231525064009475,
        -8.88178399847791e-18
      ],
      "quat": [
        6.93153530517796e-18,
        9.24327909016129e-19,
        0.008213902823627,
        0.999966263771057
      ],
      "path": "Character1_Reference/Character1_Hips/Character1_Spine/Character1_Spine1/Character1_Spine2/Character1_RightShoulder/Character1_RightArm/Character1_RightForeArm/Character1_RightHand",
      "uniqueBindPose": [
        0.9998829364776611,
        -0.015294400043785572,
        0,
        0,
        0.015294400043785572,
        0.9998829364776611,
        0,
        0,
        0,
        0,
        1,
        0,
        0.032397158443927765,
        -0.0519978366792202,
        0,
        1
      ]
    },
    {
      "name": "Character1_Neck",
      "scale": [
        1,
        1,
        1
      ],
      "children": [
        21
      ],
      "parent": null,
      "position": [
        0,
        0.00523114018142223,
        -1.11022299980974e-18
      ],
      "quat": [
        -0.0529206395149231,
        -0.143018037080765,
        0.128746449947357,
        0.979882419109344
      ],
      "path": "Character1_Reference/Character1_Hips/Character1_Spine/Character1_Spine1/Character1_Spine2/Character1_Neck",
      "uniqueBindPose": [
        1,
        0,
        0,
        0,
        0,
        1,
        0,
        0,
        0,
        0,
        1,
        0,
        0,
        -0.055354416370391846,
        0,
        1
      ]
    },
    {
      "name": "Character1_Head",
      "scale": [
        1,
        1,
        1
      ],
      "parent": null,
      "position": [
        -4.44089199923895e-18,
        0.0235770903527737,
        -1.11022299980974e-18
      ],
      "quat": [
        -4.85722573273506e-17,
        -4.85722573273506e-17,
        5.55111512312578e-17,
        1
      ],
      "path": "Character1_Reference/Character1_Hips/Character1_Spine/Character1_Spine1/Character1_Spine2/Character1_Neck/Character1_Head",
      "uniqueBindPose": [
        1,
        0,
        0,
        0,
        0,
        1,
        0,
        0,
        0,
        0,
        1,
        0,
        0,
        -0.07893150299787521,
        0,
        1
      ]
    },
    {
      "name": "stickman_new",
      "scale": [
        1,
        1,
        1
      ],
      "mesh": 0,
      "skin": 0,
      "parent": null,
      "position": [
        0,
        0,
        0
      ],
      "quat": [
        0,
        0,
        0,
        1
      ],
      "path": "stickman_new"
    }
  ],
  "_precomputeJointMatrix": false
}