{
  "__type__": "cc.Material",
  "_name": "Map1",
  "_objFlags": 0,
  "_native": "",
  "_effectAsset": {
    "__uuid__": "abc2cb62-7852-4525-a90d-d474487b88f2"
  },
  "_techniqueIndex": 0,
  "_techniqueData": {
    "0": {
      "defines": {
        "USE_DIFFUSE_TEXTURE": true,
        "USE_EMISSIVE": true,
        "USE_EMISSIVE_TEXTURE": true
      },
      "props": {
        "emissiveColor": {
          "__type__": "cc.Color",
          "r": 193,
          "g": 193,
          "b": 193,
          "a": 255
        },
        "diffuseTexture": {
          "__uuid__": "c10965d2-d410-42c0-be75-7d3eb4d0c1c1"
        },
        "emissiveTexture": {
          "__uuid__": "c10965d2-d410-42c0-be75-7d3eb4d0c1c1"
        }
      }
    }
  }
}