{
  "__type__": "cc.Skeleton",
  "_name": "",
  "_objFlags": 0,
  "_native": "",
  "_model": {
    "__uuid__": "5dc58b3a-464f-4cf3-8921-bc2223c70ab2"
  },
  "_jointIndices": [
    36,
    37,
    38,
    39,
    40,
    41,
    42,
    43,
    44
  ],
  "_skinIndex": 1
}