{
  "__type__": "cc.SpriteFrame",
  "content": {
    "name": "btnSpin",
    "texture": "fe0b33f9-0757-44d3-97fe-479e33ba480d",
    "atlas": "",
    "rect": [
      36,
      38,
      225,
      202
    ],
    "offset": [
      -1.5,
      11
    ],
    "originalSize": [
      300,
      300
    ],
    "capInsets": [
      0,
      0,
      0,
      0
    ]
  }
}