{
  "__type__": "cc.Model",
  "_name": "Idle",
  "_objFlags": 0,
  "_native": "",
  "_nodes": [
    {
      "name": "RootNode",
      "scale": [
        1,
        1,
        1
      ],
      "children": [
        1,
        22
      ],
      "position": [
        0,
        0,
        0
      ],
      "quat": [
        0,
        0,
        0,
        1
      ],
      "path": ""
    },
    {
      "name": "Character1_Reference",
      "scale": [
        1.00000059604645,
        1.00000059604645,
        1.00000059604645
      ],
      "children": [
        2
      ],
      "parent": null,
      "position": [
        0.000093603077402804,
        0,
        0
      ],
      "quat": [
        0.0439902283251286,
        -0.132519111037254,
        -0.00817817635834217,
        0.990170001983643
      ],
      "path": "Character1_Reference"
    },
    {
      "name": "Character1_Hips",
      "scale": [
        1,
        1,
        1
      ],
      "children": [
        3,
        6,
        9
      ],
      "parent": null,
      "position": [
        6.93889374881086e-20,
        0.026893237605691,
        4.47034825823422e-10
      ],
      "quat": [
        0,
        0,
        -5.20417042793042e-18,
        1
      ],
      "path": "Character1_Reference/Character1_Hips",
      "uniqueBindPose": [
        1,
        0,
        0,
        0,
        0,
        1,
        0,
        0,
        0,
        0,
        1,
        0,
        0,
        -0.02689322829246521,
        0.0029663785826414824,
        1
      ]
    },
    {
      "name": "Character1_LeftUpLeg",
      "scale": [
        1,
        1,
        1
      ],
      "children": [
        4
      ],
      "parent": null,
      "position": [
        0.00673886528238654,
        -0.00273666135035455,
        2.98023217215615e-10
      ],
      "quat": [
        -0.267058700323105,
        0.00449999701231718,
        -0.104036338627338,
        0.958037495613098
      ],
      "path": "Character1_Reference/Character1_Hips/Character1_LeftUpLeg",
      "uniqueBindPose": [
        1,
        0,
        0,
        0,
        0,
        1,
        0,
        0,
        0,
        0,
        1,
        0,
        -0.006738859694451094,
        -0.024156570434570312,
        0.0029663785826414824,
        1
      ]
    },
    {
      "name": "Character1_LeftLeg",
      "scale": [
        1,
        1,
        1
      ],
      "children": [
        5
      ],
      "parent": null,
      "position": [
        0.00371353258378804,
        -0.0108860731124878,
        2.38418573772492e-9
      ],
      "quat": [
        0.238018125295639,
        0.123580560088158,
        0.0239331424236298,
        0.963069260120392
      ],
      "path": "Character1_Reference/Character1_Hips/Character1_LeftUpLeg/Character1_LeftLeg",
      "uniqueBindPose": [
        1,
        0,
        0,
        0,
        0,
        1,
        0,
        0,
        0,
        0,
        1,
        0,
        -0.010452399961650372,
        -0.013270499184727669,
        0.0029663785826414824,
        1
      ]
    },
    {
      "name": "Character1_LeftFoot",
      "scale": [
        1,
        1,
        1
      ],
      "parent": null,
      "position": [
        0.00239629531279206,
        -0.00896722637116909,
        -5.9604643443123e-10
      ],
      "quat": [
        6.93889390390723e-18,
        -1.50463276905253e-36,
        -2.16840434497101e-19,
        1
      ],
      "path": "Character1_Reference/Character1_Hips/Character1_LeftUpLeg/Character1_LeftLeg/Character1_LeftFoot",
      "uniqueBindPose": [
        1,
        0,
        0,
        0,
        0,
        1,
        0,
        0,
        0,
        0,
        1,
        0,
        -0.0128486892208457,
        -0.004303270019590855,
        0.0029663785826414824,
        1
      ]
    },
    {
      "name": "Character1_RightUpLeg",
      "scale": [
        1,
        1,
        1
      ],
      "children": [
        7
      ],
      "parent": null,
      "position": [
        -0.00673886481672525,
        -0.00273666135035455,
        -1.49011608607807e-10
      ],
      "quat": [
        -0.149400681257248,
        -0.0835222899913788,
        0.0951797515153885,
        0.98063462972641
      ],
      "path": "Character1_Reference/Character1_Hips/Character1_RightUpLeg",
      "uniqueBindPose": [
        1,
        0,
        0,
        0,
        0,
        1,
        0,
        0,
        0,
        0,
        1,
        0,
        0.006738859694451094,
        -0.024156570434570312,
        0.0029663785826414824,
        1
      ]
    },
    {
      "name": "Character1_RightLeg",
      "scale": [
        1,
        1,
        1
      ],
      "children": [
        8
      ],
      "parent": null,
      "position": [
        -0.00371353141963482,
        -0.0108860703185201,
        -5.9604643443123e-10
      ],
      "quat": [
        0.252247750759125,
        -0.156264647841454,
        -0.00343299773521721,
        0.954955816268921
      ],
      "path": "Character1_Reference/Character1_Hips/Character1_RightUpLeg/Character1_RightLeg",
      "uniqueBindPose": [
        1,
        0,
        0,
        0,
        0,
        1,
        0,
        0,
        0,
        0,
        1,
        0,
        0.010452399961650372,
        -0.013270499184727669,
        0.0029663785826414824,
        1
      ]
    },
    {
      "name": "Character1_RightFoot",
      "scale": [
        1,
        1,
        1
      ],
      "parent": null,
      "position": [
        -0.00239629554562271,
        -0.00896722637116909,
        5.9604643443123e-10
      ],
      "quat": [
        -2.77555756156289e-17,
        -2.77555756156289e-17,
        2.77555756156289e-17,
        1
      ],
      "path": "Character1_Reference/Character1_Hips/Character1_RightUpLeg/Character1_RightLeg/Character1_RightFoot",
      "uniqueBindPose": [
        1,
        0,
        0,
        0,
        0,
        1,
        0,
        0,
        0,
        0,
        1,
        0,
        0.0128486892208457,
        -0.004303270019590855,
        0.0029663785826414824,
        1
      ]
    },
    {
      "name": "Character1_Spine",
      "scale": [
        1,
        1,
        1
      ],
      "children": [
        10
      ],
      "parent": null,
      "position": [
        7.45058043039037e-11,
        0.0107677699998021,
        -1.49011608607807e-10
      ],
      "quat": [
        0.200543120503426,
        0.0355216935276985,
        0.00945163983851671,
        0.978995084762573
      ],
      "path": "Character1_Reference/Character1_Hips/Character1_Spine",
      "uniqueBindPose": [
        1,
        0,
        0,
        0,
        0,
        1,
        0,
        0,
        0,
        0,
        1,
        0,
        0,
        -0.03766099736094475,
        0.0029663785826414824,
        1
      ]
    },
    {
      "name": "Character1_Spine1",
      "scale": [
        1,
        1,
        1
      ],
      "children": [
        11
      ],
      "parent": null,
      "position": [
        -2.77555749952435e-19,
        0.00623114826157689,
        -1.19209286886246e-9
      ],
      "quat": [
        0.0322119295597076,
        0.0104866698384285,
        -0.00697269570082426,
        0.999401748180389
      ],
      "path": "Character1_Reference/Character1_Hips/Character1_Spine/Character1_Spine1",
      "uniqueBindPose": [
        1,
        0,
        0,
        0,
        0,
        1,
        0,
        0,
        0,
        0,
        1,
        0,
        0,
        -0.043892137706279755,
        0.0029663785826414824,
        1
      ]
    },
    {
      "name": "Character1_Spine2",
      "scale": [
        1,
        1,
        1
      ],
      "children": [
        12,
        16,
        20
      ],
      "parent": null,
      "position": [
        1.49011608607807e-10,
        0.00623113382607698,
        -2.38418573772492e-9
      ],
      "quat": [
        0.032146904617548,
        0.0111430510878563,
        -0.00696467002853751,
        0.999396741390228
      ],
      "path": "Character1_Reference/Character1_Hips/Character1_Spine/Character1_Spine1/Character1_Spine2",
      "uniqueBindPose": [
        1,
        0,
        0,
        0,
        0,
        1,
        0,
        0,
        0,
        0,
        1,
        0,
        0,
        -0.05012328177690506,
        0.0029663785826414824,
        1
      ]
    },
    {
      "name": "Character1_LeftShoulder",
      "scale": [
        1,
        1,
        1
      ],
      "children": [
        13
      ],
      "parent": null,
      "position": [
        0.00468312716111541,
        0.00250114919617772,
        -2.38418573772492e-9
      ],
      "quat": [
        0.0493349134922028,
        -0.186922550201416,
        0.0812109559774399,
        0.977768301963806
      ],
      "path": "Character1_Reference/Character1_Hips/Character1_Spine/Character1_Spine1/Character1_Spine2/Character1_LeftShoulder",
      "uniqueBindPose": [
        1,
        0,
        0,
        0,
        0,
        1,
        0,
        0,
        0,
        0,
        1,
        0,
        -0.004683129955083132,
        -0.05262443795800209,
        0.0029663785826414824,
        1
      ]
    },
    {
      "name": "Character1_LeftArm",
      "scale": [
        1,
        1,
        1
      ],
      "children": [
        14
      ],
      "parent": null,
      "position": [
        0.00425448874011636,
        -0.00114993087481707,
        2.38418573772492e-9
      ],
      "quat": [
        0.0425206497311592,
        0.334214597940445,
        -0.639302134513855,
        0.691220164299011
      ],
      "path": "Character1_Reference/Character1_Hips/Character1_Spine/Character1_Spine1/Character1_Spine2/Character1_LeftShoulder/Character1_LeftArm",
      "uniqueBindPose": [
        1,
        0.000012833112123189494,
        0,
        0,
        -0.000012833112123189494,
        1,
        0,
        0,
        0,
        0,
        1,
        0,
        -0.008936950005590916,
        -0.051474615931510925,
        0.0029663785826414824,
        1
      ]
    },
    {
      "name": "Character1_LeftForeArm",
      "scale": [
        1,
        1,
        1
      ],
      "children": [
        15
      ],
      "parent": null,
      "position": [
        0.0114695141091943,
        0.000030579565645894,
        2.38418573772492e-9
      ],
      "quat": [
        0.0452388860285282,
        -0.613143384456635,
        -0.204692915081978,
        0.761649191379547
      ],
      "path": "Character1_Reference/Character1_Hips/Character1_Spine/Character1_Spine1/Character1_Spine2/Character1_LeftShoulder/Character1_LeftArm/Character1_LeftForeArm",
      "uniqueBindPose": [
        1,
        -0.0003593273286242038,
        0,
        0,
        0.0003593273286242038,
        1,
        0,
        0,
        0,
        0,
        1,
        0,
        -0.020425638183951378,
        -0.05149759724736214,
        0.0029663785826414824,
        1
      ]
    },
    {
      "name": "Character1_LeftHand",
      "scale": [
        1,
        1,
        1
      ],
      "parent": null,
      "position": [
        0.0127815268933773,
        -0.0000132638215291081,
        -5.9604643443123e-10
      ],
      "quat": [
        1.38777406585195e-17,
        -3.615323083486e-20,
        -0.00260511483065784,
        0.999996602535248
      ],
      "path": "Character1_Reference/Character1_Hips/Character1_Spine/Character1_Spine1/Character1_Spine2/Character1_LeftShoulder/Character1_LeftArm/Character1_LeftForeArm/Character1_LeftHand",
      "uniqueBindPose": [
        0.9999880194664001,
        0.004850894678384066,
        0,
        0,
        -0.004850894678384066,
        0.9999880194664001,
        0,
        0,
        0,
        0,
        1,
        0,
        -0.032938458025455475,
        -0.05165664851665497,
        0.0029663785826414824,
        1
      ]
    },
    {
      "name": "Character1_RightShoulder",
      "scale": [
        1,
        1,
        1
      ],
      "children": [
        17
      ],
      "parent": null,
      "position": [
        -0.00468312669545412,
        0.00250115385279059,
        -2.38418573772492e-9
      ],
      "quat": [
        0.300842881202698,
        0.327061057090759,
        -0.344913870096207,
        0.826776266098022
      ],
      "path": "Character1_Reference/Character1_Hips/Character1_Spine/Character1_Spine1/Character1_Spine2/Character1_RightShoulder",
      "uniqueBindPose": [
        1,
        0,
        0,
        0,
        0,
        1,
        0,
        0,
        0,
        0,
        1,
        0,
        0.004683129955083132,
        -0.05262443795800209,
        0.0029663785826414824,
        1
      ]
    },
    {
      "name": "Character1_RightArm",
      "scale": [
        1,
        1,
        1
      ],
      "children": [
        18
      ],
      "parent": null,
      "position": [
        -0.00425448641180992,
        -0.00114993087481707,
        -9.53674295089968e-9
      ],
      "quat": [
        0.383528769016266,
        0.581127107143402,
        -0.447631418704987,
        0.56109094619751
      ],
      "path": "Character1_Reference/Character1_Hips/Character1_Spine/Character1_Spine1/Character1_Spine2/Character1_RightShoulder/Character1_RightArm",
      "uniqueBindPose": [
        1,
        -0.00004046304093208164,
        0,
        0,
        0.00004046304093208164,
        1,
        0,
        0,
        0,
        0,
        1,
        0,
        0.008935529738664627,
        -0.05147486925125122,
        0.0029663785826414824,
        1
      ]
    },
    {
      "name": "Character1_RightForeArm",
      "scale": [
        1,
        1,
        1
      ],
      "children": [
        19
      ],
      "parent": null,
      "position": [
        -0.0114695113152266,
        0.0000308990456687752,
        2.38418573772492e-9
      ],
      "quat": [
        0.451194912195206,
        -0.219412490725517,
        -0.236779227852821,
        0.831995725631714
      ],
      "path": "Character1_Reference/Character1_Hips/Character1_Spine/Character1_Spine1/Character1_Spine2/Character1_RightShoulder/Character1_RightArm/Character1_RightForeArm",
      "uniqueBindPose": [
        0.9999989867210388,
        0.0011329611297696829,
        0,
        0,
        -0.0011329611297696829,
        0.9999989867210388,
        0,
        0,
        0,
        0,
        1,
        0,
        0.020465468987822533,
        -0.05148177966475487,
        0.0029663785826414824,
        1
      ]
    },
    {
      "name": "Character1_RightHand",
      "scale": [
        1,
        1,
        1
      ],
      "parent": null,
      "position": [
        -0.0127815026789904,
        -0.0000231540198001312,
        2.38418573772492e-9
      ],
      "quat": [
        0.220010176301003,
        -0.151450753211975,
        0.188183590769768,
        0.945116460323334
      ],
      "path": "Character1_Reference/Character1_Hips/Character1_Spine/Character1_Spine1/Character1_Spine2/Character1_RightShoulder/Character1_RightArm/Character1_RightForeArm/Character1_RightHand",
      "uniqueBindPose": [
        0.9998829364776611,
        -0.015294414013624191,
        0,
        0,
        0.015294414013624191,
        0.9998829364776611,
        0,
        0,
        0,
        0,
        1,
        0,
        0.032397158443927765,
        -0.0519978366792202,
        0.0029663785826414824,
        1
      ]
    },
    {
      "name": "Character1_Neck",
      "scale": [
        1,
        1,
        1
      ],
      "children": [
        21
      ],
      "parent": null,
      "position": [
        -2.23517412911711e-10,
        0.00523114204406738,
        -4.76837147544984e-9
      ],
      "quat": [
        -0.111184671521187,
        0.0119510050863028,
        0.0185622293502092,
        0.993554532527924
      ],
      "path": "Character1_Reference/Character1_Hips/Character1_Spine/Character1_Spine1/Character1_Spine2/Character1_Neck",
      "uniqueBindPose": [
        1,
        0,
        0,
        0,
        0,
        1,
        0,
        0,
        0,
        0,
        1,
        0,
        0,
        -0.055354416370391846,
        0.0029663785826414824,
        1
      ]
    },
    {
      "name": "Character1_Head",
      "scale": [
        1,
        1,
        1
      ],
      "parent": null,
      "position": [
        -2.98023217215615e-10,
        0.0235770884901285,
        3.57627860658738e-9
      ],
      "quat": [
        2.77555756156289e-17,
        -1.38777878078145e-17,
        -6.93889390390723e-18,
        1
      ],
      "path": "Character1_Reference/Character1_Hips/Character1_Spine/Character1_Spine1/Character1_Spine2/Character1_Neck/Character1_Head"
    },
    {
      "name": "stickman_new",
      "scale": [
        1.00000059604645,
        1.00000059604645,
        1.00000059604645
      ],
      "mesh": 0,
      "skin": 0,
      "parent": null,
      "position": [
        0,
        1.6543611881282e-26,
        0.00296637881547213
      ],
      "quat": [
        0,
        0,
        0,
        1
      ],
      "path": "stickman_new"
    }
  ],
  "_precomputeJointMatrix": false
}