{
  "__type__": "cc.SkeletonAnimationClip",
  "_name": "Attack",
  "_objFlags": 0,
  "_native": ".bin",
  "_duration": 1,
  "sample": 30,
  "speed": 1,
  "wrapMode": 2,
  "events": [],
  "description": {
    "Character1_Reference": {
      "position": {
        "offset": 0,
        "frameCount": 24
      },
      "quat": {
        "offset": 96,
        "frameCount": 25
      },
      "scale": {
        "offset": 221,
        "frameCount": 1
      }
    },
    "Character1_Reference/Character1_Hips/Character1_LeftUpLeg": {
      "quat": {
        "offset": 225,
        "frameCount": 25
      },
      "scale": {
        "offset": 350,
        "frameCount": 1
      },
      "position": {
        "offset": 354,
        "frameCount": 1
      }
    },
    "Character1_Reference/Character1_Hips/Character1_LeftUpLeg/Character1_LeftLeg": {
      "quat": {
        "offset": 358,
        "frameCount": 25
      },
      "scale": {
        "offset": 483,
        "frameCount": 1
      },
      "position": {
        "offset": 487,
        "frameCount": 1
      }
    },
    "Character1_Reference/Character1_Hips/Character1_RightUpLeg": {
      "quat": {
        "offset": 491,
        "frameCount": 25
      },
      "scale": {
        "offset": 616,
        "frameCount": 1
      },
      "position": {
        "offset": 620,
        "frameCount": 1
      }
    },
    "Character1_Reference/Character1_Hips/Character1_RightUpLeg/Character1_RightLeg": {
      "quat": {
        "offset": 624,
        "frameCount": 25
      },
      "scale": {
        "offset": 749,
        "frameCount": 1
      },
      "position": {
        "offset": 753,
        "frameCount": 1
      }
    },
    "Character1_Reference/Character1_Hips/Character1_Spine": {
      "quat": {
        "offset": 757,
        "frameCount": 25
      },
      "scale": {
        "offset": 882,
        "frameCount": 1
      },
      "position": {
        "offset": 886,
        "frameCount": 1
      }
    },
    "Character1_Reference/Character1_Hips/Character1_Spine/Character1_Spine1": {
      "quat": {
        "offset": 890,
        "frameCount": 25
      },
      "scale": {
        "offset": 1015,
        "frameCount": 1
      },
      "position": {
        "offset": 1019,
        "frameCount": 1
      }
    },
    "Character1_Reference/Character1_Hips/Character1_Spine/Character1_Spine1/Character1_Spine2": {
      "quat": {
        "offset": 1023,
        "frameCount": 25
      },
      "scale": {
        "offset": 1148,
        "frameCount": 1
      },
      "position": {
        "offset": 1152,
        "frameCount": 1
      }
    },
    "Character1_Reference/Character1_Hips/Character1_Spine/Character1_Spine1/Character1_Spine2/Character1_LeftShoulder": {
      "quat": {
        "offset": 1156,
        "frameCount": 25
      },
      "scale": {
        "offset": 1281,
        "frameCount": 1
      },
      "position": {
        "offset": 1285,
        "frameCount": 1
      }
    },
    "Character1_Reference/Character1_Hips/Character1_Spine/Character1_Spine1/Character1_Spine2/Character1_LeftShoulder/Character1_LeftArm": {
      "quat": {
        "offset": 1289,
        "frameCount": 25
      },
      "scale": {
        "offset": 1414,
        "frameCount": 1
      },
      "position": {
        "offset": 1418,
        "frameCount": 1
      }
    },
    "Character1_Reference/Character1_Hips/Character1_Spine/Character1_Spine1/Character1_Spine2/Character1_LeftShoulder/Character1_LeftArm/Character1_LeftForeArm": {
      "quat": {
        "offset": 1422,
        "frameCount": 25
      },
      "scale": {
        "offset": 1547,
        "frameCount": 1
      },
      "position": {
        "offset": 1551,
        "frameCount": 1
      }
    },
    "Character1_Reference/Character1_Hips/Character1_Spine/Character1_Spine1/Character1_Spine2/Character1_RightShoulder": {
      "quat": {
        "offset": 1555,
        "frameCount": 25
      },
      "scale": {
        "offset": 1680,
        "frameCount": 1
      },
      "position": {
        "offset": 1684,
        "frameCount": 1
      }
    },
    "Character1_Reference/Character1_Hips/Character1_Spine/Character1_Spine1/Character1_Spine2/Character1_RightShoulder/Character1_RightArm": {
      "quat": {
        "offset": 1688,
        "frameCount": 25
      },
      "scale": {
        "offset": 1813,
        "frameCount": 1
      },
      "position": {
        "offset": 1817,
        "frameCount": 1
      }
    },
    "Character1_Reference/Character1_Hips/Character1_Spine/Character1_Spine1/Character1_Spine2/Character1_RightShoulder/Character1_RightArm/Character1_RightForeArm": {
      "quat": {
        "offset": 1821,
        "frameCount": 25
      },
      "scale": {
        "offset": 1946,
        "frameCount": 1
      },
      "position": {
        "offset": 1950,
        "frameCount": 1
      }
    },
    "Character1_Reference/Character1_Hips/Character1_Spine/Character1_Spine1/Character1_Spine2/Character1_RightShoulder/Character1_RightArm/Character1_RightForeArm/Character1_RightHand": {
      "quat": {
        "offset": 1954,
        "frameCount": 10
      },
      "scale": {
        "offset": 2004,
        "frameCount": 1
      },
      "position": {
        "offset": 2008,
        "frameCount": 1
      }
    },
    "Character1_Reference/Character1_Hips/Character1_Spine/Character1_Spine1/Character1_Spine2/Character1_Neck": {
      "quat": {
        "offset": 2012,
        "frameCount": 25
      },
      "scale": {
        "offset": 2137,
        "frameCount": 1
      },
      "position": {
        "offset": 2141,
        "frameCount": 1
      }
    },
    "Character1_Reference/Character1_Hips": {
      "quat": {
        "offset": 2145,
        "frameCount": 1
      },
      "scale": {
        "offset": 2150,
        "frameCount": 1
      },
      "position": {
        "offset": 2154,
        "frameCount": 1
      }
    },
    "Character1_Reference/Character1_Hips/Character1_LeftUpLeg/Character1_LeftLeg/Character1_LeftFoot": {
      "quat": {
        "offset": 2158,
        "frameCount": 1
      },
      "scale": {
        "offset": 2163,
        "frameCount": 1
      },
      "position": {
        "offset": 2167,
        "frameCount": 1
      }
    },
    "Character1_Reference/Character1_Hips/Character1_LeftUpLeg/Character1_LeftLeg/Character1_LeftFoot/Character1_LeftFoot_end": {
      "quat": {
        "offset": 2171,
        "frameCount": 1
      },
      "scale": {
        "offset": 2176,
        "frameCount": 1
      },
      "position": {
        "offset": 2180,
        "frameCount": 1
      }
    },
    "Character1_Reference/Character1_Hips/Character1_RightUpLeg/Character1_RightLeg/Character1_RightFoot": {
      "quat": {
        "offset": 2184,
        "frameCount": 1
      },
      "scale": {
        "offset": 2189,
        "frameCount": 1
      },
      "position": {
        "offset": 2193,
        "frameCount": 1
      }
    },
    "Character1_Reference/Character1_Hips/Character1_RightUpLeg/Character1_RightLeg/Character1_RightFoot/Character1_RightFoot_end": {
      "quat": {
        "offset": 2197,
        "frameCount": 1
      },
      "scale": {
        "offset": 2202,
        "frameCount": 1
      },
      "position": {
        "offset": 2206,
        "frameCount": 1
      }
    },
    "Character1_Reference/Character1_Hips/Character1_Spine/Character1_Spine1/Character1_Spine2/Character1_LeftShoulder/Character1_LeftArm/Character1_LeftForeArm/Character1_LeftHand": {
      "quat": {
        "offset": 2210,
        "frameCount": 1
      },
      "scale": {
        "offset": 2215,
        "frameCount": 1
      },
      "position": {
        "offset": 2219,
        "frameCount": 1
      }
    },
    "Character1_Reference/Character1_Hips/Character1_Spine/Character1_Spine1/Character1_Spine2/Character1_LeftShoulder/Character1_LeftArm/Character1_LeftForeArm/Character1_LeftHand/Character1_LeftHand_end": {
      "quat": {
        "offset": 2223,
        "frameCount": 1
      },
      "scale": {
        "offset": 2228,
        "frameCount": 1
      },
      "position": {
        "offset": 2232,
        "frameCount": 1
      }
    },
    "Character1_Reference/Character1_Hips/Character1_Spine/Character1_Spine1/Character1_Spine2/Character1_RightShoulder/Character1_RightArm/Character1_RightForeArm/Character1_RightHand/bantay": {
      "quat": {
        "offset": 2236,
        "frameCount": 1
      },
      "scale": {
        "offset": 2241,
        "frameCount": 1
      },
      "position": {
        "offset": 2245,
        "frameCount": 1
      }
    },
    "Character1_Reference/Character1_Hips/Character1_Spine/Character1_Spine1/Character1_Spine2/Character1_RightShoulder/Character1_RightArm/Character1_RightForeArm/Character1_RightHand/votruoi": {
      "quat": {
        "offset": 2249,
        "frameCount": 1
      },
      "scale": {
        "offset": 2254,
        "frameCount": 1
      },
      "position": {
        "offset": 2258,
        "frameCount": 1
      }
    },
    "Character1_Reference/Character1_Hips/Character1_Spine/Character1_Spine1/Character1_Spine2/Character1_RightShoulder/Character1_RightArm/Character1_RightForeArm/Character1_RightHand/noel": {
      "quat": {
        "offset": 2262,
        "frameCount": 1
      },
      "scale": {
        "offset": 2267,
        "frameCount": 1
      },
      "position": {
        "offset": 2271,
        "frameCount": 1
      }
    },
    "Character1_Reference/Character1_Hips/Character1_Spine/Character1_Spine1/Character1_Spine2/Character1_RightShoulder/Character1_RightArm/Character1_RightForeArm/Character1_RightHand/lanbot": {
      "quat": {
        "offset": 2275,
        "frameCount": 1
      },
      "scale": {
        "offset": 2280,
        "frameCount": 1
      },
      "position": {
        "offset": 2284,
        "frameCount": 1
      }
    },
    "Character1_Reference/Character1_Hips/Character1_Spine/Character1_Spine1/Character1_Spine2/Character1_RightShoulder/Character1_RightArm/Character1_RightForeArm/Character1_RightHand/gaybongchay": {
      "quat": {
        "offset": 2288,
        "frameCount": 1
      },
      "scale": {
        "offset": 2293,
        "frameCount": 1
      },
      "position": {
        "offset": 2297,
        "frameCount": 1
      }
    },
    "Character1_Reference/Character1_Hips/Character1_Spine/Character1_Spine1/Character1_Spine2/Character1_RightShoulder/Character1_RightArm/Character1_RightForeArm/Character1_RightHand/chuy": {
      "quat": {
        "offset": 2301,
        "frameCount": 1
      },
      "scale": {
        "offset": 2306,
        "frameCount": 1
      },
      "position": {
        "offset": 2310,
        "frameCount": 1
      }
    },
    "Character1_Reference/Character1_Hips/Character1_Spine/Character1_Spine1/Character1_Spine2/Character1_RightShoulder/Character1_RightArm/Character1_RightForeArm/Character1_RightHand/Character1_RightHand_end": {
      "quat": {
        "offset": 2314,
        "frameCount": 1
      },
      "scale": {
        "offset": 2319,
        "frameCount": 1
      },
      "position": {
        "offset": 2323,
        "frameCount": 1
      }
    },
    "Character1_Reference/Character1_Hips/Character1_Spine/Character1_Spine1/Character1_Spine2/Character1_Neck/Character1_Head": {
      "quat": {
        "offset": 2327,
        "frameCount": 1
      },
      "scale": {
        "offset": 2332,
        "frameCount": 1
      },
      "position": {
        "offset": 2336,
        "frameCount": 1
      }
    },
    "Character1_Reference/Character1_Hips/Character1_Spine/Character1_Spine1/Character1_Spine2/Character1_Neck/Character1_Head/Character1_Head_end": {
      "quat": {
        "offset": 2340,
        "frameCount": 1
      },
      "scale": {
        "offset": 2345,
        "frameCount": 1
      },
      "position": {
        "offset": 2349,
        "frameCount": 1
      }
    },
    "stickman_new": {
      "quat": {
        "offset": 2353,
        "frameCount": 1
      },
      "scale": {
        "offset": 2358,
        "frameCount": 1
      },
      "position": {
        "offset": 2362,
        "frameCount": 1
      }
    }
  }
}