{
  "__type__": "cc.Skeleton",
  "_name": "",
  "_objFlags": 0,
  "_native": "",
  "_model": {
    "__uuid__": "d3e51f7d-aac3-4c92-930d-be7f2cd4eadd"
  },
  "_jointIndices": [
    10,
    11,
    12,
    13,
    20,
    2,
    3,
    9,
    4,
    5,
    6,
    7,
    16,
    14,
    15,
    17,
    8,
    18,
    19
  ],
  "_skinIndex": 0
}