{
  "__type__": "cc.Model",
  "_name": "walk",
  "_objFlags": 0,
  "_native": "",
  "_nodes": [
    {
      "name": "RootNode",
      "scale": [
        1,
        1,
        1
      ],
      "children": [
        1,
        22
      ],
      "position": [
        0,
        0,
        0
      ],
      "quat": [
        0,
        0,
        0,
        1
      ],
      "path": ""
    },
    {
      "name": "Character1_Reference",
      "scale": [
        1.00000059604645,
        1.00000059604645,
        1.00000059604645
      ],
      "children": [
        2
      ],
      "parent": null,
      "position": [
        0,
        0,
        0
      ],
      "quat": [
        0.0168812852352858,
        -0.227478533983231,
        -0.0151766696944833,
        0.973518490791321
      ],
      "path": "Character1_Reference"
    },
    {
      "name": "Character1_Hips",
      "scale": [
        1,
        1,
        1
      ],
      "children": [
        3,
        6,
        9
      ],
      "parent": null,
      "position": [
        2.23517412911711e-10,
        0.0268932320177555,
        7.45058043039037e-11
      ],
      "quat": [
        9.31322574615479e-10,
        -8.35279845290415e-9,
        7.77914976040288e-18,
        1
      ],
      "path": "Character1_Reference/Character1_Hips",
      "uniqueBindPose": [
        1,
        0,
        0,
        0,
        0,
        1,
        6.617444900424222e-24,
        0,
        0,
        -6.617444900424222e-24,
        1,
        0,
        0,
        -0.02689322829246521,
        0.002966378815472126,
        1
      ]
    },
    {
      "name": "Character1_LeftUpLeg",
      "scale": [
        1,
        1,
        1
      ],
      "children": [
        4
      ],
      "parent": null,
      "position": [
        0.00673886528238654,
        -0.00273666135035455,
        -3.72529021519519e-11
      ],
      "quat": [
        -0.223199307918549,
        -0.21109627187252,
        0.0133664114400744,
        0.951547026634216
      ],
      "path": "Character1_Reference/Character1_Hips/Character1_LeftUpLeg",
      "uniqueBindPose": [
        1,
        0,
        0,
        0,
        0,
        1,
        6.617444900424222e-24,
        0,
        0,
        -6.617444900424222e-24,
        1,
        0,
        -0.006738859694451094,
        -0.024156570434570312,
        0.002966378815472126,
        1
      ]
    },
    {
      "name": "Character1_LeftLeg",
      "scale": [
        1,
        1,
        1
      ],
      "children": [
        5
      ],
      "parent": null,
      "position": [
        0.00371353072114289,
        -0.0108860684558749,
        -3.33066899942921e-18
      ],
      "quat": [
        0.519264757633209,
        0.483581990003586,
        -0.194653481245041,
        0.677216768264771
      ],
      "path": "Character1_Reference/Character1_Hips/Character1_LeftUpLeg/Character1_LeftLeg",
      "uniqueBindPose": [
        1,
        0,
        0,
        0,
        0,
        1,
        6.617444900424222e-24,
        0,
        0,
        -6.617444900424222e-24,
        1,
        0,
        -0.010452399961650372,
        -0.013270501047372818,
        0.002966378815472126,
        1
      ]
    },
    {
      "name": "Character1_LeftFoot",
      "scale": [
        1,
        1,
        1
      ],
      "parent": null,
      "position": [
        0.00239629554562271,
        -0.00896722823381424,
        -2.22044599961948e-18
      ],
      "quat": [
        1.49011611938477e-8,
        1.38777878078145e-17,
        2.77555756156289e-17,
        1
      ],
      "path": "Character1_Reference/Character1_Hips/Character1_LeftUpLeg/Character1_LeftLeg/Character1_LeftFoot",
      "uniqueBindPose": [
        1,
        0,
        0,
        0,
        0,
        1,
        6.617444900424222e-24,
        0,
        0,
        -6.617444900424222e-24,
        1,
        0,
        -0.012848690152168274,
        -0.004303270019590855,
        0.002966378815472126,
        1
      ]
    },
    {
      "name": "Character1_RightUpLeg",
      "scale": [
        1,
        1,
        1
      ],
      "children": [
        7
      ],
      "parent": null,
      "position": [
        -0.00673886574804783,
        -0.00273666135035455,
        2.98023217215615e-10
      ],
      "quat": [
        -0.234298840165138,
        0.180830717086792,
        0.280965983867645,
        0.912941634654999
      ],
      "path": "Character1_Reference/Character1_Hips/Character1_RightUpLeg",
      "uniqueBindPose": [
        1,
        0,
        0,
        0,
        0,
        1,
        6.617444900424222e-24,
        0,
        0,
        -6.617444900424222e-24,
        1,
        0,
        0.006738859694451094,
        -0.024156570434570312,
        0.002966378815472126,
        1
      ]
    },
    {
      "name": "Character1_RightLeg",
      "scale": [
        1,
        1,
        1
      ],
      "children": [
        8
      ],
      "parent": null,
      "position": [
        -0.00371353258378804,
        -0.0108860731124878,
        -1.19209286886246e-9
      ],
      "quat": [
        0.40766578912735,
        -0.188255161046982,
        -0.0669963508844376,
        0.890999495983124
      ],
      "path": "Character1_Reference/Character1_Hips/Character1_RightUpLeg/Character1_RightLeg",
      "uniqueBindPose": [
        1,
        0,
        0,
        0,
        0,
        1,
        6.617444900424222e-24,
        0,
        0,
        -6.617444900424222e-24,
        1,
        0,
        0.010452399961650372,
        -0.013270501047372818,
        0.002966378815472126,
        1
      ]
    },
    {
      "name": "Character1_RightFoot",
      "scale": [
        1,
        1,
        1
      ],
      "parent": null,
      "position": [
        -0.00239629601128399,
        -0.00896722730249166,
        5.9604643443123e-10
      ],
      "quat": [
        -1.49011611938477e-8,
        1.49011629702045e-8,
        2.63677994818254e-16,
        1
      ],
      "path": "Character1_Reference/Character1_Hips/Character1_RightUpLeg/Character1_RightLeg/Character1_RightFoot",
      "uniqueBindPose": [
        1,
        0,
        0,
        0,
        0,
        1,
        6.617444900424222e-24,
        0,
        0,
        -6.617444900424222e-24,
        1,
        0,
        0.012848690152168274,
        -0.004303270019590855,
        0.002966378815472126,
        1
      ]
    },
    {
      "name": "Character1_Spine",
      "scale": [
        1,
        1,
        1
      ],
      "children": [
        10
      ],
      "parent": null,
      "position": [
        1.38777874976217e-19,
        0.0107677718624473,
        1.38777874976217e-19
      ],
      "quat": [
        0.126004084944725,
        -0.0329972878098488,
        -0.0609020553529263,
        0.989608526229858
      ],
      "path": "Character1_Reference/Character1_Hips/Character1_Spine",
      "uniqueBindPose": [
        1,
        0,
        0,
        0,
        0,
        1,
        6.617444900424222e-24,
        0,
        0,
        -6.617444900424222e-24,
        1,
        0,
        0,
        -0.037661001086235046,
        0.002966378815472126,
        1
      ]
    },
    {
      "name": "Character1_Spine1",
      "scale": [
        1,
        1,
        1
      ],
      "children": [
        11
      ],
      "parent": null,
      "position": [
        2.98023217215615e-10,
        0.00623113848268986,
        5.9604643443123e-10
      ],
      "quat": [
        0.000378660333808511,
        -0.0642952024936676,
        0.0337142311036587,
        0.997361183166504
      ],
      "path": "Character1_Reference/Character1_Hips/Character1_Spine/Character1_Spine1",
      "uniqueBindPose": [
        1,
        0,
        0,
        0,
        0,
        1,
        6.617444900424222e-24,
        0,
        0,
        -6.617444900424222e-24,
        1,
        0,
        0,
        -0.043892137706279755,
        0.002966378815472126,
        1
      ]
    },
    {
      "name": "Character1_Spine2",
      "scale": [
        1,
        1,
        1
      ],
      "children": [
        12,
        16,
        20
      ],
      "parent": null,
      "position": [
        -2.98023217215615e-10,
        0.00623114081099629,
        -5.9604643443123e-10
      ],
      "quat": [
        0.00508168991655111,
        -0.0626261904835701,
        0.0363721661269665,
        0.997361123561859
      ],
      "path": "Character1_Reference/Character1_Hips/Character1_Spine/Character1_Spine1/Character1_Spine2",
      "uniqueBindPose": [
        1,
        0,
        0,
        0,
        0,
        1,
        6.617444900424222e-24,
        0,
        0,
        -6.617444900424222e-24,
        1,
        0,
        0,
        -0.05012328177690506,
        0.002966378815472126,
        1
      ]
    },
    {
      "name": "Character1_LeftShoulder",
      "scale": [
        1,
        1,
        1
      ],
      "children": [
        13
      ],
      "parent": null,
      "position": [
        0.00468312669545412,
        0.00250115874223411,
        5.9604643443123e-10
      ],
      "quat": [
        -0.0639719069004059,
        -0.208983436226845,
        -0.187186345458031,
        0.957702875137329
      ],
      "path": "Character1_Reference/Character1_Hips/Character1_Spine/Character1_Spine1/Character1_Spine2/Character1_LeftShoulder",
      "uniqueBindPose": [
        1,
        0,
        0,
        0,
        0,
        1,
        6.617444900424222e-24,
        0,
        0,
        -6.617444900424222e-24,
        1,
        0,
        -0.004683129955083132,
        -0.05262443795800209,
        0.002966378815472126,
        1
      ]
    },
    {
      "name": "Character1_LeftArm",
      "scale": [
        1,
        1,
        1
      ],
      "children": [
        14
      ],
      "parent": null,
      "position": [
        0.00425448641180992,
        -0.00114992610178888,
        -1.49011608607807e-10
      ],
      "quat": [
        0.0604695342481136,
        -0.0610253252089024,
        -0.14666810631752,
        0.985448002815247
      ],
      "path": "Character1_Reference/Character1_Hips/Character1_Spine/Character1_Spine1/Character1_Spine2/Character1_LeftShoulder/Character1_LeftArm",
      "uniqueBindPose": [
        1,
        0.000012833098480768967,
        3.0743899374940806e-20,
        0,
        -0.000012833098480768967,
        1,
        3.599367247683643e-18,
        0,
        -3.069770650760855e-20,
        -3.599367247683643e-18,
        1,
        0,
        -0.008936949074268341,
        -0.051474615931510925,
        0.002966378815472126,
        1
      ]
    },
    {
      "name": "Character1_LeftForeArm",
      "scale": [
        1,
        1,
        1
      ],
      "children": [
        15
      ],
      "parent": null,
      "position": [
        0.0114695131778717,
        0.0000305843350361101,
        2.98023217215615e-10
      ],
      "quat": [
        0.109757356345654,
        -0.416430860757828,
        0.091132640838623,
        0.897905051708221
      ],
      "path": "Character1_Reference/Character1_Hips/Character1_Spine/Character1_Spine1/Character1_Spine2/Character1_LeftShoulder/Character1_LeftArm/Character1_LeftForeArm",
      "uniqueBindPose": [
        1,
        -0.0003593270084820688,
        2.379288872262575e-19,
        0,
        0.0003593270084820688,
        1,
        -6.466222387815237e-17,
        0,
        -2.1469401712979942e-19,
        6.466231652238098e-17,
        1,
        0,
        -0.020425641909241676,
        -0.05149759724736214,
        0.002966378815472126,
        1
      ]
    },
    {
      "name": "Character1_LeftHand",
      "scale": [
        1,
        1,
        1
      ],
      "parent": null,
      "position": [
        0.0127815119922161,
        -0.0000132703780764132,
        1.19209286886246e-9
      ],
      "quat": [
        -1.4842883366839e-8,
        2.23904912388662e-8,
        -0.002605119952932,
        0.999996602535248
      ],
      "path": "Character1_Reference/Character1_Hips/Character1_Spine/Character1_Spine1/Character1_Spine2/Character1_LeftShoulder/Character1_LeftArm/Character1_LeftForeArm/Character1_LeftHand",
      "uniqueBindPose": [
        0.9999879002571106,
        0.0048508900217711926,
        -6.699095898689331e-18,
        0,
        -0.0048508900217711926,
        0.9999879002571106,
        4.329202929645715e-17,
        0,
        6.909020689675182e-18,
        -4.3259018172571385e-17,
        1,
        0,
        -0.032938458025455475,
        -0.05165664851665497,
        0.002966378815472126,
        1
      ]
    },
    {
      "name": "Character1_RightShoulder",
      "scale": [
        1,
        1,
        1
      ],
      "children": [
        17
      ],
      "parent": null,
      "position": [
        -0.00468312622979283,
        0.00250115385279059,
        -1.19209286886246e-9
      ],
      "quat": [
        -0.0663928836584091,
        0.067960798740387,
        0.0568835996091366,
        0.993849873542786
      ],
      "path": "Character1_Reference/Character1_Hips/Character1_Spine/Character1_Spine1/Character1_Spine2/Character1_RightShoulder",
      "uniqueBindPose": [
        1,
        0,
        0,
        0,
        0,
        1,
        6.617444900424222e-24,
        0,
        0,
        -6.617444900424222e-24,
        1,
        0,
        0.004683129955083132,
        -0.05262443795800209,
        0.002966378815472126,
        1
      ]
    },
    {
      "name": "Character1_RightArm",
      "scale": [
        1,
        1,
        1
      ],
      "children": [
        18
      ],
      "parent": null,
      "position": [
        -0.00425448827445507,
        -0.00114992144517601,
        -2.98023217215615e-10
      ],
      "quat": [
        -0.487182140350342,
        -0.387145161628723,
        -0.0396936312317848,
        0.781790673732758
      ],
      "path": "Character1_Reference/Character1_Hips/Character1_Spine/Character1_Spine1/Character1_Spine2/Character1_RightShoulder/Character1_RightArm",
      "uniqueBindPose": [
        1,
        -0.000040462997276335955,
        -7.500714174622026e-20,
        0,
        0.000040462997276335955,
        1,
        3.5783303903451943e-17,
        0,
        7.355923316978008e-20,
        -3.5783303903451943e-17,
        1,
        0,
        0.008935529738664627,
        -0.05147486552596092,
        0.002966378815472126,
        1
      ]
    },
    {
      "name": "Character1_RightForeArm",
      "scale": [
        1,
        1,
        1
      ],
      "children": [
        19
      ],
      "parent": null,
      "position": [
        -0.0114695131778717,
        0.0000308966627926566,
        0
      ],
      "quat": [
        0.0244876779615879,
        0.794699013233185,
        0.157898306846619,
        0.585595369338989
      ],
      "path": "Character1_Reference/Character1_Hips/Character1_Spine/Character1_Spine1/Character1_Spine2/Character1_RightShoulder/Character1_RightArm/Character1_RightForeArm",
      "uniqueBindPose": [
        0.9999990463256836,
        0.0011329600820317864,
        9.019619792284607e-19,
        0,
        -0.0011329600820317864,
        0.9999990463256836,
        7.636135691884506e-17,
        0,
        -8.154467453712333e-19,
        -7.636229659602092e-17,
        1,
        0,
        0.020465468987822533,
        -0.05148177966475487,
        0.002966378815472126,
        1
      ]
    },
    {
      "name": "Character1_RightHand",
      "scale": [
        1,
        1,
        1
      ],
      "parent": null,
      "position": [
        -0.0127815026789904,
        -0.0000231528283620719,
        -5.9604643443123e-10
      ],
      "quat": [
        -7.7563182543372e-9,
        3.71904427254321e-8,
        0.00821388605982065,
        0.999966263771057
      ],
      "path": "Character1_Reference/Character1_Hips/Character1_Spine/Character1_Spine1/Character1_Spine2/Character1_RightShoulder/Character1_RightArm/Character1_RightForeArm/Character1_RightHand",
      "uniqueBindPose": [
        0.9998829364776611,
        -0.015294400043785572,
        -1.107113338373937e-17,
        0,
        0.015294400043785572,
        0.9998829364776611,
        -1.122568794529184e-16,
        0,
        1.2786739061398851e-17,
        1.120744100272341e-16,
        1,
        0,
        0.032397158443927765,
        -0.0519978404045105,
        0.002966378815472126,
        1
      ]
    },
    {
      "name": "Character1_Neck",
      "scale": [
        1,
        1,
        1
      ],
      "children": [
        21
      ],
      "parent": null,
      "position": [
        2.98023217215615e-10,
        0.00523113738745451,
        1.19209286886246e-9
      ],
      "quat": [
        0.0699131488800049,
        0.113483794033527,
        -0.0243076756596565,
        0.990778863430023
      ],
      "path": "Character1_Reference/Character1_Hips/Character1_Spine/Character1_Spine1/Character1_Spine2/Character1_Neck",
      "uniqueBindPose": [
        1,
        0,
        0,
        0,
        0,
        1,
        6.617444900424222e-24,
        0,
        0,
        -6.617444900424222e-24,
        1,
        0,
        0,
        -0.05535442382097244,
        0.002966378815472126,
        1
      ]
    },
    {
      "name": "Character1_Head",
      "scale": [
        1,
        1,
        1
      ],
      "parent": null,
      "position": [
        2.98023217215615e-10,
        0.0235770791769028,
        1.19209286886246e-9
      ],
      "quat": [
        -1.49011611938477e-8,
        2.79396772384644e-9,
        4.16333634234434e-17,
        1
      ],
      "path": "Character1_Reference/Character1_Hips/Character1_Spine/Character1_Spine1/Character1_Spine2/Character1_Neck/Character1_Head"
    },
    {
      "name": "stickman_new",
      "scale": [
        1.00000059604645,
        1.00000059604645,
        1.00000059604645
      ],
      "mesh": 0,
      "skin": 0,
      "parent": null,
      "position": [
        0,
        -7.72108319155556e-27,
        0.00296637881547213
      ],
      "quat": [
        2.18556959197258e-8,
        0,
        0,
        1
      ],
      "path": "stickman_new"
    }
  ],
  "_precomputeJointMatrix": false
}