{
  "__type__": "cc.SkeletonAnimationClip",
  "_name": "Walk",
  "_objFlags": 0,
  "_native": ".bin",
  "_duration": 0.5,
  "sample": 30,
  "speed": 1,
  "wrapMode": 2,
  "events": [],
  "description": {
    "Character1_Reference": {
      "position": {
        "offset": 0,
        "frameCount": 13
      },
      "quat": {
        "offset": 52,
        "frameCount": 13
      },
      "scale": {
        "offset": 117,
        "frameCount": 1
      }
    },
    "Character1_Reference/Character1_Hips/Character1_LeftUpLeg": {
      "quat": {
        "offset": 121,
        "frameCount": 13
      },
      "scale": {
        "offset": 186,
        "frameCount": 1
      },
      "position": {
        "offset": 190,
        "frameCount": 1
      }
    },
    "Character1_Reference/Character1_Hips/Character1_LeftUpLeg/Character1_LeftLeg": {
      "quat": {
        "offset": 194,
        "frameCount": 13
      },
      "scale": {
        "offset": 259,
        "frameCount": 1
      },
      "position": {
        "offset": 263,
        "frameCount": 1
      }
    },
    "Character1_Reference/Character1_Hips/Character1_RightUpLeg": {
      "quat": {
        "offset": 267,
        "frameCount": 13
      },
      "scale": {
        "offset": 332,
        "frameCount": 1
      },
      "position": {
        "offset": 336,
        "frameCount": 1
      }
    },
    "Character1_Reference/Character1_Hips/Character1_RightUpLeg/Character1_RightLeg": {
      "quat": {
        "offset": 340,
        "frameCount": 13
      },
      "scale": {
        "offset": 405,
        "frameCount": 1
      },
      "position": {
        "offset": 409,
        "frameCount": 1
      }
    },
    "Character1_Reference/Character1_Hips/Character1_Spine": {
      "quat": {
        "offset": 413,
        "frameCount": 13
      },
      "scale": {
        "offset": 478,
        "frameCount": 1
      },
      "position": {
        "offset": 482,
        "frameCount": 1
      }
    },
    "Character1_Reference/Character1_Hips/Character1_Spine/Character1_Spine1": {
      "quat": {
        "offset": 486,
        "frameCount": 13
      },
      "scale": {
        "offset": 551,
        "frameCount": 1
      },
      "position": {
        "offset": 555,
        "frameCount": 1
      }
    },
    "Character1_Reference/Character1_Hips/Character1_Spine/Character1_Spine1/Character1_Spine2": {
      "quat": {
        "offset": 559,
        "frameCount": 13
      },
      "scale": {
        "offset": 624,
        "frameCount": 1
      },
      "position": {
        "offset": 628,
        "frameCount": 1
      }
    },
    "Character1_Reference/Character1_Hips/Character1_Spine/Character1_Spine1/Character1_Spine2/Character1_Neck": {
      "quat": {
        "offset": 632,
        "frameCount": 13
      },
      "scale": {
        "offset": 697,
        "frameCount": 1
      },
      "position": {
        "offset": 701,
        "frameCount": 1
      }
    },
    "Character1_Reference/Character1_Hips": {
      "quat": {
        "offset": 705,
        "frameCount": 1
      },
      "scale": {
        "offset": 710,
        "frameCount": 1
      },
      "position": {
        "offset": 714,
        "frameCount": 1
      }
    },
    "Character1_Reference/Character1_Hips/Character1_LeftUpLeg/Character1_LeftLeg/Character1_LeftFoot": {
      "quat": {
        "offset": 718,
        "frameCount": 1
      },
      "scale": {
        "offset": 723,
        "frameCount": 1
      },
      "position": {
        "offset": 727,
        "frameCount": 1
      }
    },
    "Character1_Reference/Character1_Hips/Character1_RightUpLeg/Character1_RightLeg/Character1_RightFoot": {
      "quat": {
        "offset": 731,
        "frameCount": 1
      },
      "scale": {
        "offset": 736,
        "frameCount": 1
      },
      "position": {
        "offset": 740,
        "frameCount": 1
      }
    },
    "Character1_Reference/Character1_Hips/Character1_Spine/Character1_Spine1/Character1_Spine2/Character1_LeftShoulder": {
      "quat": {
        "offset": 744,
        "frameCount": 1
      },
      "scale": {
        "offset": 749,
        "frameCount": 1
      },
      "position": {
        "offset": 753,
        "frameCount": 1
      }
    },
    "Character1_Reference/Character1_Hips/Character1_Spine/Character1_Spine1/Character1_Spine2/Character1_LeftShoulder/Character1_LeftArm": {
      "quat": {
        "offset": 757,
        "frameCount": 1
      },
      "scale": {
        "offset": 762,
        "frameCount": 1
      },
      "position": {
        "offset": 766,
        "frameCount": 1
      }
    },
    "Character1_Reference/Character1_Hips/Character1_Spine/Character1_Spine1/Character1_Spine2/Character1_LeftShoulder/Character1_LeftArm/Character1_LeftForeArm": {
      "quat": {
        "offset": 770,
        "frameCount": 1
      },
      "scale": {
        "offset": 775,
        "frameCount": 1
      },
      "position": {
        "offset": 779,
        "frameCount": 1
      }
    },
    "Character1_Reference/Character1_Hips/Character1_Spine/Character1_Spine1/Character1_Spine2/Character1_LeftShoulder/Character1_LeftArm/Character1_LeftForeArm/Character1_LeftHand": {
      "quat": {
        "offset": 783,
        "frameCount": 1
      },
      "scale": {
        "offset": 788,
        "frameCount": 1
      },
      "position": {
        "offset": 792,
        "frameCount": 1
      }
    },
    "Character1_Reference/Character1_Hips/Character1_Spine/Character1_Spine1/Character1_Spine2/Character1_RightShoulder": {
      "quat": {
        "offset": 796,
        "frameCount": 1
      },
      "scale": {
        "offset": 801,
        "frameCount": 1
      },
      "position": {
        "offset": 805,
        "frameCount": 1
      }
    },
    "Character1_Reference/Character1_Hips/Character1_Spine/Character1_Spine1/Character1_Spine2/Character1_RightShoulder/Character1_RightArm": {
      "quat": {
        "offset": 809,
        "frameCount": 1
      },
      "scale": {
        "offset": 814,
        "frameCount": 1
      },
      "position": {
        "offset": 818,
        "frameCount": 1
      }
    },
    "Character1_Reference/Character1_Hips/Character1_Spine/Character1_Spine1/Character1_Spine2/Character1_RightShoulder/Character1_RightArm/Character1_RightForeArm": {
      "quat": {
        "offset": 822,
        "frameCount": 1
      },
      "scale": {
        "offset": 827,
        "frameCount": 1
      },
      "position": {
        "offset": 831,
        "frameCount": 1
      }
    },
    "Character1_Reference/Character1_Hips/Character1_Spine/Character1_Spine1/Character1_Spine2/Character1_RightShoulder/Character1_RightArm/Character1_RightForeArm/Character1_RightHand": {
      "quat": {
        "offset": 835,
        "frameCount": 1
      },
      "scale": {
        "offset": 840,
        "frameCount": 1
      },
      "position": {
        "offset": 844,
        "frameCount": 1
      }
    },
    "Character1_Reference/Character1_Hips/Character1_Spine/Character1_Spine1/Character1_Spine2/Character1_Neck/Character1_Head": {
      "quat": {
        "offset": 848,
        "frameCount": 1
      },
      "scale": {
        "offset": 853,
        "frameCount": 1
      },
      "position": {
        "offset": 857,
        "frameCount": 1
      }
    },
    "stickman_new": {
      "quat": {
        "offset": 861,
        "frameCount": 1
      },
      "scale": {
        "offset": 866,
        "frameCount": 1
      },
      "position": {
        "offset": 870,
        "frameCount": 1
      }
    }
  }
}