{
  "__type__": "cc.Model",
  "_name": "die-with-hunter",
  "_objFlags": 0,
  "_native": "",
  "_nodes": [
    {
      "name": "RootNode",
      "scale": [
        1,
        1,
        1
      ],
      "children": [
        1,
        2
      ],
      "position": [
        0,
        0,
        0
      ],
      "quat": [
        0,
        0,
        0,
        1
      ],
      "path": ""
    },
    {
      "name": "Body",
      "scale": [
        1,
        1,
        1
      ],
      "mesh": 0,
      "skin": 0,
      "parent": null,
      "position": [
        0,
        0,
        0
      ],
      "quat": [
        0,
        0,
        0,
        1
      ],
      "path": "Body"
    },
    {
      "name": "Character1_Reference",
      "scale": [
        1,
        1,
        1
      ],
      "children": [
        3
      ],
      "parent": null,
      "position": [
        0.00381999998353422,
        -0.00257999985478818,
        -0.00360000017099082
      ],
      "quat": [
        0.0766747668385506,
        -0.45453268289566,
        0.0256126094609499,
        0.887054145336151
      ],
      "path": "Character1_Reference"
    },
    {
      "name": "Character1_Hips",
      "scale": [
        1,
        1,
        1
      ],
      "children": [
        4,
        7,
        10
      ],
      "parent": null,
      "position": [
        1.38777874976217e-19,
        0.0268932320177555,
        0
      ],
      "quat": [
        0.0635884925723076,
        0.0317358784377575,
        -0.0199717432260513,
        0.997271537780762
      ],
      "path": "Character1_Reference/Character1_Hips",
      "uniqueBindPose": [
        1,
        0,
        0,
        0,
        0,
        1,
        0,
        0,
        0,
        0,
        1,
        0,
        0,
        -0.02689323201775551,
        0,
        1
      ]
    },
    {
      "name": "Character1_LeftUpLeg",
      "scale": [
        1,
        1,
        1
      ],
      "children": [
        5
      ],
      "parent": null,
      "position": [
        0.00673886481672525,
        -0.0027366615831852,
        -1.11022299980974e-18
      ],
      "quat": [
        -0.44290429353714,
        0.245306491851807,
        0.0436136499047279,
        0.861253976821899
      ],
      "path": "Character1_Reference/Character1_Hips/Character1_LeftUpLeg",
      "uniqueBindPose": [
        1,
        0,
        0,
        0,
        0,
        1,
        0,
        0,
        0,
        0,
        1,
        0,
        -0.006738864816725254,
        -0.024156566709280014,
        0,
        1
      ]
    },
    {
      "name": "Character1_LeftLeg",
      "scale": [
        1,
        1,
        1
      ],
      "children": [
        6
      ],
      "parent": null,
      "position": [
        0.00371353235095739,
        -0.0108860731124878,
        4.44089199923895e-18
      ],
      "quat": [
        0.372116565704346,
        0.0567862391471863,
        -0.039689689874649,
        0.925596714019775
      ],
      "path": "Character1_Reference/Character1_Hips/Character1_LeftUpLeg/Character1_LeftLeg",
      "uniqueBindPose": [
        1,
        0,
        0,
        0,
        0,
        1,
        0,
        0,
        0,
        0,
        1,
        0,
        -0.010452396236360073,
        -0.01327049545943737,
        0,
        1
      ]
    },
    {
      "name": "Character1_LeftFoot",
      "scale": [
        1,
        1,
        1
      ],
      "parent": null,
      "position": [
        0.00239629531279206,
        -0.00896722637116909,
        1.11022299980974e-18
      ],
      "quat": [
        -1.38777878078145e-17,
        2.77555756156289e-17,
        -1.04083408558608e-17,
        1
      ],
      "path": "Character1_Reference/Character1_Hips/Character1_LeftUpLeg/Character1_LeftLeg/Character1_LeftFoot",
      "uniqueBindPose": [
        1,
        0,
        0,
        0,
        0,
        1,
        0,
        0,
        0,
        0,
        1,
        0,
        -0.012848692946135998,
        -0.004303268622606993,
        0,
        1
      ]
    },
    {
      "name": "Character1_RightUpLeg",
      "scale": [
        1,
        1,
        1
      ],
      "children": [
        8
      ],
      "parent": null,
      "position": [
        -0.00673886481672525,
        -0.0027366615831852,
        1.11022299980974e-18
      ],
      "quat": [
        -0.276192545890808,
        -0.20646658539772,
        -0.0477613210678101,
        0.937447667121887
      ],
      "path": "Character1_Reference/Character1_Hips/Character1_RightUpLeg",
      "uniqueBindPose": [
        1,
        0,
        0,
        0,
        0,
        1,
        0,
        0,
        0,
        0,
        1,
        0,
        0.006738864816725254,
        -0.024156566709280014,
        0,
        1
      ]
    },
    {
      "name": "Character1_RightLeg",
      "scale": [
        1,
        1,
        1
      ],
      "children": [
        9
      ],
      "parent": null,
      "position": [
        -0.00371353235095739,
        -0.0108860731124878,
        0
      ],
      "quat": [
        0.356482625007629,
        -0.121042229235172,
        -0.0533633381128311,
        0.924889862537384
      ],
      "path": "Character1_Reference/Character1_Hips/Character1_RightUpLeg/Character1_RightLeg",
      "uniqueBindPose": [
        1,
        0,
        0,
        0,
        0,
        1,
        0,
        0,
        0,
        0,
        1,
        0,
        0.010452396236360073,
        -0.01327049545943737,
        0,
        1
      ]
    },
    {
      "name": "Character1_RightFoot",
      "scale": [
        1,
        1,
        1
      ],
      "parent": null,
      "position": [
        -0.00239629531279206,
        -0.00896722637116909,
        0
      ],
      "quat": [
        6.50521303491303e-17,
        6.93889390390723e-18,
        1.38777878078145e-17,
        1
      ],
      "path": "Character1_Reference/Character1_Hips/Character1_RightUpLeg/Character1_RightLeg/Character1_RightFoot",
      "uniqueBindPose": [
        1,
        0,
        0,
        0,
        0,
        1,
        0,
        0,
        0,
        0,
        1,
        0,
        0.012848692946135998,
        -0.004303268622606993,
        0,
        1
      ]
    },
    {
      "name": "Character1_Spine",
      "scale": [
        1,
        1,
        1
      ],
      "parent": null,
      "position": [
        0,
        0.0107677718624473,
        0
      ],
      "quat": [
        -4.16333634234434e-17,
        -5.77778983316171e-34,
        1.38777878078145e-17,
        1
      ],
      "path": "Character1_Reference/Character1_Hips/Character1_Spine",
      "uniqueBindPose": [
        1,
        0,
        0,
        0,
        0,
        1,
        0,
        0,
        0,
        0,
        1,
        0,
        0,
        -0.037661001086235046,
        0,
        1
      ]
    }
  ],
  "_precomputeJointMatrix": false
}