{
  "__type__": "cc.Model",
  "_name": "Idle",
  "_objFlags": 0,
  "_native": "",
  "_nodes": [
    {
      "name": "RootNode",
      "scale": [
        1,
        1,
        1
      ],
      "children": [
        1,
        22
      ],
      "position": [
        0,
        0,
        0
      ],
      "quat": [
        0,
        0,
        0,
        1
      ],
      "path": ""
    },
    {
      "name": "Character1_Reference",
      "scale": [
        1.00000059604645,
        1.00000059604645,
        1.00000059604645
      ],
      "children": [
        2
      ],
      "parent": null,
      "position": [
        0.000197721397853456,
        0.0000138616096592159,
        -0.0000881350570125505
      ],
      "quat": [
        0.0516238175332546,
        -0.422557592391968,
        0.0453169941902161,
        0.903729200363159
      ],
      "path": "Character1_Reference"
    },
    {
      "name": "Character1_Hips",
      "scale": [
        1,
        1,
        1
      ],
      "children": [
        3,
        6,
        9
      ],
      "parent": null,
      "position": [
        -7.45058043039037e-11,
        0.0268932413309813,
        -1.49011603056692e-9
      ],
      "quat": [
        -6.93889390390723e-18,
        -2.77555756156289e-17,
        3.46944695195361e-18,
        1
      ],
      "path": "Character1_Reference/Character1_Hips",
      "uniqueBindPose": [
        1,
        0,
        0,
        0,
        0,
        1,
        0,
        0,
        0,
        0,
        1,
        0,
        0,
        -0.02689322829246521,
        0.0029663785826414824,
        1
      ]
    },
    {
      "name": "Character1_LeftUpLeg",
      "scale": [
        1,
        1,
        1
      ],
      "children": [
        4
      ],
      "parent": null,
      "position": [
        0.00673886621370912,
        -0.00273666135035455,
        -5.9604643443123e-10
      ],
      "quat": [
        -0.440201580524445,
        0.313918858766556,
        0.00484240427613258,
        0.841221749782562
      ],
      "path": "Character1_Reference/Character1_Hips/Character1_LeftUpLeg",
      "uniqueBindPose": [
        1,
        0,
        0,
        0,
        0,
        1,
        0,
        0,
        0,
        0,
        1,
        0,
        -0.006738859694451094,
        -0.024156570434570312,
        0.0029663785826414824,
        1
      ]
    },
    {
      "name": "Character1_LeftLeg",
      "scale": [
        1,
        1,
        1
      ],
      "children": [
        5
      ],
      "parent": null,
      "position": [
        0.00371353048831224,
        -0.0108860731124878,
        4.44089199923895e-18
      ],
      "quat": [
        0.420506358146667,
        -0.0285438876599073,
        -0.0430702865123749,
        0.905817091464996
      ],
      "path": "Character1_Reference/Character1_Hips/Character1_LeftUpLeg/Character1_LeftLeg",
      "uniqueBindPose": [
        1,
        0,
        0,
        0,
        0,
        1,
        0,
        0,
        0,
        0,
        1,
        0,
        -0.010452399961650372,
        -0.013270499184727669,
        0.0029663785826414824,
        1
      ]
    },
    {
      "name": "Character1_LeftFoot",
      "scale": [
        1,
        1,
        1
      ],
      "parent": null,
      "position": [
        0.00239629601128399,
        -0.00896722171455622,
        1.19209286886246e-9
      ],
      "quat": [
        -1.38777878078145e-17,
        -2.40741243048404e-34,
        1.73472347597681e-17,
        1
      ],
      "path": "Character1_Reference/Character1_Hips/Character1_LeftUpLeg/Character1_LeftLeg/Character1_LeftFoot",
      "uniqueBindPose": [
        1,
        0,
        0,
        0,
        0,
        1,
        0,
        0,
        0,
        0,
        1,
        0,
        -0.0128486892208457,
        -0.004303270019590855,
        0.0029663785826414824,
        1
      ]
    },
    {
      "name": "Character1_RightUpLeg",
      "scale": [
        1,
        1,
        1
      ],
      "children": [
        7
      ],
      "parent": null,
      "position": [
        -0.00673886761069298,
        -0.00273665902204812,
        -5.9604643443123e-10
      ],
      "quat": [
        -0.273330181837082,
        -0.0286599919199944,
        -0.00657566823065281,
        0.961470723152161
      ],
      "path": "Character1_Reference/Character1_Hips/Character1_RightUpLeg",
      "uniqueBindPose": [
        1,
        0,
        0,
        0,
        0,
        1,
        0,
        0,
        0,
        0,
        1,
        0,
        0.006738859694451094,
        -0.024156570434570312,
        0.0029663785826414824,
        1
      ]
    },
    {
      "name": "Character1_RightLeg",
      "scale": [
        1,
        1,
        1
      ],
      "children": [
        8
      ],
      "parent": null,
      "position": [
        -0.00371353374794126,
        -0.0108860703185201,
        -2.22044599961948e-18
      ],
      "quat": [
        0.446462631225586,
        -0.118716537952423,
        -0.0464973039925098,
        0.885672330856323
      ],
      "path": "Character1_Reference/Character1_Hips/Character1_RightUpLeg/Character1_RightLeg",
      "uniqueBindPose": [
        1,
        0,
        0,
        0,
        0,
        1,
        0,
        0,
        0,
        0,
        1,
        0,
        0.010452399961650372,
        -0.013270499184727669,
        0.0029663785826414824,
        1
      ]
    },
    {
      "name": "Character1_RightFoot",
      "scale": [
        1,
        1,
        1
      ],
      "parent": null,
      "position": [
        -0.00239629740826786,
        -0.00896722823381424,
        -8.94069651646845e-10
      ],
      "quat": [
        -6.93889390390723e-18,
        -5.55111512312578e-17,
        -3.85185988877447e-34,
        1
      ],
      "path": "Character1_Reference/Character1_Hips/Character1_RightUpLeg/Character1_RightLeg/Character1_RightFoot",
      "uniqueBindPose": [
        1,
        0,
        0,
        0,
        0,
        1,
        0,
        0,
        0,
        0,
        1,
        0,
        0.0128486892208457,
        -0.004303270019590855,
        0.0029663785826414824,
        1
      ]
    },
    {
      "name": "Character1_Spine",
      "scale": [
        1,
        1,
        1
      ],
      "children": [
        10
      ],
      "parent": null,
      "position": [
        7.45058043039037e-11,
        0.010767781175673,
        1.38777874976217e-19
      ],
      "quat": [
        0.0951093882322311,
        0.0255222618579865,
        -0.0140692796558142,
        0.995040118694305
      ],
      "path": "Character1_Reference/Character1_Hips/Character1_Spine",
      "uniqueBindPose": [
        1,
        0,
        0,
        0,
        0,
        1,
        0,
        0,
        0,
        0,
        1,
        0,
        0,
        -0.03766099736094475,
        0.0029663785826414824,
        1
      ]
    },
    {
      "name": "Character1_Spine1",
      "scale": [
        1,
        1,
        1
      ],
      "children": [
        11
      ],
      "parent": null,
      "position": [
        5.21540644005114e-10,
        0.00623113848268986,
        -2.38418573772492e-9
      ],
      "quat": [
        0.0513010919094086,
        0.0504420697689056,
        -0.0347029902040958,
        0.996804654598236
      ],
      "path": "Character1_Reference/Character1_Hips/Character1_Spine/Character1_Spine1",
      "uniqueBindPose": [
        1,
        0,
        0,
        0,
        0,
        1,
        0,
        0,
        0,
        0,
        1,
        0,
        0,
        -0.043892137706279755,
        0.0029663785826414824,
        1
      ]
    },
    {
      "name": "Character1_Spine2",
      "scale": [
        1,
        1,
        1
      ],
      "children": [
        12,
        16,
        20
      ],
      "parent": null,
      "position": [
        2.98023217215615e-10,
        0.00623113615438342,
        2.22044599961948e-18
      ],
      "quat": [
        -0.0518493540585041,
        0.0537660159170628,
        -0.0292907766997814,
        0.996776282787323
      ],
      "path": "Character1_Reference/Character1_Hips/Character1_Spine/Character1_Spine1/Character1_Spine2",
      "uniqueBindPose": [
        1,
        0,
        0,
        0,
        0,
        1,
        0,
        0,
        0,
        0,
        1,
        0,
        0,
        -0.05012328177690506,
        0.0029663785826414824,
        1
      ]
    },
    {
      "name": "Character1_LeftShoulder",
      "scale": [
        1,
        1,
        1
      ],
      "children": [
        13
      ],
      "parent": null,
      "position": [
        0.00468312529847026,
        0.00250114919617772,
        -1.78813930329369e-9
      ],
      "quat": [
        -0.0126565489917994,
        -0.141087710857391,
        -0.0226013567298651,
        0.989658176898956
      ],
      "path": "Character1_Reference/Character1_Hips/Character1_Spine/Character1_Spine1/Character1_Spine2/Character1_LeftShoulder",
      "uniqueBindPose": [
        1,
        0,
        0,
        0,
        0,
        1,
        0,
        0,
        0,
        0,
        1,
        0,
        -0.004683129955083132,
        -0.05262443795800209,
        0.0029663785826414824,
        1
      ]
    },
    {
      "name": "Character1_LeftArm",
      "scale": [
        1,
        1,
        1
      ],
      "children": [
        14
      ],
      "parent": null,
      "position": [
        0.00425448827445507,
        -0.00114994519390166,
        5.9604643443123e-10
      ],
      "quat": [
        -0.0927636325359344,
        -0.0187018364667892,
        -0.3881955742836,
        0.916705727577209
      ],
      "path": "Character1_Reference/Character1_Hips/Character1_Spine/Character1_Spine1/Character1_Spine2/Character1_LeftShoulder/Character1_LeftArm",
      "uniqueBindPose": [
        1,
        0.000012833112123189494,
        0,
        0,
        -0.000012833112123189494,
        1,
        0,
        0,
        0,
        0,
        1,
        0,
        -0.008936950005590916,
        -0.051474615931510925,
        0.0029663785826414824,
        1
      ]
    },
    {
      "name": "Character1_LeftForeArm",
      "scale": [
        1,
        1,
        1
      ],
      "children": [
        15
      ],
      "parent": null,
      "position": [
        0.0114695094525814,
        0.0000305771827697754,
        2.98023217215615e-10
      ],
      "quat": [
        -0.160858422517776,
        -0.243477806448936,
        -0.085881695151329,
        0.952610850334167
      ],
      "path": "Character1_Reference/Character1_Hips/Character1_Spine/Character1_Spine1/Character1_Spine2/Character1_LeftShoulder/Character1_LeftArm/Character1_LeftForeArm",
      "uniqueBindPose": [
        1,
        -0.0003593273286242038,
        0,
        0,
        0.0003593273286242038,
        1,
        0,
        0,
        0,
        0,
        1,
        0,
        -0.020425638183951378,
        -0.05149759724736214,
        0.0029663785826414824,
        1
      ]
    },
    {
      "name": "Character1_LeftHand",
      "scale": [
        1,
        1,
        1
      ],
      "parent": null,
      "position": [
        0.012781510129571,
        -0.0000132656095956918,
        4.76837147544984e-9
      ],
      "quat": [
        -7.230646166972e-20,
        -2.77554813170391e-17,
        -0.00260511483065784,
        0.999996602535248
      ],
      "path": "Character1_Reference/Character1_Hips/Character1_Spine/Character1_Spine1/Character1_Spine2/Character1_LeftShoulder/Character1_LeftArm/Character1_LeftForeArm/Character1_LeftHand",
      "uniqueBindPose": [
        0.9999880194664001,
        0.004850894678384066,
        0,
        0,
        -0.004850894678384066,
        0.9999880194664001,
        0,
        0,
        0,
        0,
        1,
        0,
        -0.032938458025455475,
        -0.05165664851665497,
        0.0029663785826414824,
        1
      ]
    },
    {
      "name": "Character1_RightShoulder",
      "scale": [
        1,
        1,
        1
      ],
      "children": [
        17
      ],
      "parent": null,
      "position": [
        -0.00468312622979283,
        0.00250114919617772,
        -5.9604643443123e-10
      ],
      "quat": [
        -0.0405227579176426,
        0.211191475391388,
        0.00341066997498274,
        0.976598381996155
      ],
      "path": "Character1_Reference/Character1_Hips/Character1_Spine/Character1_Spine1/Character1_Spine2/Character1_RightShoulder",
      "uniqueBindPose": [
        1,
        0,
        0,
        0,
        0,
        1,
        0,
        0,
        0,
        0,
        1,
        0,
        0.004683129955083132,
        -0.05262443795800209,
        0.0029663785826414824,
        1
      ]
    },
    {
      "name": "Character1_RightArm",
      "scale": [
        1,
        1,
        1
      ],
      "children": [
        18
      ],
      "parent": null,
      "position": [
        -0.00425449199974537,
        -0.00114994042087346,
        -5.9604643443123e-10
      ],
      "quat": [
        -0.0956729725003242,
        -0.287583529949188,
        0.445338368415833,
        0.842505872249603
      ],
      "path": "Character1_Reference/Character1_Hips/Character1_Spine/Character1_Spine1/Character1_Spine2/Character1_RightShoulder/Character1_RightArm",
      "uniqueBindPose": [
        1,
        -0.00004046304093208164,
        0,
        0,
        0.00004046304093208164,
        1,
        0,
        0,
        0,
        0,
        1,
        0,
        0.008935529738664627,
        -0.05147486925125122,
        0.0029663785826414824,
        1
      ]
    },
    {
      "name": "Character1_RightForeArm",
      "scale": [
        1,
        1,
        1
      ],
      "children": [
        19
      ],
      "parent": null,
      "position": [
        -0.0114695113152266,
        0.0000309038150589913,
        -5.9604643443123e-10
      ],
      "quat": [
        -0.100847825407982,
        0.398590475320816,
        0.0865366086363792,
        0.907450675964355
      ],
      "path": "Character1_Reference/Character1_Hips/Character1_Spine/Character1_Spine1/Character1_Spine2/Character1_RightShoulder/Character1_RightArm/Character1_RightForeArm",
      "uniqueBindPose": [
        0.9999989867210388,
        0.0011329611297696829,
        0,
        0,
        -0.0011329611297696829,
        0.9999989867210388,
        0,
        0,
        0,
        0,
        1,
        0,
        0.020465468987822533,
        -0.05148179084062576,
        0.0029663785826414824,
        1
      ]
    },
    {
      "name": "Character1_RightHand",
      "scale": [
        1,
        1,
        1
      ],
      "parent": null,
      "position": [
        -0.0127815045416355,
        -0.0000231480589718558,
        0
      ],
      "quat": [
        -2.80966122560172e-17,
        4.14039763134151e-17,
        0.008213902823627,
        0.999966263771057
      ],
      "path": "Character1_Reference/Character1_Hips/Character1_Spine/Character1_Spine1/Character1_Spine2/Character1_RightShoulder/Character1_RightArm/Character1_RightForeArm/Character1_RightHand",
      "uniqueBindPose": [
        0.9998829364776611,
        -0.015294414013624191,
        0,
        0,
        0.015294414013624191,
        0.9998829364776611,
        0,
        0,
        0,
        0,
        1,
        0,
        0.032397158443927765,
        -0.0519978366792202,
        0.0029663785826414824,
        1
      ]
    },
    {
      "name": "Character1_Neck",
      "scale": [
        1,
        1,
        1
      ],
      "children": [
        21
      ],
      "parent": null,
      "position": [
        8.94069651646845e-10,
        0.00523113226518035,
        5.9604643443123e-10
      ],
      "quat": [
        0.0199735052883625,
        0.0816498175263405,
        -0.000656869204249233,
        0.996460676193237
      ],
      "path": "Character1_Reference/Character1_Hips/Character1_Spine/Character1_Spine1/Character1_Spine2/Character1_Neck",
      "uniqueBindPose": [
        1,
        0,
        0,
        0,
        0,
        1,
        0,
        0,
        0,
        0,
        1,
        0,
        0,
        -0.055354416370391846,
        0.0029663785826414824,
        1
      ]
    },
    {
      "name": "Character1_Head",
      "scale": [
        1,
        1,
        1
      ],
      "parent": null,
      "position": [
        8.94069651646845e-10,
        0.023577094078064,
        2.38418573772492e-9
      ],
      "quat": [
        2.77555756156289e-17,
        5.55111512312578e-17,
        -1.54074395550979e-33,
        1
      ],
      "path": "Character1_Reference/Character1_Hips/Character1_Spine/Character1_Spine1/Character1_Spine2/Character1_Neck/Character1_Head"
    },
    {
      "name": "stickman_new",
      "scale": [
        1.00000059604645,
        1.00000059604645,
        1.00000059604645
      ],
      "mesh": 0,
      "skin": 0,
      "parent": null,
      "position": [
        0,
        1.6543611881282e-26,
        0.00296637881547213
      ],
      "quat": [
        0,
        0,
        0,
        1
      ],
      "path": "stickman_new"
    }
  ],
  "_precomputeJointMatrix": false
}