{
    "asset": {
        "generator": "FBX2glTF v0.9.7",
        "version": "2.0"
    },
    "scene": 0,
    "buffers": [
        {
            "byteLength": 79500,
            "uri": "buffer.bin"
        }
    ],
    "bufferViews": [
        {
            "buffer": 0,
            "byteLength": 528,
            "byteOffset": 0,
            "target": 34963
        },
        {
            "buffer": 0,
            "byteLength": 1488,
            "byteOffset": 528,
            "target": 34962
        },
        {
            "buffer": 0,
            "byteLength": 1488,
            "byteOffset": 2016,
            "target": 34962
        },
        {
            "buffer": 0,
            "byteLength": 992,
            "byteOffset": 3504,
            "target": 34962
        },
        {
            "buffer": 0,
            "byteLength": 992,
            "byteOffset": 4496,
            "target": 34962
        },
        {
            "buffer": 0,
            "byteLength": 1944,
            "byteOffset": 5488,
            "target": 34963
        },
        {
            "buffer": 0,
            "byteLength": 5628,
            "byteOffset": 7432,
            "target": 34962
        },
        {
            "buffer": 0,
            "byteLength": 5628,
            "byteOffset": 13060,
            "target": 34962
        },
        {
            "buffer": 0,
            "byteLength": 3752,
            "byteOffset": 18688,
            "target": 34962
        },
        {
            "buffer": 0,
            "byteLength": 3752,
            "byteOffset": 22440,
            "target": 34962
        },
        {
            "buffer": 0,
            "byteLength": 2580,
            "byteOffset": 26192,
            "target": 34963
        },
        {
            "buffer": 0,
            "byteLength": 9516,
            "byteOffset": 28772,
            "target": 34962
        },
        {
            "buffer": 0,
            "byteLength": 9516,
            "byteOffset": 38288,
            "target": 34962
        },
        {
            "buffer": 0,
            "byteLength": 6344,
            "byteOffset": 47804,
            "target": 34962
        },
        {
            "buffer": 0,
            "byteLength": 6344,
            "byteOffset": 54148,
            "target": 34962
        },
        {
            "buffer": 0,
            "byteLength": 864,
            "byteOffset": 60492,
            "target": 34963
        },
        {
            "buffer": 0,
            "byteLength": 2592,
            "byteOffset": 61356,
            "target": 34962
        },
        {
            "buffer": 0,
            "byteLength": 2592,
            "byteOffset": 63948,
            "target": 34962
        },
        {
            "buffer": 0,
            "byteLength": 1728,
            "byteOffset": 66540,
            "target": 34962
        },
        {
            "buffer": 0,
            "byteLength": 1728,
            "byteOffset": 68268,
            "target": 34962
        },
        {
            "buffer": 0,
            "byteLength": 864,
            "byteOffset": 69996,
            "target": 34963
        },
        {
            "buffer": 0,
            "byteLength": 2592,
            "byteOffset": 70860,
            "target": 34962
        },
        {
            "buffer": 0,
            "byteLength": 2592,
            "byteOffset": 73452,
            "target": 34962
        },
        {
            "buffer": 0,
            "byteLength": 1728,
            "byteOffset": 76044,
            "target": 34962
        },
        {
            "buffer": 0,
            "byteLength": 1728,
            "byteOffset": 77772,
            "target": 34962
        }
    ],
    "scenes": [
        {
            "name": "Root Scene",
            "nodes": [
                0
            ]
        }
    ],
    "accessors": [
        {
            "componentType": 5123,
            "type": "SCALAR",
            "count": 264,
            "bufferView": 0,
            "byteOffset": 0
        },
        {
            "componentType": 5126,
            "type": "VEC3",
            "count": 124,
            "bufferView": 1,
            "byteOffset": 0,
            "min": [
                -0.163007810711861,
                -0.0899365246295929,
                -0.230419918894768
            ],
            "max": [
                0.168027341365814,
                0.0955175757408142,
                0.218369141221046
            ]
        },
        {
            "componentType": 5126,
            "type": "VEC3",
            "count": 124,
            "bufferView": 2,
            "byteOffset": 0
        },
        {
            "componentType": 5126,
            "type": "VEC2",
            "count": 124,
            "bufferView": 3,
            "byteOffset": 0
        },
        {
            "componentType": 5126,
            "type": "VEC2",
            "count": 124,
            "bufferView": 4,
            "byteOffset": 0
        },
        {
            "componentType": 5123,
            "type": "SCALAR",
            "count": 972,
            "bufferView": 5,
            "byteOffset": 0
        },
        {
            "componentType": 5126,
            "type": "VEC3",
            "count": 469,
            "bufferView": 6,
            "byteOffset": 0,
            "min": [
                -0.163134768605232,
                -0.276914060115814,
                -0.163144528865814
            ],
            "max": [
                0.163076162338257,
                0.518730461597443,
                0.163066402077675
            ]
        },
        {
            "componentType": 5126,
            "type": "VEC3",
            "count": 469,
            "bufferView": 7,
            "byteOffset": 0
        },
        {
            "componentType": 5126,
            "type": "VEC2",
            "count": 469,
            "bufferView": 8,
            "byteOffset": 0
        },
        {
            "componentType": 5126,
            "type": "VEC2",
            "count": 469,
            "bufferView": 9,
            "byteOffset": 0
        },
        {
            "componentType": 5123,
            "type": "SCALAR",
            "count": 1290,
            "bufferView": 10,
            "byteOffset": 0
        },
        {
            "componentType": 5126,
            "type": "VEC3",
            "count": 793,
            "bufferView": 11,
            "byteOffset": 0,
            "min": [
                -0.045488279312849,
                -0.279882818460464,
                -0.477939456701279
            ],
            "max": [
                0.0453906245529652,
                0.152851551771164,
                0.378203123807907
            ]
        },
        {
            "componentType": 5126,
            "type": "VEC3",
            "count": 793,
            "bufferView": 12,
            "byteOffset": 0
        },
        {
            "componentType": 5126,
            "type": "VEC2",
            "count": 793,
            "bufferView": 13,
            "byteOffset": 0
        },
        {
            "componentType": 5126,
            "type": "VEC2",
            "count": 793,
            "bufferView": 14,
            "byteOffset": 0
        },
        {
            "componentType": 5123,
            "type": "SCALAR",
            "count": 432,
            "bufferView": 15,
            "byteOffset": 0
        },
        {
            "componentType": 5126,
            "type": "VEC3",
            "count": 216,
            "bufferView": 16,
            "byteOffset": 0,
            "min": [
                -0.0648339837789536,
                -1.10435545444489,
                -0.064824216067791
            ],
            "max": [
                0.0648339837789536,
                0.552250981330872,
                0.0648437514901161
            ]
        },
        {
            "componentType": 5126,
            "type": "VEC3",
            "count": 216,
            "bufferView": 17,
            "byteOffset": 0
        },
        {
            "componentType": 5126,
            "type": "VEC2",
            "count": 216,
            "bufferView": 18,
            "byteOffset": 0
        },
        {
            "componentType": 5126,
            "type": "VEC2",
            "count": 216,
            "bufferView": 19,
            "byteOffset": 0
        },
        {
            "componentType": 5123,
            "type": "SCALAR",
            "count": 432,
            "bufferView": 20,
            "byteOffset": 0
        },
        {
            "componentType": 5126,
            "type": "VEC3",
            "count": 216,
            "bufferView": 21,
            "byteOffset": 0,
            "min": [
                -0.0648339837789536,
                -1.10435545444489,
                -0.0648243054747581
            ],
            "max": [
                0.0648339837789536,
                1.09775865077972,
                0.0648437514901161
            ]
        },
        {
            "componentType": 5126,
            "type": "VEC3",
            "count": 216,
            "bufferView": 22,
            "byteOffset": 0
        },
        {
            "componentType": 5126,
            "type": "VEC2",
            "count": 216,
            "bufferView": 23,
            "byteOffset": 0
        },
        {
            "componentType": 5126,
            "type": "VEC2",
            "count": 216,
            "bufferView": 24,
            "byteOffset": 0
        }
    ],
    "images": [
        {
            "name": "base_color_texture",
            "uri": "data:image/png;base64,iVBORw0KGgoAAAANSUhEUgAAAAEAAAABCAYAAAAfFcSJAAAADUlEQVR42mP8/5+hHgAHggJ/PchI7wAAAABJRU5ErkJggg=="
        }
    ],
    "samplers": [
        {}
    ],
    "textures": [
        {
            "name": "base_color_texture",
            "sampler": 0,
            "source": 0
        }
    ],
    "materials": [
        {
            "name": "Material.001",
            "alphaMode": "OPAQUE",
            "extras": {
                "fromFBX": {
                    "shadingModel": "Phong",
                    "isTruePBR": false
                }
            },
            "pbrMetallicRoughness": {
                "baseColorTexture": {
                    "index": 0,
                    "texCoord": 0
                },
                "baseColorFactor": [
                    1.0,
                    1.0,
                    1.0,
                    1.0
                ],
                "metallicFactor": 0.400000005960464,
                "roughnessFactor": 0.272165536880493
            }
        }
    ],
    "meshes": [
        {
            "name": "Объект_Куб.055",
            "primitives": [
                {
                    "material": 0,
                    "mode": 4,
                    "attributes": {
                        "NORMAL": 2,
                        "POSITION": 1,
                        "TEXCOORD_0": 3,
                        "TEXCOORD_1": 4
                    },
                    "indices": 0
                }
            ]
        },
        {
            "name": "Объект_Куб.044",
            "primitives": [
                {
                    "material": 0,
                    "mode": 4,
                    "attributes": {
                        "NORMAL": 7,
                        "POSITION": 6,
                        "TEXCOORD_0": 8,
                        "TEXCOORD_1": 9
                    },
                    "indices": 5
                }
            ]
        },
        {
            "name": "Объект_Куб.056",
            "primitives": [
                {
                    "material": 0,
                    "mode": 4,
                    "attributes": {
                        "NORMAL": 12,
                        "POSITION": 11,
                        "TEXCOORD_0": 13,
                        "TEXCOORD_1": 14
                    },
                    "indices": 10
                }
            ]
        },
        {
            "name": "Объект_Куб.068",
            "primitives": [
                {
                    "material": 0,
                    "mode": 4,
                    "attributes": {
                        "NORMAL": 17,
                        "POSITION": 16,
                        "TEXCOORD_0": 18,
                        "TEXCOORD_1": 19
                    },
                    "indices": 15
                }
            ]
        },
        {
            "name": "Объект_Куб.069",
            "primitives": [
                {
                    "material": 0,
                    "mode": 4,
                    "attributes": {
                        "NORMAL": 22,
                        "POSITION": 21,
                        "TEXCOORD_0": 23,
                        "TEXCOORD_1": 24
                    },
                    "indices": 20
                }
            ]
        }
    ],
    "nodes": [
        {
            "name": "RootNode",
            "translation": [
                0.0,
                0.0,
                0.0
            ],
            "rotation": [
                0.0,
                0.0,
                0.0,
                1.0
            ],
            "scale": [
                1.0,
                1.0,
                1.0
            ],
            "children": [
                1
            ]
        },
        {
            "name": "Объект_Куб.055",
            "translation": [
                -0.000100046396255493,
                0.0699867084622383,
                0.0139678781852126
            ],
            "rotation": [
                1.57996818482119e-14,
                1.0,
                -8.14603424714733e-08,
                1.94707183709397e-07
            ],
            "scale": [
                0.0157892052084208,
                0.0157892052084208,
                0.0157892052084208
            ],
            "children": [
                2,
                3,
                4,
                5
            ],
            "mesh": 0
        },
        {
            "name": "Объект_Куб.044",
            "translation": [
                0.00104222178924829,
                -4.1783595085144,
                0.964474439620972
            ],
            "rotation": [
                1.4210854715202e-14,
                -2.8421709430404e-14,
                2.02516250419303e-21,
                1.0
            ],
            "scale": [
                1.0,
                1.0,
                1.0
            ],
            "mesh": 1
        },
        {
            "name": "Объект_Куб.056",
            "translation": [
                0.00105721352156252,
                -0.0991128906607628,
                0.631667673587799
            ],
            "rotation": [
                1.4210854715202e-14,
                -2.8421709430404e-14,
                2.02516250419303e-21,
                1.0
            ],
            "scale": [
                1.0,
                1.0,
                1.0
            ],
            "mesh": 2
        },
        {
            "name": "Объект_Куб.068",
            "translation": [
                0.00101202190853655,
                -2.55527257919312,
                0.964428901672363
            ],
            "rotation": [
                1.4210854715202e-14,
                -2.8421709430404e-14,
                2.02516250419303e-21,
                1.0
            ],
            "scale": [
                1.0,
                1.0,
                1.0
            ],
            "mesh": 3
        },
        {
            "name": "Объект_Куб.069",
            "translation": [
                0.00101202190853655,
                -1.18663418292999,
                0.964428663253784
            ],
            "rotation": [
                9.47807591011049e-15,
                -1.8956151820221e-14,
                2.02516270614142e-21,
                1.0
            ],
            "scale": [
                0.749669849872589,
                0.749669849872589,
                0.749669849872589
            ],
            "mesh": 4
        }
    ]
}