{
  "__type__": "cc.SpriteFrame",
  "content": {
    "name": "CHOOSE YOUR ROLE_EN",
    "texture": "0bbd1011-cfc6-4aec-86ec-9df20ad7b2a2",
    "atlas": "",
    "rect": [
      0,
      0,
      320,
      98
    ],
    "offset": [
      0,
      0
    ],
    "originalSize": [
      320,
      98
    ],
    "capInsets": [
      0,
      0,
      0,
      0
    ]
  }
}