{
  "__type__": "cc.SpriteFrame",
  "content": {
    "name": "254-254-max",
    "texture": "63d973d0-3456-4672-afe0-706e65476953",
    "atlas": "",
    "rect": [
      0,
      0,
      254,
      254
    ],
    "offset": [
      0,
      0
    ],
    "originalSize": [
      254,
      254
    ],
    "capInsets": [
      0,
      0,
      0,
      0
    ]
  }
}