{
  "__type__": "cc.SkeletonAnimationClip",
  "_name": "Armature|hunter_attack",
  "_objFlags": 0,
  "_native": ".bin",
  "_duration": 0.7083333134651184,
  "sample": 30,
  "speed": 1,
  "wrapMode": 2,
  "events": [],
  "description": {
    "Armature/belly": {
      "position": {
        "offset": 0,
        "frameCount": 10
      },
      "quat": {
        "offset": 40,
        "frameCount": 18
      },
      "scale": {
        "offset": 130,
        "frameCount": 1
      }
    },
    "Armature/belly/torso": {
      "quat": {
        "offset": 134,
        "frameCount": 18
      },
      "scale": {
        "offset": 224,
        "frameCount": 1
      },
      "position": {
        "offset": 228,
        "frameCount": 1
      }
    },
    "Armature/belly/torso/head": {
      "quat": {
        "offset": 232,
        "frameCount": 18
      },
      "scale": {
        "offset": 322,
        "frameCount": 1
      },
      "position": {
        "offset": 326,
        "frameCount": 1
      }
    },
    "Armature/belly/torso/arm_up.L": {
      "position": {
        "offset": 330,
        "frameCount": 7
      },
      "quat": {
        "offset": 358,
        "frameCount": 18
      },
      "scale": {
        "offset": 448,
        "frameCount": 1
      }
    },
    "Armature/belly/torso/arm_up.L/arm_down.L": {
      "quat": {
        "offset": 452,
        "frameCount": 11
      },
      "scale": {
        "offset": 507,
        "frameCount": 1
      },
      "position": {
        "offset": 511,
        "frameCount": 1
      }
    },
    "Armature/belly/torso/arm_up.R": {
      "position": {
        "offset": 515,
        "frameCount": 7
      },
      "quat": {
        "offset": 543,
        "frameCount": 18
      },
      "scale": {
        "offset": 633,
        "frameCount": 1
      }
    },
    "Armature/belly/torso/arm_up.R/arm_down.R/hand.R": {
      "quat": {
        "offset": 637,
        "frameCount": 11
      },
      "scale": {
        "offset": 692,
        "frameCount": 1
      },
      "position": {
        "offset": 696,
        "frameCount": 1
      }
    },
    "Armature/belly/torso/arm_up.R/arm_down.R/hand.R/wep.R": {
      "quat": {
        "offset": 700,
        "frameCount": 7
      },
      "scale": {
        "offset": 735,
        "frameCount": 1
      },
      "position": {
        "offset": 739,
        "frameCount": 1
      }
    },
    "Armature/belly/leg_up.L": {
      "quat": {
        "offset": 743,
        "frameCount": 18
      },
      "scale": {
        "offset": 833,
        "frameCount": 1
      },
      "position": {
        "offset": 837,
        "frameCount": 1
      }
    },
    "Armature/belly/leg_up.L/leg_down.L": {
      "quat": {
        "offset": 841,
        "frameCount": 18
      },
      "scale": {
        "offset": 931,
        "frameCount": 1
      },
      "position": {
        "offset": 935,
        "frameCount": 1
      }
    },
    "Armature/belly/leg_up.L/leg_down.L/foot.L": {
      "quat": {
        "offset": 939,
        "frameCount": 18
      },
      "scale": {
        "offset": 1029,
        "frameCount": 2
      },
      "position": {
        "offset": 1037,
        "frameCount": 1
      }
    },
    "Armature/belly/leg_up.R": {
      "quat": {
        "offset": 1041,
        "frameCount": 18
      },
      "scale": {
        "offset": 1131,
        "frameCount": 1
      },
      "position": {
        "offset": 1135,
        "frameCount": 1
      }
    },
    "Armature/belly/leg_up.R/leg_down.R": {
      "quat": {
        "offset": 1139,
        "frameCount": 18
      },
      "scale": {
        "offset": 1229,
        "frameCount": 1
      },
      "position": {
        "offset": 1233,
        "frameCount": 1
      }
    },
    "Armature/belly/leg_up.R/leg_down.R/foot.R": {
      "quat": {
        "offset": 1237,
        "frameCount": 18
      },
      "scale": {
        "offset": 1327,
        "frameCount": 1
      },
      "position": {
        "offset": 1331,
        "frameCount": 1
      }
    },
    "Armature/ik_pole.L": {
      "position": {
        "offset": 1335,
        "frameCount": 5
      },
      "quat": {
        "offset": 1355,
        "frameCount": 1
      },
      "scale": {
        "offset": 1360,
        "frameCount": 1
      }
    },
    "Armature/ik_foot.L": {
      "quat": {
        "offset": 1364,
        "frameCount": 11
      },
      "scale": {
        "offset": 1419,
        "frameCount": 1
      },
      "position": {
        "offset": 1423,
        "frameCount": 1
      }
    },
    "Armature/ik_pole.R": {
      "position": {
        "offset": 1427,
        "frameCount": 9
      },
      "quat": {
        "offset": 1463,
        "frameCount": 1
      },
      "scale": {
        "offset": 1468,
        "frameCount": 1
      }
    },
    "Armature/ik_foot.R": {
      "position": {
        "offset": 1472,
        "frameCount": 12
      },
      "quat": {
        "offset": 1520,
        "frameCount": 12
      },
      "scale": {
        "offset": 1580,
        "frameCount": 1
      }
    },
    "rob": {
      "quat": {
        "offset": 1584,
        "frameCount": 1
      },
      "scale": {
        "offset": 1589,
        "frameCount": 1
      },
      "position": {
        "offset": 1593,
        "frameCount": 1
      }
    },
    "Armature": {
      "quat": {
        "offset": 1597,
        "frameCount": 1
      },
      "scale": {
        "offset": 1602,
        "frameCount": 1
      },
      "position": {
        "offset": 1606,
        "frameCount": 1
      }
    },
    "Armature/belly/torso/head/hair": {
      "quat": {
        "offset": 1610,
        "frameCount": 1
      },
      "scale": {
        "offset": 1615,
        "frameCount": 1
      },
      "position": {
        "offset": 1619,
        "frameCount": 1
      }
    },
    "Armature/belly/torso/arm_up.L/arm_down.L/hand.L": {
      "quat": {
        "offset": 1623,
        "frameCount": 1
      },
      "scale": {
        "offset": 1628,
        "frameCount": 1
      },
      "position": {
        "offset": 1632,
        "frameCount": 1
      }
    },
    "Armature/belly/torso/arm_up.L/arm_down.L/hand.L/wep.L": {
      "quat": {
        "offset": 1636,
        "frameCount": 1
      },
      "scale": {
        "offset": 1641,
        "frameCount": 1
      },
      "position": {
        "offset": 1645,
        "frameCount": 1
      }
    },
    "Armature/belly/torso/arm_up.R/arm_down.R": {
      "quat": {
        "offset": 1649,
        "frameCount": 1
      },
      "scale": {
        "offset": 1654,
        "frameCount": 1
      },
      "position": {
        "offset": 1658,
        "frameCount": 1
      }
    },
    "Armature/belly/torso/arm_up.R/arm_down.R/hand.R/wep.R/rocket": {
      "quat": {
        "offset": 1662,
        "frameCount": 1
      },
      "scale": {
        "offset": 1667,
        "frameCount": 1
      },
      "position": {
        "offset": 1671,
        "frameCount": 1
      }
    },
    "Armature/belly/torso/arm_up.R/arm_down.R/hand.R/wep.R/bazoka1": {
      "quat": {
        "offset": 1675,
        "frameCount": 1
      },
      "scale": {
        "offset": 1680,
        "frameCount": 1
      },
      "position": {
        "offset": 1684,
        "frameCount": 1
      }
    },
    "Armature/belly/torso/arm_up.R/arm_down.R/hand.R/wep.R/bazoka2": {
      "quat": {
        "offset": 1688,
        "frameCount": 1
      },
      "scale": {
        "offset": 1693,
        "frameCount": 1
      },
      "position": {
        "offset": 1697,
        "frameCount": 1
      }
    },
    "Armature/belly/torso/arm_up.R/arm_down.R/hand.R/wep.R/bazoka3": {
      "quat": {
        "offset": 1701,
        "frameCount": 1
      },
      "scale": {
        "offset": 1706,
        "frameCount": 1
      },
      "position": {
        "offset": 1710,
        "frameCount": 1
      }
    },
    "Armature/belly/torso/arm_up.R/arm_down.R/hand.R/wep.R/grenade_launcher": {
      "quat": {
        "offset": 1714,
        "frameCount": 1
      },
      "scale": {
        "offset": 1719,
        "frameCount": 1
      },
      "position": {
        "offset": 1723,
        "frameCount": 1
      }
    },
    "Armature/belly/torso/arm_up.R/arm_down.R/hand.R/wep.R/halo_rocket": {
      "quat": {
        "offset": 1727,
        "frameCount": 1
      },
      "scale": {
        "offset": 1732,
        "frameCount": 1
      },
      "position": {
        "offset": 1736,
        "frameCount": 1
      }
    },
    "Armature/belly/torso/arm_up.R/arm_down.R/hand.R/wep.R/launcher": {
      "quat": {
        "offset": 1740,
        "frameCount": 1
      },
      "scale": {
        "offset": 1745,
        "frameCount": 1
      },
      "position": {
        "offset": 1749,
        "frameCount": 1
      }
    },
    "Armature/belly/torso/arm_up.R/arm_down.R/hand.R/wep.R/launcher1": {
      "quat": {
        "offset": 1753,
        "frameCount": 1
      },
      "scale": {
        "offset": 1758,
        "frameCount": 1
      },
      "position": {
        "offset": 1762,
        "frameCount": 1
      }
    },
    "Armature/belly/torso/arm_up.R/arm_down.R/hand.R/wep.R/launcher2": {
      "quat": {
        "offset": 1766,
        "frameCount": 1
      },
      "scale": {
        "offset": 1771,
        "frameCount": 1
      },
      "position": {
        "offset": 1775,
        "frameCount": 1
      }
    },
    "Armature/belly/torso/arm_up.R/arm_down.R/hand.R/wep.R/launcher3": {
      "quat": {
        "offset": 1779,
        "frameCount": 1
      },
      "scale": {
        "offset": 1784,
        "frameCount": 1
      },
      "position": {
        "offset": 1788,
        "frameCount": 1
      }
    },
    "Armature/belly/torso/arm_up.R/arm_down.R/hand.R/wep.R/pirahna_cannon": {
      "quat": {
        "offset": 1792,
        "frameCount": 1
      },
      "scale": {
        "offset": 1797,
        "frameCount": 1
      },
      "position": {
        "offset": 1801,
        "frameCount": 1
      }
    }
  }
}