{
  "__type__": "cc.SpriteFrame",
  "content": {
    "name": "weapon_katana",
    "texture": "e4c3ffb0-7208-433d-adb7-9943c55aeb01",
    "atlas": "",
    "rect": [
      0,
      0,
      256,
      256
    ],
    "offset": [
      0,
      0
    ],
    "originalSize": [
      256,
      256
    ],
    "capInsets": [
      0,
      0,
      0,
      0
    ]
  }
}