{
  "__type__": "cc.SkeletonAnimationClip",
  "_name": "Take 001",
  "_objFlags": 0,
  "_native": ".bin",
  "_duration": 7.666666507720947,
  "sample": 30,
  "speed": 1,
  "wrapMode": 2,
  "events": [],
  "description": {
    "All_ctrl/all_joint/hip": {
      "position": {
        "offset": 0,
        "frameCount": 62
      },
      "quat": {
        "offset": 248,
        "frameCount": 142
      },
      "scale": {
        "offset": 958,
        "frameCount": 1
      }
    },
    "All_ctrl/all_joint/hip/spine_01": {
      "quat": {
        "offset": 962,
        "frameCount": 106
      },
      "scale": {
        "offset": 1492,
        "frameCount": 1
      },
      "position": {
        "offset": 1496,
        "frameCount": 1
      }
    },
    "All_ctrl/all_joint/hip/spine_01/spine_02": {
      "position": {
        "offset": 1500,
        "frameCount": 65
      },
      "quat": {
        "offset": 1760,
        "frameCount": 123
      },
      "scale": {
        "offset": 2375,
        "frameCount": 1
      }
    },
    "All_ctrl/all_joint/hip/spine_01/spine_02/head": {
      "quat": {
        "offset": 2379,
        "frameCount": 25
      },
      "scale": {
        "offset": 2504,
        "frameCount": 1
      },
      "position": {
        "offset": 2508,
        "frameCount": 1
      }
    },
    "All_ctrl/all_joint/hip/spine_01/spine_02/back": {
      "position": {
        "offset": 2512,
        "frameCount": 14
      },
      "quat": {
        "offset": 2568,
        "frameCount": 61
      },
      "scale": {
        "offset": 2873,
        "frameCount": 1
      }
    },
    "All_ctrl/all_joint/hip/spine_01/spine_02/jaw_up": {
      "quat": {
        "offset": 2877,
        "frameCount": 87
      },
      "scale": {
        "offset": 3312,
        "frameCount": 1
      },
      "position": {
        "offset": 3316,
        "frameCount": 1
      }
    },
    "All_ctrl/all_joint/hip/spine_01/spine_02/Hand_L_01": {
      "position": {
        "offset": 3320,
        "frameCount": 79
      },
      "quat": {
        "offset": 3636,
        "frameCount": 111
      },
      "scale": {
        "offset": 4191,
        "frameCount": 1
      }
    },
    "All_ctrl/all_joint/hip/spine_01/spine_02/Hand_L_01/Thumb_L_01": {
      "position": {
        "offset": 4195,
        "frameCount": 42
      },
      "quat": {
        "offset": 4363,
        "frameCount": 93
      },
      "scale": {
        "offset": 4828,
        "frameCount": 1
      }
    },
    "All_ctrl/all_joint/hip/spine_01/spine_02/Hand_L_01/Thumb_L_01/Thumb_L_02": {
      "position": {
        "offset": 4832,
        "frameCount": 42
      },
      "quat": {
        "offset": 5000,
        "frameCount": 87
      },
      "scale": {
        "offset": 5435,
        "frameCount": 1
      }
    },
    "All_ctrl/all_joint/hip/spine_01/spine_02/Hand_L_01/idex_L_01": {
      "position": {
        "offset": 5439,
        "frameCount": 42
      },
      "quat": {
        "offset": 5607,
        "frameCount": 97
      },
      "scale": {
        "offset": 6092,
        "frameCount": 1
      }
    },
    "All_ctrl/all_joint/hip/spine_01/spine_02/Hand_L_01/idex_L_01/idex_L_02": {
      "position": {
        "offset": 6096,
        "frameCount": 42
      },
      "quat": {
        "offset": 6264,
        "frameCount": 95
      },
      "scale": {
        "offset": 6739,
        "frameCount": 1
      }
    },
    "All_ctrl/all_joint/hip/spine_01/spine_02/Hand_L_01/Ring_L_01": {
      "position": {
        "offset": 6743,
        "frameCount": 42
      },
      "quat": {
        "offset": 6911,
        "frameCount": 98
      },
      "scale": {
        "offset": 7401,
        "frameCount": 1
      }
    },
    "All_ctrl/all_joint/hip/spine_01/spine_02/Hand_L_01/Ring_L_01/Ring_L_02": {
      "position": {
        "offset": 7405,
        "frameCount": 42
      },
      "quat": {
        "offset": 7573,
        "frameCount": 91
      },
      "scale": {
        "offset": 8028,
        "frameCount": 1
      }
    },
    "All_ctrl/all_joint/hip/spine_01/spine_02/Hand_L_01/Little_L_01": {
      "position": {
        "offset": 8032,
        "frameCount": 42
      },
      "quat": {
        "offset": 8200,
        "frameCount": 90
      },
      "scale": {
        "offset": 8650,
        "frameCount": 1
      }
    },
    "All_ctrl/all_joint/hip/spine_01/spine_02/Hand_L_01/Little_L_01/Little_L_02": {
      "position": {
        "offset": 8654,
        "frameCount": 42
      },
      "quat": {
        "offset": 8822,
        "frameCount": 90
      },
      "scale": {
        "offset": 9272,
        "frameCount": 1
      }
    },
    "All_ctrl/all_joint/hip/spine_01/spine_02/Hand_R_01": {
      "position": {
        "offset": 9276,
        "frameCount": 118
      },
      "quat": {
        "offset": 9748,
        "frameCount": 144
      },
      "scale": {
        "offset": 10468,
        "frameCount": 1
      }
    },
    "All_ctrl/all_joint/hip/spine_01/spine_02/Hand_R_01/Thumb_R_01": {
      "position": {
        "offset": 10472,
        "frameCount": 23
      },
      "quat": {
        "offset": 10564,
        "frameCount": 57
      },
      "scale": {
        "offset": 10849,
        "frameCount": 1
      }
    },
    "All_ctrl/all_joint/hip/spine_01/spine_02/Hand_R_01/Thumb_R_01/Thumb_R_02": {
      "position": {
        "offset": 10853,
        "frameCount": 23
      },
      "quat": {
        "offset": 10945,
        "frameCount": 43
      },
      "scale": {
        "offset": 11160,
        "frameCount": 1
      }
    },
    "All_ctrl/all_joint/hip/spine_01/spine_02/Hand_R_01/idex_R_01": {
      "position": {
        "offset": 11164,
        "frameCount": 23
      },
      "quat": {
        "offset": 11256,
        "frameCount": 51
      },
      "scale": {
        "offset": 11511,
        "frameCount": 1
      }
    },
    "All_ctrl/all_joint/hip/spine_01/spine_02/Hand_R_01/idex_R_01/idex_R_02": {
      "position": {
        "offset": 11515,
        "frameCount": 23
      },
      "quat": {
        "offset": 11607,
        "frameCount": 27
      },
      "scale": {
        "offset": 11742,
        "frameCount": 1
      }
    },
    "All_ctrl/all_joint/hip/spine_01/spine_02/Hand_R_01/Ring_R_01": {
      "position": {
        "offset": 11746,
        "frameCount": 23
      },
      "quat": {
        "offset": 11838,
        "frameCount": 60
      },
      "scale": {
        "offset": 12138,
        "frameCount": 1
      }
    },
    "All_ctrl/all_joint/hip/spine_01/spine_02/Hand_R_01/Ring_R_01/Ring_R_02": {
      "position": {
        "offset": 12142,
        "frameCount": 23
      },
      "quat": {
        "offset": 12234,
        "frameCount": 26
      },
      "scale": {
        "offset": 12364,
        "frameCount": 1
      }
    },
    "All_ctrl/all_joint/hip/spine_01/spine_02/Hand_R_01/Little_R_01": {
      "position": {
        "offset": 12368,
        "frameCount": 23
      },
      "quat": {
        "offset": 12460,
        "frameCount": 69
      },
      "scale": {
        "offset": 12805,
        "frameCount": 1
      }
    },
    "All_ctrl/all_joint/hip/spine_01/spine_02/Hand_R_01/Little_R_01/Little_R_02": {
      "position": {
        "offset": 12809,
        "frameCount": 23
      },
      "quat": {
        "offset": 12901,
        "frameCount": 26
      },
      "scale": {
        "offset": 13031,
        "frameCount": 1
      }
    },
    "All_ctrl/all_joint/hip/spine_01/spine_02/Hand_R_01/weapon_gun_joint": {
      "position": {
        "offset": 13035,
        "frameCount": 28
      },
      "quat": {
        "offset": 13147,
        "frameCount": 49
      },
      "scale": {
        "offset": 13392,
        "frameCount": 1
      }
    },
    "All_ctrl/all_joint/hip/spine_01/spine_02/Hand_R_01/weapon_katana_joint": {
      "position": {
        "offset": 13396,
        "frameCount": 24
      },
      "quat": {
        "offset": 13492,
        "frameCount": 34
      },
      "scale": {
        "offset": 13662,
        "frameCount": 1
      }
    },
    "All_ctrl/all_joint/hip/spine_01/spine_02/Hand_R_01/weapon_knife_joint": {
      "position": {
        "offset": 13666,
        "frameCount": 29
      },
      "quat": {
        "offset": 13782,
        "frameCount": 36
      },
      "scale": {
        "offset": 13962,
        "frameCount": 1
      }
    },
    "All_ctrl/all_joint/hip/spine_01/spine_02/Hand_R_01/weapon_bazooka_joint": {
      "position": {
        "offset": 13966,
        "frameCount": 27
      },
      "quat": {
        "offset": 14074,
        "frameCount": 27
      },
      "scale": {
        "offset": 14209,
        "frameCount": 1
      }
    },
    "All_ctrl/all_joint/hip/spine_01/spine_02/Hand_R_01/weapon_bua_joint": {
      "position": {
        "offset": 14213,
        "frameCount": 23
      },
      "quat": {
        "offset": 14305,
        "frameCount": 27
      },
      "scale": {
        "offset": 14440,
        "frameCount": 1
      }
    },
    "All_ctrl/all_joint/hip/spine_01/jaw_down": {
      "position": {
        "offset": 14444,
        "frameCount": 5
      },
      "quat": {
        "offset": 14464,
        "frameCount": 105
      },
      "scale": {
        "offset": 14989,
        "frameCount": 1
      }
    },
    "All_ctrl/all_joint/hip/leg_L": {
      "quat": {
        "offset": 14993,
        "frameCount": 144
      },
      "scale": {
        "offset": 15713,
        "frameCount": 1
      },
      "position": {
        "offset": 15717,
        "frameCount": 1
      }
    },
    "All_ctrl/all_joint/hip/leg_L/knee_L": {
      "quat": {
        "offset": 15721,
        "frameCount": 136
      },
      "scale": {
        "offset": 16401,
        "frameCount": 1
      },
      "position": {
        "offset": 16405,
        "frameCount": 1
      }
    },
    "All_ctrl/all_joint/hip/leg_L/knee_L/feet_L": {
      "quat": {
        "offset": 16409,
        "frameCount": 144
      },
      "scale": {
        "offset": 17129,
        "frameCount": 1
      },
      "position": {
        "offset": 17133,
        "frameCount": 1
      }
    },
    "All_ctrl/all_joint/hip/leg_R": {
      "quat": {
        "offset": 17137,
        "frameCount": 144
      },
      "scale": {
        "offset": 17857,
        "frameCount": 1
      },
      "position": {
        "offset": 17861,
        "frameCount": 1
      }
    },
    "All_ctrl/all_joint/hip/leg_R/knee_R": {
      "quat": {
        "offset": 17865,
        "frameCount": 137
      },
      "scale": {
        "offset": 18550,
        "frameCount": 1
      },
      "position": {
        "offset": 18554,
        "frameCount": 1
      }
    },
    "All_ctrl/all_joint/hip/leg_R/knee_R/feet_R": {
      "quat": {
        "offset": 18558,
        "frameCount": 144
      },
      "scale": {
        "offset": 19278,
        "frameCount": 1
      },
      "position": {
        "offset": 19282,
        "frameCount": 1
      }
    },
    "AmongUS": {
      "quat": {
        "offset": 19286,
        "frameCount": 1
      },
      "scale": {
        "offset": 19291,
        "frameCount": 1
      },
      "position": {
        "offset": 19295,
        "frameCount": 1
      }
    },
    "AmongUS/Luoi": {
      "quat": {
        "offset": 19299,
        "frameCount": 1
      },
      "scale": {
        "offset": 19304,
        "frameCount": 1
      },
      "position": {
        "offset": 19308,
        "frameCount": 1
      }
    },
    "AmongUS/Hand3": {
      "quat": {
        "offset": 19312,
        "frameCount": 1
      },
      "scale": {
        "offset": 19317,
        "frameCount": 1
      },
      "position": {
        "offset": 19321,
        "frameCount": 1
      }
    },
    "All_ctrl": {
      "quat": {
        "offset": 19325,
        "frameCount": 1
      },
      "scale": {
        "offset": 19330,
        "frameCount": 1
      },
      "position": {
        "offset": 19334,
        "frameCount": 1
      }
    },
    "All_ctrl/all_joint": {
      "quat": {
        "offset": 19338,
        "frameCount": 1
      },
      "scale": {
        "offset": 19343,
        "frameCount": 1
      },
      "position": {
        "offset": 19347,
        "frameCount": 1
      }
    },
    "All_ctrl/all_joint/hip/spine_01/jaw_down/jaw_down1": {
      "quat": {
        "offset": 19351,
        "frameCount": 1
      },
      "scale": {
        "offset": 19356,
        "frameCount": 1
      },
      "position": {
        "offset": 19360,
        "frameCount": 1
      }
    },
    "All_ctrl/all_joint/hip/spine_01/jaw_down/Luoi1": {
      "quat": {
        "offset": 19364,
        "frameCount": 1
      },
      "scale": {
        "offset": 19369,
        "frameCount": 1
      },
      "position": {
        "offset": 19373,
        "frameCount": 1
      }
    },
    "All_ctrl/all_joint/hip/spine_01/jaw_down/Luoi1/Luoi2": {
      "quat": {
        "offset": 19377,
        "frameCount": 1
      },
      "scale": {
        "offset": 19382,
        "frameCount": 1
      },
      "position": {
        "offset": 19386,
        "frameCount": 1
      }
    },
    "All_ctrl/all_joint/hip/spine_01/jaw_down/Luoi1/Luoi2/Luoi3": {
      "quat": {
        "offset": 19390,
        "frameCount": 1
      },
      "scale": {
        "offset": 19395,
        "frameCount": 1
      },
      "position": {
        "offset": 19399,
        "frameCount": 1
      }
    },
    "All_ctrl/all_joint/hip/spine_01/jaw_down/Luoi1/Luoi2/Luoi3/Luoi4": {
      "quat": {
        "offset": 19403,
        "frameCount": 1
      },
      "scale": {
        "offset": 19408,
        "frameCount": 1
      },
      "position": {
        "offset": 19412,
        "frameCount": 1
      }
    },
    "All_ctrl/all_joint/hip/spine_01/jaw_down/Luoi1/Luoi2/Luoi3/Luoi4/Luoi5": {
      "quat": {
        "offset": 19416,
        "frameCount": 1
      },
      "scale": {
        "offset": 19421,
        "frameCount": 1
      },
      "position": {
        "offset": 19425,
        "frameCount": 1
      }
    },
    "All_ctrl/all_joint/hip/spine_01/jaw_down/Luoi1/Luoi2/Luoi3/Luoi4/Luoi5/Luoi6": {
      "quat": {
        "offset": 19429,
        "frameCount": 1
      },
      "scale": {
        "offset": 19434,
        "frameCount": 1
      },
      "position": {
        "offset": 19438,
        "frameCount": 1
      }
    },
    "All_ctrl/all_joint/hip/spine_01/jaw_down/Luoi1/Luoi2/Luoi3/Luoi4/Luoi5/Luoi6/Luoi7": {
      "quat": {
        "offset": 19442,
        "frameCount": 1
      },
      "scale": {
        "offset": 19447,
        "frameCount": 1
      },
      "position": {
        "offset": 19451,
        "frameCount": 1
      }
    },
    "All_ctrl/all_joint/hip/spine_01/jaw_down/Luoi1/Luoi2/Luoi3/Luoi4/Luoi5/Luoi6/Luoi7/Luoi8": {
      "quat": {
        "offset": 19455,
        "frameCount": 1
      },
      "scale": {
        "offset": 19460,
        "frameCount": 1
      },
      "position": {
        "offset": 19464,
        "frameCount": 1
      }
    },
    "All_ctrl/all_joint/hip/spine_01/jaw_down/Luoi1/Luoi2/Luoi3/Luoi4/Luoi5/Luoi6/Luoi7/Luoi8/Luoi9": {
      "quat": {
        "offset": 19468,
        "frameCount": 1
      },
      "scale": {
        "offset": 19473,
        "frameCount": 1
      },
      "position": {
        "offset": 19477,
        "frameCount": 1
      }
    },
    "All_ctrl/all_joint/hip/leg_L/knee_L/feet_L/feet_L_end": {
      "quat": {
        "offset": 19481,
        "frameCount": 1
      },
      "scale": {
        "offset": 19486,
        "frameCount": 1
      },
      "position": {
        "offset": 19490,
        "frameCount": 1
      }
    },
    "All_ctrl/all_joint/hip/leg_R/knee_R/feet_R/feet_R_end": {
      "quat": {
        "offset": 19494,
        "frameCount": 1
      },
      "scale": {
        "offset": 19499,
        "frameCount": 1
      },
      "position": {
        "offset": 19503,
        "frameCount": 1
      }
    },
    "weapon_gun": {
      "quat": {
        "offset": 19507,
        "frameCount": 1
      },
      "scale": {
        "offset": 19512,
        "frameCount": 1
      },
      "position": {
        "offset": 19516,
        "frameCount": 1
      }
    },
    "weapon_katana": {
      "quat": {
        "offset": 19520,
        "frameCount": 1
      },
      "scale": {
        "offset": 19525,
        "frameCount": 1
      },
      "position": {
        "offset": 19529,
        "frameCount": 1
      }
    },
    "weapon_knife": {
      "quat": {
        "offset": 19533,
        "frameCount": 1
      },
      "scale": {
        "offset": 19538,
        "frameCount": 1
      },
      "position": {
        "offset": 19542,
        "frameCount": 1
      }
    },
    "weapon_bazooka": {
      "quat": {
        "offset": 19546,
        "frameCount": 1
      },
      "scale": {
        "offset": 19551,
        "frameCount": 1
      },
      "position": {
        "offset": 19555,
        "frameCount": 1
      }
    },
    "Bua": {
      "quat": {
        "offset": 19559,
        "frameCount": 1
      },
      "scale": {
        "offset": 19564,
        "frameCount": 1
      },
      "position": {
        "offset": 19568,
        "frameCount": 1
      }
    }
  }
}