{
  "__type__": "cc.SpriteFrame",
  "content": {
    "name": "color_pink",
    "texture": "dda78cba-af8f-4318-86db-14fb266595c2",
    "atlas": "",
    "rect": [
      0,
      0,
      320,
      320
    ],
    "offset": [
      0,
      0
    ],
    "originalSize": [
      320,
      320
    ],
    "capInsets": [
      0,
      0,
      0,
      0
    ]
  }
}