{
  "__type__": "cc.Skeleton",
  "_name": "",
  "_objFlags": 0,
  "_native": "",
  "_model": {
    "__uuid__": "1e2b3f54-1409-452c-9705-3ee685cfad2c"
  },
  "_jointIndices": [
    10,
    11,
    12,
    13,
    23,
    2,
    3,
    9,
    4,
    5,
    6,
    7,
    16,
    14,
    15,
    17,
    8,
    18,
    19
  ],
  "_skinIndex": 0
}