{
  "__type__": "cc.SpriteFrame",
  "content": {
    "name": "texture_winter_map",
    "texture": "6b9783f8-5ea4-4af4-a2bc-8e8e5dc40e2c",
    "atlas": "",
    "rect": [
      0,
      0,
      320,
      320
    ],
    "offset": [
      0,
      0
    ],
    "originalSize": [
      320,
      320
    ],
    "capInsets": [
      0,
      0,
      0,
      0
    ]
  }
}