{
  "__type__": "cc.Material",
  "_name": "Batman - 001",
  "_objFlags": 0,
  "_native": "",
  "_effectAsset": {
    "__uuid__": "abc2cb62-7852-4525-a90d-d474487b88f2"
  },
  "_techniqueIndex": 0,
  "_techniqueData": {
    "0": {
      "defines": {
        "USE_DIFFUSE_TEXTURE": true,
        "USE_EMISSIVE": true,
        "USE_EMISSIVE_TEXTURE": true
      },
      "props": {
        "emissiveColor": {
          "__type__": "cc.Color",
          "r": 218,
          "g": 218,
          "b": 218,
          "a": 255
        },
        "diffuseTexture": {
          "__uuid__": "69bd5dab-29a2-4c0d-bf41-5afd6e999835"
        },
        "emissiveTexture": {
          "__uuid__": "69bd5dab-29a2-4c0d-bf41-5afd6e999835"
        }
      }
    }
  }
}