{
  "__type__": "cc.Material",
  "_name": "Goku",
  "_objFlags": 0,
  "_native": "",
  "_effectAsset": {
    "__uuid__": "abc2cb62-7852-4525-a90d-d474487b88f2"
  },
  "_techniqueIndex": 0,
  "_techniqueData": {
    "0": {
      "defines": {
        "USE_DIFFUSE_TEXTURE": true,
        "USE_EMISSIVE": true,
        "USE_EMISSIVE_TEXTURE": true
      },
      "props": {
        "emissiveColor": {
          "__type__": "cc.Color",
          "r": 180,
          "g": 177,
          "b": 177,
          "a": 255
        },
        "diffuseTexture": {
          "__uuid__": "935bcdf7-b476-43f0-a691-daf14abcb89c"
        },
        "emissiveTexture": {
          "__uuid__": "935bcdf7-b476-43f0-a691-daf14abcb89c"
        }
      }
    }
  }
}