{
  "__type__": "cc.SkeletonAnimationClip",
  "_name": "Armature|rob_win_5",
  "_objFlags": 0,
  "_native": ".bin",
  "_duration": 6.833333492279053,
  "sample": 30,
  "speed": 1,
  "wrapMode": 2,
  "events": [],
  "description": {
    "Armature/belly": {
      "position": {
        "offset": 0,
        "frameCount": 70
      },
      "quat": {
        "offset": 280,
        "frameCount": 152
      },
      "scale": {
        "offset": 1040,
        "frameCount": 1
      }
    },
    "Armature/belly/torso": {
      "quat": {
        "offset": 1044,
        "frameCount": 156
      },
      "scale": {
        "offset": 1824,
        "frameCount": 1
      },
      "position": {
        "offset": 1828,
        "frameCount": 1
      }
    },
    "Armature/belly/torso/head": {
      "quat": {
        "offset": 1832,
        "frameCount": 160
      },
      "scale": {
        "offset": 2632,
        "frameCount": 1
      },
      "position": {
        "offset": 2636,
        "frameCount": 1
      }
    },
    "Armature/belly/torso/arm_up.L": {
      "quat": {
        "offset": 2640,
        "frameCount": 85
      },
      "scale": {
        "offset": 3065,
        "frameCount": 1
      },
      "position": {
        "offset": 3069,
        "frameCount": 1
      }
    },
    "Armature/belly/torso/arm_up.L/arm_down.L": {
      "quat": {
        "offset": 3073,
        "frameCount": 85
      },
      "scale": {
        "offset": 3498,
        "frameCount": 1
      },
      "position": {
        "offset": 3502,
        "frameCount": 1
      }
    },
    "Armature/belly/torso/arm_up.R": {
      "quat": {
        "offset": 3506,
        "frameCount": 80
      },
      "scale": {
        "offset": 3906,
        "frameCount": 1
      },
      "position": {
        "offset": 3910,
        "frameCount": 1
      }
    },
    "Armature/belly/torso/arm_up.R/arm_down.R": {
      "quat": {
        "offset": 3914,
        "frameCount": 79
      },
      "scale": {
        "offset": 4309,
        "frameCount": 1
      },
      "position": {
        "offset": 4313,
        "frameCount": 1
      }
    },
    "Armature/belly/leg_up.L": {
      "quat": {
        "offset": 4317,
        "frameCount": 165
      },
      "scale": {
        "offset": 5142,
        "frameCount": 1
      },
      "position": {
        "offset": 5146,
        "frameCount": 1
      }
    },
    "Armature/belly/leg_up.L/leg_down.L": {
      "quat": {
        "offset": 5150,
        "frameCount": 161
      },
      "scale": {
        "offset": 5955,
        "frameCount": 1
      },
      "position": {
        "offset": 5959,
        "frameCount": 1
      }
    },
    "Armature/belly/leg_up.L/leg_down.L/foot.L": {
      "quat": {
        "offset": 5963,
        "frameCount": 165
      },
      "scale": {
        "offset": 6788,
        "frameCount": 1
      },
      "position": {
        "offset": 6792,
        "frameCount": 1
      }
    },
    "Armature/belly/leg_up.R": {
      "quat": {
        "offset": 6796,
        "frameCount": 165
      },
      "scale": {
        "offset": 7621,
        "frameCount": 1
      },
      "position": {
        "offset": 7625,
        "frameCount": 1
      }
    },
    "Armature/belly/leg_up.R/leg_down.R": {
      "quat": {
        "offset": 7629,
        "frameCount": 165
      },
      "scale": {
        "offset": 8454,
        "frameCount": 1
      },
      "position": {
        "offset": 8458,
        "frameCount": 1
      }
    },
    "Armature/belly/leg_up.R/leg_down.R/foot.R": {
      "quat": {
        "offset": 8462,
        "frameCount": 165
      },
      "scale": {
        "offset": 9287,
        "frameCount": 1
      },
      "position": {
        "offset": 9291,
        "frameCount": 1
      }
    },
    "Armature/ik_pole.L": {
      "position": {
        "offset": 9295,
        "frameCount": 61
      },
      "quat": {
        "offset": 9539,
        "frameCount": 1
      },
      "scale": {
        "offset": 9544,
        "frameCount": 1
      }
    },
    "Armature/ik_foot.L": {
      "position": {
        "offset": 9548,
        "frameCount": 65
      },
      "quat": {
        "offset": 9808,
        "frameCount": 108
      },
      "scale": {
        "offset": 10348,
        "frameCount": 1
      }
    },
    "Armature/ik_pole.R": {
      "position": {
        "offset": 10352,
        "frameCount": 61
      },
      "quat": {
        "offset": 10596,
        "frameCount": 1
      },
      "scale": {
        "offset": 10601,
        "frameCount": 1
      }
    },
    "Armature/ik_foot.R": {
      "position": {
        "offset": 10605,
        "frameCount": 63
      },
      "quat": {
        "offset": 10857,
        "frameCount": 106
      },
      "scale": {
        "offset": 11387,
        "frameCount": 1
      }
    },
    "rob": {
      "quat": {
        "offset": 11391,
        "frameCount": 1
      },
      "scale": {
        "offset": 11396,
        "frameCount": 1
      },
      "position": {
        "offset": 11400,
        "frameCount": 1
      }
    },
    "Armature": {
      "quat": {
        "offset": 11404,
        "frameCount": 1
      },
      "scale": {
        "offset": 11409,
        "frameCount": 1
      },
      "position": {
        "offset": 11413,
        "frameCount": 1
      }
    },
    "Armature/belly/torso/head/hair": {
      "quat": {
        "offset": 11417,
        "frameCount": 1
      },
      "scale": {
        "offset": 11422,
        "frameCount": 1
      },
      "position": {
        "offset": 11426,
        "frameCount": 1
      }
    },
    "Armature/belly/torso/arm_up.L/arm_down.L/hand.L": {
      "quat": {
        "offset": 11430,
        "frameCount": 1
      },
      "scale": {
        "offset": 11435,
        "frameCount": 1
      },
      "position": {
        "offset": 11439,
        "frameCount": 1
      }
    },
    "Armature/belly/torso/arm_up.L/arm_down.L/hand.L/wep.L": {
      "quat": {
        "offset": 11443,
        "frameCount": 1
      },
      "scale": {
        "offset": 11448,
        "frameCount": 1
      },
      "position": {
        "offset": 11452,
        "frameCount": 1
      }
    },
    "Armature/belly/torso/arm_up.R/arm_down.R/hand.R": {
      "quat": {
        "offset": 11456,
        "frameCount": 1
      },
      "scale": {
        "offset": 11461,
        "frameCount": 1
      },
      "position": {
        "offset": 11465,
        "frameCount": 1
      }
    },
    "Armature/belly/torso/arm_up.R/arm_down.R/hand.R/wep.R": {
      "quat": {
        "offset": 11469,
        "frameCount": 1
      },
      "scale": {
        "offset": 11474,
        "frameCount": 1
      },
      "position": {
        "offset": 11478,
        "frameCount": 1
      }
    }
  }
}