[
  {
    "__type__": "cc.Mesh",
    "_name": "",
    "_objFlags": 0,
    "_native": ".bin",
    "_vertexBundles": [
      {
        "__id__": 1
      },
      {
        "__id__": 6
      }
    ],
    "_primitives": [
      {
        "__id__": 11
      },
      {
        "__id__": 13
      }
    ],
    "_minPos": {
      "__type__": "cc.Vec3",
      "x": -0.00545826787129045,
      "y": -0.00408899551257491,
      "z": -0.000299095379887149
    },
    "_maxPos": {
      "__type__": "cc.Vec3",
      "x": 0.00471316929906607,
      "y": 0.00494032632559538,
      "z": 0.000123001300380565
    }
  },
  {
    "__type__": "cc.mesh.VertexBundle",
    "data": {
      "__id__": 2
    },
    "formats": [
      {
        "__id__": 3
      },
      {
        "__id__": 4
      },
      {
        "__id__": 5
      }
    ],
    "verticesCount": 50
  },
  {
    "__type__": "cc.BufferRange",
    "offset": 0,
    "length": 1600
  },
  {
    "__type__": "cc.mesh.VertexFormat",
    "name": "a_normal",
    "type": 5126,
    "num": 3,
    "normalize": false
  },
  {
    "__type__": "cc.mesh.VertexFormat",
    "name": "a_position",
    "type": 5126,
    "num": 3,
    "normalize": false
  },
  {
    "__type__": "cc.mesh.VertexFormat",
    "name": "a_uv0",
    "type": 5126,
    "num": 2,
    "normalize": false
  },
  {
    "__type__": "cc.mesh.VertexBundle",
    "data": {
      "__id__": 7
    },
    "formats": [
      {
        "__id__": 8
      },
      {
        "__id__": 9
      },
      {
        "__id__": 10
      }
    ],
    "verticesCount": 50
  },
  {
    "__type__": "cc.BufferRange",
    "offset": 1792,
    "length": 1600
  },
  {
    "__type__": "cc.mesh.VertexFormat",
    "name": "a_normal",
    "type": 5126,
    "num": 3,
    "normalize": false
  },
  {
    "__type__": "cc.mesh.VertexFormat",
    "name": "a_position",
    "type": 5126,
    "num": 3,
    "normalize": false
  },
  {
    "__type__": "cc.mesh.VertexFormat",
    "name": "a_uv0",
    "type": 5126,
    "num": 2,
    "normalize": false
  },
  {
    "__type__": "cc.mesh.Primitive",
    "vertexBundleIndices": [
      0
    ],
    "data": {
      "__id__": 12
    },
    "indexUnit": 5123,
    "topology": 4
  },
  {
    "__type__": "cc.BufferRange",
    "offset": 1600,
    "length": 192
  },
  {
    "__type__": "cc.mesh.Primitive",
    "vertexBundleIndices": [
      1
    ],
    "data": {
      "__id__": 14
    },
    "indexUnit": 5123,
    "topology": 4
  },
  {
    "__type__": "cc.BufferRange",
    "offset": 3392,
    "length": 192
  }
]