{
  "__type__": "cc.SpriteFrame",
  "content": {
    "name": "continue",
    "texture": "5f95ab02-a59f-41be-a720-dd02eb052b1f",
    "atlas": "",
    "rect": [
      0,
      0,
      253,
      96
    ],
    "offset": [
      0,
      0
    ],
    "originalSize": [
      253,
      96
    ],
    "capInsets": [
      0,
      0,
      0,
      0
    ]
  }
}