{
  "__type__": "cc.Model",
  "_name": "buicay",
  "_objFlags": 0,
  "_native": "",
  "_nodes": [
    {
      "name": "RootNode",
      "scale": [
        1,
        1,
        1
      ],
      "children": [
        1
      ],
      "position": [
        0,
        0,
        0
      ],
      "quat": [
        0,
        0,
        0,
        1
      ],
      "path": ""
    },
    {
      "name": "buicay",
      "scale": [
        1,
        1,
        1
      ],
      "children": [
        2,
        3,
        4,
        5,
        6,
        7
      ],
      "parent": null,
      "position": [
        0,
        0,
        0
      ],
      "quat": [
        0,
        0,
        0,
        1
      ],
      "path": "buicay"
    },
    {
      "name": "buicay_1",
      "scale": [
        1,
        1,
        1
      ],
      "mesh": 0,
      "parent": null,
      "position": [
        0,
        0,
        0
      ],
      "quat": [
        0,
        0,
        0,
        1
      ],
      "path": "buicay/buicay_1"
    },
    {
      "name": "buicay_2",
      "scale": [
        1,
        1,
        1
      ],
      "mesh": 1,
      "parent": null,
      "position": [
        0,
        0,
        0
      ],
      "quat": [
        0,
        0,
        0,
        1
      ],
      "path": "buicay/buicay_2"
    },
    {
      "name": "buicay_3",
      "scale": [
        1,
        1,
        1
      ],
      "mesh": 2,
      "parent": null,
      "position": [
        0,
        0,
        0
      ],
      "quat": [
        0,
        0,
        0,
        1
      ],
      "path": "buicay/buicay_3"
    },
    {
      "name": "buicay_4",
      "scale": [
        1,
        1,
        1
      ],
      "mesh": 3,
      "parent": null,
      "position": [
        0,
        0,
        0
      ],
      "quat": [
        0,
        0,
        0,
        1
      ],
      "path": "buicay/buicay_4"
    },
    {
      "name": "buicay_5",
      "scale": [
        1,
        1,
        1
      ],
      "mesh": 4,
      "parent": null,
      "position": [
        0,
        0,
        0
      ],
      "quat": [
        0,
        0,
        0,
        1
      ],
      "path": "buicay/buicay_5"
    },
    {
      "name": "buicay_6",
      "scale": [
        1,
        1,
        1
      ],
      "mesh": 5,
      "parent": null,
      "position": [
        0,
        0,
        0
      ],
      "quat": [
        0,
        0,
        0,
        1
      ],
      "path": "buicay/buicay_6"
    }
  ],
  "_precomputeJointMatrix": false
}