{
  "__type__": "cc.SpriteFrame",
  "content": {
    "name": "Customize your imposter_EN",
    "texture": "ee24e9a7-1c5b-4861-926c-3e9e6963508f",
    "atlas": "",
    "rect": [
      0,
      0,
      474,
      119
    ],
    "offset": [
      0,
      0
    ],
    "originalSize": [
      474,
      119
    ],
    "capInsets": [
      0,
      0,
      0,
      0
    ]
  }
}