{
  "__type__": "cc.SkeletonAnimationClip",
  "_name": "Idle",
  "_objFlags": 0,
  "_native": ".bin",
  "_duration": 0.75,
  "sample": 30,
  "speed": 1,
  "wrapMode": 2,
  "events": [],
  "description": {
    "Character1_Reference": {
      "quat": {
        "offset": 0,
        "frameCount": 17
      },
      "scale": {
        "offset": 85,
        "frameCount": 1
      },
      "position": {
        "offset": 89,
        "frameCount": 1
      }
    },
    "Character1_Reference/Character1_Hips/Character1_LeftUpLeg": {
      "quat": {
        "offset": 93,
        "frameCount": 17
      },
      "scale": {
        "offset": 178,
        "frameCount": 1
      },
      "position": {
        "offset": 182,
        "frameCount": 1
      }
    },
    "Character1_Reference/Character1_Hips/Character1_LeftUpLeg/Character1_LeftLeg": {
      "quat": {
        "offset": 186,
        "frameCount": 18
      },
      "scale": {
        "offset": 276,
        "frameCount": 1
      },
      "position": {
        "offset": 280,
        "frameCount": 1
      }
    },
    "Character1_Reference/Character1_Hips/Character1_RightUpLeg": {
      "quat": {
        "offset": 284,
        "frameCount": 17
      },
      "scale": {
        "offset": 369,
        "frameCount": 1
      },
      "position": {
        "offset": 373,
        "frameCount": 1
      }
    },
    "Character1_Reference/Character1_Hips/Character1_RightUpLeg/Character1_RightLeg": {
      "quat": {
        "offset": 377,
        "frameCount": 17
      },
      "scale": {
        "offset": 462,
        "frameCount": 1
      },
      "position": {
        "offset": 466,
        "frameCount": 1
      }
    },
    "Character1_Reference/Character1_Hips/Character1_Spine": {
      "quat": {
        "offset": 470,
        "frameCount": 16
      },
      "scale": {
        "offset": 550,
        "frameCount": 1
      },
      "position": {
        "offset": 554,
        "frameCount": 1
      }
    },
    "Character1_Reference/Character1_Hips/Character1_Spine/Character1_Spine1": {
      "quat": {
        "offset": 558,
        "frameCount": 12
      },
      "scale": {
        "offset": 618,
        "frameCount": 1
      },
      "position": {
        "offset": 622,
        "frameCount": 1
      }
    },
    "Character1_Reference/Character1_Hips/Character1_Spine/Character1_Spine1/Character1_Spine2": {
      "quat": {
        "offset": 626,
        "frameCount": 13
      },
      "scale": {
        "offset": 691,
        "frameCount": 1
      },
      "position": {
        "offset": 695,
        "frameCount": 1
      }
    },
    "Character1_Reference/Character1_Hips/Character1_Spine/Character1_Spine1/Character1_Spine2/Character1_LeftShoulder": {
      "quat": {
        "offset": 699,
        "frameCount": 18
      },
      "scale": {
        "offset": 789,
        "frameCount": 1
      },
      "position": {
        "offset": 793,
        "frameCount": 1
      }
    },
    "Character1_Reference/Character1_Hips/Character1_Spine/Character1_Spine1/Character1_Spine2/Character1_LeftShoulder/Character1_LeftArm": {
      "quat": {
        "offset": 797,
        "frameCount": 19
      },
      "scale": {
        "offset": 892,
        "frameCount": 1
      },
      "position": {
        "offset": 896,
        "frameCount": 1
      }
    },
    "Character1_Reference/Character1_Hips/Character1_Spine/Character1_Spine1/Character1_Spine2/Character1_LeftShoulder/Character1_LeftArm/Character1_LeftForeArm": {
      "quat": {
        "offset": 900,
        "frameCount": 14
      },
      "scale": {
        "offset": 970,
        "frameCount": 1
      },
      "position": {
        "offset": 974,
        "frameCount": 1
      }
    },
    "Character1_Reference/Character1_Hips/Character1_Spine/Character1_Spine1/Character1_Spine2/Character1_RightShoulder": {
      "quat": {
        "offset": 978,
        "frameCount": 19
      },
      "scale": {
        "offset": 1073,
        "frameCount": 1
      },
      "position": {
        "offset": 1077,
        "frameCount": 1
      }
    },
    "Character1_Reference/Character1_Hips/Character1_Spine/Character1_Spine1/Character1_Spine2/Character1_RightShoulder/Character1_RightArm": {
      "quat": {
        "offset": 1081,
        "frameCount": 19
      },
      "scale": {
        "offset": 1176,
        "frameCount": 1
      },
      "position": {
        "offset": 1180,
        "frameCount": 1
      }
    },
    "Character1_Reference/Character1_Hips/Character1_Spine/Character1_Spine1/Character1_Spine2/Character1_RightShoulder/Character1_RightArm/Character1_RightForeArm": {
      "quat": {
        "offset": 1184,
        "frameCount": 18
      },
      "scale": {
        "offset": 1274,
        "frameCount": 1
      },
      "position": {
        "offset": 1278,
        "frameCount": 1
      }
    },
    "Character1_Reference/Character1_Hips/Character1_Spine/Character1_Spine1/Character1_Spine2/Character1_Neck": {
      "quat": {
        "offset": 1282,
        "frameCount": 17
      },
      "scale": {
        "offset": 1367,
        "frameCount": 1
      },
      "position": {
        "offset": 1371,
        "frameCount": 1
      }
    },
    "Character1_Reference/Character1_Hips": {
      "quat": {
        "offset": 1375,
        "frameCount": 1
      },
      "scale": {
        "offset": 1380,
        "frameCount": 1
      },
      "position": {
        "offset": 1384,
        "frameCount": 1
      }
    },
    "Character1_Reference/Character1_Hips/Character1_LeftUpLeg/Character1_LeftLeg/Character1_LeftFoot": {
      "quat": {
        "offset": 1388,
        "frameCount": 1
      },
      "scale": {
        "offset": 1393,
        "frameCount": 1
      },
      "position": {
        "offset": 1397,
        "frameCount": 1
      }
    },
    "Character1_Reference/Character1_Hips/Character1_RightUpLeg/Character1_RightLeg/Character1_RightFoot": {
      "quat": {
        "offset": 1401,
        "frameCount": 1
      },
      "scale": {
        "offset": 1406,
        "frameCount": 1
      },
      "position": {
        "offset": 1410,
        "frameCount": 1
      }
    },
    "Character1_Reference/Character1_Hips/Character1_Spine/Character1_Spine1/Character1_Spine2/Character1_LeftShoulder/Character1_LeftArm/Character1_LeftForeArm/Character1_LeftHand": {
      "quat": {
        "offset": 1414,
        "frameCount": 1
      },
      "scale": {
        "offset": 1419,
        "frameCount": 1
      },
      "position": {
        "offset": 1423,
        "frameCount": 1
      }
    },
    "Character1_Reference/Character1_Hips/Character1_Spine/Character1_Spine1/Character1_Spine2/Character1_RightShoulder/Character1_RightArm/Character1_RightForeArm/Character1_RightHand": {
      "quat": {
        "offset": 1427,
        "frameCount": 1
      },
      "scale": {
        "offset": 1432,
        "frameCount": 1
      },
      "position": {
        "offset": 1436,
        "frameCount": 1
      }
    },
    "Character1_Reference/Character1_Hips/Character1_Spine/Character1_Spine1/Character1_Spine2/Character1_Neck/Character1_Head": {
      "quat": {
        "offset": 1440,
        "frameCount": 1
      },
      "scale": {
        "offset": 1445,
        "frameCount": 1
      },
      "position": {
        "offset": 1449,
        "frameCount": 1
      }
    },
    "stickman_new": {
      "quat": {
        "offset": 1453,
        "frameCount": 1
      },
      "scale": {
        "offset": 1458,
        "frameCount": 1
      },
      "position": {
        "offset": 1462,
        "frameCount": 1
      }
    }
  }
}