{
  "__type__": "cc.Skeleton",
  "_name": "",
  "_objFlags": 0,
  "_native": "",
  "_model": {
    "__uuid__": "f7f35354-793c-4e47-a3d0-55e4b78be5e4"
  },
  "_jointIndices": [
    12,
    13,
    14,
    15,
    16,
    17,
    18,
    19,
    20,
    21,
    22,
    23,
    24,
    25,
    26,
    27,
    28,
    29
  ],
  "_skinIndex": 2
}