{
  "__type__": "cc.Material",
  "_name": "",
  "_objFlags": 0,
  "_native": "",
  "_effectAsset": {
    "__uuid__": "abc2cb62-7852-4525-a90d-d474487b88f2"
  },
  "_techniqueIndex": 0,
  "_techniqueData": {
    "0": {
      "props": {
        "diffuseColor": {
          "__type__": "cc.Color",
          "r": 255,
          "g": 255,
          "b": 255,
          "a": 255
        },
        "emissiveColor": {
          "__type__": "cc.Color",
          "r": 210,
          "g": 210,
          "b": 210,
          "a": 255
        },
        "diffuseTexture": {
          "__uuid__": "2e6d8a36-604a-4976-a83c-9f8b8ebe2f7c"
        },
        "emissiveTexture": {
          "__uuid__": "2e6d8a36-604a-4976-a83c-9f8b8ebe2f7c"
        }
      },
      "defines": {
        "USE_DIFFUSE_TEXTURE": true,
        "USE_EMISSIVE": true,
        "USE_EMISSIVE_TEXTURE": true
      }
    }
  }
}