{
    "asset": {
        "generator": "FBX2glTF v0.9.7",
        "version": "2.0"
    },
    "scene": 0,
    "buffers": [
        {
            "byteLength": 209000,
            "uri": "buffer.bin"
        }
    ],
    "bufferViews": [
        {
            "buffer": 0,
            "byteLength": 188,
            "byteOffset": 0
        },
        {
            "buffer": 0,
            "byteLength": 564,
            "byteOffset": 188
        },
        {
            "buffer": 0,
            "byteLength": 752,
            "byteOffset": 752
        },
        {
            "buffer": 0,
            "byteLength": 752,
            "byteOffset": 1504
        },
        {
            "buffer": 0,
            "byteLength": 752,
            "byteOffset": 2256
        },
        {
            "buffer": 0,
            "byteLength": 752,
            "byteOffset": 3008
        },
        {
            "buffer": 0,
            "byteLength": 752,
            "byteOffset": 3760
        },
        {
            "buffer": 0,
            "byteLength": 752,
            "byteOffset": 4512
        },
        {
            "buffer": 0,
            "byteLength": 752,
            "byteOffset": 5264
        },
        {
            "buffer": 0,
            "byteLength": 752,
            "byteOffset": 6016
        },
        {
            "buffer": 0,
            "byteLength": 752,
            "byteOffset": 6768
        },
        {
            "buffer": 0,
            "byteLength": 1428,
            "byteOffset": 7520,
            "target": 34963
        },
        {
            "buffer": 0,
            "byteLength": 5952,
            "byteOffset": 8948,
            "target": 34962
        },
        {
            "buffer": 0,
            "byteLength": 5952,
            "byteOffset": 14900,
            "target": 34962
        },
        {
            "buffer": 0,
            "byteLength": 3968,
            "byteOffset": 20852,
            "target": 34962
        },
        {
            "buffer": 0,
            "byteLength": 3968,
            "byteOffset": 24820,
            "target": 34962
        },
        {
            "buffer": 0,
            "byteLength": 408,
            "byteOffset": 28788,
            "target": 34963
        },
        {
            "buffer": 0,
            "byteLength": 1608,
            "byteOffset": 29196,
            "target": 34962
        },
        {
            "buffer": 0,
            "byteLength": 1608,
            "byteOffset": 30804,
            "target": 34962
        },
        {
            "buffer": 0,
            "byteLength": 1072,
            "byteOffset": 32412,
            "target": 34962
        },
        {
            "buffer": 0,
            "byteLength": 1072,
            "byteOffset": 33484,
            "target": 34962
        },
        {
            "buffer": 0,
            "byteLength": 780,
            "byteOffset": 34556,
            "target": 34963
        },
        {
            "buffer": 0,
            "byteLength": 3180,
            "byteOffset": 35336,
            "target": 34962
        },
        {
            "buffer": 0,
            "byteLength": 3180,
            "byteOffset": 38516,
            "target": 34962
        },
        {
            "buffer": 0,
            "byteLength": 2120,
            "byteOffset": 41696,
            "target": 34962
        },
        {
            "buffer": 0,
            "byteLength": 2120,
            "byteOffset": 43816,
            "target": 34962
        },
        {
            "buffer": 0,
            "byteLength": 1056,
            "byteOffset": 45936,
            "target": 34963
        },
        {
            "buffer": 0,
            "byteLength": 4416,
            "byteOffset": 46992,
            "target": 34962
        },
        {
            "buffer": 0,
            "byteLength": 4416,
            "byteOffset": 51408,
            "target": 34962
        },
        {
            "buffer": 0,
            "byteLength": 2944,
            "byteOffset": 55824,
            "target": 34962
        },
        {
            "buffer": 0,
            "byteLength": 2944,
            "byteOffset": 58768,
            "target": 34962
        },
        {
            "buffer": 0,
            "byteLength": 1152,
            "byteOffset": 61712,
            "target": 34963
        },
        {
            "buffer": 0,
            "byteLength": 4992,
            "byteOffset": 62864,
            "target": 34962
        },
        {
            "buffer": 0,
            "byteLength": 4992,
            "byteOffset": 67856,
            "target": 34962
        },
        {
            "buffer": 0,
            "byteLength": 3328,
            "byteOffset": 72848,
            "target": 34962
        },
        {
            "buffer": 0,
            "byteLength": 3328,
            "byteOffset": 76176,
            "target": 34962
        },
        {
            "buffer": 0,
            "byteLength": 11928,
            "byteOffset": 79504,
            "target": 34963
        },
        {
            "buffer": 0,
            "byteLength": 21816,
            "byteOffset": 91432,
            "target": 34962
        },
        {
            "buffer": 0,
            "byteLength": 21816,
            "byteOffset": 113248,
            "target": 34962
        },
        {
            "buffer": 0,
            "byteLength": 14544,
            "byteOffset": 135064,
            "target": 34962
        },
        {
            "buffer": 0,
            "byteLength": 14544,
            "byteOffset": 149608,
            "target": 34962
        },
        {
            "buffer": 0,
            "byteLength": 14544,
            "byteOffset": 164152,
            "target": 34962
        },
        {
            "buffer": 0,
            "byteLength": 29088,
            "byteOffset": 178696,
            "target": 34962
        },
        {
            "buffer": 0,
            "byteLength": 1216,
            "byteOffset": 207784
        }
    ],
    "scenes": [
        {
            "name": "Root Scene",
            "nodes": [
                0
            ]
        }
    ],
    "accessors": [
        {
            "componentType": 5126,
            "type": "SCALAR",
            "count": 47,
            "bufferView": 0,
            "byteOffset": 0,
            "min": [
                0.0
            ],
            "max": [
                1.91666662693024
            ]
        },
        {
            "componentType": 5126,
            "type": "VEC3",
            "count": 47,
            "bufferView": 1,
            "byteOffset": 0
        },
        {
            "componentType": 5126,
            "type": "VEC4",
            "count": 47,
            "bufferView": 2,
            "byteOffset": 0
        },
        {
            "componentType": 5126,
            "type": "VEC4",
            "count": 47,
            "bufferView": 3,
            "byteOffset": 0
        },
        {
            "componentType": 5126,
            "type": "VEC4",
            "count": 47,
            "bufferView": 4,
            "byteOffset": 0
        },
        {
            "componentType": 5126,
            "type": "VEC4",
            "count": 47,
            "bufferView": 5,
            "byteOffset": 0
        },
        {
            "componentType": 5126,
            "type": "VEC4",
            "count": 47,
            "bufferView": 6,
            "byteOffset": 0
        },
        {
            "componentType": 5126,
            "type": "VEC4",
            "count": 47,
            "bufferView": 7,
            "byteOffset": 0
        },
        {
            "componentType": 5126,
            "type": "VEC4",
            "count": 47,
            "bufferView": 8,
            "byteOffset": 0
        },
        {
            "componentType": 5126,
            "type": "VEC4",
            "count": 47,
            "bufferView": 9,
            "byteOffset": 0
        },
        {
            "componentType": 5126,
            "type": "VEC4",
            "count": 47,
            "bufferView": 10,
            "byteOffset": 0
        },
        {
            "componentType": 5123,
            "type": "SCALAR",
            "count": 714,
            "bufferView": 11,
            "byteOffset": 0
        },
        {
            "componentType": 5126,
            "type": "VEC3",
            "count": 496,
            "bufferView": 12,
            "byteOffset": 0,
            "min": [
                -0.00540187349542975,
                -0.000695205118972808,
                -0.00456234067678452
            ],
            "max": [
                0.00455656973645091,
                0.0576919130980968,
                0.0045623411424458
            ]
        },
        {
            "componentType": 5126,
            "type": "VEC3",
            "count": 496,
            "bufferView": 13,
            "byteOffset": 0
        },
        {
            "componentType": 5126,
            "type": "VEC2",
            "count": 496,
            "bufferView": 14,
            "byteOffset": 0
        },
        {
            "componentType": 5126,
            "type": "VEC2",
            "count": 496,
            "bufferView": 15,
            "byteOffset": 0
        },
        {
            "componentType": 5123,
            "type": "SCALAR",
            "count": 204,
            "bufferView": 16,
            "byteOffset": 0
        },
        {
            "componentType": 5126,
            "type": "VEC3",
            "count": 134,
            "bufferView": 17,
            "byteOffset": 0,
            "min": [
                -0.00587598979473114,
                -0.000639735430013388,
                -0.00282417610287666
            ],
            "max": [
                0.00608574179932475,
                0.0707992240786552,
                0.00282417610287666
            ]
        },
        {
            "componentType": 5126,
            "type": "VEC3",
            "count": 134,
            "bufferView": 18,
            "byteOffset": 0
        },
        {
            "componentType": 5126,
            "type": "VEC2",
            "count": 134,
            "bufferView": 19,
            "byteOffset": 0
        },
        {
            "componentType": 5126,
            "type": "VEC2",
            "count": 134,
            "bufferView": 20,
            "byteOffset": 0
        },
        {
            "componentType": 5123,
            "type": "SCALAR",
            "count": 390,
            "bufferView": 21,
            "byteOffset": 0
        },
        {
            "componentType": 5126,
            "type": "VEC3",
            "count": 265,
            "bufferView": 22,
            "byteOffset": 0,
            "min": [
                -0.00386492651887238,
                0.0,
                -0.00198404211550951
            ],
            "max": [
                0.0028815227560699,
                0.0660977140069008,
                0.00198404234834015
            ]
        },
        {
            "componentType": 5126,
            "type": "VEC3",
            "count": 265,
            "bufferView": 23,
            "byteOffset": 0
        },
        {
            "componentType": 5126,
            "type": "VEC2",
            "count": 265,
            "bufferView": 24,
            "byteOffset": 0
        },
        {
            "componentType": 5126,
            "type": "VEC2",
            "count": 265,
            "bufferView": 25,
            "byteOffset": 0
        },
        {
            "componentType": 5123,
            "type": "SCALAR",
            "count": 528,
            "bufferView": 26,
            "byteOffset": 0
        },
        {
            "componentType": 5126,
            "type": "VEC3",
            "count": 368,
            "bufferView": 27,
            "byteOffset": 0,
            "min": [
                -0.010050131008029,
                -0.0696565434336662,
                -0.00999999605119228
            ],
            "max": [
                0.00999999418854713,
                0.21831801533699,
                0.00999999605119228
            ]
        },
        {
            "componentType": 5126,
            "type": "VEC3",
            "count": 368,
            "bufferView": 28,
            "byteOffset": 0
        },
        {
            "componentType": 5126,
            "type": "VEC2",
            "count": 368,
            "bufferView": 29,
            "byteOffset": 0
        },
        {
            "componentType": 5126,
            "type": "VEC2",
            "count": 368,
            "bufferView": 30,
            "byteOffset": 0
        },
        {
            "componentType": 5123,
            "type": "SCALAR",
            "count": 576,
            "bufferView": 31,
            "byteOffset": 0
        },
        {
            "componentType": 5126,
            "type": "VEC3",
            "count": 416,
            "bufferView": 32,
            "byteOffset": 0,
            "min": [
                -0.00647545512765646,
                0.0,
                -0.00162664114031941
            ],
            "max": [
                0.00660326424986124,
                0.0571698881685734,
                0.00162664114031941
            ]
        },
        {
            "componentType": 5126,
            "type": "VEC3",
            "count": 416,
            "bufferView": 33,
            "byteOffset": 0
        },
        {
            "componentType": 5126,
            "type": "VEC2",
            "count": 416,
            "bufferView": 34,
            "byteOffset": 0
        },
        {
            "componentType": 5126,
            "type": "VEC2",
            "count": 416,
            "bufferView": 35,
            "byteOffset": 0
        },
        {
            "componentType": 5123,
            "type": "SCALAR",
            "count": 5964,
            "bufferView": 36,
            "byteOffset": 0
        },
        {
            "componentType": 5126,
            "type": "VEC3",
            "count": 1818,
            "bufferView": 37,
            "byteOffset": 0,
            "min": [
                -0.0408465415239334,
                9.62369085755199e-06,
                -0.0144365709275007
            ],
            "max": [
                0.0408465415239334,
                0.0793404877185822,
                0.00794503092765808
            ]
        },
        {
            "componentType": 5126,
            "type": "VEC3",
            "count": 1818,
            "bufferView": 38,
            "byteOffset": 0
        },
        {
            "componentType": 5126,
            "type": "VEC2",
            "count": 1818,
            "bufferView": 39,
            "byteOffset": 0
        },
        {
            "componentType": 5126,
            "type": "VEC2",
            "count": 1818,
            "bufferView": 40,
            "byteOffset": 0
        },
        {
            "componentType": 5123,
            "type": "VEC4",
            "count": 1818,
            "bufferView": 41,
            "byteOffset": 0
        },
        {
            "componentType": 5126,
            "type": "VEC4",
            "count": 1818,
            "bufferView": 42,
            "byteOffset": 0
        },
        {
            "componentType": 5126,
            "type": "MAT4",
            "count": 19,
            "bufferView": 43,
            "byteOffset": 0
        }
    ],
    "images": [
        {
            "name": "weapon_texture_1",
            "uri": "data:image/png;base64,iVBORw0KGgoAAAANSUhEUgAAAAEAAAABCAYAAAAfFcSJAAAADUlEQVR42mP8/5+hHgAHggJ/PchI7wAAAABJRU5ErkJggg=="
        },
        {
            "name": "weapon_texture_2",
            "uri": "data:image/png;base64,iVBORw0KGgoAAAANSUhEUgAAAAEAAAABCAYAAAAfFcSJAAAADUlEQVR42mP8/5+hHgAHggJ/PchI7wAAAABJRU5ErkJggg=="
        },
        {
            "name": "weapon_texture_3",
            "uri": "data:image/png;base64,iVBORw0KGgoAAAANSUhEUgAAAAEAAAABCAYAAAAfFcSJAAAADUlEQVR42mP8/5+hHgAHggJ/PchI7wAAAABJRU5ErkJggg=="
        },
        {
            "name": "weapon_texture_4",
            "uri": "data:image/png;base64,iVBORw0KGgoAAAANSUhEUgAAAAEAAAABCAYAAAAfFcSJAAAADUlEQVR42mP8/5+hHgAHggJ/PchI7wAAAABJRU5ErkJggg=="
        },
        {
            "name": "weapon_texture_5",
            "uri": "data:image/png;base64,iVBORw0KGgoAAAANSUhEUgAAAAEAAAABCAYAAAAfFcSJAAAADUlEQVR42mP8/5+hHgAHggJ/PchI7wAAAABJRU5ErkJggg=="
        }
    ],
    "samplers": [
        {}
    ],
    "textures": [
        {
            "name": "weapon_texture_1",
            "sampler": 0,
            "source": 0
        },
        {
            "name": "weapon_texture_2",
            "sampler": 0,
            "source": 1
        },
        {
            "name": "weapon_texture_3",
            "sampler": 0,
            "source": 2
        },
        {
            "name": "weapon_texture_4",
            "sampler": 0,
            "source": 3
        },
        {
            "name": "weapon_texture_5",
            "sampler": 0,
            "source": 4
        }
    ],
    "materials": [
        {
            "name": "weapon_texture_1Material",
            "alphaMode": "OPAQUE",
            "extras": {
                "fromFBX": {
                    "shadingModel": "Phong",
                    "isTruePBR": false
                }
            },
            "pbrMetallicRoughness": {
                "baseColorTexture": {
                    "index": 0,
                    "texCoord": 0
                },
                "baseColorFactor": [
                    1.0,
                    1.0,
                    1.0,
                    1.0
                ],
                "metallicFactor": 0.400000005960464,
                "roughnessFactor": 0.70710676908493
            }
        },
        {
            "name": "weapon_texture_1Material1",
            "alphaMode": "OPAQUE",
            "extras": {
                "fromFBX": {
                    "shadingModel": "Phong",
                    "isTruePBR": false
                }
            },
            "pbrMetallicRoughness": {
                "baseColorTexture": {
                    "index": 1,
                    "texCoord": 0
                },
                "baseColorFactor": [
                    1.0,
                    1.0,
                    1.0,
                    1.0
                ],
                "metallicFactor": 0.400000005960464,
                "roughnessFactor": 0.70710676908493
            }
        },
        {
            "name": "weapon_texture_1Material2",
            "alphaMode": "OPAQUE",
            "extras": {
                "fromFBX": {
                    "shadingModel": "Phong",
                    "isTruePBR": false
                }
            },
            "pbrMetallicRoughness": {
                "baseColorTexture": {
                    "index": 2,
                    "texCoord": 0
                },
                "baseColorFactor": [
                    1.0,
                    1.0,
                    1.0,
                    1.0
                ],
                "metallicFactor": 0.400000005960464,
                "roughnessFactor": 0.70710676908493
            }
        },
        {
            "name": "weapon_texture_1Material3",
            "alphaMode": "OPAQUE",
            "extras": {
                "fromFBX": {
                    "shadingModel": "Phong",
                    "isTruePBR": false
                }
            },
            "pbrMetallicRoughness": {
                "baseColorTexture": {
                    "index": 3,
                    "texCoord": 0
                },
                "baseColorFactor": [
                    1.0,
                    1.0,
                    1.0,
                    1.0
                ],
                "metallicFactor": 0.400000005960464,
                "roughnessFactor": 0.70710676908493
            }
        },
        {
            "name": "weapon_texture_1Material4",
            "alphaMode": "OPAQUE",
            "extras": {
                "fromFBX": {
                    "shadingModel": "Phong",
                    "isTruePBR": false
                }
            },
            "pbrMetallicRoughness": {
                "baseColorTexture": {
                    "index": 4,
                    "texCoord": 0
                },
                "baseColorFactor": [
                    1.0,
                    1.0,
                    1.0,
                    1.0
                ],
                "metallicFactor": 0.400000005960464,
                "roughnessFactor": 0.70710676908493
            }
        },
        {
            "name": "lambert10",
            "alphaMode": "OPAQUE",
            "extras": {
                "fromFBX": {
                    "shadingModel": "Phong",
                    "isTruePBR": false
                }
            },
            "pbrMetallicRoughness": {
                "baseColorFactor": [
                    0.0,
                    0.276919931173325,
                    0.800000011920929,
                    1.0
                ],
                "metallicFactor": 0.400000005960464,
                "roughnessFactor": 0.70710676908493
            }
        }
    ],
    "meshes": [
        {
            "name": "kiemngulam",
            "primitives": [
                {
                    "material": 0,
                    "mode": 4,
                    "attributes": {
                        "NORMAL": 13,
                        "POSITION": 12,
                        "TEXCOORD_0": 14,
                        "TEXCOORD_1": 15
                    },
                    "indices": 11
                }
            ]
        },
        {
            "name": "kiemlon",
            "primitives": [
                {
                    "material": 1,
                    "mode": 4,
                    "attributes": {
                        "NORMAL": 18,
                        "POSITION": 17,
                        "TEXCOORD_0": 19,
                        "TEXCOORD_1": 20
                    },
                    "indices": 16
                }
            ]
        },
        {
            "name": "katana",
            "primitives": [
                {
                    "material": 2,
                    "mode": 4,
                    "attributes": {
                        "NORMAL": 23,
                        "POSITION": 22,
                        "TEXCOORD_0": 24,
                        "TEXCOORD_1": 25
                    },
                    "indices": 21
                }
            ]
        },
        {
            "name": "kiemlaze",
            "primitives": [
                {
                    "material": 3,
                    "mode": 4,
                    "attributes": {
                        "NORMAL": 28,
                        "POSITION": 27,
                        "TEXCOORD_0": 29,
                        "TEXCOORD_1": 30
                    },
                    "indices": 26
                }
            ]
        },
        {
            "name": "kiemngan",
            "primitives": [
                {
                    "material": 4,
                    "mode": 4,
                    "attributes": {
                        "NORMAL": 33,
                        "POSITION": 32,
                        "TEXCOORD_0": 34,
                        "TEXCOORD_1": 35
                    },
                    "indices": 31
                }
            ]
        },
        {
            "name": "stickman_new",
            "primitives": [
                {
                    "material": 5,
                    "mode": 4,
                    "attributes": {
                        "JOINTS_0": 41,
                        "NORMAL": 38,
                        "POSITION": 37,
                        "TEXCOORD_0": 39,
                        "TEXCOORD_1": 40,
                        "WEIGHTS_0": 42
                    },
                    "indices": 36
                }
            ]
        }
    ],
    "skins": [
        {
            "joints": [
                10,
                11,
                12,
                13,
                25,
                2,
                3,
                9,
                4,
                5,
                6,
                7,
                16,
                14,
                15,
                17,
                8,
                18,
                19
            ],
            "inverseBindMatrices": 43,
            "skeleton": 2
        }
    ],
    "animations": [
        {
            "name": "Idle",
            "channels": [
                {
                    "sampler": 0,
                    "target": {
                        "node": 1,
                        "path": "translation"
                    }
                },
                {
                    "sampler": 1,
                    "target": {
                        "node": 1,
                        "path": "rotation"
                    }
                },
                {
                    "sampler": 2,
                    "target": {
                        "node": 3,
                        "path": "rotation"
                    }
                },
                {
                    "sampler": 3,
                    "target": {
                        "node": 4,
                        "path": "rotation"
                    }
                },
                {
                    "sampler": 4,
                    "target": {
                        "node": 6,
                        "path": "rotation"
                    }
                },
                {
                    "sampler": 5,
                    "target": {
                        "node": 7,
                        "path": "rotation"
                    }
                },
                {
                    "sampler": 6,
                    "target": {
                        "node": 9,
                        "path": "rotation"
                    }
                },
                {
                    "sampler": 7,
                    "target": {
                        "node": 10,
                        "path": "rotation"
                    }
                },
                {
                    "sampler": 8,
                    "target": {
                        "node": 11,
                        "path": "rotation"
                    }
                },
                {
                    "sampler": 9,
                    "target": {
                        "node": 25,
                        "path": "rotation"
                    }
                }
            ],
            "samplers": [
                {
                    "input": 0,
                    "interpolation": "LINEAR",
                    "output": 1
                },
                {
                    "input": 0,
                    "interpolation": "LINEAR",
                    "output": 2
                },
                {
                    "input": 0,
                    "interpolation": "LINEAR",
                    "output": 3
                },
                {
                    "input": 0,
                    "interpolation": "LINEAR",
                    "output": 4
                },
                {
                    "input": 0,
                    "interpolation": "LINEAR",
                    "output": 5
                },
                {
                    "input": 0,
                    "interpolation": "LINEAR",
                    "output": 6
                },
                {
                    "input": 0,
                    "interpolation": "LINEAR",
                    "output": 7
                },
                {
                    "input": 0,
                    "interpolation": "LINEAR",
                    "output": 8
                },
                {
                    "input": 0,
                    "interpolation": "LINEAR",
                    "output": 9
                },
                {
                    "input": 0,
                    "interpolation": "LINEAR",
                    "output": 10
                }
            ]
        }
    ],
    "nodes": [
        {
            "name": "RootNode",
            "translation": [
                0.0,
                0.0,
                0.0
            ],
            "rotation": [
                0.0,
                0.0,
                0.0,
                1.0
            ],
            "scale": [
                1.0,
                1.0,
                1.0
            ],
            "children": [
                1,
                27
            ]
        },
        {
            "name": "Character1_Reference",
            "translation": [
                9.3603077402804e-05,
                1.67008487039766e-08,
                0.0
            ],
            "rotation": [
                0.0438571497797966,
                -0.134911641478539,
                -0.00753012299537659,
                0.989857912063599
            ],
            "scale": [
                1.00000059604645,
                1.00000059604645,
                1.00000059604645
            ],
            "children": [
                2
            ]
        },
        {
            "name": "Character1_Hips",
            "translation": [
                1.73472343720272e-20,
                0.026893237605691,
                4.47034825823422e-10
            ],
            "rotation": [
                6.93889390390723e-18,
                1.20370621524202e-35,
                1.73472347597681e-18,
                1.0
            ],
            "scale": [
                1.0,
                1.0,
                1.0
            ],
            "children": [
                3,
                6,
                9
            ]
        },
        {
            "name": "Character1_LeftUpLeg",
            "translation": [
                0.00673886528238654,
                -0.00273666135035455,
                2.98023217215615e-10
            ],
            "rotation": [
                -0.265855371952057,
                0.00553943263366818,
                -0.104155786335468,
                0.958353698253632
            ],
            "scale": [
                1.0,
                1.0,
                1.0
            ],
            "children": [
                4
            ]
        },
        {
            "name": "Character1_LeftLeg",
            "translation": [
                0.00371353258378804,
                -0.0108860731124878,
                2.38418573772492e-09
            ],
            "rotation": [
                0.237675398588181,
                0.124877445399761,
                0.0242772381752729,
                0.962978005409241
            ],
            "scale": [
                1.0,
                1.0,
                1.0
            ],
            "children": [
                5
            ]
        },
        {
            "name": "Character1_LeftFoot",
            "translation": [
                0.00239629531279206,
                -0.00896722637116909,
                -5.9604643443123e-10
            ],
            "rotation": [
                1.38777878078145e-17,
                -6.93889390390723e-18,
                -9.32413868337534e-18,
                1.0
            ],
            "scale": [
                1.0,
                1.0,
                1.0
            ]
        },
        {
            "name": "Character1_RightUpLeg",
            "translation": [
                -0.00673886481672525,
                -0.00273666135035455,
                -1.49011608607807e-10
            ],
            "rotation": [
                -0.148040726780891,
                -0.0834627822041512,
                0.0947358086705208,
                0.980888903141022
            ],
            "scale": [
                1.0,
                1.0,
                1.0
            ],
            "children": [
                7
            ]
        },
        {
            "name": "Character1_RightLeg",
            "translation": [
                -0.00371353141963482,
                -0.0108860703185201,
                -5.9604643443123e-10
            ],
            "rotation": [
                0.251128643751144,
                -0.154210224747658,
                -0.00343327224254608,
                0.955584526062012
            ],
            "scale": [
                1.0,
                1.0,
                1.0
            ],
            "children": [
                8
            ]
        },
        {
            "name": "Character1_RightFoot",
            "translation": [
                -0.00239629554562271,
                -0.00896722637116909,
                5.9604643443123e-10
            ],
            "rotation": [
                -1.38777878078145e-17,
                -3.85185988877447e-34,
                2.77555756156289e-17,
                1.0
            ],
            "scale": [
                1.0,
                1.0,
                1.0
            ]
        },
        {
            "name": "Character1_Spine",
            "translation": [
                7.45058043039037e-11,
                0.0107677699998021,
                -1.49011608607807e-10
            ],
            "rotation": [
                0.19977842271328,
                0.0375098548829556,
                0.00819879211485386,
                0.979088544845581
            ],
            "scale": [
                1.0,
                1.0,
                1.0
            ],
            "children": [
                10
            ]
        },
        {
            "name": "Character1_Spine1",
            "translation": [
                5.55111499904869e-19,
                0.00623114826157689,
                -1.19209286886246e-09
            ],
            "rotation": [
                0.0322066508233547,
                0.0110486783087254,
                -0.00700103724375367,
                0.999395668506622
            ],
            "scale": [
                1.0,
                1.0,
                1.0
            ],
            "children": [
                11
            ]
        },
        {
            "name": "Character1_Spine2",
            "translation": [
                1.49011608607807e-10,
                0.00623113382607698,
                -2.38418573772492e-09
            ],
            "rotation": [
                0.032141450792551,
                0.0116930240765214,
                -0.0070259515196085,
                0.999390244483948
            ],
            "scale": [
                1.0,
                1.0,
                1.0
            ],
            "children": [
                12,
                16,
                25
            ]
        },
        {
            "name": "Character1_LeftShoulder",
            "translation": [
                0.00468312716111541,
                0.00250114919617772,
                -2.38418573772492e-09
            ],
            "rotation": [
                0.0493349134922028,
                -0.186922550201416,
                0.0812109559774399,
                0.977768301963806
            ],
            "scale": [
                0.999999940395355,
                0.999999940395355,
                0.999999940395355
            ],
            "children": [
                13
            ]
        },
        {
            "name": "Character1_LeftArm",
            "translation": [
                0.00425448874011636,
                -0.00114993087481707,
                2.38418573772492e-09
            ],
            "rotation": [
                0.0425206497311592,
                0.334214597940445,
                -0.639302134513855,
                0.691220164299011
            ],
            "scale": [
                1.0,
                1.0,
                1.0
            ],
            "children": [
                14
            ]
        },
        {
            "name": "Character1_LeftForeArm",
            "translation": [
                0.0114695141091943,
                3.0579565645894e-05,
                2.38418573772492e-09
            ],
            "rotation": [
                0.0452388860285282,
                -0.613143384456635,
                -0.204692915081978,
                0.761649191379547
            ],
            "scale": [
                1.0,
                1.0,
                1.0
            ],
            "children": [
                15
            ]
        },
        {
            "name": "Character1_LeftHand",
            "translation": [
                0.0127815268933773,
                -1.32638215291081e-05,
                -5.9604643443123e-10
            ],
            "rotation": [
                -2.77916340728913e-17,
                -1.38054343196344e-17,
                -0.00260511483065784,
                0.999996602535248
            ],
            "scale": [
                1.0,
                1.0,
                1.0
            ]
        },
        {
            "name": "Character1_RightShoulder",
            "translation": [
                -0.00468312669545412,
                0.00250115385279059,
                -2.38418573772492e-09
            ],
            "rotation": [
                0.300842881202698,
                0.327061057090759,
                -0.344913870096207,
                0.826776266098022
            ],
            "scale": [
                0.999999940395355,
                0.999999940395355,
                0.999999940395355
            ],
            "children": [
                17
            ]
        },
        {
            "name": "Character1_RightArm",
            "translation": [
                -0.00425448641180992,
                -0.00114993087481707,
                -9.53674295089968e-09
            ],
            "rotation": [
                0.383528769016266,
                0.581127107143402,
                -0.447631418704987,
                0.56109094619751
            ],
            "scale": [
                0.999999940395355,
                0.999999940395355,
                0.999999940395355
            ],
            "children": [
                18
            ]
        },
        {
            "name": "Character1_RightForeArm",
            "translation": [
                -0.0114695113152266,
                3.08990456687752e-05,
                2.38418573772492e-09
            ],
            "rotation": [
                0.451194912195206,
                -0.219412490725517,
                -0.236779227852821,
                0.831995725631714
            ],
            "scale": [
                0.999999940395355,
                0.999999940395355,
                0.999999940395355
            ],
            "children": [
                19
            ]
        },
        {
            "name": "Character1_RightHand",
            "translation": [
                -0.0127815026789904,
                -2.31540198001312e-05,
                2.38418573772492e-09
            ],
            "rotation": [
                0.220010176301003,
                -0.151450753211975,
                0.188183590769768,
                0.945116460323334
            ],
            "scale": [
                1.0,
                1.0,
                1.0
            ],
            "children": [
                20,
                21,
                22,
                23,
                24
            ]
        },
        {
            "name": "kiemngulam",
            "translation": [
                -0.00609984016045928,
                -0.00282281870022416,
                0.00199917075224221
            ],
            "rotation": [
                -0.259174436330795,
                0.315005749464035,
                -0.0364795885980129,
                0.912287890911102
            ],
            "scale": [
                1.0,
                1.0,
                1.0
            ],
            "mesh": 0
        },
        {
            "name": "kiemlon",
            "translation": [
                -0.0057625281624496,
                -0.00237072468735278,
                0.00190567492973059
            ],
            "rotation": [
                -0.260762363672256,
                0.178776025772095,
                -0.00152913492638618,
                0.948704242706299
            ],
            "scale": [
                0.850190997123718,
                0.850190997123718,
                0.850190997123718
            ],
            "mesh": 1
        },
        {
            "name": "katana",
            "translation": [
                -0.00511714816093445,
                -0.00908891670405865,
                0.00562243442982435
            ],
            "rotation": [
                -0.257938504219055,
                0.313064485788345,
                -0.0528583899140358,
                0.912504434585571
            ],
            "scale": [
                1.0,
                1.0,
                1.0
            ],
            "mesh": 2
        },
        {
            "name": "kiemlaze",
            "translation": [
                -0.00643473630771041,
                0.00790265668183565,
                -0.0044589564204216
            ],
            "rotation": [
                -0.229278296232224,
                -0.403105556964874,
                0.125969141721725,
                0.876965880393982
            ],
            "scale": [
                0.180000007152557,
                0.180000007152557,
                0.180000007152557
            ],
            "mesh": 3
        },
        {
            "name": "kiemngan",
            "translation": [
                -0.00549874780699611,
                -0.00289638503454626,
                0.0028416751883924
            ],
            "rotation": [
                -0.263387829065323,
                0.33115491271019,
                -0.0378464758396149,
                0.905279457569122
            ],
            "scale": [
                1.0,
                1.0,
                1.0
            ],
            "mesh": 4
        },
        {
            "name": "Character1_Neck",
            "translation": [
                -2.23517412911711e-10,
                0.00523114204406738,
                -4.76837147544984e-09
            ],
            "rotation": [
                -0.11038401722908,
                0.0119379684329033,
                0.0187511965632439,
                0.993640422821045
            ],
            "scale": [
                1.0,
                1.0,
                1.0
            ],
            "children": [
                26
            ]
        },
        {
            "name": "Character1_Head",
            "translation": [
                -2.98023217215615e-10,
                0.0235770884901285,
                3.57627860658738e-09
            ],
            "rotation": [
                9.62964972193618e-35,
                -2.77555756156289e-17,
                3.46944695195361e-18,
                1.0
            ],
            "scale": [
                1.0,
                1.0,
                1.0
            ]
        },
        {
            "name": "stickman_new",
            "translation": [
                0.0,
                1.6543611881282e-26,
                0.00296637881547213
            ],
            "rotation": [
                0.0,
                0.0,
                0.0,
                1.0
            ],
            "scale": [
                1.00000059604645,
                1.00000059604645,
                1.00000059604645
            ],
            "mesh": 5,
            "skin": 0
        }
    ]
}