{
  "__type__": "cc.SpriteFrame",
  "content": {
    "name": "awesome_RU",
    "texture": "2b3023cd-6e28-4989-89ba-9884b8fc40ed",
    "atlas": "",
    "rect": [
      0,
      0,
      221,
      40
    ],
    "offset": [
      0,
      0
    ],
    "originalSize": [
      221,
      40
    ],
    "capInsets": [
      0,
      0,
      0,
      0
    ]
  }
}