{
  "__type__": "cc.Skeleton",
  "_name": "",
  "_objFlags": 0,
  "_native": "",
  "_model": {
    "__uuid__": "5384f963-f60c-4259-b5b3-505cc9e94fe6"
  },
  "_jointIndices": [
    10,
    11,
    12,
    13,
    20,
    2,
    3,
    9,
    4,
    5,
    6,
    7,
    16,
    14,
    15,
    17,
    8,
    18,
    19
  ],
  "_skinIndex": 0
}