{
  "__type__": "cc.SpriteFrame",
  "content": {
    "name": "hand",
    "texture": "cd54111a-0b99-4078-9243-8d826cf1fc14",
    "atlas": "",
    "rect": [
      0,
      0,
      137,
      165
    ],
    "offset": [
      0,
      0
    ],
    "originalSize": [
      137,
      165
    ],
    "capInsets": [
      0,
      0,
      0,
      0
    ]
  }
}