{
  "__type__": "cc.SpriteFrame",
  "content": {
    "name": "skin_big6",
    "texture": "f2a9dc00-f552-4f8b-aba1-4a1eab3ab01d",
    "atlas": "",
    "rect": [
      0,
      0,
      320,
      320
    ],
    "offset": [
      0,
      0
    ],
    "originalSize": [
      320,
      320
    ],
    "capInsets": [
      0,
      0,
      0,
      0
    ]
  }
}