{
  "__type__": "cc.SpriteFrame",
  "content": {
    "name": "TryAgain_EN",
    "texture": "63f340f8-cadf-46da-9eb1-42fa160aa101",
    "atlas": "",
    "rect": [
      0,
      0,
      240,
      75
    ],
    "offset": [
      0,
      0
    ],
    "originalSize": [
      240,
      75
    ],
    "capInsets": [
      0,
      0,
      0,
      0
    ]
  }
}