{
    "asset": {
        "generator": "FBX2glTF v0.9.7",
        "version": "2.0"
    },
    "scene": 0,
    "buffers": [
        {
            "byteLength": 145688,
            "uri": "buffer.bin"
        }
    ],
    "bufferViews": [
        {
            "buffer": 0,
            "byteLength": 252,
            "byteOffset": 0
        },
        {
            "buffer": 0,
            "byteLength": 756,
            "byteOffset": 252
        },
        {
            "buffer": 0,
            "byteLength": 1008,
            "byteOffset": 1008
        },
        {
            "buffer": 0,
            "byteLength": 1008,
            "byteOffset": 2016
        },
        {
            "buffer": 0,
            "byteLength": 1008,
            "byteOffset": 3024
        },
        {
            "buffer": 0,
            "byteLength": 1008,
            "byteOffset": 4032
        },
        {
            "buffer": 0,
            "byteLength": 1008,
            "byteOffset": 5040
        },
        {
            "buffer": 0,
            "byteLength": 1008,
            "byteOffset": 6048
        },
        {
            "buffer": 0,
            "byteLength": 1008,
            "byteOffset": 7056
        },
        {
            "buffer": 0,
            "byteLength": 1008,
            "byteOffset": 8064
        },
        {
            "buffer": 0,
            "byteLength": 1008,
            "byteOffset": 9072
        },
        {
            "buffer": 0,
            "byteLength": 1008,
            "byteOffset": 10080
        },
        {
            "buffer": 0,
            "byteLength": 1008,
            "byteOffset": 11088
        },
        {
            "buffer": 0,
            "byteLength": 1008,
            "byteOffset": 12096
        },
        {
            "buffer": 0,
            "byteLength": 1008,
            "byteOffset": 13104
        },
        {
            "buffer": 0,
            "byteLength": 1008,
            "byteOffset": 14112
        },
        {
            "buffer": 0,
            "byteLength": 1008,
            "byteOffset": 15120
        },
        {
            "buffer": 0,
            "byteLength": 11928,
            "byteOffset": 16128,
            "target": 34963
        },
        {
            "buffer": 0,
            "byteLength": 21816,
            "byteOffset": 28056,
            "target": 34962
        },
        {
            "buffer": 0,
            "byteLength": 21816,
            "byteOffset": 49872,
            "target": 34962
        },
        {
            "buffer": 0,
            "byteLength": 14544,
            "byteOffset": 71688,
            "target": 34962
        },
        {
            "buffer": 0,
            "byteLength": 14544,
            "byteOffset": 86232,
            "target": 34962
        },
        {
            "buffer": 0,
            "byteLength": 14544,
            "byteOffset": 100776,
            "target": 34962
        },
        {
            "buffer": 0,
            "byteLength": 29088,
            "byteOffset": 115320,
            "target": 34962
        },
        {
            "buffer": 0,
            "byteLength": 1280,
            "byteOffset": 144408
        }
    ],
    "scenes": [
        {
            "name": "Root Scene",
            "nodes": [
                0
            ]
        }
    ],
    "accessors": [
        {
            "componentType": 5126,
            "type": "SCALAR",
            "count": 63,
            "bufferView": 0,
            "byteOffset": 0,
            "min": [
                0.0
            ],
            "max": [
                2.58333325386047
            ]
        },
        {
            "componentType": 5126,
            "type": "VEC3",
            "count": 63,
            "bufferView": 1,
            "byteOffset": 0
        },
        {
            "componentType": 5126,
            "type": "VEC4",
            "count": 63,
            "bufferView": 2,
            "byteOffset": 0
        },
        {
            "componentType": 5126,
            "type": "VEC4",
            "count": 63,
            "bufferView": 3,
            "byteOffset": 0
        },
        {
            "componentType": 5126,
            "type": "VEC4",
            "count": 63,
            "bufferView": 4,
            "byteOffset": 0
        },
        {
            "componentType": 5126,
            "type": "VEC4",
            "count": 63,
            "bufferView": 5,
            "byteOffset": 0
        },
        {
            "componentType": 5126,
            "type": "VEC4",
            "count": 63,
            "bufferView": 6,
            "byteOffset": 0
        },
        {
            "componentType": 5126,
            "type": "VEC4",
            "count": 63,
            "bufferView": 7,
            "byteOffset": 0
        },
        {
            "componentType": 5126,
            "type": "VEC4",
            "count": 63,
            "bufferView": 8,
            "byteOffset": 0
        },
        {
            "componentType": 5126,
            "type": "VEC4",
            "count": 63,
            "bufferView": 9,
            "byteOffset": 0
        },
        {
            "componentType": 5126,
            "type": "VEC4",
            "count": 63,
            "bufferView": 10,
            "byteOffset": 0
        },
        {
            "componentType": 5126,
            "type": "VEC4",
            "count": 63,
            "bufferView": 11,
            "byteOffset": 0
        },
        {
            "componentType": 5126,
            "type": "VEC4",
            "count": 63,
            "bufferView": 12,
            "byteOffset": 0
        },
        {
            "componentType": 5126,
            "type": "VEC4",
            "count": 63,
            "bufferView": 13,
            "byteOffset": 0
        },
        {
            "componentType": 5126,
            "type": "VEC4",
            "count": 63,
            "bufferView": 14,
            "byteOffset": 0
        },
        {
            "componentType": 5126,
            "type": "VEC4",
            "count": 63,
            "bufferView": 15,
            "byteOffset": 0
        },
        {
            "componentType": 5126,
            "type": "VEC4",
            "count": 63,
            "bufferView": 16,
            "byteOffset": 0
        },
        {
            "componentType": 5123,
            "type": "SCALAR",
            "count": 5964,
            "bufferView": 17,
            "byteOffset": 0
        },
        {
            "componentType": 5126,
            "type": "VEC3",
            "count": 1818,
            "bufferView": 18,
            "byteOffset": 0,
            "min": [
                -0.0408465415239334,
                9.62369085755199e-06,
                -0.0114701921120286
            ],
            "max": [
                0.0408465415239334,
                0.0793404877185822,
                0.0109114097431302
            ]
        },
        {
            "componentType": 5126,
            "type": "VEC3",
            "count": 1818,
            "bufferView": 19,
            "byteOffset": 0
        },
        {
            "componentType": 5126,
            "type": "VEC2",
            "count": 1818,
            "bufferView": 20,
            "byteOffset": 0
        },
        {
            "componentType": 5126,
            "type": "VEC2",
            "count": 1818,
            "bufferView": 21,
            "byteOffset": 0
        },
        {
            "componentType": 5123,
            "type": "VEC4",
            "count": 1818,
            "bufferView": 22,
            "byteOffset": 0
        },
        {
            "componentType": 5126,
            "type": "VEC4",
            "count": 1818,
            "bufferView": 23,
            "byteOffset": 0
        },
        {
            "componentType": 5126,
            "type": "MAT4",
            "count": 20,
            "bufferView": 24,
            "byteOffset": 0
        }
    ],
    "samplers": [
        {}
    ],
    "materials": [
        {
            "name": "lambert10",
            "alphaMode": "OPAQUE",
            "extras": {
                "fromFBX": {
                    "shadingModel": "Lambert",
                    "isTruePBR": false
                }
            },
            "pbrMetallicRoughness": {
                "baseColorFactor": [
                    0.0,
                    0.276919931173325,
                    0.800000011920929,
                    1.0
                ],
                "metallicFactor": 0.200000002980232,
                "roughnessFactor": 0.800000011920929
            }
        }
    ],
    "meshes": [
        {
            "name": "stickman_new",
            "primitives": [
                {
                    "material": 0,
                    "mode": 4,
                    "attributes": {
                        "JOINTS_0": 22,
                        "NORMAL": 19,
                        "POSITION": 18,
                        "TEXCOORD_0": 20,
                        "TEXCOORD_1": 21,
                        "WEIGHTS_0": 23
                    },
                    "indices": 17
                }
            ]
        }
    ],
    "skins": [
        {
            "joints": [
                2,
                3,
                4,
                5,
                6,
                7,
                8,
                9,
                10,
                11,
                12,
                13,
                14,
                15,
                16,
                17,
                18,
                19,
                20,
                21
            ],
            "inverseBindMatrices": 24,
            "skeleton": 2
        }
    ],
    "animations": [
        {
            "name": "Take 001",
            "channels": [
                {
                    "sampler": 0,
                    "target": {
                        "node": 1,
                        "path": "translation"
                    }
                },
                {
                    "sampler": 1,
                    "target": {
                        "node": 1,
                        "path": "rotation"
                    }
                },
                {
                    "sampler": 2,
                    "target": {
                        "node": 3,
                        "path": "rotation"
                    }
                },
                {
                    "sampler": 3,
                    "target": {
                        "node": 4,
                        "path": "rotation"
                    }
                },
                {
                    "sampler": 4,
                    "target": {
                        "node": 6,
                        "path": "rotation"
                    }
                },
                {
                    "sampler": 5,
                    "target": {
                        "node": 7,
                        "path": "rotation"
                    }
                },
                {
                    "sampler": 6,
                    "target": {
                        "node": 9,
                        "path": "rotation"
                    }
                },
                {
                    "sampler": 7,
                    "target": {
                        "node": 10,
                        "path": "rotation"
                    }
                },
                {
                    "sampler": 8,
                    "target": {
                        "node": 11,
                        "path": "rotation"
                    }
                },
                {
                    "sampler": 9,
                    "target": {
                        "node": 12,
                        "path": "rotation"
                    }
                },
                {
                    "sampler": 10,
                    "target": {
                        "node": 13,
                        "path": "rotation"
                    }
                },
                {
                    "sampler": 11,
                    "target": {
                        "node": 14,
                        "path": "rotation"
                    }
                },
                {
                    "sampler": 12,
                    "target": {
                        "node": 16,
                        "path": "rotation"
                    }
                },
                {
                    "sampler": 13,
                    "target": {
                        "node": 17,
                        "path": "rotation"
                    }
                },
                {
                    "sampler": 14,
                    "target": {
                        "node": 18,
                        "path": "rotation"
                    }
                },
                {
                    "sampler": 15,
                    "target": {
                        "node": 20,
                        "path": "rotation"
                    }
                }
            ],
            "samplers": [
                {
                    "input": 0,
                    "interpolation": "LINEAR",
                    "output": 1
                },
                {
                    "input": 0,
                    "interpolation": "LINEAR",
                    "output": 2
                },
                {
                    "input": 0,
                    "interpolation": "LINEAR",
                    "output": 3
                },
                {
                    "input": 0,
                    "interpolation": "LINEAR",
                    "output": 4
                },
                {
                    "input": 0,
                    "interpolation": "LINEAR",
                    "output": 5
                },
                {
                    "input": 0,
                    "interpolation": "LINEAR",
                    "output": 6
                },
                {
                    "input": 0,
                    "interpolation": "LINEAR",
                    "output": 7
                },
                {
                    "input": 0,
                    "interpolation": "LINEAR",
                    "output": 8
                },
                {
                    "input": 0,
                    "interpolation": "LINEAR",
                    "output": 9
                },
                {
                    "input": 0,
                    "interpolation": "LINEAR",
                    "output": 10
                },
                {
                    "input": 0,
                    "interpolation": "LINEAR",
                    "output": 11
                },
                {
                    "input": 0,
                    "interpolation": "LINEAR",
                    "output": 12
                },
                {
                    "input": 0,
                    "interpolation": "LINEAR",
                    "output": 13
                },
                {
                    "input": 0,
                    "interpolation": "LINEAR",
                    "output": 14
                },
                {
                    "input": 0,
                    "interpolation": "LINEAR",
                    "output": 15
                },
                {
                    "input": 0,
                    "interpolation": "LINEAR",
                    "output": 16
                }
            ]
        }
    ],
    "nodes": [
        {
            "name": "RootNode",
            "translation": [
                0.0,
                0.0,
                0.0
            ],
            "rotation": [
                0.0,
                0.0,
                0.0,
                1.0
            ],
            "scale": [
                1.0,
                1.0,
                1.0
            ],
            "children": [
                1,
                22
            ]
        },
        {
            "name": "Character1_Reference",
            "translation": [
                -0.00966461841017008,
                0.00804734881967306,
                0.00123263360001147
            ],
            "rotation": [
                0.728305041790009,
                0.115285694599152,
                0.0922368615865707,
                0.669158697128296
            ],
            "scale": [
                1.0,
                1.0,
                1.0
            ],
            "children": [
                2
            ]
        },
        {
            "name": "Character1_Hips",
            "translation": [
                -1.11022299980974e-18,
                0.0268932320177555,
                -2.22044599961948e-18
            ],
            "rotation": [
                -1.92969152630987e-34,
                3.70797142990043e-17,
                5.20417042793042e-18,
                1.0
            ],
            "scale": [
                1.0,
                1.0,
                1.0
            ],
            "children": [
                3,
                6,
                9
            ]
        },
        {
            "name": "Character1_LeftUpLeg",
            "translation": [
                0.00673886481672525,
                -0.0027366615831852,
                0.0
            ],
            "rotation": [
                -0.45442920923233,
                0.155363976955414,
                0.161335825920105,
                0.862164080142975
            ],
            "scale": [
                1.0,
                1.0,
                1.0
            ],
            "children": [
                4
            ]
        },
        {
            "name": "Character1_LeftLeg",
            "translation": [
                0.00371353235095739,
                -0.0108860731124878,
                0.0
            ],
            "rotation": [
                0.307757765054703,
                0.359539389610291,
                -0.0286782085895538,
                0.880451083183289
            ],
            "scale": [
                1.0,
                1.0,
                1.0
            ],
            "children": [
                5
            ]
        },
        {
            "name": "Character1_LeftFoot",
            "translation": [
                0.00239629531279206,
                -0.00896722637116909,
                0.0
            ],
            "rotation": [
                -9.62964972193618e-35,
                3.46944695195361e-18,
                2.77555756156289e-17,
                1.0
            ],
            "scale": [
                1.0,
                1.0,
                1.0
            ]
        },
        {
            "name": "Character1_RightUpLeg",
            "translation": [
                -0.00673886481672525,
                -0.0027366615831852,
                0.0
            ],
            "rotation": [
                -0.135754570364952,
                -0.123390108346939,
                0.0723429694771767,
                0.980363249778748
            ],
            "scale": [
                1.0,
                1.0,
                1.0
            ],
            "children": [
                7
            ]
        },
        {
            "name": "Character1_RightLeg",
            "translation": [
                -0.00371353235095739,
                -0.0108860731124878,
                2.77555749952435e-19
            ],
            "rotation": [
                0.154298007488251,
                0.0999302715063095,
                0.0352078750729561,
                0.982327044010162
            ],
            "scale": [
                1.0,
                1.0,
                1.0
            ],
            "children": [
                8
            ]
        },
        {
            "name": "Character1_RightFoot",
            "translation": [
                -0.00239629531279206,
                -0.00896722637116909,
                0.0
            ],
            "rotation": [
                -6.93889390390723e-18,
                -1.38777878078145e-17,
                1.38777878078145e-17,
                1.0
            ],
            "scale": [
                1.0,
                1.0,
                1.0
            ]
        },
        {
            "name": "Character1_Spine",
            "translation": [
                0.0,
                0.0107677718624473,
                0.0
            ],
            "rotation": [
                0.0716430097818375,
                -0.0386211648583412,
                -0.0953371003270149,
                0.992112159729004
            ],
            "scale": [
                1.0,
                1.0,
                1.0
            ],
            "children": [
                10
            ]
        },
        {
            "name": "Character1_Spine1",
            "translation": [
                0.0,
                0.00623113987967372,
                -2.22044599961948e-18
            ],
            "rotation": [
                -0.0128739224746823,
                -0.00559371709823608,
                -0.00366211053915322,
                0.999894797801971
            ],
            "scale": [
                1.0,
                1.0,
                1.0
            ],
            "children": [
                11
            ]
        },
        {
            "name": "Character1_Spine2",
            "translation": [
                0.0,
                0.00623113987967372,
                0.0
            ],
            "rotation": [
                -0.012814992107451,
                -0.00506449351087213,
                -0.00379232969135046,
                0.999897837638855
            ],
            "scale": [
                1.0,
                1.0,
                1.0
            ],
            "children": [
                12,
                16,
                20
            ]
        },
        {
            "name": "Character1_LeftShoulder",
            "translation": [
                0.00468312622979283,
                0.00250115268863738,
                0.0
            ],
            "rotation": [
                0.0236043352633715,
                -0.165333911776543,
                0.134437322616577,
                0.976746737957001
            ],
            "scale": [
                1.0,
                1.0,
                1.0
            ],
            "children": [
                13
            ]
        },
        {
            "name": "Character1_LeftArm",
            "translation": [
                0.00425448827445507,
                -0.00114993168972433,
                0.0
            ],
            "rotation": [
                -0.741778433322906,
                0.0206540562212467,
                -0.0437219589948654,
                0.668899476528168
            ],
            "scale": [
                1.0,
                1.0,
                1.0
            ],
            "children": [
                14
            ]
        },
        {
            "name": "Character1_LeftForeArm",
            "translation": [
                0.0114695141091943,
                3.05805187963415e-05,
                8.88178399847791e-18
            ],
            "rotation": [
                -0.0777544900774956,
                -0.186182335019112,
                -0.00898310076445341,
                0.979392528533936
            ],
            "scale": [
                1.0,
                1.0,
                1.0
            ],
            "children": [
                15
            ]
        },
        {
            "name": "Character1_LeftHand",
            "translation": [
                0.0127815157175064,
                -1.32642389871762e-05,
                8.88178399847791e-18
            ],
            "rotation": [
                0.0,
                -0.0,
                -0.0026051145978272,
                0.999996602535248
            ],
            "scale": [
                1.0,
                1.0,
                1.0
            ]
        },
        {
            "name": "Character1_RightShoulder",
            "translation": [
                -0.00468312622979283,
                0.00250115268863738,
                0.0
            ],
            "rotation": [
                0.0109019307419658,
                0.0241434052586555,
                0.112906254827976,
                0.993252456188202
            ],
            "scale": [
                1.0,
                1.0,
                1.0
            ],
            "children": [
                17
            ]
        },
        {
            "name": "Character1_RightArm",
            "translation": [
                -0.00425448827445507,
                -0.00114993168972433,
                2.22044599961948e-18
            ],
            "rotation": [
                -0.229867607355118,
                -0.0829507857561111,
                0.0874038264155388,
                0.965733230113983
            ],
            "scale": [
                1.0,
                1.0,
                1.0
            ],
            "children": [
                18
            ]
        },
        {
            "name": "Character1_RightForeArm",
            "translation": [
                -0.0114695131778717,
                3.08974194922484e-05,
                2.22044599961948e-18
            ],
            "rotation": [
                -0.613926112651825,
                -0.0108730895444751,
                0.064591184258461,
                0.786641299724579
            ],
            "scale": [
                1.0,
                1.0,
                1.0
            ],
            "children": [
                19
            ]
        },
        {
            "name": "Character1_RightHand",
            "translation": [
                -0.0127815017476678,
                -2.31525064009475e-05,
                0.0
            ],
            "rotation": [
                6.48269676504903e-18,
                5.55662745472784e-17,
                0.008213902823627,
                0.999966263771057
            ],
            "scale": [
                1.0,
                1.0,
                1.0
            ]
        },
        {
            "name": "Character1_Neck",
            "translation": [
                0.0,
                0.00523114018142223,
                0.0
            ],
            "rotation": [
                -0.0949701592326164,
                0.0176060497760773,
                -0.159345015883446,
                0.982486546039581
            ],
            "scale": [
                1.0,
                1.0,
                1.0
            ],
            "children": [
                21
            ]
        },
        {
            "name": "Character1_Head",
            "translation": [
                0.0,
                0.0235770903527737,
                1.11022299980974e-18
            ],
            "rotation": [
                -2.19008838842072e-17,
                2.38524477946811e-17,
                5.22389689505425e-34,
                1.0
            ],
            "scale": [
                1.0,
                1.0,
                1.0
            ]
        },
        {
            "name": "stickman_new",
            "translation": [
                0.0,
                0.0,
                0.0
            ],
            "rotation": [
                0.0,
                0.0,
                0.0,
                1.0
            ],
            "scale": [
                1.0,
                1.0,
                1.0
            ],
            "mesh": 0,
            "skin": 0
        }
    ]
}