{
  "__type__": "cc.Model",
  "_name": "mangnuoc",
  "_objFlags": 0,
  "_native": "",
  "_nodes": [
    {
      "name": "RootNode",
      "scale": [
        1,
        1,
        1
      ],
      "children": [
        1
      ],
      "position": [
        0,
        0,
        0
      ],
      "quat": [
        0,
        0,
        0,
        1
      ],
      "path": ""
    },
    {
      "name": "mangnuoc",
      "scale": [
        1,
        1,
        1
      ],
      "children": [
        2,
        3,
        4,
        5
      ],
      "parent": null,
      "position": [
        0,
        0,
        0
      ],
      "quat": [
        0,
        0,
        0,
        1
      ],
      "path": "mangnuoc"
    },
    {
      "name": "mangnuoc",
      "scale": [
        1,
        1,
        1
      ],
      "mesh": 0,
      "parent": null,
      "position": [
        0,
        0,
        0
      ],
      "quat": [
        0,
        0,
        0,
        1
      ],
      "path": "mangnuoc/mangnuoc"
    },
    {
      "name": "mangnuoc1",
      "scale": [
        1,
        1,
        1
      ],
      "mesh": 1,
      "parent": null,
      "position": [
        0,
        0,
        0
      ],
      "quat": [
        0,
        0,
        0,
        1
      ],
      "path": "mangnuoc/mangnuoc1"
    },
    {
      "name": "mangnuoc2",
      "scale": [
        1,
        1,
        1
      ],
      "mesh": 2,
      "parent": null,
      "position": [
        0,
        0,
        0
      ],
      "quat": [
        0,
        0,
        0,
        1
      ],
      "path": "mangnuoc/mangnuoc2"
    },
    {
      "name": "mangnuoc3",
      "scale": [
        1,
        1,
        1
      ],
      "mesh": 3,
      "parent": null,
      "position": [
        0,
        0,
        0
      ],
      "quat": [
        0,
        0,
        0,
        1
      ],
      "path": "mangnuoc/mangnuoc3"
    }
  ],
  "_precomputeJointMatrix": false
}