{
    "asset": {
        "generator": "FBX2glTF v0.9.7",
        "version": "2.0"
    },
    "scene": 0,
    "buffers": [
        {
            "byteLength": 327172,
            "uri": "buffer.bin"
        }
    ],
    "bufferViews": [
        {
            "buffer": 0,
            "byteLength": 100,
            "byteOffset": 0
        },
        {
            "buffer": 0,
            "byteLength": 300,
            "byteOffset": 100
        },
        {
            "buffer": 0,
            "byteLength": 400,
            "byteOffset": 400
        },
        {
            "buffer": 0,
            "byteLength": 400,
            "byteOffset": 800
        },
        {
            "buffer": 0,
            "byteLength": 400,
            "byteOffset": 1200
        },
        {
            "buffer": 0,
            "byteLength": 400,
            "byteOffset": 1600
        },
        {
            "buffer": 0,
            "byteLength": 400,
            "byteOffset": 2000
        },
        {
            "buffer": 0,
            "byteLength": 400,
            "byteOffset": 2400
        },
        {
            "buffer": 0,
            "byteLength": 400,
            "byteOffset": 2800
        },
        {
            "buffer": 0,
            "byteLength": 400,
            "byteOffset": 3200
        },
        {
            "buffer": 0,
            "byteLength": 400,
            "byteOffset": 3600
        },
        {
            "buffer": 0,
            "byteLength": 400,
            "byteOffset": 4000
        },
        {
            "buffer": 0,
            "byteLength": 400,
            "byteOffset": 4400
        },
        {
            "buffer": 0,
            "byteLength": 400,
            "byteOffset": 4800
        },
        {
            "buffer": 0,
            "byteLength": 400,
            "byteOffset": 5200
        },
        {
            "buffer": 0,
            "byteLength": 400,
            "byteOffset": 5600
        },
        {
            "buffer": 0,
            "byteLength": 400,
            "byteOffset": 6000
        },
        {
            "buffer": 0,
            "byteLength": 400,
            "byteOffset": 6400
        },
        {
            "buffer": 0,
            "byteLength": 3720,
            "byteOffset": 6800,
            "target": 34963
        },
        {
            "buffer": 0,
            "byteLength": 15564,
            "byteOffset": 10520,
            "target": 34962
        },
        {
            "buffer": 0,
            "byteLength": 15564,
            "byteOffset": 26084,
            "target": 34962
        },
        {
            "buffer": 0,
            "byteLength": 10376,
            "byteOffset": 41648,
            "target": 34962
        },
        {
            "buffer": 0,
            "byteLength": 10376,
            "byteOffset": 52024,
            "target": 34962
        },
        {
            "buffer": 0,
            "byteLength": 4200,
            "byteOffset": 62400,
            "target": 34963
        },
        {
            "buffer": 0,
            "byteLength": 15936,
            "byteOffset": 66600,
            "target": 34962
        },
        {
            "buffer": 0,
            "byteLength": 15936,
            "byteOffset": 82536,
            "target": 34962
        },
        {
            "buffer": 0,
            "byteLength": 10624,
            "byteOffset": 98472,
            "target": 34962
        },
        {
            "buffer": 0,
            "byteLength": 10624,
            "byteOffset": 109096,
            "target": 34962
        },
        {
            "buffer": 0,
            "byteLength": 1056,
            "byteOffset": 119720,
            "target": 34963
        },
        {
            "buffer": 0,
            "byteLength": 4416,
            "byteOffset": 120776,
            "target": 34962
        },
        {
            "buffer": 0,
            "byteLength": 4416,
            "byteOffset": 125192,
            "target": 34962
        },
        {
            "buffer": 0,
            "byteLength": 2944,
            "byteOffset": 129608,
            "target": 34962
        },
        {
            "buffer": 0,
            "byteLength": 2944,
            "byteOffset": 132552,
            "target": 34962
        },
        {
            "buffer": 0,
            "byteLength": 1152,
            "byteOffset": 135496,
            "target": 34963
        },
        {
            "buffer": 0,
            "byteLength": 4416,
            "byteOffset": 136648,
            "target": 34962
        },
        {
            "buffer": 0,
            "byteLength": 4416,
            "byteOffset": 141064,
            "target": 34962
        },
        {
            "buffer": 0,
            "byteLength": 2944,
            "byteOffset": 145480,
            "target": 34962
        },
        {
            "buffer": 0,
            "byteLength": 2944,
            "byteOffset": 148424,
            "target": 34962
        },
        {
            "buffer": 0,
            "byteLength": 768,
            "byteOffset": 151368,
            "target": 34963
        },
        {
            "buffer": 0,
            "byteLength": 3084,
            "byteOffset": 152136,
            "target": 34962
        },
        {
            "buffer": 0,
            "byteLength": 3084,
            "byteOffset": 155220,
            "target": 34962
        },
        {
            "buffer": 0,
            "byteLength": 2056,
            "byteOffset": 158304,
            "target": 34962
        },
        {
            "buffer": 0,
            "byteLength": 2056,
            "byteOffset": 160360,
            "target": 34962
        },
        {
            "buffer": 0,
            "byteLength": 2340,
            "byteOffset": 162416,
            "target": 34963
        },
        {
            "buffer": 0,
            "byteLength": 9876,
            "byteOffset": 164756,
            "target": 34962
        },
        {
            "buffer": 0,
            "byteLength": 9876,
            "byteOffset": 174632,
            "target": 34962
        },
        {
            "buffer": 0,
            "byteLength": 6584,
            "byteOffset": 184508,
            "target": 34962
        },
        {
            "buffer": 0,
            "byteLength": 6584,
            "byteOffset": 191092,
            "target": 34962
        },
        {
            "buffer": 0,
            "byteLength": 11928,
            "byteOffset": 197676,
            "target": 34963
        },
        {
            "buffer": 0,
            "byteLength": 21816,
            "byteOffset": 209604,
            "target": 34962
        },
        {
            "buffer": 0,
            "byteLength": 21816,
            "byteOffset": 231420,
            "target": 34962
        },
        {
            "buffer": 0,
            "byteLength": 14544,
            "byteOffset": 253236,
            "target": 34962
        },
        {
            "buffer": 0,
            "byteLength": 14544,
            "byteOffset": 267780,
            "target": 34962
        },
        {
            "buffer": 0,
            "byteLength": 14544,
            "byteOffset": 282324,
            "target": 34962
        },
        {
            "buffer": 0,
            "byteLength": 29088,
            "byteOffset": 296868,
            "target": 34962
        },
        {
            "buffer": 0,
            "byteLength": 1216,
            "byteOffset": 325956
        }
    ],
    "scenes": [
        {
            "name": "Root Scene",
            "nodes": [
                0
            ]
        }
    ],
    "accessors": [
        {
            "componentType": 5126,
            "type": "SCALAR",
            "count": 25,
            "bufferView": 0,
            "byteOffset": 0,
            "min": [
                0.0
            ],
            "max": [
                1.0
            ]
        },
        {
            "componentType": 5126,
            "type": "VEC3",
            "count": 25,
            "bufferView": 1,
            "byteOffset": 0
        },
        {
            "componentType": 5126,
            "type": "VEC4",
            "count": 25,
            "bufferView": 2,
            "byteOffset": 0
        },
        {
            "componentType": 5126,
            "type": "VEC4",
            "count": 25,
            "bufferView": 3,
            "byteOffset": 0
        },
        {
            "componentType": 5126,
            "type": "VEC4",
            "count": 25,
            "bufferView": 4,
            "byteOffset": 0
        },
        {
            "componentType": 5126,
            "type": "VEC4",
            "count": 25,
            "bufferView": 5,
            "byteOffset": 0
        },
        {
            "componentType": 5126,
            "type": "VEC4",
            "count": 25,
            "bufferView": 6,
            "byteOffset": 0
        },
        {
            "componentType": 5126,
            "type": "VEC4",
            "count": 25,
            "bufferView": 7,
            "byteOffset": 0
        },
        {
            "componentType": 5126,
            "type": "VEC4",
            "count": 25,
            "bufferView": 8,
            "byteOffset": 0
        },
        {
            "componentType": 5126,
            "type": "VEC4",
            "count": 25,
            "bufferView": 9,
            "byteOffset": 0
        },
        {
            "componentType": 5126,
            "type": "VEC4",
            "count": 25,
            "bufferView": 10,
            "byteOffset": 0
        },
        {
            "componentType": 5126,
            "type": "VEC4",
            "count": 25,
            "bufferView": 11,
            "byteOffset": 0
        },
        {
            "componentType": 5126,
            "type": "VEC4",
            "count": 25,
            "bufferView": 12,
            "byteOffset": 0
        },
        {
            "componentType": 5126,
            "type": "VEC4",
            "count": 25,
            "bufferView": 13,
            "byteOffset": 0
        },
        {
            "componentType": 5126,
            "type": "VEC4",
            "count": 25,
            "bufferView": 14,
            "byteOffset": 0
        },
        {
            "componentType": 5126,
            "type": "VEC4",
            "count": 25,
            "bufferView": 15,
            "byteOffset": 0
        },
        {
            "componentType": 5126,
            "type": "VEC4",
            "count": 25,
            "bufferView": 16,
            "byteOffset": 0
        },
        {
            "componentType": 5126,
            "type": "VEC4",
            "count": 25,
            "bufferView": 17,
            "byteOffset": 0
        },
        {
            "componentType": 5123,
            "type": "SCALAR",
            "count": 1860,
            "bufferView": 18,
            "byteOffset": 0
        },
        {
            "componentType": 5126,
            "type": "VEC3",
            "count": 1297,
            "bufferView": 19,
            "byteOffset": 0,
            "min": [
                -0.00851459708064795,
                -0.0376444235444069,
                -0.00445245578885078
            ],
            "max": [
                0.0104776890948415,
                0.0203254129737616,
                0.00445245578885078
            ]
        },
        {
            "componentType": 5126,
            "type": "VEC3",
            "count": 1297,
            "bufferView": 20,
            "byteOffset": 0
        },
        {
            "componentType": 5126,
            "type": "VEC2",
            "count": 1297,
            "bufferView": 21,
            "byteOffset": 0
        },
        {
            "componentType": 5126,
            "type": "VEC2",
            "count": 1297,
            "bufferView": 22,
            "byteOffset": 0
        },
        {
            "componentType": 5123,
            "type": "SCALAR",
            "count": 2100,
            "bufferView": 23,
            "byteOffset": 0
        },
        {
            "componentType": 5126,
            "type": "VEC3",
            "count": 1328,
            "bufferView": 24,
            "byteOffset": 0,
            "min": [
                -0.157083615660667,
                -0.000200445647351444,
                -0.0105492221191525
            ],
            "max": [
                -0.141019403934479,
                0.0597874447703362,
                -0.00925077777355909
            ]
        },
        {
            "componentType": 5126,
            "type": "VEC3",
            "count": 1328,
            "bufferView": 25,
            "byteOffset": 0
        },
        {
            "componentType": 5126,
            "type": "VEC2",
            "count": 1328,
            "bufferView": 26,
            "byteOffset": 0
        },
        {
            "componentType": 5126,
            "type": "VEC2",
            "count": 1328,
            "bufferView": 27,
            "byteOffset": 0
        },
        {
            "componentType": 5123,
            "type": "SCALAR",
            "count": 528,
            "bufferView": 28,
            "byteOffset": 0
        },
        {
            "componentType": 5126,
            "type": "VEC3",
            "count": 368,
            "bufferView": 29,
            "byteOffset": 0,
            "min": [
                -0.0149999968707561,
                -0.00499999895691872,
                -0.050753328949213
            ],
            "max": [
                0.0149999987334013,
                0.00499999942258,
                0.0150000043213367
            ]
        },
        {
            "componentType": 5126,
            "type": "VEC3",
            "count": 368,
            "bufferView": 30,
            "byteOffset": 0
        },
        {
            "componentType": 5126,
            "type": "VEC2",
            "count": 368,
            "bufferView": 31,
            "byteOffset": 0
        },
        {
            "componentType": 5126,
            "type": "VEC2",
            "count": 368,
            "bufferView": 32,
            "byteOffset": 0
        },
        {
            "componentType": 5123,
            "type": "SCALAR",
            "count": 576,
            "bufferView": 33,
            "byteOffset": 0
        },
        {
            "componentType": 5126,
            "type": "VEC3",
            "count": 368,
            "bufferView": 34,
            "byteOffset": 0,
            "min": [
                -0.00999999884516001,
                -0.016362139955163,
                -0.00999999884516001
            ],
            "max": [
                0.00999999884516001,
                0.016362139955163,
                0.00999999884516001
            ]
        },
        {
            "componentType": 5126,
            "type": "VEC3",
            "count": 368,
            "bufferView": 35,
            "byteOffset": 0
        },
        {
            "componentType": 5126,
            "type": "VEC2",
            "count": 368,
            "bufferView": 36,
            "byteOffset": 0
        },
        {
            "componentType": 5126,
            "type": "VEC2",
            "count": 368,
            "bufferView": 37,
            "byteOffset": 0
        },
        {
            "componentType": 5123,
            "type": "SCALAR",
            "count": 384,
            "bufferView": 38,
            "byteOffset": 0
        },
        {
            "componentType": 5126,
            "type": "VEC3",
            "count": 257,
            "bufferView": 39,
            "byteOffset": 0,
            "min": [
                -0.00850386638194323,
                -0.0092036034911871,
                -0.00850387662649155
            ],
            "max": [
                0.00850388966500759,
                0.00911427289247513,
                0.00850387662649155
            ]
        },
        {
            "componentType": 5126,
            "type": "VEC3",
            "count": 257,
            "bufferView": 40,
            "byteOffset": 0
        },
        {
            "componentType": 5126,
            "type": "VEC2",
            "count": 257,
            "bufferView": 41,
            "byteOffset": 0
        },
        {
            "componentType": 5126,
            "type": "VEC2",
            "count": 257,
            "bufferView": 42,
            "byteOffset": 0
        },
        {
            "componentType": 5123,
            "type": "SCALAR",
            "count": 1170,
            "bufferView": 43,
            "byteOffset": 0
        },
        {
            "componentType": 5126,
            "type": "VEC3",
            "count": 823,
            "bufferView": 44,
            "byteOffset": 0,
            "min": [
                -0.0114000029861927,
                -0.0144381485879421,
                -0.0110467001795769
            ],
            "max": [
                0.0114000020548701,
                0.030758598819375,
                0.0110467001795769
            ]
        },
        {
            "componentType": 5126,
            "type": "VEC3",
            "count": 823,
            "bufferView": 45,
            "byteOffset": 0
        },
        {
            "componentType": 5126,
            "type": "VEC2",
            "count": 823,
            "bufferView": 46,
            "byteOffset": 0
        },
        {
            "componentType": 5126,
            "type": "VEC2",
            "count": 823,
            "bufferView": 47,
            "byteOffset": 0
        },
        {
            "componentType": 5123,
            "type": "SCALAR",
            "count": 5964,
            "bufferView": 48,
            "byteOffset": 0
        },
        {
            "componentType": 5126,
            "type": "VEC3",
            "count": 1818,
            "bufferView": 49,
            "byteOffset": 0,
            "min": [
                -0.0408465415239334,
                9.62369085755199e-06,
                -0.0114701921120286
            ],
            "max": [
                0.0408465415239334,
                0.0793404877185822,
                0.0109114097431302
            ]
        },
        {
            "componentType": 5126,
            "type": "VEC3",
            "count": 1818,
            "bufferView": 50,
            "byteOffset": 0
        },
        {
            "componentType": 5126,
            "type": "VEC2",
            "count": 1818,
            "bufferView": 51,
            "byteOffset": 0
        },
        {
            "componentType": 5126,
            "type": "VEC2",
            "count": 1818,
            "bufferView": 52,
            "byteOffset": 0
        },
        {
            "componentType": 5123,
            "type": "VEC4",
            "count": 1818,
            "bufferView": 53,
            "byteOffset": 0
        },
        {
            "componentType": 5126,
            "type": "VEC4",
            "count": 1818,
            "bufferView": 54,
            "byteOffset": 0
        },
        {
            "componentType": 5126,
            "type": "MAT4",
            "count": 19,
            "bufferView": 55,
            "byteOffset": 0
        }
    ],
    "images": [
        {
            "name": "base_color_texture",
            "uri": "data:image/png;base64,iVBORw0KGgoAAAANSUhEUgAAAAEAAAABCAYAAAAfFcSJAAAADUlEQVR42mP8/5+hHgAHggJ/PchI7wAAAABJRU5ErkJggg=="
        }
    ],
    "samplers": [
        {}
    ],
    "textures": [
        {
            "name": "base_color_texture",
            "sampler": 0,
            "source": 0
        }
    ],
    "materials": [
        {
            "name": "weapon_texture_1Material5",
            "alphaMode": "OPAQUE",
            "extras": {
                "fromFBX": {
                    "shadingModel": "Phong",
                    "isTruePBR": false
                }
            },
            "pbrMetallicRoughness": {
                "baseColorTexture": {
                    "index": 0,
                    "texCoord": 0
                },
                "baseColorFactor": [
                    1.0,
                    1.0,
                    1.0,
                    1.0
                ],
                "metallicFactor": 0.400000005960464,
                "roughnessFactor": 0.301511347293854
            }
        },
        {
            "name": "weapon_texture_1Material6",
            "alphaMode": "OPAQUE",
            "extras": {
                "fromFBX": {
                    "shadingModel": "Phong",
                    "isTruePBR": false
                }
            },
            "pbrMetallicRoughness": {
                "baseColorTexture": {
                    "index": 0,
                    "texCoord": 0
                },
                "baseColorFactor": [
                    1.0,
                    1.0,
                    1.0,
                    1.0
                ],
                "metallicFactor": 0.400000005960464,
                "roughnessFactor": 0.301511347293854
            }
        },
        {
            "name": "weapon_texture_1Material7",
            "alphaMode": "OPAQUE",
            "extras": {
                "fromFBX": {
                    "shadingModel": "Phong",
                    "isTruePBR": false
                }
            },
            "pbrMetallicRoughness": {
                "baseColorTexture": {
                    "index": 0,
                    "texCoord": 0
                },
                "baseColorFactor": [
                    1.0,
                    1.0,
                    1.0,
                    1.0
                ],
                "metallicFactor": 0.400000005960464,
                "roughnessFactor": 0.301511347293854
            }
        },
        {
            "name": "weapon_texture_1Material8",
            "alphaMode": "OPAQUE",
            "extras": {
                "fromFBX": {
                    "shadingModel": "Phong",
                    "isTruePBR": false
                }
            },
            "pbrMetallicRoughness": {
                "baseColorTexture": {
                    "index": 0,
                    "texCoord": 0
                },
                "baseColorFactor": [
                    1.0,
                    1.0,
                    1.0,
                    1.0
                ],
                "metallicFactor": 0.400000005960464,
                "roughnessFactor": 0.301511347293854
            }
        },
        {
            "name": "weapon_texture_1Material9",
            "alphaMode": "OPAQUE",
            "extras": {
                "fromFBX": {
                    "shadingModel": "Phong",
                    "isTruePBR": false
                }
            },
            "pbrMetallicRoughness": {
                "baseColorTexture": {
                    "index": 0,
                    "texCoord": 0
                },
                "baseColorFactor": [
                    1.0,
                    1.0,
                    1.0,
                    1.0
                ],
                "metallicFactor": 0.400000005960464,
                "roughnessFactor": 0.301511347293854
            }
        },
        {
            "name": "weapon_texture_1Material10",
            "alphaMode": "OPAQUE",
            "extras": {
                "fromFBX": {
                    "shadingModel": "Phong",
                    "isTruePBR": false
                }
            },
            "pbrMetallicRoughness": {
                "baseColorTexture": {
                    "index": 0,
                    "texCoord": 0
                },
                "baseColorFactor": [
                    1.0,
                    1.0,
                    1.0,
                    1.0
                ],
                "metallicFactor": 0.400000005960464,
                "roughnessFactor": 0.301511347293854
            }
        },
        {
            "name": "lambert38",
            "alphaMode": "OPAQUE",
            "extras": {
                "fromFBX": {
                    "shadingModel": "Phong",
                    "isTruePBR": false
                }
            },
            "pbrMetallicRoughness": {
                "baseColorFactor": [
                    0.0,
                    0.346149921417236,
                    1.0,
                    1.0
                ],
                "metallicFactor": 0.400000005960464,
                "roughnessFactor": 0.301511347293854
            }
        }
    ],
    "meshes": [
        {
            "name": "bantay",
            "primitives": [
                {
                    "material": 0,
                    "mode": 4,
                    "attributes": {
                        "NORMAL": 20,
                        "POSITION": 19,
                        "TEXCOORD_0": 21,
                        "TEXCOORD_1": 22
                    },
                    "indices": 18
                }
            ]
        },
        {
            "name": "votruoi",
            "primitives": [
                {
                    "material": 1,
                    "mode": 4,
                    "attributes": {
                        "NORMAL": 25,
                        "POSITION": 24,
                        "TEXCOORD_0": 26,
                        "TEXCOORD_1": 27
                    },
                    "indices": 23
                }
            ]
        },
        {
            "name": "noel",
            "primitives": [
                {
                    "material": 2,
                    "mode": 4,
                    "attributes": {
                        "NORMAL": 30,
                        "POSITION": 29,
                        "TEXCOORD_0": 31,
                        "TEXCOORD_1": 32
                    },
                    "indices": 28
                }
            ]
        },
        {
            "name": "lanbot",
            "primitives": [
                {
                    "material": 3,
                    "mode": 4,
                    "attributes": {
                        "NORMAL": 35,
                        "POSITION": 34,
                        "TEXCOORD_0": 36,
                        "TEXCOORD_1": 37
                    },
                    "indices": 33
                }
            ]
        },
        {
            "name": "gaybongchay",
            "primitives": [
                {
                    "material": 4,
                    "mode": 4,
                    "attributes": {
                        "NORMAL": 40,
                        "POSITION": 39,
                        "TEXCOORD_0": 41,
                        "TEXCOORD_1": 42
                    },
                    "indices": 38
                }
            ]
        },
        {
            "name": "chuy",
            "primitives": [
                {
                    "material": 5,
                    "mode": 4,
                    "attributes": {
                        "NORMAL": 45,
                        "POSITION": 44,
                        "TEXCOORD_0": 46,
                        "TEXCOORD_1": 47
                    },
                    "indices": 43
                }
            ]
        },
        {
            "name": "stickman_new",
            "primitives": [
                {
                    "material": 6,
                    "mode": 4,
                    "attributes": {
                        "JOINTS_0": 53,
                        "NORMAL": 50,
                        "POSITION": 49,
                        "TEXCOORD_0": 51,
                        "TEXCOORD_1": 52,
                        "WEIGHTS_0": 54
                    },
                    "indices": 48
                }
            ]
        }
    ],
    "skins": [
        {
            "joints": [
                12,
                13,
                14,
                15,
                30,
                2,
                3,
                11,
                4,
                5,
                7,
                8,
                19,
                16,
                17,
                20,
                9,
                21,
                22
            ],
            "inverseBindMatrices": 55,
            "skeleton": 2
        }
    ],
    "animations": [
        {
            "name": "Attack",
            "channels": [
                {
                    "sampler": 0,
                    "target": {
                        "node": 1,
                        "path": "translation"
                    }
                },
                {
                    "sampler": 1,
                    "target": {
                        "node": 1,
                        "path": "rotation"
                    }
                },
                {
                    "sampler": 2,
                    "target": {
                        "node": 3,
                        "path": "rotation"
                    }
                },
                {
                    "sampler": 3,
                    "target": {
                        "node": 4,
                        "path": "rotation"
                    }
                },
                {
                    "sampler": 4,
                    "target": {
                        "node": 7,
                        "path": "rotation"
                    }
                },
                {
                    "sampler": 5,
                    "target": {
                        "node": 8,
                        "path": "rotation"
                    }
                },
                {
                    "sampler": 6,
                    "target": {
                        "node": 11,
                        "path": "rotation"
                    }
                },
                {
                    "sampler": 7,
                    "target": {
                        "node": 12,
                        "path": "rotation"
                    }
                },
                {
                    "sampler": 8,
                    "target": {
                        "node": 13,
                        "path": "rotation"
                    }
                },
                {
                    "sampler": 9,
                    "target": {
                        "node": 14,
                        "path": "rotation"
                    }
                },
                {
                    "sampler": 10,
                    "target": {
                        "node": 15,
                        "path": "rotation"
                    }
                },
                {
                    "sampler": 11,
                    "target": {
                        "node": 16,
                        "path": "rotation"
                    }
                },
                {
                    "sampler": 12,
                    "target": {
                        "node": 19,
                        "path": "rotation"
                    }
                },
                {
                    "sampler": 13,
                    "target": {
                        "node": 20,
                        "path": "rotation"
                    }
                },
                {
                    "sampler": 14,
                    "target": {
                        "node": 21,
                        "path": "rotation"
                    }
                },
                {
                    "sampler": 15,
                    "target": {
                        "node": 22,
                        "path": "rotation"
                    }
                },
                {
                    "sampler": 16,
                    "target": {
                        "node": 30,
                        "path": "rotation"
                    }
                }
            ],
            "samplers": [
                {
                    "input": 0,
                    "interpolation": "LINEAR",
                    "output": 1
                },
                {
                    "input": 0,
                    "interpolation": "LINEAR",
                    "output": 2
                },
                {
                    "input": 0,
                    "interpolation": "LINEAR",
                    "output": 3
                },
                {
                    "input": 0,
                    "interpolation": "LINEAR",
                    "output": 4
                },
                {
                    "input": 0,
                    "interpolation": "LINEAR",
                    "output": 5
                },
                {
                    "input": 0,
                    "interpolation": "LINEAR",
                    "output": 6
                },
                {
                    "input": 0,
                    "interpolation": "LINEAR",
                    "output": 7
                },
                {
                    "input": 0,
                    "interpolation": "LINEAR",
                    "output": 8
                },
                {
                    "input": 0,
                    "interpolation": "LINEAR",
                    "output": 9
                },
                {
                    "input": 0,
                    "interpolation": "LINEAR",
                    "output": 10
                },
                {
                    "input": 0,
                    "interpolation": "LINEAR",
                    "output": 11
                },
                {
                    "input": 0,
                    "interpolation": "LINEAR",
                    "output": 12
                },
                {
                    "input": 0,
                    "interpolation": "LINEAR",
                    "output": 13
                },
                {
                    "input": 0,
                    "interpolation": "LINEAR",
                    "output": 14
                },
                {
                    "input": 0,
                    "interpolation": "LINEAR",
                    "output": 15
                },
                {
                    "input": 0,
                    "interpolation": "LINEAR",
                    "output": 16
                },
                {
                    "input": 0,
                    "interpolation": "LINEAR",
                    "output": 17
                }
            ]
        }
    ],
    "nodes": [
        {
            "name": "RootNode",
            "translation": [
                0.0,
                0.0,
                0.0
            ],
            "rotation": [
                0.0,
                0.0,
                0.0,
                1.0
            ],
            "scale": [
                1.0,
                1.0,
                1.0
            ],
            "children": [
                1,
                33
            ]
        },
        {
            "name": "Character1_Reference",
            "translation": [
                -0.000569949683267623,
                -0.000896167301107198,
                -0.000617082347162068
            ],
            "rotation": [
                0.0458640530705452,
                -0.437117397785187,
                0.0396576784551144,
                0.897358417510986
            ],
            "scale": [
                1.00000059604645,
                1.00000059604645,
                1.00000059604645
            ],
            "children": [
                2
            ]
        },
        {
            "name": "Character1_Hips",
            "translation": [
                -5.55111499904869e-19,
                0.0268932320177555,
                4.16333624928652e-19
            ],
            "rotation": [
                -3.46944695195361e-18,
                -8.32667268468867e-17,
                -2.88889491658085e-34,
                1.0
            ],
            "scale": [
                1.0,
                1.0,
                1.0
            ],
            "children": [
                3,
                7,
                11
            ]
        },
        {
            "name": "Character1_LeftUpLeg",
            "translation": [
                0.00673886481672525,
                -0.00273666135035455,
                -3.46944674515846e-19
            ],
            "rotation": [
                -0.459627121686935,
                0.309015333652496,
                0.0257111229002476,
                0.832220733165741
            ],
            "scale": [
                0.999999940395355,
                0.999999940395355,
                1.0
            ],
            "children": [
                4
            ]
        },
        {
            "name": "Character1_LeftLeg",
            "translation": [
                0.00371353258378804,
                -0.0108860740438104,
                3.33004873676046e-10
            ],
            "rotation": [
                0.497937768697739,
                0.00467873783782125,
                -0.0568245053291321,
                0.865336358547211
            ],
            "scale": [
                1.0,
                1.0,
                1.0
            ],
            "children": [
                5
            ]
        },
        {
            "name": "Character1_LeftFoot",
            "translation": [
                0.00239629601128399,
                -0.00896722730249166,
                1.76383477268338e-10
            ],
            "rotation": [
                -4.54729542909149e-09,
                2.11481872014474e-08,
                -5.31464161568351e-09,
                1.0
            ],
            "scale": [
                1.0,
                1.0,
                1.0
            ],
            "children": [
                6
            ]
        },
        {
            "name": "Character1_LeftFoot_end",
            "translation": [
                5.55111499904869e-19,
                0.0092818820849061,
                -2.38418573772492e-09
            ],
            "rotation": [
                2.77555756156289e-17,
                -2.77555756156289e-17,
                -1.38777878078145e-17,
                1.0
            ],
            "scale": [
                1.0,
                1.0,
                1.0
            ]
        },
        {
            "name": "Character1_RightUpLeg",
            "translation": [
                -0.00673886481672525,
                -0.00273666135035455,
                2.08166812464326e-19
            ],
            "rotation": [
                -0.308524131774902,
                -0.0346747525036335,
                0.0538338199257851,
                0.949058711528778
            ],
            "scale": [
                1.0,
                1.0,
                1.0
            ],
            "children": [
                8
            ]
        },
        {
            "name": "Character1_RightLeg",
            "translation": [
                -0.00371353118680418,
                -0.0108860768377781,
                2.66321104058775e-10
            ],
            "rotation": [
                0.498980641365051,
                -0.116849347949028,
                -0.18500217795372,
                0.838533699512482
            ],
            "scale": [
                0.99999988079071,
                1.0,
                1.0
            ],
            "children": [
                9
            ]
        },
        {
            "name": "Character1_RightFoot",
            "translation": [
                -0.00239629554562271,
                -0.00896722730249166,
                -1.31520780377592e-10
            ],
            "rotation": [
                -5.21380993934173e-10,
                -1.35325670669317e-08,
                1.78065695521923e-09,
                1.0
            ],
            "scale": [
                1.0,
                1.0,
                1.00000011920929
            ],
            "children": [
                10
            ]
        },
        {
            "name": "Character1_RightFoot_end",
            "translation": [
                0.0,
                0.0092818858101964,
                2.38418573772492e-09
            ],
            "rotation": [
                2.08166817117217e-17,
                5.55111512312578e-17,
                -2.77555756156289e-17,
                1.0
            ],
            "scale": [
                1.0,
                1.0,
                1.0
            ]
        },
        {
            "name": "Character1_Spine",
            "translation": [
                -1.38777874976217e-19,
                0.0107677718624473,
                -3.46944674515846e-19
            ],
            "rotation": [
                0.0566466972231865,
                0.0206443779170513,
                0.0189188811928034,
                0.998001515865326
            ],
            "scale": [
                0.99999988079071,
                0.99999988079071,
                1.0
            ],
            "children": [
                12
            ]
        },
        {
            "name": "Character1_Spine1",
            "translation": [
                -2.67098530792875e-11,
                0.00623114453628659,
                -3.72245456681242e-10
            ],
            "rotation": [
                0.0256250835955143,
                0.0359757915139198,
                -0.0077010802924633,
                0.998994410037994
            ],
            "scale": [
                1.00000011920929,
                1.00000011920929,
                1.0
            ],
            "children": [
                13
            ]
        },
        {
            "name": "Character1_Spine2",
            "translation": [
                6.35740418641895e-11,
                0.00623114174231887,
                1.15332757233411e-10
            ],
            "rotation": [
                -0.0594201497733593,
                0.0370830185711384,
                -0.018536563962698,
                0.997371792793274
            ],
            "scale": [
                1.0,
                1.0,
                1.00000011920929
            ],
            "children": [
                14,
                19,
                30
            ]
        },
        {
            "name": "Character1_LeftShoulder",
            "translation": [
                0.00468312622979283,
                0.00250115827657282,
                -8.74541064566081e-12
            ],
            "rotation": [
                -0.0105226757004857,
                -0.151851758360863,
                0.00501135643571615,
                0.988334536552429
            ],
            "scale": [
                1.00000011920929,
                0.999999940395355,
                1.0
            ],
            "children": [
                15
            ]
        },
        {
            "name": "Character1_LeftArm",
            "translation": [
                0.00425448780879378,
                -0.00114993168972433,
                -4.55276094601942e-10
            ],
            "rotation": [
                -0.104003511369228,
                -0.0378572978079319,
                -0.346122831106186,
                0.931637823581696
            ],
            "scale": [
                1.0,
                0.999999940395355,
                1.0
            ],
            "children": [
                16
            ]
        },
        {
            "name": "Character1_LeftForeArm",
            "translation": [
                0.0114695094525814,
                3.05792964354623e-05,
                -6.35740418641895e-11
            ],
            "rotation": [
                -0.14374215900898,
                -0.232489079236984,
                -0.0822932496666908,
                0.958391785621643
            ],
            "scale": [
                0.999999940395355,
                0.99999988079071,
                0.99999988079071
            ],
            "children": [
                17
            ]
        },
        {
            "name": "Character1_LeftHand",
            "translation": [
                0.0127815194427967,
                -1.32614159156219e-05,
                -1.44201628415885e-09
            ],
            "rotation": [
                1.44092853204825e-08,
                2.39958382053373e-08,
                -0.00260500470176339,
                0.999996602535248
            ],
            "scale": [
                0.999999582767487,
                0.999999642372131,
                1.0
            ],
            "children": [
                18
            ]
        },
        {
            "name": "Character1_LeftHand_end",
            "translation": [
                -1.19209286886246e-09,
                0.0127815287560225,
                -4.76837147544984e-09
            ],
            "rotation": [
                -2.77555756156289e-17,
                1.38777878078145e-17,
                -2.77555756156289e-17,
                1.0
            ],
            "scale": [
                1.0,
                1.0,
                1.0
            ]
        },
        {
            "name": "Character1_RightShoulder",
            "translation": [
                -0.00468312716111541,
                0.00250116013921797,
                -2.30076471763319e-10
            ],
            "rotation": [
                -0.0370187424123287,
                0.172501623630524,
                0.007805195171386,
                0.984282433986664
            ],
            "scale": [
                1.0,
                0.999999821186066,
                0.999999940395355
            ],
            "children": [
                20
            ]
        },
        {
            "name": "Character1_RightArm",
            "translation": [
                -0.00425448920577765,
                -0.00114992982707918,
                -2.71787009564761e-10
            ],
            "rotation": [
                -0.164486601948738,
                -0.244769558310509,
                0.392944663763046,
                0.870991706848145
            ],
            "scale": [
                1.0,
                0.99999988079071,
                1.0
            ],
            "children": [
                21
            ]
        },
        {
            "name": "Character1_RightForeArm",
            "translation": [
                -0.0114695085212588,
                3.09015049424488e-05,
                -8.87510620550813e-10
            ],
            "rotation": [
                -0.10929860919714,
                0.312394678592682,
                0.0752644687891006,
                0.940637350082397
            ],
            "scale": [
                0.999999821186066,
                0.999999523162842,
                0.999999821186066
            ],
            "children": [
                22
            ]
        },
        {
            "name": "Character1_RightHand",
            "translation": [
                -0.0127815054729581,
                -2.31520934903529e-05,
                -5.26083177021519e-10
            ],
            "rotation": [
                -0.0655530244112015,
                -0.0459066368639469,
                0.065220020711422,
                0.994656562805176
            ],
            "scale": [
                1.00000035762787,
                1.00000035762787,
                1.0
            ],
            "children": [
                23,
                24,
                25,
                26,
                27,
                28,
                29
            ]
        },
        {
            "name": "bantay",
            "translation": [
                -0.0184603929519653,
                0.0283750053495169,
                0.00877754203975201
            ],
            "rotation": [
                0.26829731464386,
                -0.727591156959534,
                0.053854264318943,
                0.629068613052368
            ],
            "scale": [
                1.0,
                1.0,
                1.0
            ],
            "mesh": 0
        },
        {
            "name": "votruoi",
            "translation": [
                -0.0202227924019098,
                -0.057228684425354,
                0.136987522244453
            ],
            "rotation": [
                0.272214770317078,
                -0.728343188762665,
                0.0539258234202862,
                0.626504063606262
            ],
            "scale": [
                1.0,
                1.0,
                1.0
            ],
            "mesh": 1
        },
        {
            "name": "noel",
            "translation": [
                -0.0186776556074619,
                0.0174812357872725,
                0.00517950532957911
            ],
            "rotation": [
                -0.574437975883484,
                -0.201709479093552,
                0.126168489456177,
                0.783208668231964
            ],
            "scale": [
                0.5,
                0.5,
                0.5
            ],
            "mesh": 2
        },
        {
            "name": "lanbot",
            "translation": [
                -0.012361004948616,
                0.0169348903000355,
                0.00560220237821341
            ],
            "rotation": [
                -0.167211249470711,
                -0.176763936877251,
                0.946769416332245,
                -0.210766673088074
            ],
            "scale": [
                0.350356012582779,
                1.48194205760956,
                0.350356012582779
            ],
            "mesh": 3
        },
        {
            "name": "gaybongchay",
            "translation": [
                -0.0145990643650293,
                0.0203971341252327,
                0.00653393985703588
            ],
            "rotation": [
                0.158127769827843,
                -0.063088446855545,
                0.244380444288254,
                0.954617023468018
            ],
            "scale": [
                0.500544011592865,
                2.87227702140808,
                0.500544011592865
            ],
            "mesh": 4
        },
        {
            "name": "chuy",
            "translation": [
                -0.00802090764045715,
                0.00818850006908178,
                0.00244490383192897
            ],
            "rotation": [
                0.152203753590584,
                -0.0825729295611382,
                0.228828102350235,
                0.957942306995392
            ],
            "scale": [
                1.0,
                1.0,
                1.0
            ],
            "mesh": 5
        },
        {
            "name": "Character1_RightHand_end",
            "translation": [
                -1.19209286886246e-09,
                0.0127815194427967,
                -2.38418573772492e-09
            ],
            "rotation": [
                -2.40741243048404e-34,
                1.73472347597681e-17,
                1.38777878078145e-17,
                1.0
            ],
            "scale": [
                1.0,
                1.0,
                1.0
            ]
        },
        {
            "name": "Character1_Neck",
            "translation": [
                -6.99144686588937e-10,
                0.00523114483803511,
                -4.27272744962792e-10
            ],
            "rotation": [
                0.0269151944667101,
                0.11165165156126,
                0.00857522524893284,
                0.993345856666565
            ],
            "scale": [
                1.0,
                0.999999940395355,
                0.999999940395355
            ],
            "children": [
                31
            ]
        },
        {
            "name": "Character1_Head",
            "translation": [
                3.49816425826432e-11,
                0.0235770959407091,
                -1.90654203535701e-09
            ],
            "rotation": [
                -3.75261954843609e-09,
                7.2529720007708e-09,
                -8.22005019607275e-10,
                1.0
            ],
            "scale": [
                1.00000011920929,
                1.0,
                1.0
            ],
            "children": [
                32
            ]
        },
        {
            "name": "Character1_Head_end",
            "translation": [
                1.78813930329369e-09,
                0.023577094078064,
                -1.66533449971461e-18
            ],
            "rotation": [
                6.93889390390723e-18,
                1.11022302462516e-16,
                6.93889390390723e-18,
                1.0
            ],
            "scale": [
                1.0,
                1.0,
                1.0
            ]
        },
        {
            "name": "stickman_new",
            "translation": [
                0.00399839971214533,
                -0.00266104657202959,
                -0.0017696232534945
            ],
            "rotation": [
                0.0516241975128651,
                -0.42255774140358,
                0.0453161969780922,
                0.903729140758514
            ],
            "scale": [
                1.00000059604645,
                1.00000059604645,
                1.00000059604645
            ],
            "mesh": 6,
            "skin": 0
        }
    ]
}