{
  "__type__": "cc.Material",
  "_name": "ColorFloor",
  "_objFlags": 0,
  "_native": "",
  "_effectAsset": {
    "__uuid__": "abc2cb62-7852-4525-a90d-d474487b88f2"
  },
  "_techniqueIndex": 0,
  "_techniqueData": {
    "0": {
      "props": {
        "diffuseColor": {
          "__type__": "cc.Color",
          "r": 208,
          "g": 228,
          "b": 228,
          "a": 255
        },
        "diffuseTexture": {
          "__uuid__": "30e5f7ab-07c9-4819-acbb-1876b722e623"
        },
        "emissiveTexture": {
          "__uuid__": "30e5f7ab-07c9-4819-acbb-1876b722e623"
        }
      },
      "defines": {
        "USE_ALPHA_TEST": false,
        "USE_DIFFUSE_TEXTURE": true,
        "USE_EMISSIVE": true,
        "USE_EMISSIVE_TEXTURE": true
      }
    }
  }
}