{
  "__type__": "cc.SkeletonAnimationClip",
  "_name": "Armature|rob_idle_7",
  "_objFlags": 0,
  "_native": ".bin",
  "_duration": 8.958333015441895,
  "sample": 30,
  "speed": 1,
  "wrapMode": 2,
  "events": [],
  "description": {
    "Armature/belly": {
      "position": {
        "offset": 0,
        "frameCount": 37
      },
      "quat": {
        "offset": 148,
        "frameCount": 152
      },
      "scale": {
        "offset": 908,
        "frameCount": 1
      }
    },
    "Armature/belly/torso": {
      "quat": {
        "offset": 912,
        "frameCount": 35
      },
      "scale": {
        "offset": 1087,
        "frameCount": 1
      },
      "position": {
        "offset": 1091,
        "frameCount": 1
      }
    },
    "Armature/belly/torso/head": {
      "quat": {
        "offset": 1095,
        "frameCount": 107
      },
      "scale": {
        "offset": 1630,
        "frameCount": 1
      },
      "position": {
        "offset": 1634,
        "frameCount": 1
      }
    },
    "Armature/belly/torso/arm_up.L": {
      "quat": {
        "offset": 1638,
        "frameCount": 104
      },
      "scale": {
        "offset": 2158,
        "frameCount": 1
      },
      "position": {
        "offset": 2162,
        "frameCount": 1
      }
    },
    "Armature/belly/torso/arm_up.R": {
      "quat": {
        "offset": 2166,
        "frameCount": 87
      },
      "scale": {
        "offset": 2601,
        "frameCount": 1
      },
      "position": {
        "offset": 2605,
        "frameCount": 1
      }
    },
    "Armature/belly/torso/arm_up.R/arm_down.R": {
      "quat": {
        "offset": 2609,
        "frameCount": 50
      },
      "scale": {
        "offset": 2859,
        "frameCount": 1
      },
      "position": {
        "offset": 2863,
        "frameCount": 1
      }
    },
    "Armature/belly/torso/arm_up.R/arm_down.R/hand.R": {
      "quat": {
        "offset": 2867,
        "frameCount": 29
      },
      "scale": {
        "offset": 3012,
        "frameCount": 1
      },
      "position": {
        "offset": 3016,
        "frameCount": 1
      }
    },
    "Armature/belly/leg_up.L": {
      "quat": {
        "offset": 3020,
        "frameCount": 192
      },
      "scale": {
        "offset": 3980,
        "frameCount": 1
      },
      "position": {
        "offset": 3984,
        "frameCount": 1
      }
    },
    "Armature/belly/leg_up.L/leg_down.L": {
      "quat": {
        "offset": 3988,
        "frameCount": 189
      },
      "scale": {
        "offset": 4933,
        "frameCount": 1
      },
      "position": {
        "offset": 4937,
        "frameCount": 1
      }
    },
    "Armature/belly/leg_up.L/leg_down.L/foot.L": {
      "quat": {
        "offset": 4941,
        "frameCount": 191
      },
      "scale": {
        "offset": 5896,
        "frameCount": 1
      },
      "position": {
        "offset": 5900,
        "frameCount": 1
      }
    },
    "Armature/belly/leg_up.R": {
      "quat": {
        "offset": 5904,
        "frameCount": 188
      },
      "scale": {
        "offset": 6844,
        "frameCount": 1
      },
      "position": {
        "offset": 6848,
        "frameCount": 1
      }
    },
    "Armature/belly/leg_up.R/leg_down.R": {
      "quat": {
        "offset": 6852,
        "frameCount": 182
      },
      "scale": {
        "offset": 7762,
        "frameCount": 1
      },
      "position": {
        "offset": 7766,
        "frameCount": 1
      }
    },
    "Armature/belly/leg_up.R/leg_down.R/foot.R": {
      "quat": {
        "offset": 7770,
        "frameCount": 182
      },
      "scale": {
        "offset": 8680,
        "frameCount": 1
      },
      "position": {
        "offset": 8684,
        "frameCount": 1
      }
    },
    "Armature/ik_pole.L": {
      "position": {
        "offset": 8688,
        "frameCount": 32
      },
      "quat": {
        "offset": 8816,
        "frameCount": 1
      },
      "scale": {
        "offset": 8821,
        "frameCount": 1
      }
    },
    "Armature/ik_foot.L": {
      "position": {
        "offset": 8825,
        "frameCount": 93
      },
      "quat": {
        "offset": 9197,
        "frameCount": 121
      },
      "scale": {
        "offset": 9802,
        "frameCount": 1
      }
    },
    "rob": {
      "quat": {
        "offset": 9806,
        "frameCount": 1
      },
      "scale": {
        "offset": 9811,
        "frameCount": 1
      },
      "position": {
        "offset": 9815,
        "frameCount": 1
      }
    },
    "Armature": {
      "quat": {
        "offset": 9819,
        "frameCount": 1
      },
      "scale": {
        "offset": 9824,
        "frameCount": 1
      },
      "position": {
        "offset": 9828,
        "frameCount": 1
      }
    },
    "Armature/belly/torso/head/hair": {
      "quat": {
        "offset": 9832,
        "frameCount": 1
      },
      "scale": {
        "offset": 9837,
        "frameCount": 1
      },
      "position": {
        "offset": 9841,
        "frameCount": 1
      }
    },
    "Armature/belly/torso/arm_up.L/arm_down.L": {
      "quat": {
        "offset": 9845,
        "frameCount": 1
      },
      "scale": {
        "offset": 9850,
        "frameCount": 1
      },
      "position": {
        "offset": 9854,
        "frameCount": 1
      }
    },
    "Armature/belly/torso/arm_up.L/arm_down.L/hand.L": {
      "quat": {
        "offset": 9858,
        "frameCount": 1
      },
      "scale": {
        "offset": 9863,
        "frameCount": 1
      },
      "position": {
        "offset": 9867,
        "frameCount": 1
      }
    },
    "Armature/belly/torso/arm_up.L/arm_down.L/hand.L/wep.L": {
      "quat": {
        "offset": 9871,
        "frameCount": 1
      },
      "scale": {
        "offset": 9876,
        "frameCount": 1
      },
      "position": {
        "offset": 9880,
        "frameCount": 1
      }
    },
    "Armature/belly/torso/arm_up.R/arm_down.R/hand.R/wep.R": {
      "quat": {
        "offset": 9884,
        "frameCount": 1
      },
      "scale": {
        "offset": 9889,
        "frameCount": 1
      },
      "position": {
        "offset": 9893,
        "frameCount": 1
      }
    },
    "Armature/ik_pole.R": {
      "quat": {
        "offset": 9897,
        "frameCount": 1
      },
      "scale": {
        "offset": 9902,
        "frameCount": 1
      },
      "position": {
        "offset": 9906,
        "frameCount": 1
      }
    },
    "Armature/ik_foot.R": {
      "quat": {
        "offset": 9910,
        "frameCount": 1
      },
      "scale": {
        "offset": 9915,
        "frameCount": 1
      },
      "position": {
        "offset": 9919,
        "frameCount": 1
      }
    }
  }
}