{
  "__type__": "cc.Skeleton",
  "_name": "",
  "_objFlags": 0,
  "_native": "",
  "_model": {
    "__uuid__": "6cd10a4a-0e78-4ec9-bd3f-3f73b1dff933"
  },
  "_jointIndices": [
    10,
    11,
    12,
    13,
    20,
    2,
    3,
    9,
    4,
    5,
    6,
    7,
    16,
    14,
    15,
    17,
    8,
    18,
    19
  ],
  "_skinIndex": 0
}