{
  "__type__": "cc.Model",
  "_name": "WalkKatana",
  "_objFlags": 0,
  "_native": "",
  "_nodes": [
    {
      "name": "RootNode",
      "scale": [
        1,
        1,
        1
      ],
      "children": [
        1,
        22
      ],
      "position": [
        0,
        0,
        0
      ],
      "quat": [
        0,
        0,
        0,
        1
      ],
      "path": ""
    },
    {
      "name": "Character1_Reference",
      "scale": [
        1.00000059604645,
        1.00000059604645,
        1.00000059604645
      ],
      "children": [
        2
      ],
      "parent": null,
      "position": [
        -0.000281650689430535,
        -0.000332162366248667,
        2.83867107597757e-9
      ],
      "quat": [
        0.0264218933880329,
        -0.22748701274395,
        0.013194746337831,
        0.973333179950714
      ],
      "path": "Character1_Reference"
    },
    {
      "name": "Character1_Hips",
      "scale": [
        1,
        1,
        1
      ],
      "children": [
        3,
        6,
        9
      ],
      "parent": null,
      "position": [
        -2.60770322002557e-10,
        0.0268932338804007,
        -1.49011608607807e-10
      ],
      "quat": [
        3.46944695195361e-18,
        -2.77555756156289e-17,
        9.62964972193618e-35,
        1
      ],
      "path": "Character1_Reference/Character1_Hips",
      "uniqueBindPose": [
        1,
        0,
        0,
        0,
        0,
        1,
        0,
        0,
        0,
        0,
        1,
        0,
        0,
        -0.02689322829246521,
        0.0029663785826414824,
        1
      ]
    },
    {
      "name": "Character1_LeftUpLeg",
      "scale": [
        1,
        1,
        1
      ],
      "children": [
        4
      ],
      "parent": null,
      "position": [
        0.00673886621370912,
        -0.00273666135035455,
        -4.47034825823422e-10
      ],
      "quat": [
        -0.334164261817932,
        0.0149517403915524,
        -0.0978924036026001,
        0.937298119068146
      ],
      "path": "Character1_Reference/Character1_Hips/Character1_LeftUpLeg",
      "uniqueBindPose": [
        1,
        0,
        0,
        0,
        0,
        1,
        0,
        0,
        0,
        0,
        1,
        0,
        -0.006738859694451094,
        -0.024156570434570312,
        0.0029663785826414824,
        1
      ]
    },
    {
      "name": "Character1_LeftLeg",
      "scale": [
        1,
        1,
        1
      ],
      "children": [
        5
      ],
      "parent": null,
      "position": [
        0.00371353281661868,
        -0.0108860684558749,
        1.19209286886246e-9
      ],
      "quat": [
        0.606006324291229,
        0.270641356706619,
        0.0173776503652334,
        0.747801840305328
      ],
      "path": "Character1_Reference/Character1_Hips/Character1_LeftUpLeg/Character1_LeftLeg",
      "uniqueBindPose": [
        1,
        0,
        0,
        0,
        0,
        1,
        0,
        0,
        0,
        0,
        1,
        0,
        -0.010452399961650372,
        -0.013270499184727669,
        0.0029663785826414824,
        1
      ]
    },
    {
      "name": "Character1_LeftFoot",
      "scale": [
        1,
        1,
        1
      ],
      "parent": null,
      "position": [
        0.00239629484713078,
        -0.00896722543984652,
        -8.94069651646845e-10
      ],
      "quat": [
        -1.20370621524202e-35,
        -3.46944695195361e-18,
        -3.46944695195361e-18,
        1
      ],
      "path": "Character1_Reference/Character1_Hips/Character1_LeftUpLeg/Character1_LeftLeg/Character1_LeftFoot",
      "uniqueBindPose": [
        1,
        0,
        0,
        0,
        0,
        1,
        0,
        0,
        0,
        0,
        1,
        0,
        -0.0128486892208457,
        -0.004303270019590855,
        0.0029663785826414824,
        1
      ]
    },
    {
      "name": "Character1_RightUpLeg",
      "scale": [
        1,
        1,
        1
      ],
      "children": [
        7
      ],
      "parent": null,
      "position": [
        -0.00673886528238654,
        -0.00273666856810451,
        5.9604643443123e-10
      ],
      "quat": [
        -0.282570004463196,
        0.00386167014949024,
        0.189268618822098,
        0.940381109714508
      ],
      "path": "Character1_Reference/Character1_Hips/Character1_RightUpLeg",
      "uniqueBindPose": [
        1,
        0,
        0,
        0,
        0,
        1,
        0,
        0,
        0,
        0,
        1,
        0,
        0.006738859694451094,
        -0.024156570434570312,
        0.0029663785826414824,
        1
      ]
    },
    {
      "name": "Character1_RightLeg",
      "scale": [
        1,
        1,
        1
      ],
      "children": [
        8
      ],
      "parent": null,
      "position": [
        -0.00371353211812675,
        -0.0108860731124878,
        -2.22044599961948e-18
      ],
      "quat": [
        0.408042639493942,
        -0.202044233679771,
        0.00862331967800856,
        0.890283644199371
      ],
      "path": "Character1_Reference/Character1_Hips/Character1_RightUpLeg/Character1_RightLeg",
      "uniqueBindPose": [
        1,
        0,
        0,
        0,
        0,
        1,
        0,
        0,
        0,
        0,
        1,
        0,
        0.010452399961650372,
        -0.013270499184727669,
        0.0029663785826414824,
        1
      ]
    },
    {
      "name": "Character1_RightFoot",
      "scale": [
        1,
        1,
        1
      ],
      "parent": null,
      "position": [
        -0.00239629461430013,
        -0.00896722450852394,
        1.49011608607807e-10
      ],
      "quat": [
        7.97972798949331e-17,
        -8.32667268468867e-17,
        3.46944695195361e-17,
        1
      ],
      "path": "Character1_Reference/Character1_Hips/Character1_RightUpLeg/Character1_RightLeg/Character1_RightFoot",
      "uniqueBindPose": [
        1,
        0,
        0,
        0,
        0,
        1,
        0,
        0,
        0,
        0,
        1,
        0,
        0.0128486892208457,
        -0.004303270019590855,
        0.0029663785826414824,
        1
      ]
    },
    {
      "name": "Character1_Spine",
      "scale": [
        1,
        1,
        1
      ],
      "children": [
        10
      ],
      "parent": null,
      "position": [
        1.11758706455856e-10,
        0.0107677718624473,
        -2.98023217215615e-10
      ],
      "quat": [
        0.174155741930008,
        -0.0345494113862514,
        0.0341901034116745,
        0.98351776599884
      ],
      "path": "Character1_Reference/Character1_Hips/Character1_Spine",
      "uniqueBindPose": [
        1,
        0,
        0,
        0,
        0,
        1,
        0,
        0,
        0,
        0,
        1,
        0,
        0,
        -0.03766099736094475,
        0.0029663785826414824,
        1
      ]
    },
    {
      "name": "Character1_Spine1",
      "scale": [
        1,
        1,
        1
      ],
      "children": [
        11
      ],
      "parent": null,
      "position": [
        -1.49011608607807e-10,
        0.00623113848268986,
        -2.22044599961948e-18
      ],
      "quat": [
        0.0479957200586796,
        -0.0101419407874346,
        0.00041773691191338,
        0.998795986175537
      ],
      "path": "Character1_Reference/Character1_Hips/Character1_Spine/Character1_Spine1",
      "uniqueBindPose": [
        1,
        0,
        0,
        0,
        0,
        1,
        0,
        0,
        0,
        0,
        1,
        0,
        0,
        -0.043892137706279755,
        0.0029663785826414824,
        1
      ]
    },
    {
      "name": "Character1_Spine2",
      "scale": [
        1,
        0.999998986721039,
        1
      ],
      "children": [
        12,
        16,
        20
      ],
      "parent": null,
      "position": [
        -1.49011608607807e-10,
        0.00623113149777055,
        -2.22044599961948e-18
      ],
      "quat": [
        0.00194798607844859,
        0.00503381201997399,
        0.0148842707276344,
        0.999874651432037
      ],
      "path": "Character1_Reference/Character1_Hips/Character1_Spine/Character1_Spine1/Character1_Spine2",
      "uniqueBindPose": [
        1,
        0,
        0,
        0,
        0,
        1,
        0,
        0,
        0,
        0,
        1,
        0,
        0,
        -0.05012328177690506,
        0.0029663785826414824,
        1
      ]
    },
    {
      "name": "Character1_LeftShoulder",
      "scale": [
        0.999999940395355,
        0.999999940395355,
        0.999999940395355
      ],
      "children": [
        13
      ],
      "parent": null,
      "position": [
        0.00468312855809927,
        0.00250115874223411,
        -7.15255721317476e-9
      ],
      "quat": [
        0.0494057014584541,
        -0.186940371990204,
        0.0811547115445137,
        0.97776597738266
      ],
      "path": "Character1_Reference/Character1_Hips/Character1_Spine/Character1_Spine1/Character1_Spine2/Character1_LeftShoulder",
      "uniqueBindPose": [
        1,
        0,
        0,
        0,
        0,
        1,
        0,
        0,
        0,
        0,
        1,
        0,
        -0.004683129955083132,
        -0.05262443795800209,
        0.0029663785826414824,
        1
      ]
    },
    {
      "name": "Character1_LeftArm",
      "scale": [
        1,
        1,
        1
      ],
      "children": [
        14
      ],
      "parent": null,
      "position": [
        0.00425449013710022,
        -0.00114993087481707,
        0
      ],
      "quat": [
        0.0425206497311592,
        0.334214597940445,
        -0.639302134513855,
        0.691220164299011
      ],
      "path": "Character1_Reference/Character1_Hips/Character1_Spine/Character1_Spine1/Character1_Spine2/Character1_LeftShoulder/Character1_LeftArm",
      "uniqueBindPose": [
        1,
        0.000012833112123189494,
        0,
        0,
        -0.000012833112123189494,
        1,
        0,
        0,
        0,
        0,
        1,
        0,
        -0.008936950005590916,
        -0.051474615931510925,
        0.0029663785826414824,
        1
      ]
    },
    {
      "name": "Character1_LeftForeArm",
      "scale": [
        1,
        1,
        1
      ],
      "children": [
        15
      ],
      "parent": null,
      "position": [
        0.0114695196971297,
        0.0000305771827697754,
        1.19209282445354e-8
      ],
      "quat": [
        0.0452388860285282,
        -0.613143384456635,
        -0.204692915081978,
        0.761649191379547
      ],
      "path": "Character1_Reference/Character1_Hips/Character1_Spine/Character1_Spine1/Character1_Spine2/Character1_LeftShoulder/Character1_LeftArm/Character1_LeftForeArm",
      "uniqueBindPose": [
        1,
        -0.0003593273286242038,
        0,
        0,
        0.0003593273286242038,
        1,
        0,
        0,
        0,
        0,
        1,
        0,
        -0.020425638183951378,
        -0.05149759724736214,
        0.0029663785826414824,
        1
      ]
    },
    {
      "name": "Character1_LeftHand",
      "scale": [
        1,
        1,
        1
      ],
      "parent": null,
      "position": [
        0.0127815175801516,
        -0.0000132620334625244,
        -1.19209286886246e-9
      ],
      "quat": [
        5.55832681457827e-17,
        2.76108686392689e-17,
        -0.00260511483065784,
        0.999996602535248
      ],
      "path": "Character1_Reference/Character1_Hips/Character1_Spine/Character1_Spine1/Character1_Spine2/Character1_LeftShoulder/Character1_LeftArm/Character1_LeftForeArm/Character1_LeftHand",
      "uniqueBindPose": [
        0.9999880194664001,
        0.004850894678384066,
        0,
        0,
        -0.004850894678384066,
        0.9999880194664001,
        0,
        0,
        0,
        0,
        1,
        0,
        -0.032938458025455475,
        -0.05165664851665497,
        0.0029663785826414824,
        1
      ]
    },
    {
      "name": "Character1_RightShoulder",
      "scale": [
        0.999999940395355,
        0.999999940395355,
        0.999999940395355
      ],
      "children": [
        17
      ],
      "parent": null,
      "position": [
        -0.0046831276267767,
        0.00250115385279059,
        -1.19209286886246e-9
      ],
      "quat": [
        0.300842881202698,
        0.327061057090759,
        -0.344913870096207,
        0.826776266098022
      ],
      "path": "Character1_Reference/Character1_Hips/Character1_Spine/Character1_Spine1/Character1_Spine2/Character1_RightShoulder",
      "uniqueBindPose": [
        1,
        0,
        0,
        0,
        0,
        1,
        0,
        0,
        0,
        0,
        1,
        0,
        0.004683129955083132,
        -0.05262443795800209,
        0.0029663785826414824,
        1
      ]
    },
    {
      "name": "Character1_RightArm",
      "scale": [
        1,
        1,
        1
      ],
      "children": [
        18
      ],
      "parent": null,
      "position": [
        -0.00425448641180992,
        -0.00114993331953883,
        -9.53674295089968e-9
      ],
      "quat": [
        0.383528769016266,
        0.581127107143402,
        -0.447631418704987,
        0.56109094619751
      ],
      "path": "Character1_Reference/Character1_Hips/Character1_Spine/Character1_Spine1/Character1_Spine2/Character1_RightShoulder/Character1_RightArm",
      "uniqueBindPose": [
        1,
        -0.00004046304093208164,
        0,
        0,
        0.00004046304093208164,
        1,
        0,
        0,
        0,
        0,
        1,
        0,
        0.008935529738664627,
        -0.05147486925125122,
        0.0029663785826414824,
        1
      ]
    },
    {
      "name": "Character1_RightForeArm",
      "scale": [
        1,
        1,
        1
      ],
      "children": [
        19
      ],
      "parent": null,
      "position": [
        -0.0114695066586137,
        0.0000309002389258239,
        0
      ],
      "quat": [
        0.451194912195206,
        -0.219412490725517,
        -0.236779227852821,
        0.831995725631714
      ],
      "path": "Character1_Reference/Character1_Hips/Character1_Spine/Character1_Spine1/Character1_Spine2/Character1_RightShoulder/Character1_RightArm/Character1_RightForeArm",
      "uniqueBindPose": [
        0.9999989867210388,
        0.0011329611297696829,
        0,
        0,
        -0.0011329611297696829,
        0.9999989867210388,
        0,
        0,
        0,
        0,
        1,
        0,
        0.020465468987822533,
        -0.05148179084062576,
        0.0029663785826414824,
        1
      ]
    },
    {
      "name": "Character1_RightHand",
      "scale": [
        1,
        1,
        1
      ],
      "parent": null,
      "position": [
        -0.0127815026789904,
        -0.0000231528283620719,
        -4.76837147544984e-9
      ],
      "quat": [
        0.220010176301003,
        -0.151450753211975,
        0.188183590769768,
        0.945116460323334
      ],
      "path": "Character1_Reference/Character1_Hips/Character1_Spine/Character1_Spine1/Character1_Spine2/Character1_RightShoulder/Character1_RightArm/Character1_RightForeArm/Character1_RightHand",
      "uniqueBindPose": [
        0.9998829364776611,
        -0.015294414013624191,
        0,
        0,
        0.015294414013624191,
        0.9998829364776611,
        0,
        0,
        0,
        0,
        1,
        0,
        0.032397158443927765,
        -0.0519978366792202,
        0.0029663785826414824,
        1
      ]
    },
    {
      "name": "Character1_Neck",
      "scale": [
        1,
        1,
        1
      ],
      "children": [
        21
      ],
      "parent": null,
      "position": [
        1.19209286886246e-9,
        0.00523114670068026,
        -3.57627860658738e-9
      ],
      "quat": [
        -0.160482659935951,
        0.0215782541781664,
        -0.0657854974269867,
        0.984607517719269
      ],
      "path": "Character1_Reference/Character1_Hips/Character1_Spine/Character1_Spine1/Character1_Spine2/Character1_Neck",
      "uniqueBindPose": [
        1,
        0,
        0,
        0,
        0,
        1,
        0,
        0,
        0,
        0,
        1,
        0,
        0,
        -0.055354416370391846,
        0.0029663785826414824,
        1
      ]
    },
    {
      "name": "Character1_Head",
      "scale": [
        1,
        1,
        1
      ],
      "parent": null,
      "position": [
        -2.08616257602046e-9,
        0.023577094078064,
        1.78813930329369e-9
      ],
      "quat": [
        3.85185988877447e-34,
        -5.55111512312578e-17,
        6.93889390390723e-18,
        1
      ],
      "path": "Character1_Reference/Character1_Hips/Character1_Spine/Character1_Spine1/Character1_Spine2/Character1_Neck/Character1_Head"
    },
    {
      "name": "stickman_new",
      "scale": [
        1.00000059604645,
        1.00000059604645,
        1.00000059604645
      ],
      "mesh": 0,
      "skin": 0,
      "parent": null,
      "position": [
        0,
        1.6543611881282e-26,
        0.00296637881547213
      ],
      "quat": [
        0,
        0,
        0,
        1
      ],
      "path": "stickman_new"
    }
  ],
  "_precomputeJointMatrix": false
}