{
  "__type__": "cc.SpriteFrame",
  "content": {
    "name": "download_en",
    "texture": "d816a64d-e724-451c-baf5-fe364efed0b3",
    "atlas": "",
    "rect": [
      0,
      0,
      262,
      125
    ],
    "offset": [
      0,
      0
    ],
    "originalSize": [
      262,
      125
    ],
    "capInsets": [
      0,
      0,
      0,
      0
    ]
  }
}