{
    "asset": {
        "generator": "FBX2glTF v0.9.7",
        "version": "2.0"
    },
    "scene": 0,
    "buffers": [
        {
            "byteLength": 134616,
            "uri": "buffer.bin"
        }
    ],
    "bufferViews": [
        {
            "buffer": 0,
            "byteLength": 80,
            "byteOffset": 0
        },
        {
            "buffer": 0,
            "byteLength": 240,
            "byteOffset": 80
        },
        {
            "buffer": 0,
            "byteLength": 320,
            "byteOffset": 320
        },
        {
            "buffer": 0,
            "byteLength": 320,
            "byteOffset": 640
        },
        {
            "buffer": 0,
            "byteLength": 320,
            "byteOffset": 960
        },
        {
            "buffer": 0,
            "byteLength": 320,
            "byteOffset": 1280
        },
        {
            "buffer": 0,
            "byteLength": 320,
            "byteOffset": 1600
        },
        {
            "buffer": 0,
            "byteLength": 320,
            "byteOffset": 1920
        },
        {
            "buffer": 0,
            "byteLength": 320,
            "byteOffset": 2240
        },
        {
            "buffer": 0,
            "byteLength": 320,
            "byteOffset": 2560
        },
        {
            "buffer": 0,
            "byteLength": 320,
            "byteOffset": 2880
        },
        {
            "buffer": 0,
            "byteLength": 320,
            "byteOffset": 3200
        },
        {
            "buffer": 0,
            "byteLength": 320,
            "byteOffset": 3520
        },
        {
            "buffer": 0,
            "byteLength": 320,
            "byteOffset": 3840
        },
        {
            "buffer": 0,
            "byteLength": 320,
            "byteOffset": 4160
        },
        {
            "buffer": 0,
            "byteLength": 320,
            "byteOffset": 4480
        },
        {
            "buffer": 0,
            "byteLength": 320,
            "byteOffset": 4800
        },
        {
            "buffer": 0,
            "byteLength": 11928,
            "byteOffset": 5120,
            "target": 34963
        },
        {
            "buffer": 0,
            "byteLength": 21816,
            "byteOffset": 17048,
            "target": 34962
        },
        {
            "buffer": 0,
            "byteLength": 21816,
            "byteOffset": 38864,
            "target": 34962
        },
        {
            "buffer": 0,
            "byteLength": 14544,
            "byteOffset": 60680,
            "target": 34962
        },
        {
            "buffer": 0,
            "byteLength": 14544,
            "byteOffset": 75224,
            "target": 34962
        },
        {
            "buffer": 0,
            "byteLength": 14544,
            "byteOffset": 89768,
            "target": 34962
        },
        {
            "buffer": 0,
            "byteLength": 29088,
            "byteOffset": 104312,
            "target": 34962
        },
        {
            "buffer": 0,
            "byteLength": 1216,
            "byteOffset": 133400
        }
    ],
    "scenes": [
        {
            "name": "Root Scene",
            "nodes": [
                0
            ]
        }
    ],
    "accessors": [
        {
            "componentType": 5126,
            "type": "SCALAR",
            "count": 20,
            "bufferView": 0,
            "byteOffset": 0,
            "min": [
                0.0
            ],
            "max": [
                0.791666686534882
            ]
        },
        {
            "componentType": 5126,
            "type": "VEC3",
            "count": 20,
            "bufferView": 1,
            "byteOffset": 0
        },
        {
            "componentType": 5126,
            "type": "VEC4",
            "count": 20,
            "bufferView": 2,
            "byteOffset": 0
        },
        {
            "componentType": 5126,
            "type": "VEC4",
            "count": 20,
            "bufferView": 3,
            "byteOffset": 0
        },
        {
            "componentType": 5126,
            "type": "VEC4",
            "count": 20,
            "bufferView": 4,
            "byteOffset": 0
        },
        {
            "componentType": 5126,
            "type": "VEC4",
            "count": 20,
            "bufferView": 5,
            "byteOffset": 0
        },
        {
            "componentType": 5126,
            "type": "VEC4",
            "count": 20,
            "bufferView": 6,
            "byteOffset": 0
        },
        {
            "componentType": 5126,
            "type": "VEC4",
            "count": 20,
            "bufferView": 7,
            "byteOffset": 0
        },
        {
            "componentType": 5126,
            "type": "VEC4",
            "count": 20,
            "bufferView": 8,
            "byteOffset": 0
        },
        {
            "componentType": 5126,
            "type": "VEC4",
            "count": 20,
            "bufferView": 9,
            "byteOffset": 0
        },
        {
            "componentType": 5126,
            "type": "VEC4",
            "count": 20,
            "bufferView": 10,
            "byteOffset": 0
        },
        {
            "componentType": 5126,
            "type": "VEC4",
            "count": 20,
            "bufferView": 11,
            "byteOffset": 0
        },
        {
            "componentType": 5126,
            "type": "VEC4",
            "count": 20,
            "bufferView": 12,
            "byteOffset": 0
        },
        {
            "componentType": 5126,
            "type": "VEC4",
            "count": 20,
            "bufferView": 13,
            "byteOffset": 0
        },
        {
            "componentType": 5126,
            "type": "VEC4",
            "count": 20,
            "bufferView": 14,
            "byteOffset": 0
        },
        {
            "componentType": 5126,
            "type": "VEC4",
            "count": 20,
            "bufferView": 15,
            "byteOffset": 0
        },
        {
            "componentType": 5126,
            "type": "VEC4",
            "count": 20,
            "bufferView": 16,
            "byteOffset": 0
        },
        {
            "componentType": 5123,
            "type": "SCALAR",
            "count": 5964,
            "bufferView": 17,
            "byteOffset": 0
        },
        {
            "componentType": 5126,
            "type": "VEC3",
            "count": 1818,
            "bufferView": 18,
            "byteOffset": 0,
            "min": [
                -0.0408465415239334,
                9.62369085755199e-06,
                -0.0144365709275007
            ],
            "max": [
                0.0408465415239334,
                0.0793404877185822,
                0.00794503092765808
            ]
        },
        {
            "componentType": 5126,
            "type": "VEC3",
            "count": 1818,
            "bufferView": 19,
            "byteOffset": 0
        },
        {
            "componentType": 5126,
            "type": "VEC2",
            "count": 1818,
            "bufferView": 20,
            "byteOffset": 0
        },
        {
            "componentType": 5126,
            "type": "VEC2",
            "count": 1818,
            "bufferView": 21,
            "byteOffset": 0
        },
        {
            "componentType": 5123,
            "type": "VEC4",
            "count": 1818,
            "bufferView": 22,
            "byteOffset": 0
        },
        {
            "componentType": 5126,
            "type": "VEC4",
            "count": 1818,
            "bufferView": 23,
            "byteOffset": 0
        },
        {
            "componentType": 5126,
            "type": "MAT4",
            "count": 19,
            "bufferView": 24,
            "byteOffset": 0
        }
    ],
    "samplers": [
        {}
    ],
    "materials": [
        {
            "name": "lambert36",
            "alphaMode": "OPAQUE",
            "extras": {
                "fromFBX": {
                    "shadingModel": "Phong",
                    "isTruePBR": false
                }
            },
            "pbrMetallicRoughness": {
                "baseColorFactor": [
                    0.0,
                    0.276919931173325,
                    0.800000011920929,
                    1.0
                ],
                "metallicFactor": 0.400000005960464,
                "roughnessFactor": 0.70710676908493
            }
        }
    ],
    "meshes": [
        {
            "name": "stickman_new",
            "primitives": [
                {
                    "material": 0,
                    "mode": 4,
                    "attributes": {
                        "JOINTS_0": 22,
                        "NORMAL": 19,
                        "POSITION": 18,
                        "TEXCOORD_0": 20,
                        "TEXCOORD_1": 21,
                        "WEIGHTS_0": 23
                    },
                    "indices": 17
                }
            ]
        }
    ],
    "skins": [
        {
            "joints": [
                10,
                11,
                12,
                13,
                20,
                2,
                3,
                9,
                4,
                5,
                6,
                7,
                16,
                14,
                15,
                17,
                8,
                18,
                19
            ],
            "inverseBindMatrices": 24,
            "skeleton": 2
        }
    ],
    "animations": [
        {
            "name": "Walk",
            "channels": [
                {
                    "sampler": 0,
                    "target": {
                        "node": 1,
                        "path": "translation"
                    }
                },
                {
                    "sampler": 1,
                    "target": {
                        "node": 1,
                        "path": "rotation"
                    }
                },
                {
                    "sampler": 2,
                    "target": {
                        "node": 3,
                        "path": "rotation"
                    }
                },
                {
                    "sampler": 3,
                    "target": {
                        "node": 4,
                        "path": "rotation"
                    }
                },
                {
                    "sampler": 4,
                    "target": {
                        "node": 6,
                        "path": "rotation"
                    }
                },
                {
                    "sampler": 5,
                    "target": {
                        "node": 7,
                        "path": "rotation"
                    }
                },
                {
                    "sampler": 6,
                    "target": {
                        "node": 9,
                        "path": "rotation"
                    }
                },
                {
                    "sampler": 7,
                    "target": {
                        "node": 10,
                        "path": "rotation"
                    }
                },
                {
                    "sampler": 8,
                    "target": {
                        "node": 11,
                        "path": "rotation"
                    }
                },
                {
                    "sampler": 9,
                    "target": {
                        "node": 12,
                        "path": "rotation"
                    }
                },
                {
                    "sampler": 10,
                    "target": {
                        "node": 13,
                        "path": "rotation"
                    }
                },
                {
                    "sampler": 11,
                    "target": {
                        "node": 14,
                        "path": "rotation"
                    }
                },
                {
                    "sampler": 12,
                    "target": {
                        "node": 16,
                        "path": "rotation"
                    }
                },
                {
                    "sampler": 13,
                    "target": {
                        "node": 17,
                        "path": "rotation"
                    }
                },
                {
                    "sampler": 14,
                    "target": {
                        "node": 18,
                        "path": "rotation"
                    }
                },
                {
                    "sampler": 15,
                    "target": {
                        "node": 20,
                        "path": "rotation"
                    }
                }
            ],
            "samplers": [
                {
                    "input": 0,
                    "interpolation": "LINEAR",
                    "output": 1
                },
                {
                    "input": 0,
                    "interpolation": "LINEAR",
                    "output": 2
                },
                {
                    "input": 0,
                    "interpolation": "LINEAR",
                    "output": 3
                },
                {
                    "input": 0,
                    "interpolation": "LINEAR",
                    "output": 4
                },
                {
                    "input": 0,
                    "interpolation": "LINEAR",
                    "output": 5
                },
                {
                    "input": 0,
                    "interpolation": "LINEAR",
                    "output": 6
                },
                {
                    "input": 0,
                    "interpolation": "LINEAR",
                    "output": 7
                },
                {
                    "input": 0,
                    "interpolation": "LINEAR",
                    "output": 8
                },
                {
                    "input": 0,
                    "interpolation": "LINEAR",
                    "output": 9
                },
                {
                    "input": 0,
                    "interpolation": "LINEAR",
                    "output": 10
                },
                {
                    "input": 0,
                    "interpolation": "LINEAR",
                    "output": 11
                },
                {
                    "input": 0,
                    "interpolation": "LINEAR",
                    "output": 12
                },
                {
                    "input": 0,
                    "interpolation": "LINEAR",
                    "output": 13
                },
                {
                    "input": 0,
                    "interpolation": "LINEAR",
                    "output": 14
                },
                {
                    "input": 0,
                    "interpolation": "LINEAR",
                    "output": 15
                },
                {
                    "input": 0,
                    "interpolation": "LINEAR",
                    "output": 16
                }
            ]
        }
    ],
    "nodes": [
        {
            "name": "RootNode",
            "translation": [
                0.0,
                0.0,
                0.0
            ],
            "rotation": [
                0.0,
                0.0,
                0.0,
                1.0
            ],
            "scale": [
                1.0,
                1.0,
                1.0
            ],
            "children": [
                1,
                22
            ]
        },
        {
            "name": "Character1_Reference",
            "translation": [
                -0.00285384920425713,
                -0.00473001366481185,
                0.00212855893187225
            ],
            "rotation": [
                0.0629100576043129,
                0.0372139774262905,
                -0.011382176540792,
                0.997260212898254
            ],
            "scale": [
                1.00000059604645,
                1.00000059604645,
                1.00000059604645
            ],
            "children": [
                2
            ]
        },
        {
            "name": "Character1_Hips",
            "translation": [
                2.98023217215615e-10,
                0.0268932338804007,
                -2.77555739612677e-18
            ],
            "rotation": [
                -1.38777878078145e-17,
                6.93889390390723e-18,
                8.67361737988404e-19,
                1.0
            ],
            "scale": [
                1.0,
                1.0,
                1.0
            ],
            "children": [
                3,
                6,
                9
            ]
        },
        {
            "name": "Character1_LeftUpLeg",
            "translation": [
                0.00673886388540268,
                -0.00273666135035455,
                -2.98023217215615e-10
            ],
            "rotation": [
                0.0427528768777847,
                0.131909728050232,
                -0.0796977579593658,
                0.987127304077148
            ],
            "scale": [
                1.0,
                1.0,
                1.0
            ],
            "children": [
                4
            ]
        },
        {
            "name": "Character1_LeftLeg",
            "translation": [
                0.00371353165246546,
                -0.0108860693871975,
                2.38418573772492e-09
            ],
            "rotation": [
                0.392803877592087,
                -0.0410952493548393,
                -0.0232944507151842,
                0.918408215045929
            ],
            "scale": [
                1.0,
                1.0,
                1.0
            ],
            "children": [
                5
            ]
        },
        {
            "name": "Character1_LeftFoot",
            "translation": [
                0.00239629601128399,
                -0.00896722637116909,
                1.11022299980974e-18
            ],
            "rotation": [
                -2.77555756156289e-17,
                2.77555756156289e-17,
                -1.38777878078145e-17,
                1.0
            ],
            "scale": [
                1.0,
                1.0,
                1.0
            ]
        },
        {
            "name": "Character1_RightUpLeg",
            "translation": [
                -0.00673886388540268,
                -0.00273666135035455,
                -4.47034825823422e-10
            ],
            "rotation": [
                -0.433178216218948,
                0.0336920619010925,
                0.0946963801980019,
                0.895686388015747
            ],
            "scale": [
                1.0,
                1.0,
                1.0
            ],
            "children": [
                7
            ]
        },
        {
            "name": "Character1_RightLeg",
            "translation": [
                -0.00371353328227997,
                -0.0108860777691007,
                -2.22044599961948e-18
            ],
            "rotation": [
                0.326862215995789,
                -0.165939271450043,
                -0.00860983971506357,
                0.930350005626678
            ],
            "scale": [
                1.0,
                1.0,
                1.0
            ],
            "children": [
                8
            ]
        },
        {
            "name": "Character1_RightFoot",
            "translation": [
                -0.00239629624411464,
                -0.00896722637116909,
                2.98023217215615e-10
            ],
            "rotation": [
                -2.08166817117217e-17,
                -2.08166817117217e-17,
                1.56125112837913e-17,
                1.0
            ],
            "scale": [
                1.0,
                1.0,
                1.0
            ]
        },
        {
            "name": "Character1_Spine",
            "translation": [
                2.98023217215615e-10,
                0.0107677699998021,
                -5.9604643443123e-10
            ],
            "rotation": [
                0.0495639443397522,
                -0.0266176555305719,
                0.0106104407459497,
                0.998359799385071
            ],
            "scale": [
                1.0,
                1.0,
                1.0
            ],
            "children": [
                10
            ]
        },
        {
            "name": "Character1_Spine1",
            "translation": [
                2.77555749952435e-19,
                0.00623113615438342,
                -2.98023217215615e-10
            ],
            "rotation": [
                0.10326049476862,
                -0.0532632060348988,
                0.0288820415735245,
                0.99280720949173
            ],
            "scale": [
                1.0,
                1.0,
                1.0
            ],
            "children": [
                11
            ]
        },
        {
            "name": "Character1_Spine2",
            "translation": [
                5.9604643443123e-10,
                0.00623113615438342,
                -1.11022299980974e-18
            ],
            "rotation": [
                0.103056319057941,
                -0.0546485222876072,
                0.0270464792847633,
                0.992804825305939
            ],
            "scale": [
                1.0,
                1.0,
                1.0
            ],
            "children": [
                12,
                16,
                20
            ]
        },
        {
            "name": "Character1_LeftShoulder",
            "translation": [
                0.00468312669545412,
                0.00250114919617772,
                2.38418573772492e-09
            ],
            "rotation": [
                0.00472978129982948,
                -0.0127178253605962,
                -0.0352660268545151,
                0.999285817146301
            ],
            "scale": [
                1.0,
                1.0,
                1.0
            ],
            "children": [
                13
            ]
        },
        {
            "name": "Character1_LeftArm",
            "translation": [
                0.00425448827445507,
                -0.00114992610178888,
                -1.19209286886246e-09
            ],
            "rotation": [
                -0.106736391782761,
                -0.335714131593704,
                -0.337365865707397,
                0.872976303100586
            ],
            "scale": [
                1.0,
                1.0,
                1.0
            ],
            "children": [
                14
            ]
        },
        {
            "name": "Character1_LeftForeArm",
            "translation": [
                0.0114695141091943,
                3.0579565645894e-05,
                1.19209286886246e-09
            ],
            "rotation": [
                -0.129851564764977,
                -0.586732566356659,
                -0.0930775627493858,
                0.793864011764526
            ],
            "scale": [
                1.0,
                1.0,
                1.0
            ],
            "children": [
                15
            ]
        },
        {
            "name": "Character1_LeftHand",
            "translation": [
                0.0127815157175064,
                -1.32632249005837e-05,
                -4.44089199923895e-18
            ],
            "rotation": [
                -2.77193285611868e-17,
                1.39500469974046e-17,
                -0.00260511483065784,
                0.999996602535248
            ],
            "scale": [
                1.0,
                1.0,
                1.0
            ]
        },
        {
            "name": "Character1_RightShoulder",
            "translation": [
                -0.00468312529847026,
                0.00250115385279059,
                -6.66133799885843e-18
            ],
            "rotation": [
                0.00729508977383375,
                -0.015217992477119,
                0.176167711615562,
                0.984215497970581
            ],
            "scale": [
                1.0,
                1.0,
                1.0
            ],
            "children": [
                17
            ]
        },
        {
            "name": "Character1_RightArm",
            "translation": [
                -0.00425448780879378,
                -0.00114993564784527,
                2.38418573772492e-09
            ],
            "rotation": [
                0.0711435601115227,
                -0.232751131057739,
                0.330236047506332,
                0.911981165409088
            ],
            "scale": [
                1.0,
                1.0,
                1.0
            ],
            "children": [
                18
            ]
        },
        {
            "name": "Character1_RightForeArm",
            "translation": [
                -0.011469510383904,
                3.08990456687752e-05,
                -2.38418573772492e-09
            ],
            "rotation": [
                -0.0492373034358025,
                0.511568188667297,
                0.0271793641149998,
                0.857400119304657
            ],
            "scale": [
                1.0,
                1.0,
                1.0
            ],
            "children": [
                19
            ]
        },
        {
            "name": "Character1_RightHand",
            "translation": [
                -0.0127815017476678,
                -2.31552112381905e-05,
                5.9604643443123e-10
            ],
            "rotation": [
                6.88166458604713e-18,
                6.99565503754062e-18,
                0.008213902823627,
                0.999966263771057
            ],
            "scale": [
                1.0,
                1.0,
                1.0
            ]
        },
        {
            "name": "Character1_Neck",
            "translation": [
                -2.98023217215615e-10,
                0.00523114204406738,
                2.22044599961948e-18
            ],
            "rotation": [
                0.0118911014869809,
                -0.0195998959243298,
                0.017864465713501,
                0.999577581882477
            ],
            "scale": [
                1.0,
                1.0,
                1.0
            ],
            "children": [
                21
            ]
        },
        {
            "name": "Character1_Head",
            "translation": [
                2.98023217215615e-10,
                0.0235770978033543,
                -2.38418573772492e-09
            ],
            "rotation": [
                -2.77555756156289e-17,
                -1.38777878078145e-17,
                -2.77555756156289e-17,
                1.0
            ],
            "scale": [
                1.0,
                1.0,
                1.0
            ]
        },
        {
            "name": "stickman_new",
            "translation": [
                0.0,
                1.6543611881282e-26,
                0.00296637881547213
            ],
            "rotation": [
                0.0,
                0.0,
                0.0,
                1.0
            ],
            "scale": [
                1.00000059604645,
                1.00000059604645,
                1.00000059604645
            ],
            "mesh": 0,
            "skin": 0
        }
    ]
}