{
  "__type__": "cc.SpriteFrame",
  "content": {
    "name": "Smoke",
    "texture": "80e5eecc-ee71-481c-a4c6-e6f09a12a2d6",
    "atlas": "",
    "rect": [
      2,
      1,
      96,
      104
    ],
    "offset": [
      0.5,
      0
    ],
    "originalSize": [
      99,
      106
    ],
    "capInsets": [
      0,
      0,
      0,
      0
    ]
  }
}