{
  "__type__": "cc.SkeletonAnimationClip",
  "_name": "Take 001",
  "_objFlags": 0,
  "_native": ".bin",
  "_duration": 1.4166666269302368,
  "sample": 30,
  "speed": 1,
  "wrapMode": 2,
  "events": [],
  "description": {
    "Character1_Reference": {
      "position": {
        "offset": 0,
        "frameCount": 28
      },
      "quat": {
        "offset": 112,
        "frameCount": 35
      },
      "scale": {
        "offset": 287,
        "frameCount": 1
      }
    },
    "Character1_Reference/Character1_Hips/Character1_LeftUpLeg": {
      "quat": {
        "offset": 291,
        "frameCount": 35
      },
      "scale": {
        "offset": 466,
        "frameCount": 1
      },
      "position": {
        "offset": 470,
        "frameCount": 1
      }
    },
    "Character1_Reference/Character1_Hips/Character1_LeftUpLeg/Character1_LeftLeg": {
      "quat": {
        "offset": 474,
        "frameCount": 35
      },
      "scale": {
        "offset": 649,
        "frameCount": 1
      },
      "position": {
        "offset": 653,
        "frameCount": 1
      }
    },
    "Character1_Reference/Character1_Hips/Character1_RightUpLeg": {
      "quat": {
        "offset": 657,
        "frameCount": 35
      },
      "scale": {
        "offset": 832,
        "frameCount": 1
      },
      "position": {
        "offset": 836,
        "frameCount": 1
      }
    },
    "Character1_Reference/Character1_Hips/Character1_RightUpLeg/Character1_RightLeg": {
      "quat": {
        "offset": 840,
        "frameCount": 35
      },
      "scale": {
        "offset": 1015,
        "frameCount": 1
      },
      "position": {
        "offset": 1019,
        "frameCount": 1
      }
    },
    "Character1_Reference/Character1_Hips/Character1_Spine": {
      "quat": {
        "offset": 1023,
        "frameCount": 35
      },
      "scale": {
        "offset": 1198,
        "frameCount": 1
      },
      "position": {
        "offset": 1202,
        "frameCount": 1
      }
    },
    "Character1_Reference/Character1_Hips/Character1_Spine/Character1_Spine1": {
      "quat": {
        "offset": 1206,
        "frameCount": 35
      },
      "scale": {
        "offset": 1381,
        "frameCount": 1
      },
      "position": {
        "offset": 1385,
        "frameCount": 1
      }
    },
    "Character1_Reference/Character1_Hips/Character1_Spine/Character1_Spine1/Character1_Spine2": {
      "quat": {
        "offset": 1389,
        "frameCount": 35
      },
      "scale": {
        "offset": 1564,
        "frameCount": 1
      },
      "position": {
        "offset": 1568,
        "frameCount": 1
      }
    },
    "Character1_Reference/Character1_Hips/Character1_Spine/Character1_Spine1/Character1_Spine2/Character1_LeftShoulder": {
      "quat": {
        "offset": 1572,
        "frameCount": 35
      },
      "scale": {
        "offset": 1747,
        "frameCount": 1
      },
      "position": {
        "offset": 1751,
        "frameCount": 1
      }
    },
    "Character1_Reference/Character1_Hips/Character1_Spine/Character1_Spine1/Character1_Spine2/Character1_LeftShoulder/Character1_LeftArm": {
      "quat": {
        "offset": 1755,
        "frameCount": 35
      },
      "scale": {
        "offset": 1930,
        "frameCount": 1
      },
      "position": {
        "offset": 1934,
        "frameCount": 1
      }
    },
    "Character1_Reference/Character1_Hips/Character1_Spine/Character1_Spine1/Character1_Spine2/Character1_LeftShoulder/Character1_LeftArm/Character1_LeftForeArm": {
      "quat": {
        "offset": 1938,
        "frameCount": 35
      },
      "scale": {
        "offset": 2113,
        "frameCount": 1
      },
      "position": {
        "offset": 2117,
        "frameCount": 1
      }
    },
    "Character1_Reference/Character1_Hips/Character1_Spine/Character1_Spine1/Character1_Spine2/Character1_RightShoulder": {
      "quat": {
        "offset": 2121,
        "frameCount": 35
      },
      "scale": {
        "offset": 2296,
        "frameCount": 1
      },
      "position": {
        "offset": 2300,
        "frameCount": 1
      }
    },
    "Character1_Reference/Character1_Hips/Character1_Spine/Character1_Spine1/Character1_Spine2/Character1_RightShoulder/Character1_RightArm": {
      "quat": {
        "offset": 2304,
        "frameCount": 35
      },
      "scale": {
        "offset": 2479,
        "frameCount": 1
      },
      "position": {
        "offset": 2483,
        "frameCount": 1
      }
    },
    "Character1_Reference/Character1_Hips/Character1_Spine/Character1_Spine1/Character1_Spine2/Character1_RightShoulder/Character1_RightArm/Character1_RightForeArm": {
      "quat": {
        "offset": 2487,
        "frameCount": 35
      },
      "scale": {
        "offset": 2662,
        "frameCount": 1
      },
      "position": {
        "offset": 2666,
        "frameCount": 1
      }
    },
    "Character1_Reference/Character1_Hips/Character1_Spine/Character1_Spine1/Character1_Spine2/Character1_Neck": {
      "quat": {
        "offset": 2670,
        "frameCount": 35
      },
      "scale": {
        "offset": 2845,
        "frameCount": 1
      },
      "position": {
        "offset": 2849,
        "frameCount": 1
      }
    },
    "Character1_Reference/Character1_Hips": {
      "quat": {
        "offset": 2853,
        "frameCount": 1
      },
      "scale": {
        "offset": 2858,
        "frameCount": 1
      },
      "position": {
        "offset": 2862,
        "frameCount": 1
      }
    },
    "Character1_Reference/Character1_Hips/Character1_LeftUpLeg/Character1_LeftLeg/Character1_LeftFoot": {
      "quat": {
        "offset": 2866,
        "frameCount": 1
      },
      "scale": {
        "offset": 2871,
        "frameCount": 1
      },
      "position": {
        "offset": 2875,
        "frameCount": 1
      }
    },
    "Character1_Reference/Character1_Hips/Character1_RightUpLeg/Character1_RightLeg/Character1_RightFoot": {
      "quat": {
        "offset": 2879,
        "frameCount": 1
      },
      "scale": {
        "offset": 2884,
        "frameCount": 1
      },
      "position": {
        "offset": 2888,
        "frameCount": 1
      }
    },
    "Character1_Reference/Character1_Hips/Character1_Spine/Character1_Spine1/Character1_Spine2/Character1_LeftShoulder/Character1_LeftArm/Character1_LeftForeArm/Character1_LeftHand": {
      "quat": {
        "offset": 2892,
        "frameCount": 1
      },
      "scale": {
        "offset": 2897,
        "frameCount": 1
      },
      "position": {
        "offset": 2901,
        "frameCount": 1
      }
    },
    "Character1_Reference/Character1_Hips/Character1_Spine/Character1_Spine1/Character1_Spine2/Character1_RightShoulder/Character1_RightArm/Character1_RightForeArm/Character1_RightHand": {
      "quat": {
        "offset": 2905,
        "frameCount": 1
      },
      "scale": {
        "offset": 2910,
        "frameCount": 1
      },
      "position": {
        "offset": 2914,
        "frameCount": 1
      }
    },
    "Character1_Reference/Character1_Hips/Character1_Spine/Character1_Spine1/Character1_Spine2/Character1_Neck/Character1_Head": {
      "quat": {
        "offset": 2918,
        "frameCount": 1
      },
      "scale": {
        "offset": 2923,
        "frameCount": 1
      },
      "position": {
        "offset": 2927,
        "frameCount": 1
      }
    },
    "stickman_new": {
      "quat": {
        "offset": 2931,
        "frameCount": 1
      },
      "scale": {
        "offset": 2936,
        "frameCount": 1
      },
      "position": {
        "offset": 2940,
        "frameCount": 1
      }
    }
  }
}