{
  "__type__": "cc.SpriteFrame",
  "content": {
    "name": "icon_skin_rob",
    "texture": "32e65b0d-9e83-4f73-ace7-817f5a50c38a",
    "atlas": "",
    "rect": [
      4,
      4,
      208,
      215
    ],
    "offset": [
      -2,
      -1.5
    ],
    "originalSize": [
      220,
      220
    ],
    "capInsets": [
      0,
      0,
      0,
      0
    ]
  }
}