{
  "__type__": "cc.Skeleton",
  "_name": "",
  "_objFlags": 0,
  "_native": "",
  "_model": {
    "__uuid__": "f7f35354-793c-4e47-a3d0-55e4b78be5e4"
  },
  "_jointIndices": [
    37,
    38,
    39,
    40,
    41,
    42,
    43,
    44,
    45
  ],
  "_skinIndex": 1
}