{
  "__type__": "cc.SkeletonAnimationClip",
  "_name": "Armature|rob_win_3",
  "_objFlags": 0,
  "_native": ".bin",
  "_duration": 5.958333492279053,
  "sample": 30,
  "speed": 1,
  "wrapMode": 2,
  "events": [],
  "description": {
    "Armature/belly": {
      "position": {
        "offset": 0,
        "frameCount": 39
      },
      "quat": {
        "offset": 156,
        "frameCount": 130
      },
      "scale": {
        "offset": 806,
        "frameCount": 1
      }
    },
    "Armature/belly/torso": {
      "quat": {
        "offset": 810,
        "frameCount": 132
      },
      "scale": {
        "offset": 1470,
        "frameCount": 1
      },
      "position": {
        "offset": 1474,
        "frameCount": 1
      }
    },
    "Armature/belly/torso/head": {
      "quat": {
        "offset": 1478,
        "frameCount": 138
      },
      "scale": {
        "offset": 2168,
        "frameCount": 1
      },
      "position": {
        "offset": 2172,
        "frameCount": 1
      }
    },
    "Armature/belly/torso/arm_up.L": {
      "quat": {
        "offset": 2176,
        "frameCount": 92
      },
      "scale": {
        "offset": 2636,
        "frameCount": 1
      },
      "position": {
        "offset": 2640,
        "frameCount": 1
      }
    },
    "Armature/belly/torso/arm_up.L/arm_down.L": {
      "quat": {
        "offset": 2644,
        "frameCount": 36
      },
      "scale": {
        "offset": 2824,
        "frameCount": 1
      },
      "position": {
        "offset": 2828,
        "frameCount": 1
      }
    },
    "Armature/belly/torso/arm_up.L/arm_down.L/hand.L": {
      "quat": {
        "offset": 2832,
        "frameCount": 36
      },
      "scale": {
        "offset": 3012,
        "frameCount": 1
      },
      "position": {
        "offset": 3016,
        "frameCount": 1
      }
    },
    "Armature/belly/torso/arm_up.R": {
      "quat": {
        "offset": 3020,
        "frameCount": 88
      },
      "scale": {
        "offset": 3460,
        "frameCount": 1
      },
      "position": {
        "offset": 3464,
        "frameCount": 1
      }
    },
    "Armature/belly/torso/arm_up.R/arm_down.R": {
      "quat": {
        "offset": 3468,
        "frameCount": 36
      },
      "scale": {
        "offset": 3648,
        "frameCount": 1
      },
      "position": {
        "offset": 3652,
        "frameCount": 1
      }
    },
    "Armature/belly/torso/arm_up.R/arm_down.R/hand.R": {
      "quat": {
        "offset": 3656,
        "frameCount": 36
      },
      "scale": {
        "offset": 3836,
        "frameCount": 1
      },
      "position": {
        "offset": 3840,
        "frameCount": 1
      }
    },
    "Armature/belly/leg_up.L": {
      "quat": {
        "offset": 3844,
        "frameCount": 144
      },
      "scale": {
        "offset": 4564,
        "frameCount": 1
      },
      "position": {
        "offset": 4568,
        "frameCount": 1
      }
    },
    "Armature/belly/leg_up.L/leg_down.L": {
      "quat": {
        "offset": 4572,
        "frameCount": 144
      },
      "scale": {
        "offset": 5292,
        "frameCount": 1
      },
      "position": {
        "offset": 5296,
        "frameCount": 1
      }
    },
    "Armature/belly/leg_up.L/leg_down.L/foot.L": {
      "quat": {
        "offset": 5300,
        "frameCount": 143
      },
      "scale": {
        "offset": 6015,
        "frameCount": 1
      },
      "position": {
        "offset": 6019,
        "frameCount": 1
      }
    },
    "Armature/belly/leg_up.R": {
      "quat": {
        "offset": 6023,
        "frameCount": 144
      },
      "scale": {
        "offset": 6743,
        "frameCount": 1
      },
      "position": {
        "offset": 6747,
        "frameCount": 1
      }
    },
    "Armature/belly/leg_up.R/leg_down.R": {
      "quat": {
        "offset": 6751,
        "frameCount": 144
      },
      "scale": {
        "offset": 7471,
        "frameCount": 1
      },
      "position": {
        "offset": 7475,
        "frameCount": 1
      }
    },
    "Armature/belly/leg_up.R/leg_down.R/foot.R": {
      "quat": {
        "offset": 7479,
        "frameCount": 144
      },
      "scale": {
        "offset": 8199,
        "frameCount": 1
      },
      "position": {
        "offset": 8203,
        "frameCount": 1
      }
    },
    "Armature/ik_pole.L": {
      "position": {
        "offset": 8207,
        "frameCount": 2
      },
      "quat": {
        "offset": 8215,
        "frameCount": 1
      },
      "scale": {
        "offset": 8220,
        "frameCount": 1
      }
    },
    "Armature/ik_foot.L": {
      "position": {
        "offset": 8224,
        "frameCount": 8
      },
      "quat": {
        "offset": 8256,
        "frameCount": 27
      },
      "scale": {
        "offset": 8391,
        "frameCount": 1
      }
    },
    "Armature/ik_pole.R": {
      "position": {
        "offset": 8395,
        "frameCount": 2
      },
      "quat": {
        "offset": 8403,
        "frameCount": 1
      },
      "scale": {
        "offset": 8408,
        "frameCount": 1
      }
    },
    "Armature/ik_foot.R": {
      "position": {
        "offset": 8412,
        "frameCount": 8
      },
      "quat": {
        "offset": 8444,
        "frameCount": 27
      },
      "scale": {
        "offset": 8579,
        "frameCount": 1
      }
    },
    "rob": {
      "quat": {
        "offset": 8583,
        "frameCount": 1
      },
      "scale": {
        "offset": 8588,
        "frameCount": 1
      },
      "position": {
        "offset": 8592,
        "frameCount": 1
      }
    },
    "Armature": {
      "quat": {
        "offset": 8596,
        "frameCount": 1
      },
      "scale": {
        "offset": 8601,
        "frameCount": 1
      },
      "position": {
        "offset": 8605,
        "frameCount": 1
      }
    },
    "Armature/belly/torso/head/hair": {
      "quat": {
        "offset": 8609,
        "frameCount": 1
      },
      "scale": {
        "offset": 8614,
        "frameCount": 1
      },
      "position": {
        "offset": 8618,
        "frameCount": 1
      }
    },
    "Armature/belly/torso/arm_up.L/arm_down.L/hand.L/wep.L": {
      "quat": {
        "offset": 8622,
        "frameCount": 1
      },
      "scale": {
        "offset": 8627,
        "frameCount": 1
      },
      "position": {
        "offset": 8631,
        "frameCount": 1
      }
    },
    "Armature/belly/torso/arm_up.R/arm_down.R/hand.R/wep.R": {
      "quat": {
        "offset": 8635,
        "frameCount": 1
      },
      "scale": {
        "offset": 8640,
        "frameCount": 1
      },
      "position": {
        "offset": 8644,
        "frameCount": 1
      }
    }
  }
}