{
  "__type__": "cc.SpriteFrame",
  "content": {
    "name": "TamDanTim",
    "texture": "36002ccf-f9b2-4b84-be23-91b7c8fc8a27",
    "atlas": "",
    "rect": [
      3,
      0,
      160,
      434
    ],
    "offset": [
      0,
      0
    ],
    "originalSize": [
      166,
      434
    ],
    "capInsets": [
      0,
      0,
      0,
      0
    ]
  }
}