{
  "__type__": "cc.SpriteFrame",
  "content": {
    "name": "skin_noob",
    "texture": "dae1f138-918d-49cf-82c2-46377f48e645",
    "atlas": "",
    "rect": [
      0,
      0,
      320,
      320
    ],
    "offset": [
      0,
      0
    ],
    "originalSize": [
      320,
      320
    ],
    "capInsets": [
      0,
      0,
      0,
      0
    ]
  }
}