{
  "__type__": "cc.SpriteFrame",
  "content": {
    "name": "Weapon",
    "texture": "92679091-c7b1-4d7c-9c54-f9f0fcc39116",
    "atlas": "",
    "rect": [
      0,
      1,
      186,
      165
    ],
    "offset": [
      0,
      -0.5
    ],
    "originalSize": [
      186,
      166
    ],
    "capInsets": [
      0,
      0,
      0,
      0
    ]
  }
}