{
  "__type__": "cc.Material",
  "_name": "",
  "_objFlags": 0,
  "_native": "",
  "_effectAsset": {
    "__uuid__": "abc2cb62-7852-4525-a90d-d474487b88f2"
  },
  "_techniqueIndex": 0,
  "_techniqueData": {
    "0": {
      "props": {
        "diffuseColor": {
          "__type__": "cc.Color",
          "r": 32,
          "g": 32,
          "b": 32,
          "a": 255
        },
        "emissiveColor": {
          "__type__": "cc.Color",
          "r": 221,
          "g": 221,
          "b": 221,
          "a": 255
        },
        "specularColor": {
          "__type__": "cc.Color",
          "r": 255,
          "g": 255,
          "b": 255,
          "a": 255
        },
        "diffuseTexture": {
          "__uuid__": "763f6e88-77c6-4336-bc12-135dcc771b11"
        },
        "emissiveTexture": {
          "__uuid__": "763f6e88-77c6-4336-bc12-135dcc771b11"
        }
      },
      "defines": {
        "USE_DIFFUSE_TEXTURE": true,
        "INPUT_IS_GAMMA": false,
        "OUTPUT_TO_GAMMA": false,
        "USE_SPECULAR": false,
        "USE_SPECULAR_TEXTURE": true,
        "USE_EMISSIVE": true,
        "USE_EMISSIVE_TEXTURE": true,
        "USE_NORMAL_TEXTURE": false
      }
    }
  }
}