{
  "__type__": "cc.SkeletonAnimationClip",
  "_name": "Attack",
  "_objFlags": 0,
  "_native": ".bin",
  "_duration": 1,
  "sample": 30,
  "speed": 1,
  "wrapMode": 2,
  "events": [],
  "description": {
    "Character1_Reference": {
      "position": {
        "offset": 0,
        "frameCount": 25
      },
      "quat": {
        "offset": 100,
        "frameCount": 25
      },
      "scale": {
        "offset": 225,
        "frameCount": 1
      }
    },
    "Character1_Reference/Character1_Hips/Character1_LeftUpLeg": {
      "quat": {
        "offset": 229,
        "frameCount": 25
      },
      "scale": {
        "offset": 354,
        "frameCount": 1
      },
      "position": {
        "offset": 358,
        "frameCount": 1
      }
    },
    "Character1_Reference/Character1_Hips/Character1_LeftUpLeg/Character1_LeftLeg": {
      "quat": {
        "offset": 362,
        "frameCount": 25
      },
      "scale": {
        "offset": 487,
        "frameCount": 1
      },
      "position": {
        "offset": 491,
        "frameCount": 1
      }
    },
    "Character1_Reference/Character1_Hips/Character1_RightUpLeg": {
      "quat": {
        "offset": 495,
        "frameCount": 25
      },
      "scale": {
        "offset": 620,
        "frameCount": 1
      },
      "position": {
        "offset": 624,
        "frameCount": 1
      }
    },
    "Character1_Reference/Character1_Hips/Character1_RightUpLeg/Character1_RightLeg": {
      "quat": {
        "offset": 628,
        "frameCount": 25
      },
      "scale": {
        "offset": 753,
        "frameCount": 1
      },
      "position": {
        "offset": 757,
        "frameCount": 1
      }
    },
    "Character1_Reference/Character1_Hips/Character1_Spine": {
      "quat": {
        "offset": 761,
        "frameCount": 25
      },
      "scale": {
        "offset": 886,
        "frameCount": 1
      },
      "position": {
        "offset": 890,
        "frameCount": 1
      }
    },
    "Character1_Reference/Character1_Hips/Character1_Spine/Character1_Spine1": {
      "quat": {
        "offset": 894,
        "frameCount": 25
      },
      "scale": {
        "offset": 1019,
        "frameCount": 1
      },
      "position": {
        "offset": 1023,
        "frameCount": 1
      }
    },
    "Character1_Reference/Character1_Hips/Character1_Spine/Character1_Spine1/Character1_Spine2": {
      "quat": {
        "offset": 1027,
        "frameCount": 25
      },
      "scale": {
        "offset": 1152,
        "frameCount": 1
      },
      "position": {
        "offset": 1156,
        "frameCount": 1
      }
    },
    "Character1_Reference/Character1_Hips/Character1_Spine/Character1_Spine1/Character1_Spine2/Character1_LeftShoulder": {
      "quat": {
        "offset": 1160,
        "frameCount": 20
      },
      "scale": {
        "offset": 1260,
        "frameCount": 1
      },
      "position": {
        "offset": 1264,
        "frameCount": 1
      }
    },
    "Character1_Reference/Character1_Hips/Character1_Spine/Character1_Spine1/Character1_Spine2/Character1_LeftShoulder/Character1_LeftArm": {
      "position": {
        "offset": 1268,
        "frameCount": 8
      },
      "quat": {
        "offset": 1300,
        "frameCount": 25
      },
      "scale": {
        "offset": 1425,
        "frameCount": 1
      }
    },
    "Character1_Reference/Character1_Hips/Character1_Spine/Character1_Spine1/Character1_Spine2/Character1_LeftShoulder/Character1_LeftArm/Character1_LeftForeArm": {
      "position": {
        "offset": 1429,
        "frameCount": 8
      },
      "quat": {
        "offset": 1461,
        "frameCount": 22
      },
      "scale": {
        "offset": 1571,
        "frameCount": 1
      }
    },
    "Character1_Reference/Character1_Hips/Character1_Spine/Character1_Spine1/Character1_Spine2/Character1_LeftShoulder/Character1_LeftArm/Character1_LeftForeArm/Character1_LeftHand": {
      "quat": {
        "offset": 1575,
        "frameCount": 24
      },
      "scale": {
        "offset": 1695,
        "frameCount": 1
      },
      "position": {
        "offset": 1699,
        "frameCount": 1
      }
    },
    "Character1_Reference/Character1_Hips/Character1_Spine/Character1_Spine1/Character1_Spine2/Character1_RightShoulder": {
      "quat": {
        "offset": 1703,
        "frameCount": 23
      },
      "scale": {
        "offset": 1818,
        "frameCount": 1
      },
      "position": {
        "offset": 1822,
        "frameCount": 1
      }
    },
    "Character1_Reference/Character1_Hips/Character1_Spine/Character1_Spine1/Character1_Spine2/Character1_RightShoulder/Character1_RightArm": {
      "position": {
        "offset": 1826,
        "frameCount": 8
      },
      "quat": {
        "offset": 1858,
        "frameCount": 25
      },
      "scale": {
        "offset": 1983,
        "frameCount": 1
      }
    },
    "Character1_Reference/Character1_Hips/Character1_Spine/Character1_Spine1/Character1_Spine2/Character1_RightShoulder/Character1_RightArm/Character1_RightForeArm": {
      "position": {
        "offset": 1987,
        "frameCount": 7
      },
      "quat": {
        "offset": 2015,
        "frameCount": 25
      },
      "scale": {
        "offset": 2140,
        "frameCount": 1
      }
    },
    "Character1_Reference/Character1_Hips/Character1_Spine/Character1_Spine1/Character1_Spine2/Character1_RightShoulder/Character1_RightArm/Character1_RightForeArm/Character1_RightHand": {
      "quat": {
        "offset": 2144,
        "frameCount": 24
      },
      "scale": {
        "offset": 2264,
        "frameCount": 1
      },
      "position": {
        "offset": 2268,
        "frameCount": 1
      }
    },
    "Character1_Reference/Character1_Hips/Character1_Spine/Character1_Spine1/Character1_Spine2/Character1_Neck": {
      "quat": {
        "offset": 2272,
        "frameCount": 25
      },
      "scale": {
        "offset": 2397,
        "frameCount": 1
      },
      "position": {
        "offset": 2401,
        "frameCount": 1
      }
    },
    "Character1_Reference/Character1_Hips": {
      "quat": {
        "offset": 2405,
        "frameCount": 1
      },
      "scale": {
        "offset": 2410,
        "frameCount": 1
      },
      "position": {
        "offset": 2414,
        "frameCount": 1
      }
    },
    "Character1_Reference/Character1_Hips/Character1_LeftUpLeg/Character1_LeftLeg/Character1_LeftFoot": {
      "quat": {
        "offset": 2418,
        "frameCount": 1
      },
      "scale": {
        "offset": 2423,
        "frameCount": 1
      },
      "position": {
        "offset": 2427,
        "frameCount": 1
      }
    },
    "Character1_Reference/Character1_Hips/Character1_RightUpLeg/Character1_RightLeg/Character1_RightFoot": {
      "quat": {
        "offset": 2431,
        "frameCount": 1
      },
      "scale": {
        "offset": 2436,
        "frameCount": 1
      },
      "position": {
        "offset": 2440,
        "frameCount": 1
      }
    },
    "Character1_Reference/Character1_Hips/Character1_Spine/Character1_Spine1/Character1_Spine2/Character1_LeftShoulder/Character1_LeftArm/Character1_LeftForeArm/Character1_LeftHand/weapon_claw": {
      "quat": {
        "offset": 2444,
        "frameCount": 1
      },
      "scale": {
        "offset": 2449,
        "frameCount": 1
      },
      "position": {
        "offset": 2453,
        "frameCount": 1
      }
    },
    "Character1_Reference/Character1_Hips/Character1_Spine/Character1_Spine1/Character1_Spine2/Character1_RightShoulder/Character1_RightArm/Character1_RightForeArm/Character1_RightHand/weapon_claw1": {
      "quat": {
        "offset": 2457,
        "frameCount": 1
      },
      "scale": {
        "offset": 2462,
        "frameCount": 1
      },
      "position": {
        "offset": 2466,
        "frameCount": 1
      }
    },
    "Character1_Reference/Character1_Hips/Character1_Spine/Character1_Spine1/Character1_Spine2/Character1_Neck/Character1_Head": {
      "quat": {
        "offset": 2470,
        "frameCount": 1
      },
      "scale": {
        "offset": 2475,
        "frameCount": 1
      },
      "position": {
        "offset": 2479,
        "frameCount": 1
      }
    },
    "stickman_new": {
      "quat": {
        "offset": 2483,
        "frameCount": 1
      },
      "scale": {
        "offset": 2488,
        "frameCount": 1
      },
      "position": {
        "offset": 2492,
        "frameCount": 1
      }
    }
  }
}