{
  "__type__": "cc.SkeletonAnimationClip",
  "_name": "Armature|gunner_attack",
  "_objFlags": 0,
  "_native": ".bin",
  "_duration": 0.6666666865348816,
  "sample": 30,
  "speed": 1,
  "wrapMode": 2,
  "events": [],
  "description": {
    "Armature/belly": {
      "position": {
        "offset": 0,
        "frameCount": 8
      },
      "quat": {
        "offset": 32,
        "frameCount": 10
      },
      "scale": {
        "offset": 82,
        "frameCount": 1
      }
    },
    "Armature/belly/torso": {
      "quat": {
        "offset": 86,
        "frameCount": 16
      },
      "scale": {
        "offset": 166,
        "frameCount": 1
      },
      "position": {
        "offset": 170,
        "frameCount": 1
      }
    },
    "Armature/belly/torso/head": {
      "quat": {
        "offset": 174,
        "frameCount": 16
      },
      "scale": {
        "offset": 254,
        "frameCount": 1
      },
      "position": {
        "offset": 258,
        "frameCount": 1
      }
    },
    "Armature/belly/torso/arm_up.L": {
      "quat": {
        "offset": 262,
        "frameCount": 17
      },
      "scale": {
        "offset": 347,
        "frameCount": 1
      },
      "position": {
        "offset": 351,
        "frameCount": 1
      }
    },
    "Armature/belly/torso/arm_up.L/arm_down.L": {
      "quat": {
        "offset": 355,
        "frameCount": 10
      },
      "scale": {
        "offset": 405,
        "frameCount": 1
      },
      "position": {
        "offset": 409,
        "frameCount": 1
      }
    },
    "Armature/belly/torso/arm_up.L/arm_down.L/hand.L": {
      "quat": {
        "offset": 413,
        "frameCount": 10
      },
      "scale": {
        "offset": 463,
        "frameCount": 1
      },
      "position": {
        "offset": 467,
        "frameCount": 1
      }
    },
    "Armature/belly/torso/arm_up.R": {
      "quat": {
        "offset": 471,
        "frameCount": 15
      },
      "scale": {
        "offset": 546,
        "frameCount": 1
      },
      "position": {
        "offset": 550,
        "frameCount": 1
      }
    },
    "Armature/belly/torso/arm_up.R/arm_down.R": {
      "quat": {
        "offset": 554,
        "frameCount": 17
      },
      "scale": {
        "offset": 639,
        "frameCount": 1
      },
      "position": {
        "offset": 643,
        "frameCount": 1
      }
    },
    "Armature/belly/torso/arm_up.R/arm_down.R/hand.R": {
      "quat": {
        "offset": 647,
        "frameCount": 17
      },
      "scale": {
        "offset": 732,
        "frameCount": 1
      },
      "position": {
        "offset": 736,
        "frameCount": 1
      }
    },
    "Armature/belly/leg_up.L": {
      "quat": {
        "offset": 740,
        "frameCount": 17
      },
      "scale": {
        "offset": 825,
        "frameCount": 1
      },
      "position": {
        "offset": 829,
        "frameCount": 1
      }
    },
    "Armature/belly/leg_up.L/leg_down.L": {
      "quat": {
        "offset": 833,
        "frameCount": 17
      },
      "scale": {
        "offset": 918,
        "frameCount": 1
      },
      "position": {
        "offset": 922,
        "frameCount": 1
      }
    },
    "Armature/belly/leg_up.L/leg_down.L/foot.L": {
      "quat": {
        "offset": 926,
        "frameCount": 17
      },
      "scale": {
        "offset": 1011,
        "frameCount": 1
      },
      "position": {
        "offset": 1015,
        "frameCount": 1
      }
    },
    "Armature/belly/leg_up.R": {
      "quat": {
        "offset": 1019,
        "frameCount": 17
      },
      "scale": {
        "offset": 1104,
        "frameCount": 1
      },
      "position": {
        "offset": 1108,
        "frameCount": 1
      }
    },
    "Armature/belly/leg_up.R/leg_down.R": {
      "quat": {
        "offset": 1112,
        "frameCount": 17
      },
      "scale": {
        "offset": 1197,
        "frameCount": 1
      },
      "position": {
        "offset": 1201,
        "frameCount": 1
      }
    },
    "Armature/belly/leg_up.R/leg_down.R/foot.R": {
      "quat": {
        "offset": 1205,
        "frameCount": 17
      },
      "scale": {
        "offset": 1290,
        "frameCount": 1
      },
      "position": {
        "offset": 1294,
        "frameCount": 1
      }
    },
    "Armature/ik_pole.L": {
      "position": {
        "offset": 1298,
        "frameCount": 7
      },
      "quat": {
        "offset": 1326,
        "frameCount": 1
      },
      "scale": {
        "offset": 1331,
        "frameCount": 1
      }
    },
    "Armature/ik_foot.L": {
      "quat": {
        "offset": 1335,
        "frameCount": 10
      },
      "scale": {
        "offset": 1385,
        "frameCount": 1
      },
      "position": {
        "offset": 1389,
        "frameCount": 1
      }
    },
    "Armature/ik_pole.R": {
      "position": {
        "offset": 1393,
        "frameCount": 8
      },
      "quat": {
        "offset": 1425,
        "frameCount": 1
      },
      "scale": {
        "offset": 1430,
        "frameCount": 1
      }
    },
    "Armature/ik_foot.R": {
      "position": {
        "offset": 1434,
        "frameCount": 9
      },
      "quat": {
        "offset": 1470,
        "frameCount": 10
      },
      "scale": {
        "offset": 1520,
        "frameCount": 1
      }
    },
    "rob": {
      "quat": {
        "offset": 1524,
        "frameCount": 1
      },
      "scale": {
        "offset": 1529,
        "frameCount": 1
      },
      "position": {
        "offset": 1533,
        "frameCount": 1
      }
    },
    "Armature": {
      "quat": {
        "offset": 1537,
        "frameCount": 1
      },
      "scale": {
        "offset": 1542,
        "frameCount": 1
      },
      "position": {
        "offset": 1546,
        "frameCount": 1
      }
    },
    "Armature/belly/torso/head/hair": {
      "quat": {
        "offset": 1550,
        "frameCount": 1
      },
      "scale": {
        "offset": 1555,
        "frameCount": 1
      },
      "position": {
        "offset": 1559,
        "frameCount": 1
      }
    },
    "Armature/belly/torso/arm_up.L/arm_down.L/hand.L/wep.L": {
      "quat": {
        "offset": 1563,
        "frameCount": 1
      },
      "scale": {
        "offset": 1568,
        "frameCount": 1
      },
      "position": {
        "offset": 1572,
        "frameCount": 1
      }
    },
    "Armature/belly/torso/arm_up.R/arm_down.R/hand.R/wep.R": {
      "quat": {
        "offset": 1576,
        "frameCount": 1
      },
      "scale": {
        "offset": 1581,
        "frameCount": 1
      },
      "position": {
        "offset": 1585,
        "frameCount": 1
      }
    },
    "Armature/belly/torso/arm_up.R/arm_down.R/hand.R/wep.R/glock": {
      "quat": {
        "offset": 1589,
        "frameCount": 1
      },
      "scale": {
        "offset": 1594,
        "frameCount": 1
      },
      "position": {
        "offset": 1598,
        "frameCount": 1
      }
    },
    "Armature/belly/torso/arm_up.R/arm_down.R/hand.R/wep.R/steampunk_gun": {
      "quat": {
        "offset": 1602,
        "frameCount": 1
      },
      "scale": {
        "offset": 1607,
        "frameCount": 1
      },
      "position": {
        "offset": 1611,
        "frameCount": 1
      }
    },
    "Armature/belly/torso/arm_up.R/arm_down.R/hand.R/wep.R/alien_gun": {
      "quat": {
        "offset": 1615,
        "frameCount": 1
      },
      "scale": {
        "offset": 1620,
        "frameCount": 1
      },
      "position": {
        "offset": 1624,
        "frameCount": 1
      }
    },
    "Armature/belly/torso/arm_up.R/arm_down.R/hand.R/wep.R/cowboy_gun": {
      "quat": {
        "offset": 1628,
        "frameCount": 1
      },
      "scale": {
        "offset": 1633,
        "frameCount": 1
      },
      "position": {
        "offset": 1637,
        "frameCount": 1
      }
    },
    "Armature/belly/torso/arm_up.R/arm_down.R/hand.R/wep.R/gun": {
      "quat": {
        "offset": 1641,
        "frameCount": 1
      },
      "scale": {
        "offset": 1646,
        "frameCount": 1
      },
      "position": {
        "offset": 1650,
        "frameCount": 1
      }
    },
    "Armature/belly/torso/arm_up.R/arm_down.R/hand.R/wep.R/gun_laze": {
      "quat": {
        "offset": 1654,
        "frameCount": 1
      },
      "scale": {
        "offset": 1659,
        "frameCount": 1
      },
      "position": {
        "offset": 1663,
        "frameCount": 1
      }
    },
    "Armature/belly/torso/arm_up.R/arm_down.R/hand.R/wep.R/gun1": {
      "quat": {
        "offset": 1667,
        "frameCount": 1
      },
      "scale": {
        "offset": 1672,
        "frameCount": 1
      },
      "position": {
        "offset": 1676,
        "frameCount": 1
      }
    },
    "Armature/belly/torso/arm_up.R/arm_down.R/hand.R/wep.R/gun2": {
      "quat": {
        "offset": 1680,
        "frameCount": 1
      },
      "scale": {
        "offset": 1685,
        "frameCount": 1
      },
      "position": {
        "offset": 1689,
        "frameCount": 1
      }
    },
    "Armature/belly/torso/arm_up.R/arm_down.R/hand.R/wep.R/gun3": {
      "quat": {
        "offset": 1693,
        "frameCount": 1
      },
      "scale": {
        "offset": 1698,
        "frameCount": 1
      },
      "position": {
        "offset": 1702,
        "frameCount": 1
      }
    },
    "Armature/belly/torso/arm_up.R/arm_down.R/hand.R/wep.R/gun4": {
      "quat": {
        "offset": 1706,
        "frameCount": 1
      },
      "scale": {
        "offset": 1711,
        "frameCount": 1
      },
      "position": {
        "offset": 1715,
        "frameCount": 1
      }
    },
    "Armature/belly/torso/arm_up.R/arm_down.R/hand.R/wep.R/gun5": {
      "quat": {
        "offset": 1719,
        "frameCount": 1
      },
      "scale": {
        "offset": 1724,
        "frameCount": 1
      },
      "position": {
        "offset": 1728,
        "frameCount": 1
      }
    },
    "Armature/belly/torso/arm_up.R/arm_down.R/hand.R/wep.R/gun6": {
      "quat": {
        "offset": 1732,
        "frameCount": 1
      },
      "scale": {
        "offset": 1737,
        "frameCount": 1
      },
      "position": {
        "offset": 1741,
        "frameCount": 1
      }
    },
    "Armature/belly/torso/arm_up.R/arm_down.R/hand.R/wep.R/gun7": {
      "quat": {
        "offset": 1745,
        "frameCount": 1
      },
      "scale": {
        "offset": 1750,
        "frameCount": 1
      },
      "position": {
        "offset": 1754,
        "frameCount": 1
      }
    },
    "Armature/belly/torso/arm_up.R/arm_down.R/hand.R/wep.R/nerf_gun": {
      "quat": {
        "offset": 1758,
        "frameCount": 1
      },
      "scale": {
        "offset": 1763,
        "frameCount": 1
      },
      "position": {
        "offset": 1767,
        "frameCount": 1
      }
    },
    "Armature/belly/torso/arm_up.R/arm_down.R/hand.R/wep.R/pistola": {
      "quat": {
        "offset": 1771,
        "frameCount": 1
      },
      "scale": {
        "offset": 1776,
        "frameCount": 1
      },
      "position": {
        "offset": 1780,
        "frameCount": 1
      }
    }
  }
}