{
  "__type__": "cc.SpriteFrame",
  "content": {
    "name": "weapon-texture",
    "texture": "65050b6c-8af1-4d31-970e-47caa165818b",
    "atlas": "",
    "rect": [
      0,
      0,
      1024,
      1024
    ],
    "offset": [
      0,
      0
    ],
    "originalSize": [
      1024,
      1024
    ],
    "capInsets": [
      0,
      0,
      0,
      0
    ]
  }
}